  0.6889257955E-01   0.000000000     : is =    1, ia =    1, ip =    1
  0.4597391093       0.000000000     : is =    1, ia =    1, ip =    2
 -0.6889257955E-01   0.000000000     : is =    1, ia =    1, ip =    3
  0.4950241869E-01   0.000000000     : is =    1, ia =    2, ip =    1
 -0.2064817230       0.000000000     : is =    1, ia =    2, ip =    2
 -0.4950241869E-01   0.000000000     : is =    1, ia =    2, ip =    3
