 -0.6905719616E-01   0.000000000     : is =    1, ia =    1, ip =    1
 -0.6905719616E-01   0.000000000     : is =    1, ia =    1, ip =    2
  0.4596547202       0.000000000     : is =    1, ia =    1, ip =    3
 -0.4966250406E-01   0.000000000     : is =    1, ia =    2, ip =    1
 -0.4966250406E-01   0.000000000     : is =    1, ia =    2, ip =    2
 -0.2061717743       0.000000000     : is =    1, ia =    2, ip =    3
