 -0.4937491489E-01   0.000000000     : is =    1, ia =    1, ip =    1
 -0.4937491489E-01   0.000000000     : is =    1, ia =    1, ip =    2
 -0.2060656271       0.000000000     : is =    1, ia =    1, ip =    3
 -0.6858355311E-01   0.000000000     : is =    1, ia =    2, ip =    1
 -0.6858355311E-01   0.000000000     : is =    1, ia =    2, ip =    2
  0.4600654690       0.000000000     : is =    1, ia =    2, ip =    3
