 -0.4921771166E-01   0.000000000     : is =    1, ia =    1, ip =    1
  0.4921771166E-01   0.000000000     : is =    1, ia =    1, ip =    2
 -0.2059286148       0.000000000     : is =    1, ia =    1, ip =    3
 -0.6892426050E-01   0.000000000     : is =    1, ia =    2, ip =    1
  0.6892426050E-01   0.000000000     : is =    1, ia =    2, ip =    2
  0.4599648959       0.000000000     : is =    1, ia =    2, ip =    3
