  48 : nsymcrys
 
Crystal symmetry, Bravais symmetry :    1   1
 inverse operations		     :    1   1
 spatial rotation and inverse (lattice coordinates):
   1   0   0        1   0   0
   0   1   0        0   1   0
   0   0   1        0   0   1
 spatial rotation and inverse (Cartesian coordinates):
   1.000000000       0.000000000       0.000000000            1.000000000       0.000000000       0.000000000    
   0.000000000       1.000000000       0.000000000            0.000000000       1.000000000       0.000000000    
   0.000000000       0.000000000       1.000000000            0.000000000       0.000000000       1.000000000    
 spatial translation and inverse (lattice coordinates) :
   0.000000000       0.000000000       0.000000000            0.000000000       0.000000000       0.000000000    
 spatial translation and inverse (Cartesian coordinates) :
   0.000000000       0.000000000       0.000000000            0.000000000       0.000000000       0.000000000    
 global spin rotation and inverse (lattice coordinates) :
   1   0   0        1   0   0
   0   1   0        0   1   0
   0   0   1        0   0   1
 global spin rotation and inverse (Cartesian coordinates) :
   1.000000000       0.000000000       0.000000000            1.000000000       0.000000000       0.000000000    
   0.000000000       1.000000000       0.000000000            0.000000000       1.000000000       0.000000000    
   0.000000000       0.000000000       1.000000000            0.000000000       0.000000000       1.000000000    
 
Crystal symmetry, Bravais symmetry :    2   2
 inverse operations		     :    7  25
 spatial rotation and inverse (lattice coordinates):
  -1  -1  -1        0   0   1
   0   0   1       -1  -1  -1
   1   0   0        0   1   0
 spatial rotation and inverse (Cartesian coordinates):
  -1.000000000       0.000000000       0.000000000           -1.000000000       0.000000000       0.000000000    
   0.000000000       0.000000000      -1.000000000            0.000000000       0.000000000       1.000000000    
   0.000000000       1.000000000       0.000000000            0.000000000      -1.000000000       0.000000000    
 spatial translation and inverse (lattice coordinates) :
   0.000000000       0.000000000       0.000000000            0.000000000       0.000000000       0.000000000    
 spatial translation and inverse (Cartesian coordinates) :
   0.000000000       0.000000000       0.000000000            0.000000000       0.000000000       0.000000000    
 global spin rotation and inverse (lattice coordinates) :
   1   0   0        1   0   0
   0   1   0        0   1   0
   0   0   1        0   0   1
 global spin rotation and inverse (Cartesian coordinates) :
   1.000000000       0.000000000       0.000000000            1.000000000       0.000000000       0.000000000    
   0.000000000       1.000000000       0.000000000            0.000000000       1.000000000       0.000000000    
   0.000000000       0.000000000       1.000000000            0.000000000       0.000000000       1.000000000    
 
Crystal symmetry, Bravais symmetry :    3   3
 inverse operations		     :    3   3
 spatial rotation and inverse (lattice coordinates):
  -1  -1  -1       -1  -1  -1
   0   1   0        0   1   0
   0   0   1        0   0   1
 spatial rotation and inverse (Cartesian coordinates):
   0.000000000      -1.000000000       0.000000000            0.000000000      -1.000000000       0.000000000    
  -1.000000000       0.000000000       0.000000000           -1.000000000       0.000000000       0.000000000    
   0.000000000       0.000000000       1.000000000            0.000000000       0.000000000       1.000000000    
 spatial translation and inverse (lattice coordinates) :
   0.000000000       0.000000000       0.000000000            0.000000000       0.000000000       0.000000000    
 spatial translation and inverse (Cartesian coordinates) :
   0.000000000       0.000000000       0.000000000            0.000000000       0.000000000       0.000000000    
 global spin rotation and inverse (lattice coordinates) :
   1   0   0        1   0   0
   0   1   0        0   1   0
   0   0   1        0   0   1
 global spin rotation and inverse (Cartesian coordinates) :
   1.000000000       0.000000000       0.000000000            1.000000000       0.000000000       0.000000000    
   0.000000000       1.000000000       0.000000000            0.000000000       1.000000000       0.000000000    
   0.000000000       0.000000000       1.000000000            0.000000000       0.000000000       1.000000000    
 
Crystal symmetry, Bravais symmetry :    4   4
 inverse operations		     :    9  27
 spatial rotation and inverse (lattice coordinates):
  -1  -1  -1        0   0   1
   0   1   0        0   1   0
   1   0   0       -1  -1  -1
 spatial rotation and inverse (Cartesian coordinates):
   0.000000000      -1.000000000       0.000000000            0.000000000       0.000000000       1.000000000    
   0.000000000       0.000000000      -1.000000000           -1.000000000       0.000000000       0.000000000    
   1.000000000       0.000000000       0.000000000            0.000000000      -1.000000000       0.000000000    
 spatial translation and inverse (lattice coordinates) :
   0.000000000       0.000000000       0.000000000            0.000000000       0.000000000       0.000000000    
 spatial translation and inverse (Cartesian coordinates) :
   0.000000000       0.000000000       0.000000000            0.000000000       0.000000000       0.000000000    
 global spin rotation and inverse (lattice coordinates) :
   1   0   0        1   0   0
   0   1   0        0   1   0
   0   0   1        0   0   1
 global spin rotation and inverse (Cartesian coordinates) :
   1.000000000       0.000000000       0.000000000            1.000000000       0.000000000       0.000000000    
   0.000000000       1.000000000       0.000000000            0.000000000       1.000000000       0.000000000    
   0.000000000       0.000000000       1.000000000            0.000000000       0.000000000       1.000000000    
 
Crystal symmetry, Bravais symmetry :    5   5
 inverse operations		     :   13  31
 spatial rotation and inverse (lattice coordinates):
  -1  -1  -1        0   1   0
   1   0   0       -1  -1  -1
   0   0   1        0   0   1
 spatial rotation and inverse (Cartesian coordinates):
   0.000000000       0.000000000      -1.000000000            0.000000000      -1.000000000       0.000000000    
  -1.000000000       0.000000000       0.000000000            0.000000000       0.000000000       1.000000000    
   0.000000000       1.000000000       0.000000000           -1.000000000       0.000000000       0.000000000    
 spatial translation and inverse (lattice coordinates) :
   0.000000000       0.000000000       0.000000000            0.000000000       0.000000000       0.000000000    
 spatial translation and inverse (Cartesian coordinates) :
   0.000000000       0.000000000       0.000000000            0.000000000       0.000000000       0.000000000    
 global spin rotation and inverse (lattice coordinates) :
   1   0   0        1   0   0
   0   1   0        0   1   0
   0   0   1        0   0   1
 global spin rotation and inverse (Cartesian coordinates) :
   1.000000000       0.000000000       0.000000000            1.000000000       0.000000000       0.000000000    
   0.000000000       1.000000000       0.000000000            0.000000000       1.000000000       0.000000000    
   0.000000000       0.000000000       1.000000000            0.000000000       0.000000000       1.000000000    
 
Crystal symmetry, Bravais symmetry :    6   6
 inverse operations		     :   15  33
 spatial rotation and inverse (lattice coordinates):
  -1  -1  -1        0   1   0
   1   0   0        0   0   1
   0   1   0       -1  -1  -1
 spatial rotation and inverse (Cartesian coordinates):
   0.000000000       0.000000000      -1.000000000            0.000000000       0.000000000       1.000000000    
   0.000000000      -1.000000000       0.000000000            0.000000000      -1.000000000       0.000000000    
   1.000000000       0.000000000       0.000000000           -1.000000000       0.000000000       0.000000000    
 spatial translation and inverse (lattice coordinates) :
   0.000000000       0.000000000       0.000000000            0.000000000       0.000000000       0.000000000    
 spatial translation and inverse (Cartesian coordinates) :
   0.000000000       0.000000000       0.000000000            0.000000000       0.000000000       0.000000000    
 global spin rotation and inverse (lattice coordinates) :
   1   0   0        1   0   0
   0   1   0        0   1   0
   0   0   1        0   0   1
 global spin rotation and inverse (Cartesian coordinates) :
   1.000000000       0.000000000       0.000000000            1.000000000       0.000000000       0.000000000    
   0.000000000       1.000000000       0.000000000            0.000000000       1.000000000       0.000000000    
   0.000000000       0.000000000       1.000000000            0.000000000       0.000000000       1.000000000    
 
Crystal symmetry, Bravais symmetry :    7  25
 inverse operations		     :    2   2
 spatial rotation and inverse (lattice coordinates):
   0   0   1       -1  -1  -1
  -1  -1  -1        0   0   1
   0   1   0        1   0   0
 spatial rotation and inverse (Cartesian coordinates):
  -1.000000000       0.000000000       0.000000000           -1.000000000       0.000000000       0.000000000    
   0.000000000       0.000000000       1.000000000            0.000000000       0.000000000      -1.000000000    
   0.000000000      -1.000000000       0.000000000            0.000000000       1.000000000       0.000000000    
 spatial translation and inverse (lattice coordinates) :
   0.000000000       0.000000000       0.000000000            0.000000000       0.000000000       0.000000000    
 spatial translation and inverse (Cartesian coordinates) :
   0.000000000       0.000000000       0.000000000            0.000000000       0.000000000       0.000000000    
 global spin rotation and inverse (lattice coordinates) :
   1   0   0        1   0   0
   0   1   0        0   1   0
   0   0   1        0   0   1
 global spin rotation and inverse (Cartesian coordinates) :
   1.000000000       0.000000000       0.000000000            1.000000000       0.000000000       0.000000000    
   0.000000000       1.000000000       0.000000000            0.000000000       1.000000000       0.000000000    
   0.000000000       0.000000000       1.000000000            0.000000000       0.000000000       1.000000000    
 
Crystal symmetry, Bravais symmetry :    8  26
 inverse operations		     :    8  26
 spatial rotation and inverse (lattice coordinates):
   0   0   1        0   0   1
  -1  -1  -1       -1  -1  -1
   1   0   0        1   0   0
 spatial rotation and inverse (Cartesian coordinates):
  -1.000000000       0.000000000       0.000000000           -1.000000000       0.000000000       0.000000000    
   0.000000000       1.000000000       0.000000000            0.000000000       1.000000000       0.000000000    
   0.000000000       0.000000000      -1.000000000            0.000000000       0.000000000      -1.000000000    
 spatial translation and inverse (lattice coordinates) :
   0.000000000       0.000000000       0.000000000            0.000000000       0.000000000       0.000000000    
 spatial translation and inverse (Cartesian coordinates) :
   0.000000000       0.000000000       0.000000000            0.000000000       0.000000000       0.000000000    
 global spin rotation and inverse (lattice coordinates) :
   1   0   0        1   0   0
   0   1   0        0   1   0
   0   0   1        0   0   1
 global spin rotation and inverse (Cartesian coordinates) :
   1.000000000       0.000000000       0.000000000            1.000000000       0.000000000       0.000000000    
   0.000000000       1.000000000       0.000000000            0.000000000       1.000000000       0.000000000    
   0.000000000       0.000000000       1.000000000            0.000000000       0.000000000       1.000000000    
 
Crystal symmetry, Bravais symmetry :    9  27
 inverse operations		     :    4   4
 spatial rotation and inverse (lattice coordinates):
   0   0   1       -1  -1  -1
   0   1   0        0   1   0
  -1  -1  -1        1   0   0
 spatial rotation and inverse (Cartesian coordinates):
   0.000000000       0.000000000       1.000000000            0.000000000      -1.000000000       0.000000000    
  -1.000000000       0.000000000       0.000000000            0.000000000       0.000000000      -1.000000000    
   0.000000000      -1.000000000       0.000000000            1.000000000       0.000000000       0.000000000    
 spatial translation and inverse (lattice coordinates) :
   0.000000000       0.000000000       0.000000000            0.000000000       0.000000000       0.000000000    
 spatial translation and inverse (Cartesian coordinates) :
   0.000000000       0.000000000       0.000000000            0.000000000       0.000000000       0.000000000    
 global spin rotation and inverse (lattice coordinates) :
   1   0   0        1   0   0
   0   1   0        0   1   0
   0   0   1        0   0   1
 global spin rotation and inverse (Cartesian coordinates) :
   1.000000000       0.000000000       0.000000000            1.000000000       0.000000000       0.000000000    
   0.000000000       1.000000000       0.000000000            0.000000000       1.000000000       0.000000000    
   0.000000000       0.000000000       1.000000000            0.000000000       0.000000000       1.000000000    
 
Crystal symmetry, Bravais symmetry :   10  28
 inverse operations		     :   10  28
 spatial rotation and inverse (lattice coordinates):
   0   0   1        0   0   1
   0   1   0        0   1   0
   1   0   0        1   0   0
 spatial rotation and inverse (Cartesian coordinates):
   0.000000000       0.000000000       1.000000000            0.000000000       0.000000000       1.000000000    
   0.000000000       1.000000000       0.000000000            0.000000000       1.000000000       0.000000000    
   1.000000000       0.000000000       0.000000000            1.000000000       0.000000000       0.000000000    
 spatial translation and inverse (lattice coordinates) :
   0.000000000       0.000000000       0.000000000            0.000000000       0.000000000       0.000000000    
 spatial translation and inverse (Cartesian coordinates) :
   0.000000000       0.000000000       0.000000000            0.000000000       0.000000000       0.000000000    
 global spin rotation and inverse (lattice coordinates) :
   1   0   0        1   0   0
   0   1   0        0   1   0
   0   0   1        0   0   1
 global spin rotation and inverse (Cartesian coordinates) :
   1.000000000       0.000000000       0.000000000            1.000000000       0.000000000       0.000000000    
   0.000000000       1.000000000       0.000000000            0.000000000       1.000000000       0.000000000    
   0.000000000       0.000000000       1.000000000            0.000000000       0.000000000       1.000000000    
 
Crystal symmetry, Bravais symmetry :   11  29
 inverse operations		     :   14  32
 spatial rotation and inverse (lattice coordinates):
   0   0   1        0   1   0
   1   0   0       -1  -1  -1
  -1  -1  -1        1   0   0
 spatial rotation and inverse (Cartesian coordinates):
   0.000000000       1.000000000       0.000000000            0.000000000      -1.000000000       0.000000000    
  -1.000000000       0.000000000       0.000000000            1.000000000       0.000000000       0.000000000    
   0.000000000       0.000000000      -1.000000000            0.000000000       0.000000000      -1.000000000    
 spatial translation and inverse (lattice coordinates) :
   0.000000000       0.000000000       0.000000000            0.000000000       0.000000000       0.000000000    
 spatial translation and inverse (Cartesian coordinates) :
   0.000000000       0.000000000       0.000000000            0.000000000       0.000000000       0.000000000    
 global spin rotation and inverse (lattice coordinates) :
   1   0   0        1   0   0
   0   1   0        0   1   0
   0   0   1        0   0   1
 global spin rotation and inverse (Cartesian coordinates) :
   1.000000000       0.000000000       0.000000000            1.000000000       0.000000000       0.000000000    
   0.000000000       1.000000000       0.000000000            0.000000000       1.000000000       0.000000000    
   0.000000000       0.000000000       1.000000000            0.000000000       0.000000000       1.000000000    
 
Crystal symmetry, Bravais symmetry :   12  30
 inverse operations		     :   16  34
 spatial rotation and inverse (lattice coordinates):
   0   0   1        0   1   0
   1   0   0        0   0   1
   0   1   0        1   0   0
 spatial rotation and inverse (Cartesian coordinates):
   0.000000000       1.000000000       0.000000000            0.000000000       0.000000000       1.000000000    
   0.000000000       0.000000000       1.000000000            1.000000000       0.000000000       0.000000000    
   1.000000000       0.000000000       0.000000000            0.000000000       1.000000000       0.000000000    
 spatial translation and inverse (lattice coordinates) :
   0.000000000       0.000000000       0.000000000            0.000000000       0.000000000       0.000000000    
 spatial translation and inverse (Cartesian coordinates) :
   0.000000000       0.000000000       0.000000000            0.000000000       0.000000000       0.000000000    
 global spin rotation and inverse (lattice coordinates) :
   1   0   0        1   0   0
   0   1   0        0   1   0
   0   0   1        0   0   1
 global spin rotation and inverse (Cartesian coordinates) :
   1.000000000       0.000000000       0.000000000            1.000000000       0.000000000       0.000000000    
   0.000000000       1.000000000       0.000000000            0.000000000       1.000000000       0.000000000    
   0.000000000       0.000000000       1.000000000            0.000000000       0.000000000       1.000000000    
 
Crystal symmetry, Bravais symmetry :   13  31
 inverse operations		     :    5   5
 spatial rotation and inverse (lattice coordinates):
   0   1   0       -1  -1  -1
  -1  -1  -1        1   0   0
   0   0   1        0   0   1
 spatial rotation and inverse (Cartesian coordinates):
   0.000000000      -1.000000000       0.000000000            0.000000000       0.000000000      -1.000000000    
   0.000000000       0.000000000       1.000000000           -1.000000000       0.000000000       0.000000000    
  -1.000000000       0.000000000       0.000000000            0.000000000       1.000000000       0.000000000    
 spatial translation and inverse (lattice coordinates) :
   0.000000000       0.000000000       0.000000000            0.000000000       0.000000000       0.000000000    
 spatial translation and inverse (Cartesian coordinates) :
   0.000000000       0.000000000       0.000000000            0.000000000       0.000000000       0.000000000    
 global spin rotation and inverse (lattice coordinates) :
   1   0   0        1   0   0
   0   1   0        0   1   0
   0   0   1        0   0   1
 global spin rotation and inverse (Cartesian coordinates) :
   1.000000000       0.000000000       0.000000000            1.000000000       0.000000000       0.000000000    
   0.000000000       1.000000000       0.000000000            0.000000000       1.000000000       0.000000000    
   0.000000000       0.000000000       1.000000000            0.000000000       0.000000000       1.000000000    
 
Crystal symmetry, Bravais symmetry :   14  32
 inverse operations		     :   11  29
 spatial rotation and inverse (lattice coordinates):
   0   1   0        0   0   1
  -1  -1  -1        1   0   0
   1   0   0       -1  -1  -1
 spatial rotation and inverse (Cartesian coordinates):
   0.000000000      -1.000000000       0.000000000            0.000000000       1.000000000       0.000000000    
   1.000000000       0.000000000       0.000000000           -1.000000000       0.000000000       0.000000000    
   0.000000000       0.000000000      -1.000000000            0.000000000       0.000000000      -1.000000000    
 spatial translation and inverse (lattice coordinates) :
   0.000000000       0.000000000       0.000000000            0.000000000       0.000000000       0.000000000    
 spatial translation and inverse (Cartesian coordinates) :
   0.000000000       0.000000000       0.000000000            0.000000000       0.000000000       0.000000000    
 global spin rotation and inverse (lattice coordinates) :
   1   0   0        1   0   0
   0   1   0        0   1   0
   0   0   1        0   0   1
 global spin rotation and inverse (Cartesian coordinates) :
   1.000000000       0.000000000       0.000000000            1.000000000       0.000000000       0.000000000    
   0.000000000       1.000000000       0.000000000            0.000000000       1.000000000       0.000000000    
   0.000000000       0.000000000       1.000000000            0.000000000       0.000000000       1.000000000    
 
Crystal symmetry, Bravais symmetry :   15  33
 inverse operations		     :    6   6
 spatial rotation and inverse (lattice coordinates):
   0   1   0       -1  -1  -1
   0   0   1        1   0   0
  -1  -1  -1        0   1   0
 spatial rotation and inverse (Cartesian coordinates):
   0.000000000       0.000000000       1.000000000            0.000000000       0.000000000      -1.000000000    
   0.000000000      -1.000000000       0.000000000            0.000000000      -1.000000000       0.000000000    
  -1.000000000       0.000000000       0.000000000            1.000000000       0.000000000       0.000000000    
 spatial translation and inverse (lattice coordinates) :
   0.000000000       0.000000000       0.000000000            0.000000000       0.000000000       0.000000000    
 spatial translation and inverse (Cartesian coordinates) :
   0.000000000       0.000000000       0.000000000            0.000000000       0.000000000       0.000000000    
 global spin rotation and inverse (lattice coordinates) :
   1   0   0        1   0   0
   0   1   0        0   1   0
   0   0   1        0   0   1
 global spin rotation and inverse (Cartesian coordinates) :
   1.000000000       0.000000000       0.000000000            1.000000000       0.000000000       0.000000000    
   0.000000000       1.000000000       0.000000000            0.000000000       1.000000000       0.000000000    
   0.000000000       0.000000000       1.000000000            0.000000000       0.000000000       1.000000000    
 
Crystal symmetry, Bravais symmetry :   16  34
 inverse operations		     :   12  30
 spatial rotation and inverse (lattice coordinates):
   0   1   0        0   0   1
   0   0   1        1   0   0
   1   0   0        0   1   0
 spatial rotation and inverse (Cartesian coordinates):
   0.000000000       0.000000000       1.000000000            0.000000000       1.000000000       0.000000000    
   1.000000000       0.000000000       0.000000000            0.000000000       0.000000000       1.000000000    
   0.000000000       1.000000000       0.000000000            1.000000000       0.000000000       0.000000000    
 spatial translation and inverse (lattice coordinates) :
   0.000000000       0.000000000       0.000000000            0.000000000       0.000000000       0.000000000    
 spatial translation and inverse (Cartesian coordinates) :
   0.000000000       0.000000000       0.000000000            0.000000000       0.000000000       0.000000000    
 global spin rotation and inverse (lattice coordinates) :
   1   0   0        1   0   0
   0   1   0        0   1   0
   0   0   1        0   0   1
 global spin rotation and inverse (Cartesian coordinates) :
   1.000000000       0.000000000       0.000000000            1.000000000       0.000000000       0.000000000    
   0.000000000       1.000000000       0.000000000            0.000000000       1.000000000       0.000000000    
   0.000000000       0.000000000       1.000000000            0.000000000       0.000000000       1.000000000    
 
Crystal symmetry, Bravais symmetry :   17  35
 inverse operations		     :   17  35
 spatial rotation and inverse (lattice coordinates):
   0   1   0        0   1   0
   1   0   0        1   0   0
  -1  -1  -1       -1  -1  -1
 spatial rotation and inverse (Cartesian coordinates):
   1.000000000       0.000000000       0.000000000            1.000000000       0.000000000       0.000000000    
   0.000000000      -1.000000000       0.000000000            0.000000000      -1.000000000       0.000000000    
   0.000000000       0.000000000      -1.000000000            0.000000000       0.000000000      -1.000000000    
 spatial translation and inverse (lattice coordinates) :
   0.000000000       0.000000000       0.000000000            0.000000000       0.000000000       0.000000000    
 spatial translation and inverse (Cartesian coordinates) :
   0.000000000       0.000000000       0.000000000            0.000000000       0.000000000       0.000000000    
 global spin rotation and inverse (lattice coordinates) :
   1   0   0        1   0   0
   0   1   0        0   1   0
   0   0   1        0   0   1
 global spin rotation and inverse (Cartesian coordinates) :
   1.000000000       0.000000000       0.000000000            1.000000000       0.000000000       0.000000000    
   0.000000000       1.000000000       0.000000000            0.000000000       1.000000000       0.000000000    
   0.000000000       0.000000000       1.000000000            0.000000000       0.000000000       1.000000000    
 
Crystal symmetry, Bravais symmetry :   18  36
 inverse operations		     :   18  36
 spatial rotation and inverse (lattice coordinates):
   0   1   0        0   1   0
   1   0   0        1   0   0
   0   0   1        0   0   1
 spatial rotation and inverse (Cartesian coordinates):
   1.000000000       0.000000000       0.000000000            1.000000000       0.000000000       0.000000000    
   0.000000000       0.000000000       1.000000000            0.000000000       0.000000000       1.000000000    
   0.000000000       1.000000000       0.000000000            0.000000000       1.000000000       0.000000000    
 spatial translation and inverse (lattice coordinates) :
   0.000000000       0.000000000       0.000000000            0.000000000       0.000000000       0.000000000    
 spatial translation and inverse (Cartesian coordinates) :
   0.000000000       0.000000000       0.000000000            0.000000000       0.000000000       0.000000000    
 global spin rotation and inverse (lattice coordinates) :
   1   0   0        1   0   0
   0   1   0        0   1   0
   0   0   1        0   0   1
 global spin rotation and inverse (Cartesian coordinates) :
   1.000000000       0.000000000       0.000000000            1.000000000       0.000000000       0.000000000    
   0.000000000       1.000000000       0.000000000            0.000000000       1.000000000       0.000000000    
   0.000000000       0.000000000       1.000000000            0.000000000       0.000000000       1.000000000    
 
Crystal symmetry, Bravais symmetry :   19  37
 inverse operations		     :   19  37
 spatial rotation and inverse (lattice coordinates):
   1   0   0        1   0   0
  -1  -1  -1       -1  -1  -1
   0   0   1        0   0   1
 spatial rotation and inverse (Cartesian coordinates):
   0.000000000       0.000000000      -1.000000000            0.000000000       0.000000000      -1.000000000    
   0.000000000       1.000000000       0.000000000            0.000000000       1.000000000       0.000000000    
  -1.000000000       0.000000000       0.000000000           -1.000000000       0.000000000       0.000000000    
 spatial translation and inverse (lattice coordinates) :
   0.000000000       0.000000000       0.000000000            0.000000000       0.000000000       0.000000000    
 spatial translation and inverse (Cartesian coordinates) :
   0.000000000       0.000000000       0.000000000            0.000000000       0.000000000       0.000000000    
 global spin rotation and inverse (lattice coordinates) :
   1   0   0        1   0   0
   0   1   0        0   1   0
   0   0   1        0   0   1
 global spin rotation and inverse (Cartesian coordinates) :
   1.000000000       0.000000000       0.000000000            1.000000000       0.000000000       0.000000000    
   0.000000000       1.000000000       0.000000000            0.000000000       1.000000000       0.000000000    
   0.000000000       0.000000000       1.000000000            0.000000000       0.000000000       1.000000000    
 
Crystal symmetry, Bravais symmetry :   20  38
 inverse operations		     :   21  39
 spatial rotation and inverse (lattice coordinates):
   1   0   0        1   0   0
  -1  -1  -1        0   0   1
   0   1   0       -1  -1  -1
 spatial rotation and inverse (Cartesian coordinates):
   0.000000000       0.000000000      -1.000000000            0.000000000       1.000000000       0.000000000    
   1.000000000       0.000000000       0.000000000            0.000000000       0.000000000      -1.000000000    
   0.000000000      -1.000000000       0.000000000           -1.000000000       0.000000000       0.000000000    
 spatial translation and inverse (lattice coordinates) :
   0.000000000       0.000000000       0.000000000            0.000000000       0.000000000       0.000000000    
 spatial translation and inverse (Cartesian coordinates) :
   0.000000000       0.000000000       0.000000000            0.000000000       0.000000000       0.000000000    
 global spin rotation and inverse (lattice coordinates) :
   1   0   0        1   0   0
   0   1   0        0   1   0
   0   0   1        0   0   1
 global spin rotation and inverse (Cartesian coordinates) :
   1.000000000       0.000000000       0.000000000            1.000000000       0.000000000       0.000000000    
   0.000000000       1.000000000       0.000000000            0.000000000       1.000000000       0.000000000    
   0.000000000       0.000000000       1.000000000            0.000000000       0.000000000       1.000000000    
 
Crystal symmetry, Bravais symmetry :   21  39
 inverse operations		     :   20  38
 spatial rotation and inverse (lattice coordinates):
   1   0   0        1   0   0
   0   0   1       -1  -1  -1
  -1  -1  -1        0   1   0
 spatial rotation and inverse (Cartesian coordinates):
   0.000000000       1.000000000       0.000000000            0.000000000       0.000000000      -1.000000000    
   0.000000000       0.000000000      -1.000000000            1.000000000       0.000000000       0.000000000    
  -1.000000000       0.000000000       0.000000000            0.000000000      -1.000000000       0.000000000    
 spatial translation and inverse (lattice coordinates) :
   0.000000000       0.000000000       0.000000000            0.000000000       0.000000000       0.000000000    
 spatial translation and inverse (Cartesian coordinates) :
   0.000000000       0.000000000       0.000000000            0.000000000       0.000000000       0.000000000    
 global spin rotation and inverse (lattice coordinates) :
   1   0   0        1   0   0
   0   1   0        0   1   0
   0   0   1        0   0   1
 global spin rotation and inverse (Cartesian coordinates) :
   1.000000000       0.000000000       0.000000000            1.000000000       0.000000000       0.000000000    
   0.000000000       1.000000000       0.000000000            0.000000000       1.000000000       0.000000000    
   0.000000000       0.000000000       1.000000000            0.000000000       0.000000000       1.000000000    
 
Crystal symmetry, Bravais symmetry :   22  40
 inverse operations		     :   22  40
 spatial rotation and inverse (lattice coordinates):
   1   0   0        1   0   0
   0   0   1        0   0   1
   0   1   0        0   1   0
 spatial rotation and inverse (Cartesian coordinates):
   0.000000000       1.000000000       0.000000000            0.000000000       1.000000000       0.000000000    
   1.000000000       0.000000000       0.000000000            1.000000000       0.000000000       0.000000000    
   0.000000000       0.000000000       1.000000000            0.000000000       0.000000000       1.000000000    
 spatial translation and inverse (lattice coordinates) :
   0.000000000       0.000000000       0.000000000            0.000000000       0.000000000       0.000000000    
 spatial translation and inverse (Cartesian coordinates) :
   0.000000000       0.000000000       0.000000000            0.000000000       0.000000000       0.000000000    
 global spin rotation and inverse (lattice coordinates) :
   1   0   0        1   0   0
   0   1   0        0   1   0
   0   0   1        0   0   1
 global spin rotation and inverse (Cartesian coordinates) :
   1.000000000       0.000000000       0.000000000            1.000000000       0.000000000       0.000000000    
   0.000000000       1.000000000       0.000000000            0.000000000       1.000000000       0.000000000    
   0.000000000       0.000000000       1.000000000            0.000000000       0.000000000       1.000000000    
 
Crystal symmetry, Bravais symmetry :   23  41
 inverse operations		     :   23  41
 spatial rotation and inverse (lattice coordinates):
   1   0   0        1   0   0
   0   1   0        0   1   0
  -1  -1  -1       -1  -1  -1
 spatial rotation and inverse (Cartesian coordinates):
   1.000000000       0.000000000       0.000000000            1.000000000       0.000000000       0.000000000    
   0.000000000       0.000000000      -1.000000000            0.000000000       0.000000000      -1.000000000    
   0.000000000      -1.000000000       0.000000000            0.000000000      -1.000000000       0.000000000    
 spatial translation and inverse (lattice coordinates) :
   0.000000000       0.000000000       0.000000000            0.000000000       0.000000000       0.000000000    
 spatial translation and inverse (Cartesian coordinates) :
   0.000000000       0.000000000       0.000000000            0.000000000       0.000000000       0.000000000    
 global spin rotation and inverse (lattice coordinates) :
   1   0   0        1   0   0
   0   1   0        0   1   0
   0   0   1        0   0   1
 global spin rotation and inverse (Cartesian coordinates) :
   1.000000000       0.000000000       0.000000000            1.000000000       0.000000000       0.000000000    
   0.000000000       1.000000000       0.000000000            0.000000000       1.000000000       0.000000000    
   0.000000000       0.000000000       1.000000000            0.000000000       0.000000000       1.000000000    
 
Crystal symmetry, Bravais symmetry :   24  42
 inverse operations		     :   24  42
 spatial rotation and inverse (lattice coordinates):
  -1  -1  -1       -1  -1  -1
   0   0   1        0   0   1
   0   1   0        0   1   0
 spatial rotation and inverse (Cartesian coordinates):
  -1.000000000       0.000000000       0.000000000           -1.000000000       0.000000000       0.000000000    
   0.000000000      -1.000000000       0.000000000            0.000000000      -1.000000000       0.000000000    
   0.000000000       0.000000000       1.000000000            0.000000000       0.000000000       1.000000000    
 spatial translation and inverse (lattice coordinates) :
   0.000000000       0.000000000       0.000000000            0.000000000       0.000000000       0.000000000    
 spatial translation and inverse (Cartesian coordinates) :
   0.000000000       0.000000000       0.000000000            0.000000000       0.000000000       0.000000000    
 global spin rotation and inverse (lattice coordinates) :
   1   0   0        1   0   0
   0   1   0        0   1   0
   0   0   1        0   0   1
 global spin rotation and inverse (Cartesian coordinates) :
   1.000000000       0.000000000       0.000000000            1.000000000       0.000000000       0.000000000    
   0.000000000       1.000000000       0.000000000            0.000000000       1.000000000       0.000000000    
   0.000000000       0.000000000       1.000000000            0.000000000       0.000000000       1.000000000    
 
Crystal symmetry, Bravais symmetry :   25   7
 inverse operations		     :   25   7
 spatial rotation and inverse (lattice coordinates):
  -1   0   0       -1   0   0
   0  -1   0        0  -1   0
   0   0  -1        0   0  -1
 spatial rotation and inverse (Cartesian coordinates):
  -1.000000000       0.000000000       0.000000000           -1.000000000       0.000000000       0.000000000    
   0.000000000      -1.000000000       0.000000000            0.000000000      -1.000000000       0.000000000    
   0.000000000       0.000000000      -1.000000000            0.000000000       0.000000000      -1.000000000    
 spatial translation and inverse (lattice coordinates) :
  0.7500000000      0.7500000000      0.7500000000           0.7500000000      0.7500000000      0.7500000000    
 spatial translation and inverse (Cartesian coordinates) :
   5.063993550       5.063993550       5.063993550            5.063993550       5.063993550       5.063993550    
 global spin rotation and inverse (lattice coordinates) :
   1   0   0        1   0   0
   0   1   0        0   1   0
   0   0   1        0   0   1
 global spin rotation and inverse (Cartesian coordinates) :
   1.000000000       0.000000000       0.000000000            1.000000000       0.000000000       0.000000000    
   0.000000000       1.000000000       0.000000000            0.000000000       1.000000000       0.000000000    
   0.000000000       0.000000000       1.000000000            0.000000000       0.000000000       1.000000000    
 
Crystal symmetry, Bravais symmetry :   26   8
 inverse operations		     :   26   8
 spatial rotation and inverse (lattice coordinates):
  -1   0   0       -1   0   0
   0  -1   0        0  -1   0
   1   1   1        1   1   1
 spatial rotation and inverse (Cartesian coordinates):
  -1.000000000       0.000000000       0.000000000           -1.000000000       0.000000000       0.000000000    
   0.000000000       0.000000000       1.000000000            0.000000000       0.000000000       1.000000000    
   0.000000000       1.000000000       0.000000000            0.000000000       1.000000000       0.000000000    
 spatial translation and inverse (lattice coordinates) :
  0.7500000000      0.7500000000      0.7500000000           0.7500000000      0.7500000000      0.7500000000    
 spatial translation and inverse (Cartesian coordinates) :
   5.063993550       5.063993550       5.063993550            5.063993550       5.063993550       5.063993550    
 global spin rotation and inverse (lattice coordinates) :
   1   0   0        1   0   0
   0   1   0        0   1   0
   0   0   1        0   0   1
 global spin rotation and inverse (Cartesian coordinates) :
   1.000000000       0.000000000       0.000000000            1.000000000       0.000000000       0.000000000    
   0.000000000       1.000000000       0.000000000            0.000000000       1.000000000       0.000000000    
   0.000000000       0.000000000       1.000000000            0.000000000       0.000000000       1.000000000    
 
Crystal symmetry, Bravais symmetry :   27   9
 inverse operations		     :   27   9
 spatial rotation and inverse (lattice coordinates):
  -1   0   0       -1   0   0
   0   0  -1        0   0  -1
   0  -1   0        0  -1   0
 spatial rotation and inverse (Cartesian coordinates):
   0.000000000      -1.000000000       0.000000000            0.000000000      -1.000000000       0.000000000    
  -1.000000000       0.000000000       0.000000000           -1.000000000       0.000000000       0.000000000    
   0.000000000       0.000000000      -1.000000000            0.000000000       0.000000000      -1.000000000    
 spatial translation and inverse (lattice coordinates) :
  0.7500000000      0.7500000000      0.7500000000           0.7500000000      0.7500000000      0.7500000000    
 spatial translation and inverse (Cartesian coordinates) :
   5.063993550       5.063993550       5.063993550            5.063993550       5.063993550       5.063993550    
 global spin rotation and inverse (lattice coordinates) :
   1   0   0        1   0   0
   0   1   0        0   1   0
   0   0   1        0   0   1
 global spin rotation and inverse (Cartesian coordinates) :
   1.000000000       0.000000000       0.000000000            1.000000000       0.000000000       0.000000000    
   0.000000000       1.000000000       0.000000000            0.000000000       1.000000000       0.000000000    
   0.000000000       0.000000000       1.000000000            0.000000000       0.000000000       1.000000000    
 
Crystal symmetry, Bravais symmetry :   28  10
 inverse operations		     :   29  11
 spatial rotation and inverse (lattice coordinates):
  -1   0   0       -1   0   0
   0   0  -1        1   1   1
   1   1   1        0  -1   0
 spatial rotation and inverse (Cartesian coordinates):
   0.000000000      -1.000000000       0.000000000            0.000000000       0.000000000       1.000000000    
   0.000000000       0.000000000       1.000000000           -1.000000000       0.000000000       0.000000000    
   1.000000000       0.000000000       0.000000000            0.000000000       1.000000000       0.000000000    
 spatial translation and inverse (lattice coordinates) :
  0.7500000000      0.7500000000      0.7500000000           0.7500000000      0.7500000000      0.7500000000    
 spatial translation and inverse (Cartesian coordinates) :
   5.063993550       5.063993550       5.063993550            5.063993550       5.063993550       5.063993550    
 global spin rotation and inverse (lattice coordinates) :
   1   0   0        1   0   0
   0   1   0        0   1   0
   0   0   1        0   0   1
 global spin rotation and inverse (Cartesian coordinates) :
   1.000000000       0.000000000       0.000000000            1.000000000       0.000000000       0.000000000    
   0.000000000       1.000000000       0.000000000            0.000000000       1.000000000       0.000000000    
   0.000000000       0.000000000       1.000000000            0.000000000       0.000000000       1.000000000    
 
Crystal symmetry, Bravais symmetry :   29  11
 inverse operations		     :   28  10
 spatial rotation and inverse (lattice coordinates):
  -1   0   0       -1   0   0
   1   1   1        0   0  -1
   0  -1   0        1   1   1
 spatial rotation and inverse (Cartesian coordinates):
   0.000000000       0.000000000       1.000000000            0.000000000      -1.000000000       0.000000000    
  -1.000000000       0.000000000       0.000000000            0.000000000       0.000000000       1.000000000    
   0.000000000       1.000000000       0.000000000            1.000000000       0.000000000       0.000000000    
 spatial translation and inverse (lattice coordinates) :
  0.7500000000      0.7500000000      0.7500000000           0.7500000000      0.7500000000      0.7500000000    
 spatial translation and inverse (Cartesian coordinates) :
   5.063993550       5.063993550       5.063993550            5.063993550       5.063993550       5.063993550    
 global spin rotation and inverse (lattice coordinates) :
   1   0   0        1   0   0
   0   1   0        0   1   0
   0   0   1        0   0   1
 global spin rotation and inverse (Cartesian coordinates) :
   1.000000000       0.000000000       0.000000000            1.000000000       0.000000000       0.000000000    
   0.000000000       1.000000000       0.000000000            0.000000000       1.000000000       0.000000000    
   0.000000000       0.000000000       1.000000000            0.000000000       0.000000000       1.000000000    
 
Crystal symmetry, Bravais symmetry :   30  12
 inverse operations		     :   30  12
 spatial rotation and inverse (lattice coordinates):
  -1   0   0       -1   0   0
   1   1   1        1   1   1
   0   0  -1        0   0  -1
 spatial rotation and inverse (Cartesian coordinates):
   0.000000000       0.000000000       1.000000000            0.000000000       0.000000000       1.000000000    
   0.000000000      -1.000000000       0.000000000            0.000000000      -1.000000000       0.000000000    
   1.000000000       0.000000000       0.000000000            1.000000000       0.000000000       0.000000000    
 spatial translation and inverse (lattice coordinates) :
  0.7500000000      0.7500000000      0.7500000000           0.7500000000      0.7500000000      0.7500000000    
 spatial translation and inverse (Cartesian coordinates) :
   5.063993550       5.063993550       5.063993550            5.063993550       5.063993550       5.063993550    
 global spin rotation and inverse (lattice coordinates) :
   1   0   0        1   0   0
   0   1   0        0   1   0
   0   0   1        0   0   1
 global spin rotation and inverse (Cartesian coordinates) :
   1.000000000       0.000000000       0.000000000            1.000000000       0.000000000       0.000000000    
   0.000000000       1.000000000       0.000000000            0.000000000       1.000000000       0.000000000    
   0.000000000       0.000000000       1.000000000            0.000000000       0.000000000       1.000000000    
 
Crystal symmetry, Bravais symmetry :   31  13
 inverse operations		     :   31  13
 spatial rotation and inverse (lattice coordinates):
   0  -1   0        0  -1   0
  -1   0   0       -1   0   0
   0   0  -1        0   0  -1
 spatial rotation and inverse (Cartesian coordinates):
  -1.000000000       0.000000000       0.000000000           -1.000000000       0.000000000       0.000000000    
   0.000000000       0.000000000      -1.000000000            0.000000000       0.000000000      -1.000000000    
   0.000000000      -1.000000000       0.000000000            0.000000000      -1.000000000       0.000000000    
 spatial translation and inverse (lattice coordinates) :
  0.7500000000      0.7500000000      0.7500000000           0.7500000000      0.7500000000      0.7500000000    
 spatial translation and inverse (Cartesian coordinates) :
   5.063993550       5.063993550       5.063993550            5.063993550       5.063993550       5.063993550    
 global spin rotation and inverse (lattice coordinates) :
   1   0   0        1   0   0
   0   1   0        0   1   0
   0   0   1        0   0   1
 global spin rotation and inverse (Cartesian coordinates) :
   1.000000000       0.000000000       0.000000000            1.000000000       0.000000000       0.000000000    
   0.000000000       1.000000000       0.000000000            0.000000000       1.000000000       0.000000000    
   0.000000000       0.000000000       1.000000000            0.000000000       0.000000000       1.000000000    
 
Crystal symmetry, Bravais symmetry :   32  14
 inverse operations		     :   32  14
 spatial rotation and inverse (lattice coordinates):
   0  -1   0        0  -1   0
  -1   0   0       -1   0   0
   1   1   1        1   1   1
 spatial rotation and inverse (Cartesian coordinates):
  -1.000000000       0.000000000       0.000000000           -1.000000000       0.000000000       0.000000000    
   0.000000000       1.000000000       0.000000000            0.000000000       1.000000000       0.000000000    
   0.000000000       0.000000000       1.000000000            0.000000000       0.000000000       1.000000000    
 spatial translation and inverse (lattice coordinates) :
  0.7500000000      0.7500000000      0.7500000000           0.7500000000      0.7500000000      0.7500000000    
 spatial translation and inverse (Cartesian coordinates) :
   5.063993550       5.063993550       5.063993550            5.063993550       5.063993550       5.063993550    
 global spin rotation and inverse (lattice coordinates) :
   1   0   0        1   0   0
   0   1   0        0   1   0
   0   0   1        0   0   1
 global spin rotation and inverse (Cartesian coordinates) :
   1.000000000       0.000000000       0.000000000            1.000000000       0.000000000       0.000000000    
   0.000000000       1.000000000       0.000000000            0.000000000       1.000000000       0.000000000    
   0.000000000       0.000000000       1.000000000            0.000000000       0.000000000       1.000000000    
 
Crystal symmetry, Bravais symmetry :   33  15
 inverse operations		     :   37  19
 spatial rotation and inverse (lattice coordinates):
   0  -1   0        0   0  -1
   0   0  -1       -1   0   0
  -1   0   0        0  -1   0
 spatial rotation and inverse (Cartesian coordinates):
   0.000000000       0.000000000      -1.000000000            0.000000000      -1.000000000       0.000000000    
  -1.000000000       0.000000000       0.000000000            0.000000000       0.000000000      -1.000000000    
   0.000000000      -1.000000000       0.000000000           -1.000000000       0.000000000       0.000000000    
 spatial translation and inverse (lattice coordinates) :
  0.7500000000      0.7500000000      0.7500000000           0.7500000000      0.7500000000      0.7500000000    
 spatial translation and inverse (Cartesian coordinates) :
   5.063993550       5.063993550       5.063993550            5.063993550       5.063993550       5.063993550    
 global spin rotation and inverse (lattice coordinates) :
   1   0   0        1   0   0
   0   1   0        0   1   0
   0   0   1        0   0   1
 global spin rotation and inverse (Cartesian coordinates) :
   1.000000000       0.000000000       0.000000000            1.000000000       0.000000000       0.000000000    
   0.000000000       1.000000000       0.000000000            0.000000000       1.000000000       0.000000000    
   0.000000000       0.000000000       1.000000000            0.000000000       0.000000000       1.000000000    
 
Crystal symmetry, Bravais symmetry :   34  16
 inverse operations		     :   43  43
 spatial rotation and inverse (lattice coordinates):
   0  -1   0        1   1   1
   0   0  -1       -1   0   0
   1   1   1        0  -1   0
 spatial rotation and inverse (Cartesian coordinates):
   0.000000000       0.000000000      -1.000000000            0.000000000       0.000000000       1.000000000    
   0.000000000       1.000000000       0.000000000            0.000000000       1.000000000       0.000000000    
   1.000000000       0.000000000       0.000000000           -1.000000000       0.000000000       0.000000000    
 spatial translation and inverse (lattice coordinates) :
  0.7500000000      0.7500000000      0.7500000000           0.7500000000      0.7500000000      0.7500000000    
 spatial translation and inverse (Cartesian coordinates) :
   5.063993550       5.063993550       5.063993550            5.063993550       5.063993550       5.063993550    
 global spin rotation and inverse (lattice coordinates) :
   1   0   0        1   0   0
   0   1   0        0   1   0
   0   0   1        0   0   1
 global spin rotation and inverse (Cartesian coordinates) :
   1.000000000       0.000000000       0.000000000            1.000000000       0.000000000       0.000000000    
   0.000000000       1.000000000       0.000000000            0.000000000       1.000000000       0.000000000    
   0.000000000       0.000000000       1.000000000            0.000000000       0.000000000       1.000000000    
 
Crystal symmetry, Bravais symmetry :   35  17
 inverse operations		     :   38  20
 spatial rotation and inverse (lattice coordinates):
   0  -1   0        0   0  -1
   1   1   1       -1   0   0
  -1   0   0        1   1   1
 spatial rotation and inverse (Cartesian coordinates):
   0.000000000       1.000000000       0.000000000            0.000000000      -1.000000000       0.000000000    
  -1.000000000       0.000000000       0.000000000            1.000000000       0.000000000       0.000000000    
   0.000000000       0.000000000       1.000000000            0.000000000       0.000000000       1.000000000    
 spatial translation and inverse (lattice coordinates) :
  0.7500000000      0.7500000000      0.7500000000           0.7500000000      0.7500000000      0.7500000000    
 spatial translation and inverse (Cartesian coordinates) :
   5.063993550       5.063993550       5.063993550            5.063993550       5.063993550       5.063993550    
 global spin rotation and inverse (lattice coordinates) :
   1   0   0        1   0   0
   0   1   0        0   1   0
   0   0   1        0   0   1
 global spin rotation and inverse (Cartesian coordinates) :
   1.000000000       0.000000000       0.000000000            1.000000000       0.000000000       0.000000000    
   0.000000000       1.000000000       0.000000000            0.000000000       1.000000000       0.000000000    
   0.000000000       0.000000000       1.000000000            0.000000000       0.000000000       1.000000000    
 
Crystal symmetry, Bravais symmetry :   36  18
 inverse operations		     :   44  44
 spatial rotation and inverse (lattice coordinates):
   0  -1   0        1   1   1
   1   1   1       -1   0   0
   0   0  -1        0   0  -1
 spatial rotation and inverse (Cartesian coordinates):
   0.000000000       1.000000000       0.000000000            0.000000000       0.000000000       1.000000000    
   0.000000000       0.000000000      -1.000000000            1.000000000       0.000000000       0.000000000    
   1.000000000       0.000000000       0.000000000            0.000000000      -1.000000000       0.000000000    
 spatial translation and inverse (lattice coordinates) :
  0.7500000000      0.7500000000      0.7500000000           0.7500000000      0.7500000000      0.7500000000    
 spatial translation and inverse (Cartesian coordinates) :
   5.063993550       5.063993550       5.063993550            5.063993550       5.063993550       5.063993550    
 global spin rotation and inverse (lattice coordinates) :
   1   0   0        1   0   0
   0   1   0        0   1   0
   0   0   1        0   0   1
 global spin rotation and inverse (Cartesian coordinates) :
   1.000000000       0.000000000       0.000000000            1.000000000       0.000000000       0.000000000    
   0.000000000       1.000000000       0.000000000            0.000000000       1.000000000       0.000000000    
   0.000000000       0.000000000       1.000000000            0.000000000       0.000000000       1.000000000    
 
Crystal symmetry, Bravais symmetry :   37  19
 inverse operations		     :   33  15
 spatial rotation and inverse (lattice coordinates):
   0   0  -1        0  -1   0
  -1   0   0        0   0  -1
   0  -1   0       -1   0   0
 spatial rotation and inverse (Cartesian coordinates):
   0.000000000      -1.000000000       0.000000000            0.000000000       0.000000000      -1.000000000    
   0.000000000       0.000000000      -1.000000000           -1.000000000       0.000000000       0.000000000    
  -1.000000000       0.000000000       0.000000000            0.000000000      -1.000000000       0.000000000    
 spatial translation and inverse (lattice coordinates) :
  0.7500000000      0.7500000000      0.7500000000           0.7500000000      0.7500000000      0.7500000000    
 spatial translation and inverse (Cartesian coordinates) :
   5.063993550       5.063993550       5.063993550            5.063993550       5.063993550       5.063993550    
 global spin rotation and inverse (lattice coordinates) :
   1   0   0        1   0   0
   0   1   0        0   1   0
   0   0   1        0   0   1
 global spin rotation and inverse (Cartesian coordinates) :
   1.000000000       0.000000000       0.000000000            1.000000000       0.000000000       0.000000000    
   0.000000000       1.000000000       0.000000000            0.000000000       1.000000000       0.000000000    
   0.000000000       0.000000000       1.000000000            0.000000000       0.000000000       1.000000000    
 
Crystal symmetry, Bravais symmetry :   38  20
 inverse operations		     :   35  17
 spatial rotation and inverse (lattice coordinates):
   0   0  -1        0  -1   0
  -1   0   0        1   1   1
   1   1   1       -1   0   0
 spatial rotation and inverse (Cartesian coordinates):
   0.000000000      -1.000000000       0.000000000            0.000000000       1.000000000       0.000000000    
   1.000000000       0.000000000       0.000000000           -1.000000000       0.000000000       0.000000000    
   0.000000000       0.000000000       1.000000000            0.000000000       0.000000000       1.000000000    
 spatial translation and inverse (lattice coordinates) :
  0.7500000000      0.7500000000      0.7500000000           0.7500000000      0.7500000000      0.7500000000    
 spatial translation and inverse (Cartesian coordinates) :
   5.063993550       5.063993550       5.063993550            5.063993550       5.063993550       5.063993550    
 global spin rotation and inverse (lattice coordinates) :
   1   0   0        1   0   0
   0   1   0        0   1   0
   0   0   1        0   0   1
 global spin rotation and inverse (Cartesian coordinates) :
   1.000000000       0.000000000       0.000000000            1.000000000       0.000000000       0.000000000    
   0.000000000       1.000000000       0.000000000            0.000000000       1.000000000       0.000000000    
   0.000000000       0.000000000       1.000000000            0.000000000       0.000000000       1.000000000    
 
Crystal symmetry, Bravais symmetry :   39  21
 inverse operations		     :   39  21
 spatial rotation and inverse (lattice coordinates):
   0   0  -1        0   0  -1
   0  -1   0        0  -1   0
  -1   0   0       -1   0   0
 spatial rotation and inverse (Cartesian coordinates):
   0.000000000       0.000000000      -1.000000000            0.000000000       0.000000000      -1.000000000    
   0.000000000      -1.000000000       0.000000000            0.000000000      -1.000000000       0.000000000    
  -1.000000000       0.000000000       0.000000000           -1.000000000       0.000000000       0.000000000    
 spatial translation and inverse (lattice coordinates) :
  0.7500000000      0.7500000000      0.7500000000           0.7500000000      0.7500000000      0.7500000000    
 spatial translation and inverse (Cartesian coordinates) :
   5.063993550       5.063993550       5.063993550            5.063993550       5.063993550       5.063993550    
 global spin rotation and inverse (lattice coordinates) :
   1   0   0        1   0   0
   0   1   0        0   1   0
   0   0   1        0   0   1
 global spin rotation and inverse (Cartesian coordinates) :
   1.000000000       0.000000000       0.000000000            1.000000000       0.000000000       0.000000000    
   0.000000000       1.000000000       0.000000000            0.000000000       1.000000000       0.000000000    
   0.000000000       0.000000000       1.000000000            0.000000000       0.000000000       1.000000000    
 
Crystal symmetry, Bravais symmetry :   40  22
 inverse operations		     :   45  45
 spatial rotation and inverse (lattice coordinates):
   0   0  -1        1   1   1
   0  -1   0        0  -1   0
   1   1   1       -1   0   0
 spatial rotation and inverse (Cartesian coordinates):
   0.000000000       0.000000000      -1.000000000            0.000000000       1.000000000       0.000000000    
   1.000000000       0.000000000       0.000000000            0.000000000       0.000000000       1.000000000    
   0.000000000       1.000000000       0.000000000           -1.000000000       0.000000000       0.000000000    
 spatial translation and inverse (lattice coordinates) :
  0.7500000000      0.7500000000      0.7500000000           0.7500000000      0.7500000000      0.7500000000    
 spatial translation and inverse (Cartesian coordinates) :
   5.063993550       5.063993550       5.063993550            5.063993550       5.063993550       5.063993550    
 global spin rotation and inverse (lattice coordinates) :
   1   0   0        1   0   0
   0   1   0        0   1   0
   0   0   1        0   0   1
 global spin rotation and inverse (Cartesian coordinates) :
   1.000000000       0.000000000       0.000000000            1.000000000       0.000000000       0.000000000    
   0.000000000       1.000000000       0.000000000            0.000000000       1.000000000       0.000000000    
   0.000000000       0.000000000       1.000000000            0.000000000       0.000000000       1.000000000    
 
Crystal symmetry, Bravais symmetry :   41  23
 inverse operations		     :   41  23
 spatial rotation and inverse (lattice coordinates):
   0   0  -1        0   0  -1
   1   1   1        1   1   1
  -1   0   0       -1   0   0
 spatial rotation and inverse (Cartesian coordinates):
   1.000000000       0.000000000       0.000000000            1.000000000       0.000000000       0.000000000    
   0.000000000      -1.000000000       0.000000000            0.000000000      -1.000000000       0.000000000    
   0.000000000       0.000000000       1.000000000            0.000000000       0.000000000       1.000000000    
 spatial translation and inverse (lattice coordinates) :
  0.7500000000      0.7500000000      0.7500000000           0.7500000000      0.7500000000      0.7500000000    
 spatial translation and inverse (Cartesian coordinates) :
   5.063993550       5.063993550       5.063993550            5.063993550       5.063993550       5.063993550    
 global spin rotation and inverse (lattice coordinates) :
   1   0   0        1   0   0
   0   1   0        0   1   0
   0   0   1        0   0   1
 global spin rotation and inverse (Cartesian coordinates) :
   1.000000000       0.000000000       0.000000000            1.000000000       0.000000000       0.000000000    
   0.000000000       1.000000000       0.000000000            0.000000000       1.000000000       0.000000000    
   0.000000000       0.000000000       1.000000000            0.000000000       0.000000000       1.000000000    
 
Crystal symmetry, Bravais symmetry :   42  24
 inverse operations		     :   47  47
 spatial rotation and inverse (lattice coordinates):
   0   0  -1        1   1   1
   1   1   1        0   0  -1
   0  -1   0       -1   0   0
 spatial rotation and inverse (Cartesian coordinates):
   1.000000000       0.000000000       0.000000000            1.000000000       0.000000000       0.000000000    
   0.000000000       0.000000000      -1.000000000            0.000000000       0.000000000       1.000000000    
   0.000000000       1.000000000       0.000000000            0.000000000      -1.000000000       0.000000000    
 spatial translation and inverse (lattice coordinates) :
  0.7500000000      0.7500000000      0.7500000000           0.7500000000      0.7500000000      0.7500000000    
 spatial translation and inverse (Cartesian coordinates) :
   5.063993550       5.063993550       5.063993550            5.063993550       5.063993550       5.063993550    
 global spin rotation and inverse (lattice coordinates) :
   1   0   0        1   0   0
   0   1   0        0   1   0
   0   0   1        0   0   1
 global spin rotation and inverse (Cartesian coordinates) :
   1.000000000       0.000000000       0.000000000            1.000000000       0.000000000       0.000000000    
   0.000000000       1.000000000       0.000000000            0.000000000       1.000000000       0.000000000    
   0.000000000       0.000000000       1.000000000            0.000000000       0.000000000       1.000000000    
 
Crystal symmetry, Bravais symmetry :   43  43
 inverse operations		     :   34  16
 spatial rotation and inverse (lattice coordinates):
   1   1   1        0  -1   0
  -1   0   0        0   0  -1
   0  -1   0        1   1   1
 spatial rotation and inverse (Cartesian coordinates):
   0.000000000       0.000000000       1.000000000            0.000000000       0.000000000      -1.000000000    
   0.000000000       1.000000000       0.000000000            0.000000000       1.000000000       0.000000000    
  -1.000000000       0.000000000       0.000000000            1.000000000       0.000000000       0.000000000    
 spatial translation and inverse (lattice coordinates) :
  0.7500000000      0.7500000000      0.7500000000           0.7500000000      0.7500000000      0.7500000000    
 spatial translation and inverse (Cartesian coordinates) :
   5.063993550       5.063993550       5.063993550            5.063993550       5.063993550       5.063993550    
 global spin rotation and inverse (lattice coordinates) :
   1   0   0        1   0   0
   0   1   0        0   1   0
   0   0   1        0   0   1
 global spin rotation and inverse (Cartesian coordinates) :
   1.000000000       0.000000000       0.000000000            1.000000000       0.000000000       0.000000000    
   0.000000000       1.000000000       0.000000000            0.000000000       1.000000000       0.000000000    
   0.000000000       0.000000000       1.000000000            0.000000000       0.000000000       1.000000000    
 
Crystal symmetry, Bravais symmetry :   44  44
 inverse operations		     :   36  18
 spatial rotation and inverse (lattice coordinates):
   1   1   1        0  -1   0
  -1   0   0        1   1   1
   0   0  -1        0   0  -1
 spatial rotation and inverse (Cartesian coordinates):
   0.000000000       0.000000000       1.000000000            0.000000000       1.000000000       0.000000000    
   1.000000000       0.000000000       0.000000000            0.000000000       0.000000000      -1.000000000    
   0.000000000      -1.000000000       0.000000000            1.000000000       0.000000000       0.000000000    
 spatial translation and inverse (lattice coordinates) :
  0.7500000000      0.7500000000      0.7500000000           0.7500000000      0.7500000000      0.7500000000    
 spatial translation and inverse (Cartesian coordinates) :
   5.063993550       5.063993550       5.063993550            5.063993550       5.063993550       5.063993550    
 global spin rotation and inverse (lattice coordinates) :
   1   0   0        1   0   0
   0   1   0        0   1   0
   0   0   1        0   0   1
 global spin rotation and inverse (Cartesian coordinates) :
   1.000000000       0.000000000       0.000000000            1.000000000       0.000000000       0.000000000    
   0.000000000       1.000000000       0.000000000            0.000000000       1.000000000       0.000000000    
   0.000000000       0.000000000       1.000000000            0.000000000       0.000000000       1.000000000    
 
Crystal symmetry, Bravais symmetry :   45  45
 inverse operations		     :   40  22
 spatial rotation and inverse (lattice coordinates):
   1   1   1        0   0  -1
   0  -1   0        0  -1   0
  -1   0   0        1   1   1
 spatial rotation and inverse (Cartesian coordinates):
   0.000000000       1.000000000       0.000000000            0.000000000       0.000000000      -1.000000000    
   0.000000000       0.000000000       1.000000000            1.000000000       0.000000000       0.000000000    
  -1.000000000       0.000000000       0.000000000            0.000000000       1.000000000       0.000000000    
 spatial translation and inverse (lattice coordinates) :
  0.7500000000      0.7500000000      0.7500000000           0.7500000000      0.7500000000      0.7500000000    
 spatial translation and inverse (Cartesian coordinates) :
   5.063993550       5.063993550       5.063993550            5.063993550       5.063993550       5.063993550    
 global spin rotation and inverse (lattice coordinates) :
   1   0   0        1   0   0
   0   1   0        0   1   0
   0   0   1        0   0   1
 global spin rotation and inverse (Cartesian coordinates) :
   1.000000000       0.000000000       0.000000000            1.000000000       0.000000000       0.000000000    
   0.000000000       1.000000000       0.000000000            0.000000000       1.000000000       0.000000000    
   0.000000000       0.000000000       1.000000000            0.000000000       0.000000000       1.000000000    
 
Crystal symmetry, Bravais symmetry :   46  46
 inverse operations		     :   46  46
 spatial rotation and inverse (lattice coordinates):
   1   1   1        1   1   1
   0  -1   0        0  -1   0
   0   0  -1        0   0  -1
 spatial rotation and inverse (Cartesian coordinates):
   0.000000000       1.000000000       0.000000000            0.000000000       1.000000000       0.000000000    
   1.000000000       0.000000000       0.000000000            1.000000000       0.000000000       0.000000000    
   0.000000000       0.000000000      -1.000000000            0.000000000       0.000000000      -1.000000000    
 spatial translation and inverse (lattice coordinates) :
  0.7500000000      0.7500000000      0.7500000000           0.7500000000      0.7500000000      0.7500000000    
 spatial translation and inverse (Cartesian coordinates) :
   5.063993550       5.063993550       5.063993550            5.063993550       5.063993550       5.063993550    
 global spin rotation and inverse (lattice coordinates) :
   1   0   0        1   0   0
   0   1   0        0   1   0
   0   0   1        0   0   1
 global spin rotation and inverse (Cartesian coordinates) :
   1.000000000       0.000000000       0.000000000            1.000000000       0.000000000       0.000000000    
   0.000000000       1.000000000       0.000000000            0.000000000       1.000000000       0.000000000    
   0.000000000       0.000000000       1.000000000            0.000000000       0.000000000       1.000000000    
 
Crystal symmetry, Bravais symmetry :   47  47
 inverse operations		     :   42  24
 spatial rotation and inverse (lattice coordinates):
   1   1   1        0   0  -1
   0   0  -1        1   1   1
  -1   0   0        0  -1   0
 spatial rotation and inverse (Cartesian coordinates):
   1.000000000       0.000000000       0.000000000            1.000000000       0.000000000       0.000000000    
   0.000000000       0.000000000       1.000000000            0.000000000       0.000000000      -1.000000000    
   0.000000000      -1.000000000       0.000000000            0.000000000       1.000000000       0.000000000    
 spatial translation and inverse (lattice coordinates) :
  0.7500000000      0.7500000000      0.7500000000           0.7500000000      0.7500000000      0.7500000000    
 spatial translation and inverse (Cartesian coordinates) :
   5.063993550       5.063993550       5.063993550            5.063993550       5.063993550       5.063993550    
 global spin rotation and inverse (lattice coordinates) :
   1   0   0        1   0   0
   0   1   0        0   1   0
   0   0   1        0   0   1
 global spin rotation and inverse (Cartesian coordinates) :
   1.000000000       0.000000000       0.000000000            1.000000000       0.000000000       0.000000000    
   0.000000000       1.000000000       0.000000000            0.000000000       1.000000000       0.000000000    
   0.000000000       0.000000000       1.000000000            0.000000000       0.000000000       1.000000000    
 
Crystal symmetry, Bravais symmetry :   48  48
 inverse operations		     :   48  48
 spatial rotation and inverse (lattice coordinates):
   1   1   1        1   1   1
   0   0  -1        0   0  -1
   0  -1   0        0  -1   0
 spatial rotation and inverse (Cartesian coordinates):
   1.000000000       0.000000000       0.000000000            1.000000000       0.000000000       0.000000000    
   0.000000000       1.000000000       0.000000000            0.000000000       1.000000000       0.000000000    
   0.000000000       0.000000000      -1.000000000            0.000000000       0.000000000      -1.000000000    
 spatial translation and inverse (lattice coordinates) :
  0.7500000000      0.7500000000      0.7500000000           0.7500000000      0.7500000000      0.7500000000    
 spatial translation and inverse (Cartesian coordinates) :
   5.063993550       5.063993550       5.063993550            5.063993550       5.063993550       5.063993550    
 global spin rotation and inverse (lattice coordinates) :
   1   0   0        1   0   0
   0   1   0        0   1   0
   0   0   1        0   0   1
 global spin rotation and inverse (Cartesian coordinates) :
   1.000000000       0.000000000       0.000000000            1.000000000       0.000000000       0.000000000    
   0.000000000       1.000000000       0.000000000            0.000000000       1.000000000       0.000000000    
   0.000000000       0.000000000       1.000000000            0.000000000       0.000000000       1.000000000    
