 -0.3390343085E-01  0.4109284398E-05 : is =    1, ia =    1, ip =    1
 -0.5033574557E-05 -0.4288138515E-01 : is =    1, ia =    1, ip =    2
 -0.1808921562      0.1380211057E-06 : is =    1, ia =    1, ip =    3
 -0.6291247855E-01 -0.1052133980E-06 : is =    1, ia =    2, ip =    1
 -0.3434548881E-05  0.2826160129E-01 : is =    1, ia =    2, ip =    2
  0.4500289173      0.1868092333E-05 : is =    1, ia =    2, ip =    3
