 -0.3058799094E-01 -0.2972641198E-01 : is =    1, ia =    1, ip =    1
 -0.3058799094E-01 -0.2972641198E-01 : is =    1, ia =    1, ip =    2
  0.5441200378      0.2647654913E-03 : is =    1, ia =    1, ip =    3
 -0.1398378997E-01  0.2469769805E-01 : is =    1, ia =    2, ip =    1
 -0.1398378997E-01  0.2469769805E-01 : is =    1, ia =    2, ip =    2
 -0.8743616758E-01  0.1079548976     : is =    1, ia =    2, ip =    3
