  0.3570626101E-01 -0.7792559231E-04 : is =    1, ia =    1, ip =    1
  0.3570626101E-01 -0.7792559231E-04 : is =    1, ia =    1, ip =    2
  0.4204015454     -0.1636572167E-03 : is =    1, ia =    1, ip =    3
 -0.1770343559E-01 -0.1747508195E-01 : is =    1, ia =    2, ip =    1
 -0.1770343559E-01 -0.1747508195E-01 : is =    1, ia =    2, ip =    2
 -0.8511749914E-01  0.2850625839     : is =    1, ia =    2, ip =    3
