 -0.5079977626E-01 -0.8265044486E-10 : is =    1, ia =    1, ip =    1
  0.5079977626E-01  0.8265045668E-10 : is =    1, ia =    1, ip =    2
 -0.2059990580     -0.1279454705E-09 : is =    1, ia =    1, ip =    3
 -0.6875743505E-01 -0.1955698816E-09 : is =    1, ia =    2, ip =    1
  0.6875743505E-01  0.1955698848E-09 : is =    1, ia =    2, ip =    2
  0.4605010612     -0.3957009487E-09 : is =    1, ia =    2, ip =    3
