 -0.2454813529E-01  0.1384331162E-01 : is =    1, ia =    1, ip =    1
 -0.7257230331E-01 -0.1617693516E-01 : is =    1, ia =    1, ip =    2
 -0.9397956444E-01  0.8970092980E-01 : is =    1, ia =    1, ip =    3
 -0.3041846526E-01 -0.2974337390E-01 : is =    1, ia =    2, ip =    1
 -0.3372045665E-01  0.1817951331E-03 : is =    1, ia =    2, ip =    2
  0.4236944291     -0.2162395228E-03 : is =    1, ia =    2, ip =    3
