  0.4236532975      0.2153791467E-03 : is =    1, ia =    1, ip =    1
  0.3367384649E-01  0.2018271238E-03 : is =    1, ia =    1, ip =    2
  0.3044646047E-01 -0.2972826243E-01 : is =    1, ia =    1, ip =    3
  0.9403396420E-01  0.8965656583E-01 : is =    1, ia =    2, ip =    1
 -0.7257739923E-01  0.1614421944E-01 : is =    1, ia =    2, ip =    2
 -0.2455378020E-01 -0.1386127389E-01 : is =    1, ia =    2, ip =    3
