  0.6291639740E-01  0.1909841396E-05 : is =    1, ia =    1, ip =    1
 -0.1226155887E-04  0.2825973031E-01 : is =    1, ia =    1, ip =    2
  0.4500281722      0.2031898979E-05 : is =    1, ia =    1, ip =    3
  0.5086774386E-05 -0.3390224209E-01 : is =    1, ia =    2, ip =    1
 -0.4287818871E-01 -0.3118802863E-05 : is =    1, ia =    2, ip =    2
  0.7922950377E-05  0.1808912485     : is =    1, ia =    2, ip =    3
