 -0.1808741327     -0.7067838906E-05 : is =    1, ia =    1, ip =    1
 -0.3388677578E-01 -0.5205537133E-05 : is =    1, ia =    1, ip =    2
  0.1528975726E-05  0.4289242102E-01 : is =    1, ia =    1, ip =    3
  0.4500254306      0.4329407156E-06 : is =    1, ia =    2, ip =    1
 -0.6293772063E-01  0.1701497493E-05 : is =    1, ia =    2, ip =    2
  0.1389943733E-05 -0.2826100240E-01 : is =    1, ia =    2, ip =    3
