 -0.3059107175E-01  0.2973484894E-01 : is =    1, ia =    1, ip =    1
  0.5441649423     -0.2632540637E-03 : is =    1, ia =    1, ip =    2
 -0.3059107175E-01  0.2973484894E-01 : is =    1, ia =    1, ip =    3
 -0.1397536496E-01 -0.2471833123E-01 : is =    1, ia =    2, ip =    1
 -0.8742583584E-01 -0.1079457685     : is =    1, ia =    2, ip =    2
 -0.1397536496E-01 -0.2471833123E-01 : is =    1, ia =    2, ip =    3
