 -0.3058618365E-01  0.2972343644E-01 : is =    1, ia =    1, ip =    1
  0.5441220110     -0.2669062279E-03 : is =    1, ia =    1, ip =    2
  0.3058618365E-01 -0.2972343644E-01 : is =    1, ia =    1, ip =    3
 -0.2467932005E-01  0.1397800858E-01 : is =    1, ia =    2, ip =    1
 -0.1079145026      0.8743484087E-01 : is =    1, ia =    2, ip =    2
  0.2467932005E-01 -0.1397800858E-01 : is =    1, ia =    2, ip =    3
