 -0.8743618412E-01 -0.1079213498     : is =    1, ia =    1, ip =    1
 -0.1397587037E-01 -0.2467364815E-01 : is =    1, ia =    1, ip =    2
 -0.1397587037E-01 -0.2467364815E-01 : is =    1, ia =    1, ip =    3
  0.5441339950     -0.2654529281E-03 : is =    1, ia =    2, ip =    1
 -0.3056769814E-01  0.2972327082E-01 : is =    1, ia =    2, ip =    2
 -0.3056769814E-01  0.2972327082E-01 : is =    1, ia =    2, ip =    3
