  0.3368991573E-01 -0.2057378149E-03 : is =    1, ia =    1, ip =    1
 -0.3047219914E-01 -0.2973074513E-01 : is =    1, ia =    1, ip =    2
  0.4236508863     -0.2164531235E-03 : is =    1, ia =    1, ip =    3
 -0.1614514384E-01  0.7259292069E-01 : is =    1, ia =    2, ip =    1
 -0.1387198214E-01 -0.2455183044E-01 : is =    1, ia =    2, ip =    2
 -0.8964649139E-01 -0.9397672837E-01 : is =    1, ia =    2, ip =    3
