  0.4203974032      0.1611053485E-03 : is =    1, ia =    1, ip =    1
  0.3572423216E-01  0.7706012598E-04 : is =    1, ia =    1, ip =    2
 -0.3572423216E-01 -0.7706012597E-04 : is =    1, ia =    1, ip =    3
 -0.2850510434      0.8512779798E-01 : is =    1, ia =    2, ip =    1
  0.1748691393E-01  0.1770388921E-01 : is =    1, ia =    2, ip =    2
 -0.1748691395E-01 -0.1770388921E-01 : is =    1, ia =    2, ip =    3
