  0.1079416534      0.8748756807E-01 : is =    1, ia =    1, ip =    1
 -0.2469208852E-01 -0.1396598356E-01 : is =    1, ia =    1, ip =    2
 -0.2469208852E-01 -0.1396598356E-01 : is =    1, ia =    1, ip =    3
  0.5441580530      0.2657766005E-03 : is =    1, ia =    2, ip =    1
  0.3057237396E-01  0.2972110121E-01 : is =    1, ia =    2, ip =    2
  0.3057237396E-01  0.2972110121E-01 : is =    1, ia =    2, ip =    3
