  0.5441259907      0.2641162530E-03 : is =    1, ia =    1, ip =    1
 -0.3059141699E-01 -0.2972735193E-01 : is =    1, ia =    1, ip =    2
 -0.3059141699E-01 -0.2972735193E-01 : is =    1, ia =    1, ip =    3
 -0.8741803238E-01  0.1079507450     : is =    1, ia =    2, ip =    1
 -0.1399491810E-01  0.2469187878E-01 : is =    1, ia =    2, ip =    2
 -0.1399491810E-01  0.2469187878E-01 : is =    1, ia =    2, ip =    3
