 -0.7257900749E-01  0.1616987780E-01 : is =    1, ia =    1, ip =    1
 -0.2454037671E-01 -0.1385269695E-01 : is =    1, ia =    1, ip =    2
  0.9398849452E-01  0.8969609629E-01 : is =    1, ia =    1, ip =    3
  0.3373636392E-01  0.1809540127E-03 : is =    1, ia =    2, ip =    1
  0.3046386410E-01 -0.2974224502E-01 : is =    1, ia =    2, ip =    2
  0.4236936720      0.2187318334E-03 : is =    1, ia =    2, ip =    3
