 -0.1795221166      0.1795119780     : is =    1, ia =    1, ip =    1
 -0.4010479059E-01 -0.4010995543E-01 : is =    1, ia =    1, ip =    2
   0.000000000       0.000000000     : is =    1, ia =    1, ip =    3
  0.3858544532     -0.7934482366E-06 : is =    1, ia =    2, ip =    1
  0.2514975685E-05  0.8420166581E-04 : is =    1, ia =    2, ip =    2
   0.000000000       0.000000000     : is =    1, ia =    2, ip =    3
