 -0.4455606344E-01  0.4320760638E-05 : is =    1, ia =    1, ip =    1
 -0.9084442499E-05 -0.1946584468     : is =    1, ia =    1, ip =    2
 -0.4455606344E-01  0.4320760638E-05 : is =    1, ia =    1, ip =    3
 -0.1341419837E-05  0.2949200338E-01 : is =    1, ia =    2, ip =    1
  0.4604893859      0.1343673047E-05 : is =    1, ia =    2, ip =    2
 -0.1341419837E-05  0.2949200338E-01 : is =    1, ia =    2, ip =    3
