 -0.8744888404E-01  0.1079478159     : is =    1, ia =    1, ip =    1
 -0.1397478114E-01  0.2469858779E-01 : is =    1, ia =    1, ip =    2
 -0.1397478114E-01  0.2469858779E-01 : is =    1, ia =    1, ip =    3
  0.5441795022      0.2621454809E-03 : is =    1, ia =    2, ip =    1
 -0.3055332494E-01 -0.2973387665E-01 : is =    1, ia =    2, ip =    2
 -0.3055332494E-01 -0.2973387665E-01 : is =    1, ia =    2, ip =    3
