 -0.8377430845E-05 -0.1946663258     : is =    1, ia =    1, ip =    1
 -0.4455367259E-01  0.7266449838E-05 : is =    1, ia =    1, ip =    2
 -0.4455367259E-01  0.7266449838E-05 : is =    1, ia =    1, ip =    3
  0.4604937940     -0.2503275015E-06 : is =    1, ia =    2, ip =    1
  0.1295142346E-04  0.2949268324E-01 : is =    1, ia =    2, ip =    2
  0.1295142346E-04  0.2949268324E-01 : is =    1, ia =    2, ip =    3
