 -0.8964862196E-01  0.9399279700E-01 : is =    1, ia =    1, ip =    1
 -0.1385658507E-01  0.2457940054E-01 : is =    1, ia =    1, ip =    2
 -0.1614178071E-01 -0.7258047585E-01 : is =    1, ia =    1, ip =    3
  0.4236659788      0.2149073399E-03 : is =    1, ia =    2, ip =    1
 -0.3045212079E-01  0.2972810177E-01 : is =    1, ia =    2, ip =    2
  0.3371317811E-01  0.2035880383E-03 : is =    1, ia =    2, ip =    3
