 -0.2454206507E-01 -0.1383938493E-01 : is =    1, ia =    1, ip =    1
 -0.9395134450E-01 -0.8964433699E-01 : is =    1, ia =    1, ip =    2
 -0.7260368528E-01  0.1617449679E-01 : is =    1, ia =    1, ip =    3
 -0.3051155215E-01  0.2973792831E-01 : is =    1, ia =    2, ip =    1
  0.4236808431      0.2211935686E-03 : is =    1, ia =    2, ip =    2
 -0.3372252385E-01 -0.2180524999E-03 : is =    1, ia =    2, ip =    3
