 -0.3573692688E-01 -0.7781601599E-04 : is =    1, ia =    1, ip =    1
  0.4203986613      0.1624158982E-03 : is =    1, ia =    1, ip =    2
 -0.3573692692E-01 -0.7781601599E-04 : is =    1, ia =    1, ip =    3
 -0.1748009416E-01 -0.1771505029E-01 : is =    1, ia =    2, ip =    1
 -0.2850315404      0.8514634046E-01 : is =    1, ia =    2, ip =    2
 -0.1748009412E-01 -0.1771505030E-01 : is =    1, ia =    2, ip =    3
