  0.3371630242E-01  0.2199852323E-03 : is =    1, ia =    1, ip =    1
 -0.3048766549E-01  0.2973955811E-01 : is =    1, ia =    1, ip =    2
  0.4236646751      0.2219617889E-03 : is =    1, ia =    1, ip =    3
 -0.1617134753E-01 -0.7262025369E-01 : is =    1, ia =    2, ip =    1
 -0.1385155866E-01  0.2452759074E-01 : is =    1, ia =    2, ip =    2
 -0.8964060419E-01  0.9394828930E-01 : is =    1, ia =    2, ip =    3
