  0.1430644333E-04  0.6119402367E-01 : is =    1, ia =    1, ip =    1
  0.5059459423     -0.2746611638E-05 : is =    1, ia =    1, ip =    2
   0.000000000       0.000000000     : is =    1, ia =    1, ip =    3
   0.000000000       0.000000000     : is =    1, ia =    2, ip =    1
   0.000000000       0.000000000     : is =    1, ia =    2, ip =    2
 -0.4076638155E-01 -0.4077038995E-01 : is =    1, ia =    2, ip =    3
