 -0.3048975075E-01 -0.2973827148E-01 : is =    1, ia =    1, ip =    1
  0.4236598950     -0.2188270548E-03 : is =    1, ia =    1, ip =    2
 -0.3374377164E-01  0.2150400818E-03 : is =    1, ia =    1, ip =    3
 -0.2455678960E-01  0.1383919575E-01 : is =    1, ia =    2, ip =    1
 -0.9394713568E-01  0.8964551296E-01 : is =    1, ia =    2, ip =    2
 -0.7260862228E-01 -0.1617546628E-01 : is =    1, ia =    2, ip =    3
