  0.3570969772E-01  0.9292268774E-04 : is =    1, ia =    1, ip =    1
  0.3570969772E-01  0.9292268774E-04 : is =    1, ia =    1, ip =    2
  0.4204384765      0.1601170471E-03 : is =    1, ia =    1, ip =    3
 -0.1770063469E-01  0.1744919765E-01 : is =    1, ia =    2, ip =    1
 -0.1770063469E-01  0.1744919765E-01 : is =    1, ia =    2, ip =    2
 -0.8514015473E-01 -0.2850866478     : is =    1, ia =    2, ip =    3
