 -0.4012797934E-01  0.4013314902E-01 : is =    1, ia =    1, ip =    1
 -0.1794915659     -0.1794814217     : is =    1, ia =    1, ip =    2
   0.000000000       0.000000000     : is =    1, ia =    1, ip =    3
  0.2514994562E-05 -0.1145272978E-03 : is =    1, ia =    2, ip =    1
  0.3857997418      0.7901342099E-06 : is =    1, ia =    2, ip =    2
   0.000000000       0.000000000     : is =    1, ia =    2, ip =    3
