  0.3055861248E-01  0.2972206960E-01 : is =    1, ia =    1, ip =    1
 -0.3055861248E-01 -0.2972206960E-01 : is =    1, ia =    1, ip =    2
  0.5441465849      0.2663578670E-03 : is =    1, ia =    1, ip =    3
  0.2471495172E-01  0.1397096911E-01 : is =    1, ia =    2, ip =    1
 -0.2471495172E-01 -0.1397096911E-01 : is =    1, ia =    2, ip =    2
 -0.1079262717     -0.8749013659E-01 : is =    1, ia =    2, ip =    3
