 -0.9396323055E-01 -0.8965338150E-01 : is =    1, ia =    1, ip =    1
  0.2453915988E-01  0.1384396094E-01 : is =    1, ia =    1, ip =    2
 -0.7259343717E-01  0.1618344222E-01 : is =    1, ia =    1, ip =    3
  0.4236804187      0.2206479787E-03 : is =    1, ia =    2, ip =    1
  0.3047984998E-01 -0.2973829866E-01 : is =    1, ia =    2, ip =    2
 -0.3371222780E-01 -0.2181152299E-03 : is =    1, ia =    2, ip =    3
