  0.2060295104     -0.5510921772E-09 : is =    1, ia =    1, ip =    1
 -0.5079022912E-01  0.1022075690E-09 : is =    1, ia =    1, ip =    2
 -0.5079022912E-01  0.1022075849E-09 : is =    1, ia =    1, ip =    3
  0.4605133790     -0.6005179524E-09 : is =    1, ia =    2, ip =    1
  0.6876680330E-01  0.1829549017E-09 : is =    1, ia =    2, ip =    2
  0.6876680331E-01  0.1829549122E-09 : is =    1, ia =    2, ip =    3
