  0.1233684326E-04 -0.2823123322E-01 : is =    1, ia =    1, ip =    1
  0.4500208430      0.1241723255E-05 : is =    1, ia =    1, ip =    2
 -0.6291330967E-01  0.5780729465E-06 : is =    1, ia =    1, ip =    3
  0.1200430029E-05  0.4284234102E-01 : is =    1, ia =    2, ip =    1
 -0.1809105849     -0.2269126748E-05 : is =    1, ia =    2, ip =    2
 -0.3388610699E-01 -0.5887876949E-05 : is =    1, ia =    2, ip =    3
