 -0.5079022909E-01  0.1022075622E-09 : is =    1, ia =    1, ip =    1
  0.2060295104     -0.5510921804E-09 : is =    1, ia =    1, ip =    2
 -0.5079022911E-01  0.1022075488E-09 : is =    1, ia =    1, ip =    3
  0.6876680333E-01  0.1829548712E-09 : is =    1, ia =    2, ip =    1
  0.4605133790     -0.6005179644E-09 : is =    1, ia =    2, ip =    2
  0.6876680332E-01  0.1829548620E-09 : is =    1, ia =    2, ip =    3
