   0.000000000       0.000000000     : is =    1, ia =    1, ip =    1
 -0.1218028796      0.2782254738E-08 : is =    1, ia =    1, ip =    2
   0.000000000       0.000000000     : is =    1, ia =    1, ip =    3
   0.000000000       0.000000000     : is =    1, ia =    2, ip =    1
   0.000000000       0.000000000     : is =    1, ia =    2, ip =    2
  0.3983811793     -0.2972663961E-08 : is =    1, ia =    2, ip =    3
