  0.3321176677E-05 -0.2824334860E-01 : is =    1, ia =    1, ip =    1
  0.4500279256      0.1909561167E-05 : is =    1, ia =    1, ip =    2
  0.6288063308E-01  0.6736816242E-06 : is =    1, ia =    1, ip =    3
 -0.4287318733E-01  0.7960357828E-06 : is =    1, ia =    2, ip =    1
  0.1001543180E-05 -0.1809241540     : is =    1, ia =    2, ip =    2
  0.3199853031E-06  0.3388865785E-01 : is =    1, ia =    2, ip =    3
