 -0.5079977630E-01 -0.8265043404E-10 : is =    1, ia =    1, ip =    1
 -0.2059990579     -0.1279454941E-09 : is =    1, ia =    1, ip =    2
  0.5079977629E-01  0.8265043668E-10 : is =    1, ia =    1, ip =    3
 -0.6875743502E-01 -0.1955699015E-09 : is =    1, ia =    2, ip =    1
  0.4605010612     -0.3957009448E-09 : is =    1, ia =    2, ip =    2
  0.6875743502E-01  0.1955699050E-09 : is =    1, ia =    2, ip =    3
