   0.000000000       0.000000000     : is =    1, ia =    1, ip =    1
 -0.4010416814E-01 -0.4011583351E-01 : is =    1, ia =    1, ip =    2
 -0.1795195385      0.1795168186     : is =    1, ia =    1, ip =    3
   0.000000000       0.000000000     : is =    1, ia =    2, ip =    1
  0.1236454243E-04  0.8377600083E-04 : is =    1, ia =    2, ip =    2
  0.3858558931      0.1091271208E-05 : is =    1, ia =    2, ip =    3
