 -0.8512319043E-01 -0.2850484853     : is =    1, ia =    1, ip =    1
 -0.1769711621E-01  0.1748663023E-01 : is =    1, ia =    1, ip =    2
 -0.1769711621E-01  0.1748663023E-01 : is =    1, ia =    1, ip =    3
  0.4204074997      0.1628930789E-03 : is =    1, ia =    2, ip =    1
  0.3572336108E-01  0.7744435096E-04 : is =    1, ia =    2, ip =    2
  0.3572336108E-01  0.7744435096E-04 : is =    1, ia =    2, ip =    3
