  0.1341647772E-05  0.2946974241E-01 : is =    1, ia =    1, ip =    1
  0.4605802479     -0.1354651024E-05 : is =    1, ia =    1, ip =    2
  0.1341647773E-05  0.2946974241E-01 : is =    1, ia =    1, ip =    3
 -0.4458531056E-01 -0.4315187086E-05 : is =    1, ia =    2, ip =    1
  0.9076661707E-05 -0.1946914680     : is =    1, ia =    2, ip =    2
 -0.4458531056E-01 -0.4315187086E-05 : is =    1, ia =    2, ip =    3
