  0.3858544532     -0.7934820876E-06 : is =    1, ia =    1, ip =    1
 -0.2514964465E-05 -0.8420167552E-04 : is =    1, ia =    1, ip =    2
   0.000000000       0.000000000     : is =    1, ia =    1, ip =    3
 -0.1795119780     -0.1795221166     : is =    1, ia =    2, ip =    1
 -0.4010995546E-01  0.4010479058E-01 : is =    1, ia =    2, ip =    2
   0.000000000       0.000000000     : is =    1, ia =    2, ip =    3
