 -0.1745065411E-01 -0.1770116325E-01 : is =    1, ia =    1, ip =    1
 -0.1745065411E-01 -0.1770116325E-01 : is =    1, ia =    1, ip =    2
 -0.2850701580      0.8514831023E-01 : is =    1, ia =    1, ip =    3
 -0.3571611080E-01 -0.9219666615E-04 : is =    1, ia =    2, ip =    1
 -0.3571611080E-01 -0.9219666615E-04 : is =    1, ia =    2, ip =    2
  0.4204466759      0.1601994798E-03 : is =    1, ia =    2, ip =    3
