 -0.4457948120E-01 -0.1544148515E-04 : is =    1, ia =    1, ip =    1
 -0.4457948120E-01 -0.1544148515E-04 : is =    1, ia =    1, ip =    2
  0.9333472440E-05  0.1947067716     : is =    1, ia =    1, ip =    3
  0.9826512751E-05 -0.2947054969E-01 : is =    1, ia =    2, ip =    1
  0.9826512751E-05 -0.2947054969E-01 : is =    1, ia =    2, ip =    2
  0.4605868450      0.1265596180E-05 : is =    1, ia =    2, ip =    3
