 -0.1769431645E-01 -0.1746077019E-01 : is =    1, ia =    1, ip =    1
 -0.8514584213E-01  0.2850725244     : is =    1, ia =    1, ip =    2
 -0.1769431644E-01 -0.1746077016E-01 : is =    1, ia =    1, ip =    3
  0.3572681981E-01 -0.9244786471E-04 : is =    1, ia =    2, ip =    1
  0.4204444534     -0.1593595948E-03 : is =    1, ia =    2, ip =    2
  0.3572681978E-01 -0.9244786471E-04 : is =    1, ia =    2, ip =    3
