 -0.4074657987E-01 -0.4075532794E-01 : is =    1, ia =    1, ip =    1
   0.000000000       0.000000000     : is =    1, ia =    1, ip =    2
   0.000000000       0.000000000     : is =    1, ia =    1, ip =    3
   0.000000000       0.000000000     : is =    1, ia =    2, ip =    1
  0.5059131766      0.1518743896E-05 : is =    1, ia =    2, ip =    2
  0.4307196924E-06  0.6115184304E-01 : is =    1, ia =    2, ip =    3
