  0.4500197520     -0.4365902418E-06 : is =    1, ia =    1, ip =    1
 -0.6292893685E-01 -0.1698262845E-05 : is =    1, ia =    1, ip =    2
 -0.1385552195E-05 -0.2822859680E-01 : is =    1, ia =    1, ip =    3
 -0.1809009752      0.7069524567E-05 : is =    1, ia =    2, ip =    1
 -0.3387543890E-01  0.5204259001E-05 : is =    1, ia =    2, ip =    2
 -0.1528411606E-05  0.4284918394E-01 : is =    1, ia =    2, ip =    3
