 -0.3572889799E-01 -0.7744676833E-04 : is =    1, ia =    1, ip =    1
  0.3572889799E-01  0.7744676833E-04 : is =    1, ia =    1, ip =    2
  0.4204007503      0.1634158831E-03 : is =    1, ia =    1, ip =    3
 -0.1748052821E-01 -0.1771167707E-01 : is =    1, ia =    2, ip =    1
  0.1748052821E-01  0.1771167707E-01 : is =    1, ia =    2, ip =    2
 -0.2850441926      0.8513430355E-01 : is =    1, ia =    2, ip =    3
