 -0.2059990579     -0.1279454996E-09 : is =    1, ia =    1, ip =    1
 -0.5079977630E-01 -0.8265044233E-10 : is =    1, ia =    1, ip =    2
 -0.5079977629E-01 -0.8265043647E-10 : is =    1, ia =    1, ip =    3
  0.4605010612     -0.3957009334E-09 : is =    1, ia =    2, ip =    1
 -0.6875743502E-01 -0.1955699072E-09 : is =    1, ia =    2, ip =    2
 -0.6875743502E-01 -0.1955699023E-09 : is =    1, ia =    2, ip =    3
