   0.000000000       0.000000000     : is =    1, ia =    1, ip =    1
 -0.1236456408E-04 -0.8377599538E-04 : is =    1, ia =    1, ip =    2
  0.3858558931      0.1091278396E-05 : is =    1, ia =    1, ip =    3
   0.000000000       0.000000000     : is =    1, ia =    2, ip =    1
 -0.4011583355E-01  0.4010416817E-01 : is =    1, ia =    2, ip =    2
 -0.1795168186     -0.1795195385     : is =    1, ia =    2, ip =    3
