 -0.1795158986      0.1795225256     : is =    1, ia =    1, ip =    1
   0.000000000       0.000000000     : is =    1, ia =    1, ip =    2
 -0.4010713997E-01 -0.4011603126E-01 : is =    1, ia =    1, ip =    3
  0.3858578600      0.7013585307E-06 : is =    1, ia =    2, ip =    1
   0.000000000       0.000000000     : is =    1, ia =    2, ip =    2
  0.1052525276E-04  0.8391607563E-04 : is =    1, ia =    2, ip =    3
