 -0.4015070039E-01  0.4014023140E-01 : is =    1, ia =    1, ip =    1
 -0.4014023140E-01 -0.4015070039E-01 : is =    1, ia =    1, ip =    2
   0.000000000       0.000000000     : is =    1, ia =    1, ip =    3
   0.000000000       0.000000000     : is =    1, ia =    2, ip =    1
   0.000000000       0.000000000     : is =    1, ia =    2, ip =    2
  0.4072105653      0.2342522805E-05 : is =    1, ia =    2, ip =    3
