================================================================================
| EXCITING NITROGEN-13 started                                                 =
| version hash id: de0c1dba9f665d6c60514aa9e8bf40326ac9f394                    =
|                                                                              =
|                                                                              =
| Date (DD-MM-YYYY) : 04-05-2022                                               =
| Time (hh:mm:ss)   : 14:15:59                                                 =
|                                                                              =
| All units are atomic (Hartree, Bohr, etc.)                                   =
================================================================================
 
********************************************************************************
* Ground-state run resuming from STATE.OUT                                     *
********************************************************************************
 
++++++++++++++++++++++++++++++++++++++++++++++++++++++++++++++++++++++++++++++++
+ Starting initialization                                                      +
++++++++++++++++++++++++++++++++++++++++++++++++++++++++++++++++++++++++++++++++
 
 Lattice vectors (cartesian) :
     -3.3759957000     -3.3759957000      0.0000000000
     -6.7519914000      3.3759957000      3.3759957000
      3.3759957000     -3.3759957000      6.7519914000
 
 Reciprocal lattice vectors (cartesian) :
     -0.6979257972     -1.1632096620     -0.2326419324
     -0.4652838648      0.4652838648      0.4652838648
      0.2326419324     -0.2326419324      0.6979257972
 
 Unit cell volume                           :     307.8191548003
 Brillouin zone volume                      :       0.8058309874
 
 Species :    1 (C)
     parameters loaded from                 :    C.xml
     name                                   :    carbon
     nuclear charge                         :      -6.00000000
     electronic charge                      :       6.00000000
     atomic mass                            :   21894.16673000
     muffin-tin radius                      :       1.25000000
     # of radial points in muffin-tin       :     250
 
     atomic positions (lattice) :
       1 :   0.99911137  0.99940758  0.00029621
       2 :   0.25000000  0.50000000  0.25000000
       3 :   0.50088863  0.00059242  0.49970379
       4 :   0.75000000  0.50000000  0.75000000
       5 :   0.43750000  0.12500000  0.18750000
       6 :   0.68750000  0.62500000  0.43750000
       7 :   0.93750000  0.12500000  0.68750000
       8 :   0.18750000  0.62500000  0.93750000
 
 Total number of atoms per unit cell        :       8
 
 Spin treatment                             :    spin-unpolarised
 
 Number of Bravais lattice symmetries       :       4
 Number of crystal symmetries               :       1
 
 Sphere radius used for k-point grid density:      33.42065234
 
 k-point grid                               :       8    5    5
 Total number of k-points                   :     200
 k-point set is reduced with crystal symmetries
 
 R^MT_min * |G+k|_max (rgkmax)              :       8.00000000
 Species with R^MT_min                      :       1 (C)
 Maximum |G+k| for APW functions            :       6.40000000
 Maximum |G| for potential and density      :      16.00000000
 
 G-vector grid sizes                        :      25    45    45
 Total number of G-vectors                  :   21191
 
 Maximum angular momentum used for
     APW functions                          :       8
     computing H and O matrix elements      :       8
     potential and density                  :       8
     inner part of muffin-tin               :       2
 
 Total nuclear charge                       :     -48.00000000
 Total electronic charge                    :      48.00000000
 Total core charge                          :      16.00000000
 Total valence charge                       :      32.00000000
 
 Number of empty states                     :      20
 Total number of valence states             :      37
 
 Maximum Hamiltonian size                   :    1408
 Maximum number of plane-waves              :    1376
 Total number of local-orbitals             :      32
 
 Exchange-correlation type                  :      20
     Perdew-Burke-Ernzerhof, Phys. Rev. Lett. 77, 3865 (1996)
     Generalised gradient approximation (GGA)
 
 Smearing scheme                            :    Gaussian
 Smearing width                             :       0.00010000
 
 Using multisecant Broyden potential mixing
 
++++++++++++++++++++++++++++++++++++++++++++++++++++++++++++++++++++++++++++++++
+ Ending initialization                                                        +
++++++++++++++++++++++++++++++++++++++++++++++++++++++++++++++++++++++++++++++++
 
********************************************************************************
* Groundstate module started                                                   *
********************************************************************************
 Output level for this task is set to normal
 
++++++++++++++++++++++++++++++++++++++++++++++++++++++++++++++++++++++++++++++++
+ Self-consistent loop started                                                 +
++++++++++++++++++++++++++++++++++++++++++++++++++++++++++++++++++++++++++++++++
 Potential read in from STATE.OUT
 
 
++++++++++++++++++++++++++++++++++++++++++++++++++++++++++++++++++++++++++++++++
+ SCF iteration number :    1                                                  +
++++++++++++++++++++++++++++++++++++++++++++++++++++++++++++++++++++++++++++++++
 Total energy                               :      -304.79356633
 _______________________________________________________________
 Fermi energy                               :         0.51735843
 Kinetic energy                             :       303.61985071
 Coulomb energy                             :      -564.99827369
 Exchange energy                            :       -41.63639066
 Correlation energy                         :        -1.77875268
 
 DOS at Fermi energy (states/Ha/cell)       :         0.00000000
 
 Electron charges :
     core                                   :        16.00000000
     core leakage                           :         0.00340897
     valence                                :        32.00000000
     interstitial                           :        17.96361469
     charge in muffin-tin spheres :
                  atom     1     C          :         3.75450409
                  atom     2     C          :         3.75451555
                  atom     3     C          :         3.75457655
                  atom     4     C          :         3.75450693
                  atom     5     C          :         3.75499623
                  atom     6     C          :         3.75409972
                  atom     7     C          :         3.75413807
                  atom     8     C          :         3.75504817
     total charge in muffin-tins            :        30.03638531
     total charge                           :        48.00000000
 
 Estimated fundamental gap                  :         0.15272944
        valence-band maximum at    1      0.0000  0.0000  0.0000
     conduction-band minimum at  142      0.6250  0.4000  0.6000
 
 Wall time (seconds)                        :       125.43
 
++++++++++++++++++++++++++++++++++++++++++++++++++++++++++++++++++++++++++++++++
+ SCF iteration number :    2                                                  +
++++++++++++++++++++++++++++++++++++++++++++++++++++++++++++++++++++++++++++++++
 Total energy                               :      -304.79349744
 _______________________________________________________________
 Fermi energy                               :         0.51735785
 Kinetic energy                             :       303.61988802
 Coulomb energy                             :      -564.99824561
 Exchange energy                            :       -41.63638689
 Correlation energy                         :        -1.77875296
 
 DOS at Fermi energy (states/Ha/cell)       :         0.00000000
 
 Electron charges :
     core                                   :        16.00000000
     core leakage                           :         0.00340897
     valence                                :        32.00000000
     interstitial                           :        17.96362765
     charge in muffin-tin spheres :
                  atom     1     C          :         3.75449683
                  atom     2     C          :         3.75453226
                  atom     3     C          :         3.75457703
                  atom     4     C          :         3.75449190
                  atom     5     C          :         3.75541727
                  atom     6     C          :         3.75372190
                  atom     7     C          :         3.75371154
                  atom     8     C          :         3.75542363
     total charge in muffin-tins            :        30.03637235
     total charge                           :        48.00000000
 
 Estimated fundamental gap                  :         0.15272854
        valence-band maximum at    1      0.0000  0.0000  0.0000
     conduction-band minimum at  108      0.3750  0.6000  0.4000
 
 Wall time (seconds)                        :       246.93
 
 RMS change in effective potential (target) :  0.111893E-02  ( 0.100000E-05)
 Absolute change in total energy   (target) :  0.688862E-04  ( 0.100000E-05)
 Charge distance                   (target) :  0.234358E-03  ( 0.100000E-04)
 Abs. change in max-nonIBS-force   (target) :  0.109393E-01  ( 0.500000E-04)
 
++++++++++++++++++++++++++++++++++++++++++++++++++++++++++++++++++++++++++++++++
+ SCF iteration number :    3                                                  +
++++++++++++++++++++++++++++++++++++++++++++++++++++++++++++++++++++++++++++++++
 Total energy                               :      -304.79351976
 _______________________________________________________________
 Fermi energy                               :         0.51735807
 Kinetic energy                             :       303.61987811
 Coulomb energy                             :      -564.99825717
 Exchange energy                            :       -41.63638770
 Correlation energy                         :        -1.77875300
 
 DOS at Fermi energy (states/Ha/cell)       :         0.00000000
 
 Electron charges :
     core                                   :        16.00000000
     core leakage                           :         0.00340897
     valence                                :        32.00000000
     interstitial                           :        17.96362332
     charge in muffin-tin spheres :
                  atom     1     C          :         3.75446862
                  atom     2     C          :         3.75453028
                  atom     3     C          :         3.75460532
                  atom     4     C          :         3.75449483
                  atom     5     C          :         3.75544051
                  atom     6     C          :         3.75373948
                  atom     7     C          :         3.75369092
                  atom     8     C          :         3.75540671
     total charge in muffin-tins            :        30.03637668
     total charge                           :        48.00000000
 
 Estimated fundamental gap                  :         0.15272823
        valence-band maximum at    1      0.0000  0.0000  0.0000
     conduction-band minimum at  108      0.3750  0.6000  0.4000
 
 Wall time (seconds)                        :       367.53
 
 RMS change in effective potential (target) :  0.782192E-03  ( 0.100000E-05)
 Absolute change in total energy   (target) :  0.223227E-04  ( 0.100000E-05)
 Charge distance                   (target) :  0.905025E-04  ( 0.100000E-04)
 Abs. change in max-nonIBS-force   (target) :  0.368786E-02  ( 0.500000E-04)
 
++++++++++++++++++++++++++++++++++++++++++++++++++++++++++++++++++++++++++++++++
+ SCF iteration number :    4                                                  +
++++++++++++++++++++++++++++++++++++++++++++++++++++++++++++++++++++++++++++++++
 Total energy                               :      -304.79353467
 _______________________________________________________________
 Fermi energy                               :         0.51735799
 Kinetic energy                             :       303.61987262
 Coulomb energy                             :      -564.99826632
 Exchange energy                            :       -41.63638800
 Correlation energy                         :        -1.77875297
 
 DOS at Fermi energy (states/Ha/cell)       :         0.00000000
 
 Electron charges :
     core                                   :        16.00000000
     core leakage                           :         0.00340897
     valence                                :        32.00000000
     interstitial                           :        17.96361837
     charge in muffin-tin spheres :
                  atom     1     C          :         3.75487462
                  atom     2     C          :         3.75439322
                  atom     3     C          :         3.75419776
                  atom     4     C          :         3.75462230
                  atom     5     C          :         3.75457904
                  atom     6     C          :         3.75406190
                  atom     7     C          :         3.75456138
                  atom     8     C          :         3.75509141
     total charge in muffin-tins            :        30.03638163
     total charge                           :        48.00000000
 
 Estimated fundamental gap                  :         0.15272682
        valence-band maximum at    1      0.0000  0.0000  0.0000
     conduction-band minimum at  142      0.6250  0.4000  0.6000
 
 Wall time (seconds)                        :       538.24
 
 RMS change in effective potential (target) :  0.482487E-03  ( 0.100000E-05)
 Absolute change in total energy   (target) :  0.149038E-04  ( 0.100000E-05)
 Charge distance                   (target) :  0.203807E-03  ( 0.100000E-04)
 Abs. change in max-nonIBS-force   (target) :  0.387027E-02  ( 0.500000E-04)
 
++++++++++++++++++++++++++++++++++++++++++++++++++++++++++++++++++++++++++++++++
+ SCF iteration number :    5                                                  +
++++++++++++++++++++++++++++++++++++++++++++++++++++++++++++++++++++++++++++++++
 Total energy                               :      -304.79356920
 _______________________________________________________________
 Fermi energy                               :         0.51735793
 Kinetic energy                             :       303.61984569
 Coulomb energy                             :      -564.99827283
 Exchange energy                            :       -41.63638907
 Correlation energy                         :        -1.77875300
 
 DOS at Fermi energy (states/Ha/cell)       :         0.00000000
 
 Electron charges :
     core                                   :        16.00000000
     core leakage                           :         0.00340897
     valence                                :        32.00000000
     interstitial                           :        17.96361614
     charge in muffin-tin spheres :
                  atom     1     C          :         3.75442540
                  atom     2     C          :         3.75457098
                  atom     3     C          :         3.75465120
                  atom     4     C          :         3.75445397
                  atom     5     C          :         3.75529728
                  atom     6     C          :         3.75396779
                  atom     7     C          :         3.75383865
                  atom     8     C          :         3.75517859
     total charge in muffin-tins            :        30.03638386
     total charge                           :        48.00000000
 
 Estimated fundamental gap                  :         0.15272703
        valence-band maximum at    1      0.0000  0.0000  0.0000
     conduction-band minimum at  142      0.6250  0.4000  0.6000
 
 Wall time (seconds)                        :       669.47
 
 RMS change in effective potential (target) :  0.155585E-03  ( 0.100000E-05)
 Absolute change in total energy   (target) :  0.345317E-04  ( 0.100000E-05)
 Charge distance                   (target) :  0.133286E-03  ( 0.100000E-04)
 Abs. change in max-nonIBS-force   (target) :  0.213789E-02  ( 0.500000E-04)
 
++++++++++++++++++++++++++++++++++++++++++++++++++++++++++++++++++++++++++++++++
+ SCF iteration number :    6                                                  +
++++++++++++++++++++++++++++++++++++++++++++++++++++++++++++++++++++++++++++++++
 Total energy                               :      -304.79356900
 _______________________________________________________________
 Fermi energy                               :         0.51735804
 Kinetic energy                             :       303.61984640
 Coulomb energy                             :      -564.99827320
 Exchange energy                            :       -41.63638920
 Correlation energy                         :        -1.77875300
 
 DOS at Fermi energy (states/Ha/cell)       :         0.00000000
 
 Electron charges :
     core                                   :        16.00000000
     core leakage                           :         0.00340897
     valence                                :        32.00000000
     interstitial                           :        17.96361591
     charge in muffin-tin spheres :
                  atom     1     C          :         3.75452354
                  atom     2     C          :         3.75448604
                  atom     3     C          :         3.75455145
                  atom     4     C          :         3.75453793
                  atom     5     C          :         3.75526730
                  atom     6     C          :         3.75384213
                  atom     7     C          :         3.75386885
                  atom     8     C          :         3.75530683
     total charge in muffin-tins            :        30.03638409
     total charge                           :        48.00000000
 
 Estimated fundamental gap                  :         0.15272704
        valence-band maximum at    1      0.0000  0.0000  0.0000
     conduction-band minimum at  108      0.3750  0.6000  0.4000
 
 Wall time (seconds)                        :       799.03
 
 RMS change in effective potential (target) :  0.958901E-04  ( 0.100000E-05)
 Absolute change in total energy   (target) :  0.196106E-06  ( 0.100000E-05)
 Charge distance                   (target) :  0.261326E-04  ( 0.100000E-04)
 Abs. change in max-nonIBS-force   (target) :  0.211210E-03  ( 0.500000E-04)
 
++++++++++++++++++++++++++++++++++++++++++++++++++++++++++++++++++++++++++++++++
+ SCF iteration number :    7                                                  +
++++++++++++++++++++++++++++++++++++++++++++++++++++++++++++++++++++++++++++++++
 Total energy                               :      -304.79356150
 _______________________________________________________________
 Fermi energy                               :         0.51735808
 Kinetic energy                             :       303.61985268
 Coulomb energy                             :      -564.99827215
 Exchange energy                            :       -41.63638902
 Correlation energy                         :        -1.77875300
 
 DOS at Fermi energy (states/Ha/cell)       :         0.00000000
 
 Electron charges :
     core                                   :        16.00000000
     core leakage                           :         0.00340897
     valence                                :        32.00000000
     interstitial                           :        17.96361630
     charge in muffin-tin spheres :
                  atom     1     C          :         3.75450775
                  atom     2     C          :         3.75452224
                  atom     3     C          :         3.75456733
                  atom     4     C          :         3.75450188
                  atom     5     C          :         3.75526538
                  atom     6     C          :         3.75388319
                  atom     7     C          :         3.75387111
                  atom     8     C          :         3.75526483
     total charge in muffin-tins            :        30.03638370
     total charge                           :        48.00000000
 
 Estimated fundamental gap                  :         0.15272705
        valence-band maximum at    1      0.0000  0.0000  0.0000
     conduction-band minimum at  108      0.3750  0.6000  0.4000
 
 Wall time (seconds)                        :       928.67
 
 RMS change in effective potential (target) :  0.760171E-04  ( 0.100000E-05)
 Absolute change in total energy   (target) :  0.750672E-05  ( 0.100000E-05)
 Charge distance                   (target) :  0.123290E-04  ( 0.100000E-04)
 Abs. change in max-nonIBS-force   (target) :  0.501584E-03  ( 0.500000E-04)
 
++++++++++++++++++++++++++++++++++++++++++++++++++++++++++++++++++++++++++++++++
+ SCF iteration number :    8                                                  +
++++++++++++++++++++++++++++++++++++++++++++++++++++++++++++++++++++++++++++++++
 Total energy                               :      -304.79355666
 _______________________________________________________________
 Fermi energy                               :         0.51735812
 Kinetic energy                             :       303.61985666
 Coulomb energy                             :      -564.99827142
 Exchange energy                            :       -41.63638890
 Correlation energy                         :        -1.77875301
 
 DOS at Fermi energy (states/Ha/cell)       :         0.00000000
 
 Electron charges :
     core                                   :        16.00000000
     core leakage                           :         0.00340897
     valence                                :        32.00000000
     interstitial                           :        17.96361656
     charge in muffin-tin spheres :
                  atom     1     C          :         3.75451308
                  atom     2     C          :         3.75450936
                  atom     3     C          :         3.75456244
                  atom     4     C          :         3.75451470
                  atom     5     C          :         3.75527509
                  atom     6     C          :         3.75385858
                  atom     7     C          :         3.75386068
                  atom     8     C          :         3.75528952
     total charge in muffin-tins            :        30.03638344
     total charge                           :        48.00000000
 
 Estimated fundamental gap                  :         0.15272706
        valence-band maximum at    1      0.0000  0.0000  0.0000
     conduction-band minimum at  142      0.6250  0.4000  0.6000
 
 Wall time (seconds)                        :      1060.18
 
 RMS change in effective potential (target) :  0.555209E-04  ( 0.100000E-05)
 Absolute change in total energy   (target) :  0.483233E-05  ( 0.100000E-05)
 Charge distance                   (target) :  0.793543E-05  ( 0.100000E-04)
 Abs. change in max-nonIBS-force   (target) :  0.703837E-03  ( 0.500000E-04)
 
++++++++++++++++++++++++++++++++++++++++++++++++++++++++++++++++++++++++++++++++
+ SCF iteration number :    9                                                  +
++++++++++++++++++++++++++++++++++++++++++++++++++++++++++++++++++++++++++++++++
 Total energy                               :      -304.79354470
 _______________________________________________________________
 Fermi energy                               :         0.51735822
 Kinetic energy                             :       303.61986658
 Coulomb energy                             :      -564.99826964
 Exchange energy                            :       -41.63638863
 Correlation energy                         :        -1.77875301
 
 DOS at Fermi energy (states/Ha/cell)       :         0.00000000
 
 Electron charges :
     core                                   :        16.00000000
     core leakage                           :         0.00340897
     valence                                :        32.00000000
     interstitial                           :        17.96361719
     charge in muffin-tin spheres :
                  atom     1     C          :         3.75451990
                  atom     2     C          :         3.75451800
                  atom     3     C          :         3.75455484
                  atom     4     C          :         3.75450605
                  atom     5     C          :         3.75529257
                  atom     6     C          :         3.75385137
                  atom     7     C          :         3.75384345
                  atom     8     C          :         3.75529663
     total charge in muffin-tins            :        30.03638281
     total charge                           :        48.00000000
 
 Estimated fundamental gap                  :         0.15272706
        valence-band maximum at    1      0.0000  0.0000  0.0000
     conduction-band minimum at  142      0.6250  0.4000  0.6000
 
 Wall time (seconds)                        :      1197.96
 
 RMS change in effective potential (target) :  0.155916E-04  ( 0.100000E-05)
 Absolute change in total energy   (target) :  0.119609E-04  ( 0.100000E-05)
 Charge distance                   (target) :  0.137002E-04  ( 0.100000E-04)
 Abs. change in max-nonIBS-force   (target) :  0.636763E-03  ( 0.500000E-04)
 
++++++++++++++++++++++++++++++++++++++++++++++++++++++++++++++++++++++++++++++++
+ SCF iteration number :   10                                                  +
++++++++++++++++++++++++++++++++++++++++++++++++++++++++++++++++++++++++++++++++
 Total energy                               :      -304.79354154
 _______________________________________________________________
 Fermi energy                               :         0.51735825
 Kinetic energy                             :       303.61986926
 Coulomb energy                             :      -564.99826922
 Exchange energy                            :       -41.63638857
 Correlation energy                         :        -1.77875301
 
 DOS at Fermi energy (states/Ha/cell)       :         0.00000000
 
 Electron charges :
     core                                   :        16.00000000
     core leakage                           :         0.00340897
     valence                                :        32.00000000
     interstitial                           :        17.96361733
     charge in muffin-tin spheres :
                  atom     1     C          :         3.75451733
                  atom     2     C          :         3.75451905
                  atom     3     C          :         3.75455915
                  atom     4     C          :         3.75450493
                  atom     5     C          :         3.75529309
                  atom     6     C          :         3.75383345
                  atom     7     C          :         3.75384148
                  atom     8     C          :         3.75531417
     total charge in muffin-tins            :        30.03638267
     total charge                           :        48.00000000
 
 Estimated fundamental gap                  :         0.15272707
        valence-band maximum at    1      0.0000  0.0000  0.0000
     conduction-band minimum at  142      0.6250  0.4000  0.6000
 
 Wall time (seconds)                        :      1337.29
 
 RMS change in effective potential (target) :  0.430263E-05  ( 0.100000E-05)
 Absolute change in total energy   (target) :  0.315949E-05  ( 0.100000E-05)
 Charge distance                   (target) :  0.470166E-05  ( 0.100000E-04)
 Abs. change in max-nonIBS-force   (target) :  0.133490E-03  ( 0.500000E-04)
 
++++++++++++++++++++++++++++++++++++++++++++++++++++++++++++++++++++++++++++++++
+ SCF iteration number :   11                                                  +
++++++++++++++++++++++++++++++++++++++++++++++++++++++++++++++++++++++++++++++++
 Total energy                               :      -304.79354136
 _______________________________________________________________
 Fermi energy                               :         0.51735825
 Kinetic energy                             :       303.61986939
 Coulomb energy                             :      -564.99826918
 Exchange energy                            :       -41.63638856
 Correlation energy                         :        -1.77875301
 
 DOS at Fermi energy (states/Ha/cell)       :         0.00000000
 
 Electron charges :
     core                                   :        16.00000000
     core leakage                           :         0.00340897
     valence                                :        32.00000000
     interstitial                           :        17.96361735
     charge in muffin-tin spheres :
                  atom     1     C          :         3.75452105
                  atom     2     C          :         3.75451589
                  atom     3     C          :         3.75455424
                  atom     4     C          :         3.75450826
                  atom     5     C          :         3.75529741
                  atom     6     C          :         3.75383693
                  atom     7     C          :         3.75383807
                  atom     8     C          :         3.75531080
     total charge in muffin-tins            :        30.03638265
     total charge                           :        48.00000000
 
 Estimated fundamental gap                  :         0.15272707
        valence-band maximum at    1      0.0000  0.0000  0.0000
     conduction-band minimum at  142      0.6250  0.4000  0.6000
 
 Wall time (seconds)                        :      1538.52
 
 RMS change in effective potential (target) :  0.534871E-06  ( 0.100000E-05)
 Absolute change in total energy   (target) :  0.178634E-06  ( 0.100000E-05)
 Charge distance                   (target) :  0.975507E-06  ( 0.100000E-04)
 Abs. change in max-nonIBS-force   (target) :  0.697433E-05  ( 0.500000E-04)
 
++++++++++++++++++++++++++++++++++++++++++++++++++++++++++++++++++++++++++++++++
+ SCF iteration number :   12                                                  +
++++++++++++++++++++++++++++++++++++++++++++++++++++++++++++++++++++++++++++++++
 Total energy                               :      -304.79354131
 _______________________________________________________________
 Fermi energy                               :         0.51735825
 Kinetic energy                             :       303.61986943
 Coulomb energy                             :      -564.99826916
 Exchange energy                            :       -41.63638856
 Correlation energy                         :        -1.77875301
 
 DOS at Fermi energy (states/Ha/cell)       :         0.00000000
 
 Electron charges :
     core                                   :        16.00000000
     core leakage                           :         0.00340897
     valence                                :        32.00000000
     interstitial                           :        17.96361735
     charge in muffin-tin spheres :
                  atom     1     C          :         3.75452118
                  atom     2     C          :         3.75451630
                  atom     3     C          :         3.75455432
                  atom     4     C          :         3.75450764
                  atom     5     C          :         3.75529763
                  atom     6     C          :         3.75383687
                  atom     7     C          :         3.75383762
                  atom     8     C          :         3.75531108
     total charge in muffin-tins            :        30.03638265
     total charge                           :        48.00000000
 
 Estimated fundamental gap                  :         0.15272707
        valence-band maximum at    1      0.0000  0.0000  0.0000
     conduction-band minimum at  142      0.6250  0.4000  0.6000
 
 Wall time (seconds)                        :      1760.40
 
 RMS change in effective potential (target) :  0.181635E-06  ( 0.100000E-05)
 Absolute change in total energy   (target) :  0.590876E-07  ( 0.100000E-05)
 Charge distance                   (target) :  0.202530E-06  ( 0.100000E-04)
 Abs. change in max-nonIBS-force   (target) :  0.609518E-06  ( 0.500000E-04)
                                                                                
++++++++++++++++++++++++++++++++++++++++++++++++++++++++++++++++++++++++++++++++
| Convergency criteria checked for the last 2 iterations                       +
| Convergence targets achieved. Performing final SCF iteration                 +
++++++++++++++++++++++++++++++++++++++++++++++++++++++++++++++++++++++++++++++++
 Total energy                               :      -304.79354131
 _______________________________________________________________
 Fermi energy                               :         0.51735825
 Kinetic energy                             :       303.61986943
 Coulomb energy                             :      -564.99826916
 Exchange energy                            :       -41.63638856
 Correlation energy                         :        -1.77875301
 
 DOS at Fermi energy (states/Ha/cell)       :         0.00000000
 
 Electron charges :
     core                                   :        16.00000000
     core leakage                           :         0.00340897
     valence                                :        32.00000000
     interstitial                           :        17.96361735
     charge in muffin-tin spheres :
                  atom     1     C          :         3.75452086
                  atom     2     C          :         3.75451636
                  atom     3     C          :         3.75455440
                  atom     4     C          :         3.75450784
                  atom     5     C          :         3.75529771
                  atom     6     C          :         3.75383695
                  atom     7     C          :         3.75383780
                  atom     8     C          :         3.75531074
     total charge in muffin-tins            :        30.03638265
     total charge                           :        48.00000000
 
 Estimated fundamental gap                  :         0.15272707
        valence-band maximum at    1      0.0000  0.0000  0.0000
     conduction-band minimum at  108      0.3750  0.6000  0.4000
 
++++++++++++++++++++++++++++++++++++++++++++++++++++++++++++++++++++++++++++++++
+ Self-consistent loop stopped                                                 +
++++++++++++++++++++++++++++++++++++++++++++++++++++++++++++++++++++++++++++++++
 STATE.OUT is written
 
--------------------------------------------------------------------------------
- Writing atomic positions and forces                                          -
--------------------------------------------------------------------------------
 
 Atomic positions (lattice) :
 atom     1   C  :     0.99911137    0.99940758    0.00029621
 atom     2   C  :     0.25000000    0.50000000    0.25000000
 atom     3   C  :     0.50088863    0.00059242    0.49970379
 atom     4   C  :     0.75000000    0.50000000    0.75000000
 atom     5   C  :     0.43750000    0.12500000    0.18750000
 atom     6   C  :     0.68750000    0.62500000    0.43750000
 atom     7   C  :     0.93750000    0.12500000    0.68750000
 atom     8   C  :     0.18750000    0.62500000    0.93750000
 
 Total atomic forces including IBS (cartesian) :
 atom     1   C  :    -0.00337919    0.00024916   -0.00024920
 atom     2   C  :     0.00000355   -0.00002007   -0.00023292
 atom     3   C  :     0.00339970   -0.00029303    0.00024657
 atom     4   C  :    -0.00000027   -0.00001673    0.00023801
 atom     5   C  :     0.00074359    0.00059623   -0.00020543
 atom     6   C  :    -0.00072535    0.00014361    0.00009657
 atom     7   C  :    -0.00075097   -0.00056366    0.00019949
 atom     8   C  :     0.00070893   -0.00009551   -0.00009309
 
 Atomic force components including IBS (cartesian) :
 atom     1   C  :    -0.00312180    0.00023643   -0.00035248   HF force
                 :    -0.00030660    0.00002303    0.00009211   core correction
                 :     0.00004920   -0.00001030    0.00001116   IBS correction
 atom     2   C  :    -0.00004142    0.00016236   -0.00024582   HF force
                 :     0.00002769   -0.00017285    0.00000641   core correction
                 :     0.00001728   -0.00000959    0.00000650   IBS correction
 atom     3   C  :     0.00309521   -0.00029355    0.00026992   HF force
                 :     0.00032387    0.00000492   -0.00002601   core correction
                 :    -0.00001938   -0.00000440    0.00000266   IBS correction
 atom     4   C  :    -0.00001410   -0.00021040    0.00017219   HF force
                 :    -0.00000228    0.00019963    0.00005981   core correction
                 :     0.00001611   -0.00000596    0.00000601   IBS correction
 atom     5   C  :     0.00078827    0.00069157   -0.00010713   HF force
                 :    -0.00001947   -0.00009022   -0.00009544   core correction
                 :    -0.00002520   -0.00000512   -0.00000286   IBS correction
 atom     6   C  :    -0.00080164    0.00021368    0.00020218   HF force
                 :     0.00007758   -0.00007446   -0.00009641   core correction
                 :    -0.00000128    0.00000439   -0.00000919   IBS correction
 atom     7   C  :    -0.00073892   -0.00065722    0.00017369   HF force
                 :    -0.00000432    0.00007003    0.00003387   core correction
                 :    -0.00000773    0.00002353   -0.00000808   IBS correction
 atom     8   C  :     0.00083440   -0.00014287   -0.00011256   HF force
                 :    -0.00009646    0.00003991    0.00002566   core correction
                 :    -0.00002900    0.00000745   -0.00000619   IBS correction
 
********************************************************************************
* Groundstate module stopped                                                   *
********************************************************************************
 
 Total time spent (seconds)                 :      2113.17
================================================================================
| EXCITING NITROGEN-13 stopped                                                 =
================================================================================
