  0.1119091255E-02
  0.7823339459E-03
  0.4825017336E-03
  0.1557746551E-03
  0.9602173059E-04
  0.7615081596E-04
  0.5562271710E-04
  0.1546760163E-04
  0.4307196826E-05
  0.5378377803E-06
  0.1790491409E-06
 
