!-----------------------------------!
!       EPH MATRIX ELEMENTS         !
!-----------------------------------!
Number of Kohn-Sham States =               14
Number of reduced q points =                3
Number of non-reduced q points =            8
Number of k points =                      512
Number of species =                         1
Number of atoms =                           2
Number of branches =                        6
-------------------------------------------------------------------------------------
iq =   1 q-vector=   0.00000000   0.00000000   0.00000000
ik =   1 k-vector=   0.00000000   0.00000000   0.00000000
ik+q =   1 k+q-vector=   0.00000000   0.00000000   0.00000000
   iband    jband    nmode    enk[eV]     enk+q[eV]     w(meV)       |g[meV]|              g[meV]
     2        2        1     12.00049     12.00049      0.00000     0.140235      -0.198301       0.000000
     2        2        2     12.00049     12.00049      0.00000     0.140211      -0.198258       0.000000
     2        2        3     12.00049     12.00049      0.00000     0.140283      -0.198422      -0.000000
     2        2        4     12.00049     12.00049    159.89573     0.140224       0.198304      -0.000000
     2        2        5     12.00049     12.00049    159.89573     0.140199       0.198256      -0.000000
     2        2        6     12.00049     12.00049    159.89573     0.140262       0.198384      -0.000000
     2        3        1     12.00049     12.00051      0.00000     0.140235      -0.035648      -0.107898
     2        3        2     12.00049     12.00051      0.00000     0.140211      -0.032260       0.104476
     2        3        3     12.00049     12.00051      0.00000     0.140283       0.067922       0.003373
     2        3        4     12.00049     12.00051    159.89573     0.140224       0.035645       0.107888
     2        3        5     12.00049     12.00051    159.89573     0.140199       0.032257      -0.104468
     2        3        6     12.00049     12.00051    159.89573     0.140262      -0.067913      -0.003373
     2        4        1     12.00049     12.00051      0.00000     0.140235      -0.017163      -0.080390
     2        4        2     12.00049     12.00051      0.00000     0.140211       0.084977      -0.021780
     2        4        3     12.00049     12.00051      0.00000     0.140283      -0.067853       0.102179
     2        4        4     12.00049     12.00051    159.89573     0.140224       0.017161       0.080383
     2        4        5     12.00049     12.00051    159.89573     0.140199      -0.084971       0.021778
     2        4        6     12.00049     12.00051    159.89573     0.140262       0.067844      -0.102165
     3        2        1     12.00051     12.00049      0.00000     0.140235      -0.035648       0.107898
     3        2        2     12.00051     12.00049      0.00000     0.140211      -0.032260      -0.104476
     3        2        3     12.00051     12.00049      0.00000     0.140283       0.067922      -0.003373
     3        2        4     12.00051     12.00049    159.89573     0.140224       0.035645      -0.107888
     3        2        5     12.00051     12.00049    159.89573     0.140199       0.032257       0.104468
     3        2        6     12.00051     12.00049    159.89573     0.140262      -0.067913       0.003373
     3        3        1     12.00051     12.00051      0.00000     0.140235       0.037116      -0.000000
     3        3        2     12.00051     12.00051      0.00000     0.140211       0.056178      -0.000000
     3        3        3     12.00051     12.00051      0.00000     0.140283       0.204270      -0.000000
     3        3        4     12.00051     12.00051    159.89573     0.140224      -0.037092       0.000000
     3        3        5     12.00051     12.00051    159.89573     0.140199      -0.056157       0.000000
     3        3        6     12.00051     12.00051    159.89573     0.140262      -0.204245      -0.000000
     3        4        1     12.00051     12.00051      0.00000     0.140235      -0.187240      -0.020445
     3        4        2     12.00051     12.00051      0.00000     0.140211       0.101254       0.165004
     3        4        3     12.00051     12.00051      0.00000     0.140283       0.086029      -0.144638
     3        4        4     12.00051     12.00051    159.89573     0.140224       0.187226       0.020443
     3        4        5     12.00051     12.00051    159.89573     0.140199      -0.101245      -0.164990
     3        4        6     12.00051     12.00051    159.89573     0.140262      -0.086016       0.144615
     4        2        1     12.00051     12.00049      0.00000     0.140235      -0.017163       0.080390
     4        2        2     12.00051     12.00049      0.00000     0.140211       0.084977       0.021780
     4        2        3     12.00051     12.00049      0.00000     0.140283      -0.067853      -0.102179
     4        2        4     12.00051     12.00049    159.89573     0.140224       0.017161      -0.080383
     4        2        5     12.00051     12.00049    159.89573     0.140199      -0.084971      -0.021778
     4        2        6     12.00051     12.00049    159.89573     0.140262       0.067844       0.102165
     4        3        1     12.00051     12.00051      0.00000     0.140235      -0.187240       0.020445
     4        3        2     12.00051     12.00051      0.00000     0.140211       0.101254      -0.165004
     4        3        3     12.00051     12.00051      0.00000     0.140283       0.086029       0.144638
     4        3        4     12.00051     12.00051    159.89573     0.140224       0.187226      -0.020443
     4        3        5     12.00051     12.00051    159.89573     0.140199      -0.101245       0.164990
     4        3        6     12.00051     12.00051    159.89573     0.140262      -0.086016      -0.144615
     4        4        1     12.00051     12.00051      0.00000     0.140235       0.161241       0.000000
     4        4        2     12.00051     12.00051      0.00000     0.140211       0.142165       0.000000
     4        4        3     12.00051     12.00051      0.00000     0.140283      -0.005952      -0.000000
     4        4        4     12.00051     12.00051    159.89573     0.140224      -0.161207      -0.000000
     4        4        5     12.00051     12.00051    159.89573     0.140199      -0.142136       0.000000
     4        4        6     12.00051     12.00051    159.89573     0.140262       0.005945       0.000000
-------------------------------------------------------------------------------------
iq =   2 q-vector=   0.50000000   0.00000000   0.00000000
ik =   1 k-vector=   0.00000000   0.00000000   0.00000000
ik+q =   5 k+q-vector=   0.50000000   0.00000000   0.00000000
   iband    jband    nmode    enk[eV]     enk+q[eV]     w(meV)       |g[meV]|              g[meV]
     2        2        1     12.00049     -1.30918     67.63770     0.063806       0.008140      -0.000000
     2        2        2     12.00049     -1.30918     67.63770     0.063984       0.007973      -0.000000
     2        2        3     12.00049     -1.30918    128.77199     0.063982      -0.081645       0.000000
     2        2        4     12.00049     -1.30918    147.90971     0.063809       0.008151      -0.000000
     2        2        5     12.00049     -1.30918    147.90971     0.063969       0.007968      -0.000000
     2        2        6     12.00049     -1.30918    154.36960     0.064001      -0.081708       0.000000
     2        3        1     12.00049      9.21555     67.63770     0.121869       0.191381       0.000000
     2        3        2     12.00049      9.21555     67.63770     0.122126       0.191862      -0.000000
     2        3        3     12.00049      9.21555    128.77199     0.122191       0.096339      -0.000000
     2        3        4     12.00049      9.21555    147.90971     0.121877      -0.191359      -0.000000
     2        3        5     12.00049      9.21555    147.90971     0.122127      -0.191861       0.000000
     2        3        6     12.00049      9.21555    154.36960     0.122181      -0.096338       0.000000
     2        4        1     12.00049      9.21557     67.63770     0.121869      -0.000000       0.124902
     2        4        2     12.00049      9.21557     67.63770     0.122126      -0.000000      -0.124993
     2        4        3     12.00049      9.21557    128.77199     0.122191      -0.000000      -0.000046
     2        4        4     12.00049      9.21557    147.90971     0.121877       0.000000      -0.124931
     2        4        5     12.00049      9.21557    147.90971     0.122127       0.000000       0.124980
     2        4        6     12.00049      9.21557    154.36960     0.122181       0.000000       0.000044
     3        2        1     12.00051     -1.30918     67.63770     0.063806      -0.048138      -0.036786
     3        2        2     12.00051     -1.30918     67.63770     0.063984      -0.049528       0.041748
     3        2        3     12.00051     -1.30918    128.77199     0.063982       0.036288      -0.001666
     3        2        4     12.00051     -1.30918    147.90971     0.063809      -0.048144      -0.036774
     3        2        5     12.00051     -1.30918    147.90971     0.063969      -0.049516       0.041743
     3        2        6     12.00051     -1.30918    154.36960     0.064001       0.036279      -0.001666
     3        3        1     12.00051      9.21555     67.63770     0.121869       0.016589      -0.135666
     3        3        2     12.00051      9.21555     67.63770     0.122126       0.012405       0.134382
     3        3        3     12.00051      9.21555    128.77199     0.122191      -0.020347       0.000945
     3        3        4     12.00051      9.21555    147.90971     0.121877      -0.016584       0.135695
     3        3        5     12.00051      9.21555    147.90971     0.122127      -0.012393      -0.134381
     3        3        6     12.00051      9.21555    154.36960     0.122181       0.020342      -0.000944
     3        4        1     12.00051      9.21557     67.63770     0.121869       0.013293       0.053292
     3        4        2     12.00051      9.21557     67.63770     0.122126       0.008366      -0.053149
     3        4        3     12.00051      9.21557    128.77199     0.122191      -0.245059      -0.003787
     3        4        4     12.00051      9.21557    147.90971     0.121877      -0.013242      -0.053301
     3        4        5     12.00051      9.21557    147.90971     0.122127      -0.008359       0.053165
     3        4        6     12.00051      9.21557    154.36960     0.122181       0.245037       0.003787
     4        2        1     12.00051     -1.30918     67.63770     0.063806       0.067571       0.062537
     4        2        2     12.00051     -1.30918     67.63770     0.063984       0.029941       0.084415
     4        2        3     12.00051     -1.30918    128.77199     0.063982      -0.036320      -0.054556
     4        2        4     12.00051     -1.30918    147.90971     0.063809       0.067571       0.062549
     4        2        5     12.00051     -1.30918    147.90971     0.063969       0.029931       0.084395
     4        2        6     12.00051     -1.30918    154.36960     0.064001      -0.036310      -0.054542
     4        3        1     12.00051      9.21555     67.63770     0.121869       0.050482      -0.058960
     4        3        2     12.00051      9.21555     67.63770     0.122126      -0.079523       0.015382
     4        3        3     12.00051      9.21555    128.77199     0.122191       0.020358       0.030592
     4        3        4     12.00051      9.21555    147.90971     0.121877      -0.050502       0.058959
     4        3        5     12.00051      9.21555    147.90971     0.122127       0.079511      -0.015400
     4        3        6     12.00051      9.21555    154.36960     0.122181      -0.020354      -0.030585
     4        4        1     12.00051      9.21557     67.63770     0.121869       0.082856      -0.047944
     4        4        2     12.00051      9.21557     67.63770     0.122126      -0.077179       0.058568
     4        4        3     12.00051      9.21557    128.77199     0.122191      -0.067448      -0.117985
     4        4        4     12.00051      9.21557    147.90971     0.121877      -0.082855       0.047979
     4        4        5     12.00051      9.21557    147.90971     0.122127       0.077206      -0.058581
     4        4        6     12.00051      9.21557    154.36960     0.122181       0.067442       0.117974
-------------------------------------------------------------------------------------
iq =   3 q-vector=   0.00000000   0.50000000   0.00000000
ik =   1 k-vector=   0.00000000   0.00000000   0.00000000
ik+q =  33 k+q-vector=   0.00000000   0.50000000   0.00000000
   iband    jband    nmode    enk[eV]     enk+q[eV]     w(meV)       |g[meV]|              g[meV]
     2        2        1     12.00049     -1.30918     67.63770     0.063806       0.008140      -0.000000
     2        2        2     12.00049     -1.30918     67.63770     0.063984       0.007973      -0.000000
     2        2        3     12.00049     -1.30918    128.77199     0.063982      -0.081645       0.000000
     2        2        4     12.00049     -1.30918    147.90971     0.063809       0.008151      -0.000000
     2        2        5     12.00049     -1.30918    147.90971     0.063969       0.007968      -0.000000
     2        2        6     12.00049     -1.30918    154.36960     0.064001      -0.081708       0.000000
     2        3        1     12.00049      9.21555     67.63770     0.121869       0.191381       0.000000
     2        3        2     12.00049      9.21555     67.63770     0.122126       0.191862      -0.000000
     2        3        3     12.00049      9.21555    128.77199     0.122191       0.096339      -0.000000
     2        3        4     12.00049      9.21555    147.90971     0.121877      -0.191359      -0.000000
     2        3        5     12.00049      9.21555    147.90971     0.122127      -0.191861       0.000000
     2        3        6     12.00049      9.21555    154.36960     0.122181      -0.096338       0.000000
     2        4        1     12.00049      9.21557     67.63770     0.121869      -0.000000       0.124902
     2        4        2     12.00049      9.21557     67.63770     0.122126      -0.000000      -0.124993
     2        4        3     12.00049      9.21557    128.77199     0.122191      -0.000000      -0.000046
     2        4        4     12.00049      9.21557    147.90971     0.121877       0.000000      -0.124931
     2        4        5     12.00049      9.21557    147.90971     0.122127       0.000000       0.124980
     2        4        6     12.00049      9.21557    154.36960     0.122181       0.000000       0.000044
     3        2        1     12.00051     -1.30918     67.63770     0.063806      -0.048138      -0.036786
     3        2        2     12.00051     -1.30918     67.63770     0.063984      -0.049528       0.041748
     3        2        3     12.00051     -1.30918    128.77199     0.063982       0.036288      -0.001666
     3        2        4     12.00051     -1.30918    147.90971     0.063809      -0.048144      -0.036774
     3        2        5     12.00051     -1.30918    147.90971     0.063969      -0.049516       0.041743
     3        2        6     12.00051     -1.30918    154.36960     0.064001       0.036279      -0.001666
     3        3        1     12.00051      9.21555     67.63770     0.121869       0.016589      -0.135666
     3        3        2     12.00051      9.21555     67.63770     0.122126       0.012405       0.134382
     3        3        3     12.00051      9.21555    128.77199     0.122191      -0.020347       0.000945
     3        3        4     12.00051      9.21555    147.90971     0.121877      -0.016584       0.135695
     3        3        5     12.00051      9.21555    147.90971     0.122127      -0.012393      -0.134381
     3        3        6     12.00051      9.21555    154.36960     0.122181       0.020342      -0.000944
     3        4        1     12.00051      9.21557     67.63770     0.121869       0.013293       0.053292
     3        4        2     12.00051      9.21557     67.63770     0.122126       0.008366      -0.053149
     3        4        3     12.00051      9.21557    128.77199     0.122191      -0.245059      -0.003787
     3        4        4     12.00051      9.21557    147.90971     0.121877      -0.013242      -0.053301
     3        4        5     12.00051      9.21557    147.90971     0.122127      -0.008359       0.053165
     3        4        6     12.00051      9.21557    154.36960     0.122181       0.245037       0.003787
     4        2        1     12.00051     -1.30918     67.63770     0.063806       0.067571       0.062537
     4        2        2     12.00051     -1.30918     67.63770     0.063984       0.029941       0.084415
     4        2        3     12.00051     -1.30918    128.77199     0.063982      -0.036320      -0.054556
     4        2        4     12.00051     -1.30918    147.90971     0.063809       0.067571       0.062549
     4        2        5     12.00051     -1.30918    147.90971     0.063969       0.029931       0.084395
     4        2        6     12.00051     -1.30918    154.36960     0.064001      -0.036310      -0.054542
     4        3        1     12.00051      9.21555     67.63770     0.121869       0.050482      -0.058960
     4        3        2     12.00051      9.21555     67.63770     0.122126      -0.079523       0.015382
     4        3        3     12.00051      9.21555    128.77199     0.122191       0.020358       0.030592
     4        3        4     12.00051      9.21555    147.90971     0.121877      -0.050502       0.058959
     4        3        5     12.00051      9.21555    147.90971     0.122127       0.079511      -0.015400
     4        3        6     12.00051      9.21555    154.36960     0.122181      -0.020354      -0.030585
     4        4        1     12.00051      9.21557     67.63770     0.121869       0.082856      -0.047944
     4        4        2     12.00051      9.21557     67.63770     0.122126      -0.077179       0.058568
     4        4        3     12.00051      9.21557    128.77199     0.122191      -0.067448      -0.117985
     4        4        4     12.00051      9.21557    147.90971     0.121877      -0.082855       0.047979
     4        4        5     12.00051      9.21557    147.90971     0.122127       0.077206      -0.058581
     4        4        6     12.00051      9.21557    154.36960     0.122181       0.067442       0.117974
-------------------------------------------------------------------------------------
iq =   4 q-vector=   0.50000000   0.50000000   0.00000000
ik =   1 k-vector=   0.00000000   0.00000000   0.00000000
ik+q =  37 k+q-vector=   0.50000000   0.50000000   0.00000000
   iband    jband    nmode    enk[eV]     enk+q[eV]     w(meV)       |g[meV]|              g[meV]
     2        2        1     12.00049     -0.72265     96.70212     0.006555       0.005355       0.005355
     2        2        2     12.00049     -0.72265     96.70212     0.089500      -0.070915      -0.070915
     2        2        3     12.00049     -0.72265    130.96700     0.089550      -0.070959      -0.070959
     2        2        4     12.00049     -0.72265    130.96700     0.006558      -0.003777      -0.003777
     2        2        5     12.00049     -0.72265    147.67024     0.089513       0.085202       0.085202
     2        2        6     12.00049     -0.72265    147.67024     0.089513       0.085194       0.085193
     2        3        1     12.00049      5.73693     96.70212     0.134763       0.134764      -0.134763
     2        3        2     12.00049      5.73693     96.70212     0.069357       0.049043      -0.049043
     2        3        3     12.00049      5.73693    130.96700     0.069407       0.049078      -0.049078
     2        3        4     12.00049      5.73693    130.96700     0.134768      -0.134767       0.134766
     2        3        5     12.00049      5.73693    147.67024     0.069360      -0.049043       0.049043
     2        3        6     12.00049      5.73693    147.67024     0.069362      -0.049045       0.049044
     2        4        1     12.00049      5.73694     96.70212     0.134763      -0.000000       0.000000
     2        4        2     12.00049      5.73694     96.70212     0.069357      -0.049043       0.049043
     2        4        3     12.00049      5.73694    130.96700     0.069407       0.049079      -0.049079
     2        4        4     12.00049      5.73694    130.96700     0.134768      -0.000000       0.000000
     2        4        5     12.00049      5.73694    147.67024     0.069360      -0.049046       0.049046
     2        4        6     12.00049      5.73694    147.67024     0.069362       0.049047      -0.049047
     3        2        1     12.00051     -0.72265     96.70212     0.006555      -0.007764       0.003908
     3        2        2     12.00051     -0.72265     96.70212     0.089500      -0.051190      -0.002015
     3        2        3     12.00051     -0.72265    130.96700     0.089550      -0.051485       0.053704
     3        2        4     12.00051     -0.72265    130.96700     0.006558       0.005457      -0.002746
     3        2        5     12.00051     -0.72265    147.67024     0.089513       0.061406       0.024396
     3        2        6     12.00051     -0.72265    147.67024     0.089513       0.061925      -0.086494
     3        3        1     12.00051      5.73693     96.70212     0.134763      -0.049090      -0.097532
     3        3        2     12.00051      5.73693     96.70212     0.069357       0.035729       0.070987
     3        3        3     12.00051      5.73693    130.96700     0.069407       0.035755       0.071038
     3        3        4     12.00051      5.73693    130.96700     0.134768       0.049092       0.097536
     3        3        5     12.00051      5.73693    147.67024     0.069360      -0.035731      -0.070991
     3        3        6     12.00051      5.73693    147.67024     0.069362      -0.035732      -0.070993
     3        4        1     12.00051      5.73694     96.70212     0.134763       0.136807       0.000648
     3        4        2     12.00051      5.73694     96.70212     0.069357      -0.035730      -0.070988
     3        4        3     12.00051      5.73694    130.96700     0.069407       0.035755       0.071039
     3        4        4     12.00051      5.73694    130.96700     0.134768       0.136812       0.000648
     3        4        5     12.00051      5.73694    147.67024     0.069360      -0.035732      -0.070992
     3        4        6     12.00051      5.73694    147.67024     0.069362       0.035733       0.070994
     4        2        1     12.00051     -0.72265     96.70212     0.006555      -0.005276       0.003420
     4        2        2     12.00051     -0.72265     96.70212     0.089500      -0.030881       0.060892
     4        2        3     12.00051     -0.72265    130.96700     0.089550      -0.038898      -0.015682
     4        2        4     12.00051     -0.72265    130.96700     0.006558       0.003708      -0.002403
     4        2        5     12.00051     -0.72265    147.67024     0.089513       0.033952      -0.103383
     4        2        6     12.00051     -0.72265    147.67024     0.089513       0.049866       0.049091
     4        3        1     12.00051      5.73693     96.70212     0.134763      -0.042959      -0.066282
     4        3        2     12.00051      5.73693     96.70212     0.069357       0.031267       0.048242
     4        3        3     12.00051      5.73693    130.96700     0.069407       0.031290       0.048277
     4        3        4     12.00051      5.73693    130.96700     0.134768       0.042961       0.066285
     4        3        5     12.00051      5.73693    147.67024     0.069360      -0.031268      -0.048245
     4        3        6     12.00051      5.73693    147.67024     0.069362      -0.031270      -0.048246
     4        4        1     12.00051      5.73694     96.70212     0.134763      -0.188100       0.019637
     4        4        2     12.00051      5.73694     96.70212     0.069357      -0.031267      -0.048243
     4        4        3     12.00051      5.73694    130.96700     0.069407       0.031291       0.048277
     4        4        4     12.00051      5.73694    130.96700     0.134768      -0.188107       0.019638
     4        4        5     12.00051      5.73694    147.67024     0.069360      -0.031269      -0.048245
     4        4        6     12.00051      5.73694    147.67024     0.069362       0.031270       0.048247
-------------------------------------------------------------------------------------
iq =   5 q-vector=   0.00000000   0.00000000   0.50000000
ik =   1 k-vector=   0.00000000   0.00000000   0.00000000
ik+q = 257 k+q-vector=   0.00000000   0.00000000   0.50000000
   iband    jband    nmode    enk[eV]     enk+q[eV]     w(meV)       |g[meV]|              g[meV]
     2        2        1     12.00049     -1.30918     67.63770     0.063806       0.008140      -0.000000
     2        2        2     12.00049     -1.30918     67.63770     0.063984       0.007973      -0.000000
     2        2        3     12.00049     -1.30918    128.77199     0.063982      -0.081645       0.000000
     2        2        4     12.00049     -1.30918    147.90971     0.063809       0.008151      -0.000000
     2        2        5     12.00049     -1.30918    147.90971     0.063969       0.007968      -0.000000
     2        2        6     12.00049     -1.30918    154.36960     0.064001      -0.081708       0.000000
     2        3        1     12.00049      9.21555     67.63770     0.121869       0.191381       0.000000
     2        3        2     12.00049      9.21555     67.63770     0.122126       0.191862      -0.000000
     2        3        3     12.00049      9.21555    128.77199     0.122191       0.096339      -0.000000
     2        3        4     12.00049      9.21555    147.90971     0.121877      -0.191359      -0.000000
     2        3        5     12.00049      9.21555    147.90971     0.122127      -0.191861       0.000000
     2        3        6     12.00049      9.21555    154.36960     0.122181      -0.096338       0.000000
     2        4        1     12.00049      9.21557     67.63770     0.121869      -0.000000       0.124902
     2        4        2     12.00049      9.21557     67.63770     0.122126      -0.000000      -0.124993
     2        4        3     12.00049      9.21557    128.77199     0.122191      -0.000000      -0.000046
     2        4        4     12.00049      9.21557    147.90971     0.121877       0.000000      -0.124931
     2        4        5     12.00049      9.21557    147.90971     0.122127       0.000000       0.124980
     2        4        6     12.00049      9.21557    154.36960     0.122181       0.000000       0.000044
     3        2        1     12.00051     -1.30918     67.63770     0.063806      -0.048138      -0.036786
     3        2        2     12.00051     -1.30918     67.63770     0.063984      -0.049528       0.041748
     3        2        3     12.00051     -1.30918    128.77199     0.063982       0.036288      -0.001666
     3        2        4     12.00051     -1.30918    147.90971     0.063809      -0.048144      -0.036774
     3        2        5     12.00051     -1.30918    147.90971     0.063969      -0.049516       0.041743
     3        2        6     12.00051     -1.30918    154.36960     0.064001       0.036279      -0.001666
     3        3        1     12.00051      9.21555     67.63770     0.121869       0.016589      -0.135666
     3        3        2     12.00051      9.21555     67.63770     0.122126       0.012405       0.134382
     3        3        3     12.00051      9.21555    128.77199     0.122191      -0.020347       0.000945
     3        3        4     12.00051      9.21555    147.90971     0.121877      -0.016584       0.135695
     3        3        5     12.00051      9.21555    147.90971     0.122127      -0.012393      -0.134381
     3        3        6     12.00051      9.21555    154.36960     0.122181       0.020342      -0.000944
     3        4        1     12.00051      9.21557     67.63770     0.121869       0.013293       0.053292
     3        4        2     12.00051      9.21557     67.63770     0.122126       0.008366      -0.053149
     3        4        3     12.00051      9.21557    128.77199     0.122191      -0.245059      -0.003787
     3        4        4     12.00051      9.21557    147.90971     0.121877      -0.013242      -0.053301
     3        4        5     12.00051      9.21557    147.90971     0.122127      -0.008359       0.053165
     3        4        6     12.00051      9.21557    154.36960     0.122181       0.245037       0.003787
     4        2        1     12.00051     -1.30918     67.63770     0.063806       0.067571       0.062537
     4        2        2     12.00051     -1.30918     67.63770     0.063984       0.029941       0.084415
     4        2        3     12.00051     -1.30918    128.77199     0.063982      -0.036320      -0.054556
     4        2        4     12.00051     -1.30918    147.90971     0.063809       0.067571       0.062549
     4        2        5     12.00051     -1.30918    147.90971     0.063969       0.029931       0.084395
     4        2        6     12.00051     -1.30918    154.36960     0.064001      -0.036310      -0.054542
     4        3        1     12.00051      9.21555     67.63770     0.121869       0.050482      -0.058960
     4        3        2     12.00051      9.21555     67.63770     0.122126      -0.079523       0.015382
     4        3        3     12.00051      9.21555    128.77199     0.122191       0.020358       0.030592
     4        3        4     12.00051      9.21555    147.90971     0.121877      -0.050502       0.058959
     4        3        5     12.00051      9.21555    147.90971     0.122127       0.079511      -0.015400
     4        3        6     12.00051      9.21555    154.36960     0.122181      -0.020354      -0.030585
     4        4        1     12.00051      9.21557     67.63770     0.121869       0.082856      -0.047944
     4        4        2     12.00051      9.21557     67.63770     0.122126      -0.077179       0.058568
     4        4        3     12.00051      9.21557    128.77199     0.122191      -0.067448      -0.117985
     4        4        4     12.00051      9.21557    147.90971     0.121877      -0.082855       0.047979
     4        4        5     12.00051      9.21557    147.90971     0.122127       0.077206      -0.058581
     4        4        6     12.00051      9.21557    154.36960     0.122181       0.067442       0.117974
-------------------------------------------------------------------------------------
iq =   6 q-vector=   0.50000000   0.00000000   0.50000000
ik =   1 k-vector=   0.00000000   0.00000000   0.00000000
ik+q = 261 k+q-vector=   0.50000000   0.00000000   0.50000000
   iband    jband    nmode    enk[eV]     enk+q[eV]     w(meV)       |g[meV]|              g[meV]
     2        2        1     12.00049     -0.72265     96.70212     0.006555       0.005355       0.005355
     2        2        2     12.00049     -0.72265     96.70212     0.089500      -0.070915      -0.070915
     2        2        3     12.00049     -0.72265    130.96700     0.089550      -0.070959      -0.070959
     2        2        4     12.00049     -0.72265    130.96700     0.006558      -0.003777      -0.003777
     2        2        5     12.00049     -0.72265    147.67024     0.089513       0.085202       0.085202
     2        2        6     12.00049     -0.72265    147.67024     0.089513       0.085194       0.085193
     2        3        1     12.00049      5.73693     96.70212     0.134763       0.134764      -0.134763
     2        3        2     12.00049      5.73693     96.70212     0.069357       0.049043      -0.049043
     2        3        3     12.00049      5.73693    130.96700     0.069407       0.049078      -0.049078
     2        3        4     12.00049      5.73693    130.96700     0.134768      -0.134767       0.134766
     2        3        5     12.00049      5.73693    147.67024     0.069360      -0.049043       0.049043
     2        3        6     12.00049      5.73693    147.67024     0.069362      -0.049045       0.049044
     2        4        1     12.00049      5.73694     96.70212     0.134763      -0.000000       0.000000
     2        4        2     12.00049      5.73694     96.70212     0.069357      -0.049043       0.049043
     2        4        3     12.00049      5.73694    130.96700     0.069407       0.049079      -0.049079
     2        4        4     12.00049      5.73694    130.96700     0.134768      -0.000000       0.000000
     2        4        5     12.00049      5.73694    147.67024     0.069360      -0.049046       0.049046
     2        4        6     12.00049      5.73694    147.67024     0.069362       0.049047      -0.049047
     3        2        1     12.00051     -0.72265     96.70212     0.006555      -0.007764       0.003908
     3        2        2     12.00051     -0.72265     96.70212     0.089500      -0.051190      -0.002015
     3        2        3     12.00051     -0.72265    130.96700     0.089550      -0.051485       0.053704
     3        2        4     12.00051     -0.72265    130.96700     0.006558       0.005457      -0.002746
     3        2        5     12.00051     -0.72265    147.67024     0.089513       0.061406       0.024396
     3        2        6     12.00051     -0.72265    147.67024     0.089513       0.061925      -0.086494
     3        3        1     12.00051      5.73693     96.70212     0.134763      -0.049090      -0.097532
     3        3        2     12.00051      5.73693     96.70212     0.069357       0.035729       0.070987
     3        3        3     12.00051      5.73693    130.96700     0.069407       0.035755       0.071038
     3        3        4     12.00051      5.73693    130.96700     0.134768       0.049092       0.097536
     3        3        5     12.00051      5.73693    147.67024     0.069360      -0.035731      -0.070991
     3        3        6     12.00051      5.73693    147.67024     0.069362      -0.035732      -0.070993
     3        4        1     12.00051      5.73694     96.70212     0.134763       0.136807       0.000648
     3        4        2     12.00051      5.73694     96.70212     0.069357      -0.035730      -0.070988
     3        4        3     12.00051      5.73694    130.96700     0.069407       0.035755       0.071039
     3        4        4     12.00051      5.73694    130.96700     0.134768       0.136812       0.000648
     3        4        5     12.00051      5.73694    147.67024     0.069360      -0.035732      -0.070992
     3        4        6     12.00051      5.73694    147.67024     0.069362       0.035733       0.070994
     4        2        1     12.00051     -0.72265     96.70212     0.006555      -0.005276       0.003420
     4        2        2     12.00051     -0.72265     96.70212     0.089500      -0.030881       0.060892
     4        2        3     12.00051     -0.72265    130.96700     0.089550      -0.038898      -0.015682
     4        2        4     12.00051     -0.72265    130.96700     0.006558       0.003708      -0.002403
     4        2        5     12.00051     -0.72265    147.67024     0.089513       0.033952      -0.103383
     4        2        6     12.00051     -0.72265    147.67024     0.089513       0.049866       0.049091
     4        3        1     12.00051      5.73693     96.70212     0.134763      -0.042959      -0.066282
     4        3        2     12.00051      5.73693     96.70212     0.069357       0.031267       0.048242
     4        3        3     12.00051      5.73693    130.96700     0.069407       0.031290       0.048277
     4        3        4     12.00051      5.73693    130.96700     0.134768       0.042961       0.066285
     4        3        5     12.00051      5.73693    147.67024     0.069360      -0.031268      -0.048245
     4        3        6     12.00051      5.73693    147.67024     0.069362      -0.031270      -0.048246
     4        4        1     12.00051      5.73694     96.70212     0.134763      -0.188100       0.019637
     4        4        2     12.00051      5.73694     96.70212     0.069357      -0.031267      -0.048243
     4        4        3     12.00051      5.73694    130.96700     0.069407       0.031291       0.048277
     4        4        4     12.00051      5.73694    130.96700     0.134768      -0.188107       0.019638
     4        4        5     12.00051      5.73694    147.67024     0.069360      -0.031269      -0.048245
     4        4        6     12.00051      5.73694    147.67024     0.069362       0.031270       0.048247
-------------------------------------------------------------------------------------
iq =   7 q-vector=   0.00000000   0.50000000   0.50000000
ik =   1 k-vector=   0.00000000   0.00000000   0.00000000
ik+q = 289 k+q-vector=   0.00000000   0.50000000   0.50000000
   iband    jband    nmode    enk[eV]     enk+q[eV]     w(meV)       |g[meV]|              g[meV]
     2        2        1     12.00049     -0.72265     96.70212     0.006555       0.005355       0.005355
     2        2        2     12.00049     -0.72265     96.70212     0.089500      -0.070915      -0.070915
     2        2        3     12.00049     -0.72265    130.96700     0.089550      -0.070959      -0.070959
     2        2        4     12.00049     -0.72265    130.96700     0.006558      -0.003777      -0.003777
     2        2        5     12.00049     -0.72265    147.67024     0.089513       0.085202       0.085202
     2        2        6     12.00049     -0.72265    147.67024     0.089513       0.085194       0.085193
     2        3        1     12.00049      5.73693     96.70212     0.134763       0.134764      -0.134763
     2        3        2     12.00049      5.73693     96.70212     0.069357       0.049043      -0.049043
     2        3        3     12.00049      5.73693    130.96700     0.069407       0.049078      -0.049078
     2        3        4     12.00049      5.73693    130.96700     0.134768      -0.134767       0.134766
     2        3        5     12.00049      5.73693    147.67024     0.069360      -0.049043       0.049043
     2        3        6     12.00049      5.73693    147.67024     0.069362      -0.049045       0.049044
     2        4        1     12.00049      5.73694     96.70212     0.134763      -0.000000       0.000000
     2        4        2     12.00049      5.73694     96.70212     0.069357      -0.049043       0.049043
     2        4        3     12.00049      5.73694    130.96700     0.069407       0.049079      -0.049079
     2        4        4     12.00049      5.73694    130.96700     0.134768      -0.000000       0.000000
     2        4        5     12.00049      5.73694    147.67024     0.069360      -0.049046       0.049046
     2        4        6     12.00049      5.73694    147.67024     0.069362       0.049047      -0.049047
     3        2        1     12.00051     -0.72265     96.70212     0.006555      -0.007764       0.003908
     3        2        2     12.00051     -0.72265     96.70212     0.089500      -0.051190      -0.002015
     3        2        3     12.00051     -0.72265    130.96700     0.089550      -0.051485       0.053704
     3        2        4     12.00051     -0.72265    130.96700     0.006558       0.005457      -0.002746
     3        2        5     12.00051     -0.72265    147.67024     0.089513       0.061406       0.024396
     3        2        6     12.00051     -0.72265    147.67024     0.089513       0.061925      -0.086494
     3        3        1     12.00051      5.73693     96.70212     0.134763      -0.049090      -0.097532
     3        3        2     12.00051      5.73693     96.70212     0.069357       0.035729       0.070987
     3        3        3     12.00051      5.73693    130.96700     0.069407       0.035755       0.071038
     3        3        4     12.00051      5.73693    130.96700     0.134768       0.049092       0.097536
     3        3        5     12.00051      5.73693    147.67024     0.069360      -0.035731      -0.070991
     3        3        6     12.00051      5.73693    147.67024     0.069362      -0.035732      -0.070993
     3        4        1     12.00051      5.73694     96.70212     0.134763       0.136807       0.000648
     3        4        2     12.00051      5.73694     96.70212     0.069357      -0.035730      -0.070988
     3        4        3     12.00051      5.73694    130.96700     0.069407       0.035755       0.071039
     3        4        4     12.00051      5.73694    130.96700     0.134768       0.136812       0.000648
     3        4        5     12.00051      5.73694    147.67024     0.069360      -0.035732      -0.070992
     3        4        6     12.00051      5.73694    147.67024     0.069362       0.035733       0.070994
     4        2        1     12.00051     -0.72265     96.70212     0.006555      -0.005276       0.003420
     4        2        2     12.00051     -0.72265     96.70212     0.089500      -0.030881       0.060892
     4        2        3     12.00051     -0.72265    130.96700     0.089550      -0.038898      -0.015682
     4        2        4     12.00051     -0.72265    130.96700     0.006558       0.003708      -0.002403
     4        2        5     12.00051     -0.72265    147.67024     0.089513       0.033952      -0.103383
     4        2        6     12.00051     -0.72265    147.67024     0.089513       0.049866       0.049091
     4        3        1     12.00051      5.73693     96.70212     0.134763      -0.042959      -0.066282
     4        3        2     12.00051      5.73693     96.70212     0.069357       0.031267       0.048242
     4        3        3     12.00051      5.73693    130.96700     0.069407       0.031290       0.048277
     4        3        4     12.00051      5.73693    130.96700     0.134768       0.042961       0.066285
     4        3        5     12.00051      5.73693    147.67024     0.069360      -0.031268      -0.048245
     4        3        6     12.00051      5.73693    147.67024     0.069362      -0.031270      -0.048246
     4        4        1     12.00051      5.73694     96.70212     0.134763      -0.188100       0.019637
     4        4        2     12.00051      5.73694     96.70212     0.069357      -0.031267      -0.048243
     4        4        3     12.00051      5.73694    130.96700     0.069407       0.031291       0.048277
     4        4        4     12.00051      5.73694    130.96700     0.134768      -0.188107       0.019638
     4        4        5     12.00051      5.73694    147.67024     0.069360      -0.031269      -0.048245
     4        4        6     12.00051      5.73694    147.67024     0.069362       0.031270       0.048247
-------------------------------------------------------------------------------------
iq =   8 q-vector=   0.50000000   0.50000000   0.50000000
ik =   1 k-vector=   0.00000000   0.00000000   0.00000000
ik+q = 293 k+q-vector=   0.50000000   0.50000000   0.50000000
   iband    jband    nmode    enk[eV]     enk+q[eV]     w(meV)       |g[meV]|              g[meV]
     2        2        1     12.00049     -1.30918     67.63770     0.063806       0.008140      -0.000000
     2        2        2     12.00049     -1.30918     67.63770     0.063984       0.007973      -0.000000
     2        2        3     12.00049     -1.30918    128.77199     0.063982      -0.081645       0.000000
     2        2        4     12.00049     -1.30918    147.90971     0.063809       0.008151      -0.000000
     2        2        5     12.00049     -1.30918    147.90971     0.063969       0.007968      -0.000000
     2        2        6     12.00049     -1.30918    154.36960     0.064001      -0.081708       0.000000
     2        3        1     12.00049      9.21555     67.63770     0.121869       0.191381       0.000000
     2        3        2     12.00049      9.21555     67.63770     0.122126       0.191862      -0.000000
     2        3        3     12.00049      9.21555    128.77199     0.122191       0.096339      -0.000000
     2        3        4     12.00049      9.21555    147.90971     0.121877      -0.191359      -0.000000
     2        3        5     12.00049      9.21555    147.90971     0.122127      -0.191861       0.000000
     2        3        6     12.00049      9.21555    154.36960     0.122181      -0.096338       0.000000
     2        4        1     12.00049      9.21557     67.63770     0.121869      -0.000000       0.124902
     2        4        2     12.00049      9.21557     67.63770     0.122126      -0.000000      -0.124993
     2        4        3     12.00049      9.21557    128.77199     0.122191      -0.000000      -0.000046
     2        4        4     12.00049      9.21557    147.90971     0.121877       0.000000      -0.124931
     2        4        5     12.00049      9.21557    147.90971     0.122127       0.000000       0.124980
     2        4        6     12.00049      9.21557    154.36960     0.122181       0.000000       0.000044
     3        2        1     12.00051     -1.30918     67.63770     0.063806      -0.048138      -0.036786
     3        2        2     12.00051     -1.30918     67.63770     0.063984      -0.049528       0.041748
     3        2        3     12.00051     -1.30918    128.77199     0.063982       0.036288      -0.001666
     3        2        4     12.00051     -1.30918    147.90971     0.063809      -0.048144      -0.036774
     3        2        5     12.00051     -1.30918    147.90971     0.063969      -0.049516       0.041743
     3        2        6     12.00051     -1.30918    154.36960     0.064001       0.036279      -0.001666
     3        3        1     12.00051      9.21555     67.63770     0.121869       0.016589      -0.135666
     3        3        2     12.00051      9.21555     67.63770     0.122126       0.012405       0.134382
     3        3        3     12.00051      9.21555    128.77199     0.122191      -0.020347       0.000945
     3        3        4     12.00051      9.21555    147.90971     0.121877      -0.016584       0.135695
     3        3        5     12.00051      9.21555    147.90971     0.122127      -0.012393      -0.134381
     3        3        6     12.00051      9.21555    154.36960     0.122181       0.020342      -0.000944
     3        4        1     12.00051      9.21557     67.63770     0.121869       0.013293       0.053292
     3        4        2     12.00051      9.21557     67.63770     0.122126       0.008366      -0.053149
     3        4        3     12.00051      9.21557    128.77199     0.122191      -0.245059      -0.003787
     3        4        4     12.00051      9.21557    147.90971     0.121877      -0.013242      -0.053301
     3        4        5     12.00051      9.21557    147.90971     0.122127      -0.008359       0.053165
     3        4        6     12.00051      9.21557    154.36960     0.122181       0.245037       0.003787
     4        2        1     12.00051     -1.30918     67.63770     0.063806       0.067571       0.062537
     4        2        2     12.00051     -1.30918     67.63770     0.063984       0.029941       0.084415
     4        2        3     12.00051     -1.30918    128.77199     0.063982      -0.036320      -0.054556
     4        2        4     12.00051     -1.30918    147.90971     0.063809       0.067571       0.062549
     4        2        5     12.00051     -1.30918    147.90971     0.063969       0.029931       0.084395
     4        2        6     12.00051     -1.30918    154.36960     0.064001      -0.036310      -0.054542
     4        3        1     12.00051      9.21555     67.63770     0.121869       0.050482      -0.058960
     4        3        2     12.00051      9.21555     67.63770     0.122126      -0.079523       0.015382
     4        3        3     12.00051      9.21555    128.77199     0.122191       0.020358       0.030592
     4        3        4     12.00051      9.21555    147.90971     0.121877      -0.050502       0.058959
     4        3        5     12.00051      9.21555    147.90971     0.122127       0.079511      -0.015400
     4        3        6     12.00051      9.21555    154.36960     0.122181      -0.020354      -0.030585
     4        4        1     12.00051      9.21557     67.63770     0.121869       0.082856      -0.047944
     4        4        2     12.00051      9.21557     67.63770     0.122126      -0.077179       0.058568
     4        4        3     12.00051      9.21557    128.77199     0.122191      -0.067448      -0.117985
     4        4        4     12.00051      9.21557    147.90971     0.121877      -0.082855       0.047979
     4        4        5     12.00051      9.21557    147.90971     0.122127       0.077206      -0.058581
     4        4        6     12.00051      9.21557    154.36960     0.122181       0.067442       0.117974
