    90 : nkpt; k-point, vkl, wkpt, nmat below
     1   0.000000000       0.000000000       0.000000000      0.6250000000E-02    1383
     2  0.1250000000       0.000000000       0.000000000      0.1250000000E-01    1385
     3  0.2500000000       0.000000000       0.000000000      0.1250000000E-01    1396
     4  0.3750000000       0.000000000       0.000000000      0.1250000000E-01    1402
     5  0.5000000000       0.000000000       0.000000000      0.6250000000E-02    1394
     6   0.000000000      0.2000000000       0.000000000      0.6250000000E-02    1384
     7  0.1250000000      0.2000000000       0.000000000      0.1250000000E-01    1382
     8  0.2500000000      0.2000000000       0.000000000      0.1250000000E-01    1399
     9  0.3750000000      0.2000000000       0.000000000      0.1250000000E-01    1404
    10  0.5000000000      0.2000000000       0.000000000      0.6250000000E-02    1406
    11   0.000000000      0.4000000000       0.000000000      0.6250000000E-02    1396
    12  0.1250000000      0.4000000000       0.000000000      0.1250000000E-01    1389
    13  0.2500000000      0.4000000000       0.000000000      0.1250000000E-01    1400
    14  0.3750000000      0.4000000000       0.000000000      0.1250000000E-01    1401
    15  0.5000000000      0.4000000000       0.000000000      0.6250000000E-02    1402
    16   0.000000000      0.6000000000       0.000000000      0.6250000000E-02    1396
    17  0.1250000000      0.6000000000       0.000000000      0.1250000000E-01    1389
    18  0.2500000000      0.6000000000       0.000000000      0.1250000000E-01    1400
    19  0.3750000000      0.6000000000       0.000000000      0.1250000000E-01    1401
    20  0.5000000000      0.6000000000       0.000000000      0.6250000000E-02    1402
    21   0.000000000      0.8000000000       0.000000000      0.6250000000E-02    1384
    22  0.1250000000      0.8000000000       0.000000000      0.1250000000E-01    1382
    23  0.2500000000      0.8000000000       0.000000000      0.1250000000E-01    1399
    24  0.3750000000      0.8000000000       0.000000000      0.1250000000E-01    1404
    25  0.5000000000      0.8000000000       0.000000000      0.6250000000E-02    1406
    26   0.000000000       0.000000000      0.2500000000      0.1250000000E-01    1399
    27  0.1250000000       0.000000000      0.2500000000      0.1250000000E-01    1389
    28  0.2500000000       0.000000000      0.2500000000      0.1250000000E-01    1391
    29  0.3750000000       0.000000000      0.2500000000      0.1250000000E-01    1381
    30  0.5000000000       0.000000000      0.2500000000      0.1250000000E-01    1388
    31  0.6250000000       0.000000000      0.2500000000      0.1250000000E-01    1381
    32  0.7500000000       0.000000000      0.2500000000      0.1250000000E-01    1391
    33  0.8750000000       0.000000000      0.2500000000      0.1250000000E-01    1389
    34   0.000000000      0.2000000000      0.2500000000      0.1250000000E-01    1390
    35  0.1250000000      0.2000000000      0.2500000000      0.1250000000E-01    1385
    36  0.2500000000      0.2000000000      0.2500000000      0.1250000000E-01    1393
    37  0.3750000000      0.2000000000      0.2500000000      0.1250000000E-01    1392
    38  0.5000000000      0.2000000000      0.2500000000      0.1250000000E-01    1396
    39  0.6250000000      0.2000000000      0.2500000000      0.1250000000E-01    1392
    40  0.7500000000      0.2000000000      0.2500000000      0.1250000000E-01    1393
    41  0.8750000000      0.2000000000      0.2500000000      0.1250000000E-01    1385
    42   0.000000000      0.4000000000      0.2500000000      0.1250000000E-01    1388
    43  0.1250000000      0.4000000000      0.2500000000      0.1250000000E-01    1390
    44  0.2500000000      0.4000000000      0.2500000000      0.1250000000E-01    1394
    45  0.3750000000      0.4000000000      0.2500000000      0.1250000000E-01    1405
    46  0.5000000000      0.4000000000      0.2500000000      0.1250000000E-01    1402
    47  0.6250000000      0.4000000000      0.2500000000      0.1250000000E-01    1405
    48  0.7500000000      0.4000000000      0.2500000000      0.1250000000E-01    1394
    49  0.8750000000      0.4000000000      0.2500000000      0.1250000000E-01    1390
    50   0.000000000      0.6000000000      0.2500000000      0.1250000000E-01    1388
    51  0.1250000000      0.6000000000      0.2500000000      0.1250000000E-01    1390
    52  0.2500000000      0.6000000000      0.2500000000      0.1250000000E-01    1394
    53  0.3750000000      0.6000000000      0.2500000000      0.1250000000E-01    1405
    54  0.5000000000      0.6000000000      0.2500000000      0.1250000000E-01    1402
    55  0.6250000000      0.6000000000      0.2500000000      0.1250000000E-01    1405
    56  0.7500000000      0.6000000000      0.2500000000      0.1250000000E-01    1394
    57  0.8750000000      0.6000000000      0.2500000000      0.1250000000E-01    1390
    58   0.000000000      0.8000000000      0.2500000000      0.1250000000E-01    1390
    59  0.1250000000      0.8000000000      0.2500000000      0.1250000000E-01    1385
    60  0.2500000000      0.8000000000      0.2500000000      0.1250000000E-01    1393
    61  0.3750000000      0.8000000000      0.2500000000      0.1250000000E-01    1392
    62  0.5000000000      0.8000000000      0.2500000000      0.1250000000E-01    1396
    63  0.6250000000      0.8000000000      0.2500000000      0.1250000000E-01    1392
    64  0.7500000000      0.8000000000      0.2500000000      0.1250000000E-01    1393
    65  0.8750000000      0.8000000000      0.2500000000      0.1250000000E-01    1385
    66   0.000000000       0.000000000      0.5000000000      0.6250000000E-02    1400
    67  0.1250000000       0.000000000      0.5000000000      0.1250000000E-01    1394
    68  0.2500000000       0.000000000      0.5000000000      0.1250000000E-01    1438
    69  0.3750000000       0.000000000      0.5000000000      0.1250000000E-01    1388
    70  0.5000000000       0.000000000      0.5000000000      0.6250000000E-02    1392
    71   0.000000000      0.2000000000      0.5000000000      0.6250000000E-02    1394
    72  0.1250000000      0.2000000000      0.5000000000      0.1250000000E-01    1388
    73  0.2500000000      0.2000000000      0.5000000000      0.1250000000E-01    1400
    74  0.3750000000      0.2000000000      0.5000000000      0.1250000000E-01    1398
    75  0.5000000000      0.2000000000      0.5000000000      0.6250000000E-02    1404
    76   0.000000000      0.4000000000      0.5000000000      0.6250000000E-02    1392
    77  0.1250000000      0.4000000000      0.5000000000      0.1250000000E-01    1392
    78  0.2500000000      0.4000000000      0.5000000000      0.1250000000E-01    1390
    79  0.3750000000      0.4000000000      0.5000000000      0.1250000000E-01    1396
    80  0.5000000000      0.4000000000      0.5000000000      0.6250000000E-02    1408
    81   0.000000000      0.6000000000      0.5000000000      0.6250000000E-02    1392
    82  0.1250000000      0.6000000000      0.5000000000      0.1250000000E-01    1392
    83  0.2500000000      0.6000000000      0.5000000000      0.1250000000E-01    1390
    84  0.3750000000      0.6000000000      0.5000000000      0.1250000000E-01    1396
    85  0.5000000000      0.6000000000      0.5000000000      0.6250000000E-02    1408
    86   0.000000000      0.8000000000      0.5000000000      0.6250000000E-02    1394
    87  0.1250000000      0.8000000000      0.5000000000      0.1250000000E-01    1388
    88  0.2500000000      0.8000000000      0.5000000000      0.1250000000E-01    1400
    89  0.3750000000      0.8000000000      0.5000000000      0.1250000000E-01    1398
    90  0.5000000000      0.8000000000      0.5000000000      0.6250000000E-02    1404
