================================================================================
| EXCITING NITROGEN-13 started                                                 =
| version hash id: de0c1dba9f665d6c60514aa9e8bf40326ac9f394                    =
|                                                                              =
|                                                                              =
| Date (DD-MM-YYYY) : 04-05-2022                                               =
| Time (hh:mm:ss)   : 00:08:30                                                 =
|                                                                              =
| All units are atomic (Hartree, Bohr, etc.)                                   =
================================================================================
 
********************************************************************************
* Ground-state run resuming from STATE.OUT                                     *
********************************************************************************
 
++++++++++++++++++++++++++++++++++++++++++++++++++++++++++++++++++++++++++++++++
+ Starting initialization                                                      +
++++++++++++++++++++++++++++++++++++++++++++++++++++++++++++++++++++++++++++++++
 
 Lattice vectors (cartesian) :
      0.0000000000     -3.3759957000     -3.3759957000
     -6.7519914000      0.0000000000      0.0000000000
      0.0000000000     -6.7519914000      6.7519914000
 
 Reciprocal lattice vectors (cartesian) :
      0.0000000000     -0.9305677296     -0.9305677296
     -0.9305677296      0.0000000000      0.0000000000
      0.0000000000     -0.4652838648      0.4652838648
 
 Unit cell volume                           :     307.8191548003
 Brillouin zone volume                      :       0.8058309874
 
 Species :    1 (C)
     parameters loaded from                 :    C.xml
     name                                   :    carbon
     nuclear charge                         :      -6.00000000
     electronic charge                      :       6.00000000
     atomic mass                            :   21894.16673000
     muffin-tin radius                      :       1.25000000
     # of radial points in muffin-tin       :     250
 
     atomic positions (lattice) :
       1 :   0.00000000  0.00000000  0.00000000
       2 :   0.50000000  0.50059242  0.25000000
       3 :   0.00000000  0.00000000  0.50000000
       4 :   0.50000000  0.49940758  0.75000000
       5 :   0.50000000  0.75000000  0.00000000
       6 :   0.00000000  0.25000000  0.25000000
       7 :   0.50000000  0.75000000  0.50000000
       8 :   0.00000000  0.25000000  0.75000000
 
 Total number of atoms per unit cell        :       8
 
 Spin treatment                             :    spin-unpolarised
 
 Number of Bravais lattice symmetries       :       8
 Number of crystal symmetries               :       4
 
 Sphere radius used for k-point grid density:      33.42065234
 
 k-point grid                               :       8    5    4
 Total number of k-points                   :      75
 k-point set is reduced with crystal symmetries
 
 R^MT_min * |G+k|_max (rgkmax)              :       8.00000000
 Species with R^MT_min                      :       1 (C)
 Maximum |G+k| for APW functions            :       6.40000000
 Maximum |G| for potential and density      :      16.00000000
 
 G-vector grid sizes                        :      25    36    50
 Total number of G-vectors                  :   21203
 
 Maximum angular momentum used for
     APW functions                          :       8
     computing H and O matrix elements      :       8
     potential and density                  :       8
     inner part of muffin-tin               :       2
 
 Total nuclear charge                       :     -48.00000000
 Total electronic charge                    :      48.00000000
 Total core charge                          :      16.00000000
 Total valence charge                       :      32.00000000
 
 Number of empty states                     :      20
 Total number of valence states             :      37
 
 Maximum Hamiltonian size                   :    1438
 Maximum number of plane-waves              :    1406
 Total number of local-orbitals             :      32
 
 Exchange-correlation type                  :      20
     Perdew-Burke-Ernzerhof, Phys. Rev. Lett. 77, 3865 (1996)
     Generalised gradient approximation (GGA)
 
 Smearing scheme                            :    Gaussian
 Smearing width                             :       0.00010000
 
 Using multisecant Broyden potential mixing
 
++++++++++++++++++++++++++++++++++++++++++++++++++++++++++++++++++++++++++++++++
+ Ending initialization                                                        +
++++++++++++++++++++++++++++++++++++++++++++++++++++++++++++++++++++++++++++++++
 
********************************************************************************
* Groundstate module started                                                   *
********************************************************************************
 Output level for this task is set to normal
 
++++++++++++++++++++++++++++++++++++++++++++++++++++++++++++++++++++++++++++++++
+ Self-consistent loop started                                                 +
++++++++++++++++++++++++++++++++++++++++++++++++++++++++++++++++++++++++++++++++
 Potential read in from STATE.OUT
 
 
++++++++++++++++++++++++++++++++++++++++++++++++++++++++++++++++++++++++++++++++
+ SCF iteration number :    1                                                  +
++++++++++++++++++++++++++++++++++++++++++++++++++++++++++++++++++++++++++++++++
 Total energy                               :      -304.79423015
 _______________________________________________________________
 Fermi energy                               :         0.51690658
 Kinetic energy                             :       303.61898080
 Coulomb energy                             :      -564.99805699
 Exchange energy                            :       -41.63640544
 Correlation energy                         :        -1.77874851
 
 DOS at Fermi energy (states/Ha/cell)       :         0.00000000
 
 Electron charges :
     core                                   :        16.00000000
     core leakage                           :         0.00340911
     valence                                :        32.00000000
     interstitial                           :        17.96350707
     charge in muffin-tin spheres :
                  atom     1     C          :         3.75459192
                  atom     2     C          :         3.75463830
                  atom     3     C          :         3.75459192
                  atom     4     C          :         3.75441632
                  atom     5     C          :         3.75456396
                  atom     6     C          :         3.75443558
                  atom     7     C          :         3.75456396
                  atom     8     C          :         3.75469098
     total charge in muffin-tins            :        30.03649293
     total charge                           :        48.00000000
 
 Estimated fundamental gap                  :         0.15181168
        valence-band maximum at    1      0.0000  0.0000  0.0000
     conduction-band minimum at   29      0.3750  0.0000  0.2500
 
 Wall time (seconds)                        :        45.49
 
++++++++++++++++++++++++++++++++++++++++++++++++++++++++++++++++++++++++++++++++
+ SCF iteration number :    2                                                  +
++++++++++++++++++++++++++++++++++++++++++++++++++++++++++++++++++++++++++++++++
 Total energy                               :      -304.79389597
 _______________________________________________________________
 Fermi energy                               :         0.51690672
 Kinetic energy                             :       303.61921181
 Coulomb energy                             :      -564.99796132
 Exchange energy                            :       -41.63639698
 Correlation energy                         :        -1.77874949
 
 DOS at Fermi energy (states/Ha/cell)       :         0.00000000
 
 Electron charges :
     core                                   :        16.00000000
     core leakage                           :         0.00340907
     valence                                :        32.00000000
     interstitial                           :        17.96357150
     charge in muffin-tin spheres :
                  atom     1     C          :         3.75456796
                  atom     2     C          :         3.75458147
                  atom     3     C          :         3.75456796
                  atom     4     C          :         3.75446317
                  atom     5     C          :         3.75456210
                  atom     6     C          :         3.75358070
                  atom     7     C          :         3.75456210
                  atom     8     C          :         3.75554304
     total charge in muffin-tins            :        30.03642850
     total charge                           :        48.00000000
 
 Estimated fundamental gap                  :         0.15181283
        valence-band maximum at    1      0.0000  0.0000  0.0000
     conduction-band minimum at   29      0.3750  0.0000  0.2500
 
 Wall time (seconds)                        :        88.77
 
 RMS change in effective potential (target) :  0.226809E-02  ( 0.100000E-05)
 Absolute change in total energy   (target) :  0.334184E-03  ( 0.100000E-05)
 Charge distance                   (target) :  0.255734E-03  ( 0.100000E-04)
 Abs. change in max-nonIBS-force   (target) :  0.926212E-02  ( 0.500000E-04)
 
++++++++++++++++++++++++++++++++++++++++++++++++++++++++++++++++++++++++++++++++
+ SCF iteration number :    3                                                  +
++++++++++++++++++++++++++++++++++++++++++++++++++++++++++++++++++++++++++++++++
 Total energy                               :      -304.79382517
 _______________________________________________________________
 Fermi energy                               :         0.51690664
 Kinetic energy                             :       303.61939296
 Coulomb energy                             :      -564.99806404
 Exchange energy                            :       -41.63640480
 Correlation energy                         :        -1.77874930
 
 DOS at Fermi energy (states/Ha/cell)       :         0.00000000
 
 Electron charges :
     core                                   :        16.00000000
     core leakage                           :         0.00340904
     valence                                :        32.00000000
     interstitial                           :        17.96356242
     charge in muffin-tin spheres :
                  atom     1     C          :         3.75456783
                  atom     2     C          :         3.75464721
                  atom     3     C          :         3.75456783
                  atom     4     C          :         3.75439695
                  atom     5     C          :         3.75456494
                  atom     6     C          :         3.75365708
                  atom     7     C          :         3.75456494
                  atom     8     C          :         3.75547079
     total charge in muffin-tins            :        30.03643758
     total charge                           :        48.00000000
 
 Estimated fundamental gap                  :         0.15181357
        valence-band maximum at    1      0.0000  0.0000  0.0000
     conduction-band minimum at   29      0.3750  0.0000  0.2500
 
 Wall time (seconds)                        :       133.62
 
 RMS change in effective potential (target) :  0.164947E-02  ( 0.100000E-05)
 Absolute change in total energy   (target) :  0.707958E-04  ( 0.100000E-05)
 Charge distance                   (target) :  0.947853E-04  ( 0.100000E-04)
 Abs. change in max-nonIBS-force   (target) :  0.417525E-02  ( 0.500000E-04)
 
++++++++++++++++++++++++++++++++++++++++++++++++++++++++++++++++++++++++++++++++
+ SCF iteration number :    4                                                  +
++++++++++++++++++++++++++++++++++++++++++++++++++++++++++++++++++++++++++++++++
 Total energy                               :      -304.79365656
 _______________________________________________________________
 Fermi energy                               :         0.51690543
 Kinetic energy                             :       303.61978414
 Coulomb energy                             :      -564.99827129
 Exchange energy                            :       -41.63642040
 Correlation energy                         :        -1.77874902
 
 DOS at Fermi energy (states/Ha/cell)       :         0.00000000
 
 Electron charges :
     core                                   :        16.00000000
     core leakage                           :         0.00340895
     valence                                :        32.00000000
     interstitial                           :        17.96355018
     charge in muffin-tin spheres :
                  atom     1     C          :         3.75457974
                  atom     2     C          :         3.75393140
                  atom     3     C          :         3.75457974
                  atom     4     C          :         3.75513146
                  atom     5     C          :         3.75455428
                  atom     6     C          :         3.75435361
                  atom     7     C          :         3.75455428
                  atom     8     C          :         3.75476533
     total charge in muffin-tins            :        30.03644982
     total charge                           :        48.00000000
 
 Estimated fundamental gap                  :         0.15181185
        valence-band maximum at    1      0.0000  0.0000  0.0000
     conduction-band minimum at   29      0.3750  0.0000  0.2500
 
 Wall time (seconds)                        :       178.40
 
 RMS change in effective potential (target) :  0.489279E-03  ( 0.100000E-05)
 Absolute change in total energy   (target) :  0.168608E-03  ( 0.100000E-05)
 Charge distance                   (target) :  0.203510E-03  ( 0.100000E-04)
 Abs. change in max-nonIBS-force   (target) :  0.187768E-02  ( 0.500000E-04)
 
++++++++++++++++++++++++++++++++++++++++++++++++++++++++++++++++++++++++++++++++
+ SCF iteration number :    5                                                  +
++++++++++++++++++++++++++++++++++++++++++++++++++++++++++++++++++++++++++++++++
 Total energy                               :      -304.79363641
 _______________________________________________________________
 Fermi energy                               :         0.51690541
 Kinetic energy                             :       303.61980632
 Coulomb energy                             :      -564.99827311
 Exchange energy                            :       -41.63642056
 Correlation energy                         :        -1.77874906
 
 DOS at Fermi energy (states/Ha/cell)       :         0.00000000
 
 Electron charges :
     core                                   :        16.00000000
     core leakage                           :         0.00340895
     valence                                :        32.00000000
     interstitial                           :        17.96354972
     charge in muffin-tin spheres :
                  atom     1     C          :         3.75456931
                  atom     2     C          :         3.75484044
                  atom     3     C          :         3.75456931
                  atom     4     C          :         3.75420567
                  atom     5     C          :         3.75456729
                  atom     6     C          :         3.75406967
                  atom     7     C          :         3.75456729
                  atom     8     C          :         3.75506131
     total charge in muffin-tins            :        30.03645028
     total charge                           :        48.00000000
 
 Estimated fundamental gap                  :         0.15181333
        valence-band maximum at    1      0.0000  0.0000  0.0000
     conduction-band minimum at   29      0.3750  0.0000  0.2500
 
 Wall time (seconds)                        :       223.45
 
 RMS change in effective potential (target) :  0.275159E-03  ( 0.100000E-05)
 Absolute change in total energy   (target) :  0.201512E-04  ( 0.100000E-05)
 Charge distance                   (target) :  0.140042E-03  ( 0.100000E-04)
 Abs. change in max-nonIBS-force   (target) :  0.206714E-02  ( 0.500000E-04)
 
++++++++++++++++++++++++++++++++++++++++++++++++++++++++++++++++++++++++++++++++
+ SCF iteration number :    6                                                  +
++++++++++++++++++++++++++++++++++++++++++++++++++++++++++++++++++++++++++++++++
 Total energy                               :      -304.79363580
 _______________________________________________________________
 Fermi energy                               :         0.51690595
 Kinetic energy                             :       303.61981167
 Coulomb energy                             :      -564.99827742
 Exchange energy                            :       -41.63642101
 Correlation energy                         :        -1.77874904
 
 DOS at Fermi energy (states/Ha/cell)       :         0.00000000
 
 Electron charges :
     core                                   :        16.00000000
     core leakage                           :         0.00340895
     valence                                :        32.00000000
     interstitial                           :        17.96354889
     charge in muffin-tin spheres :
                  atom     1     C          :         3.75457066
                  atom     2     C          :         3.75459732
                  atom     3     C          :         3.75457066
                  atom     4     C          :         3.75444934
                  atom     5     C          :         3.75456537
                  atom     6     C          :         3.75392624
                  atom     7     C          :         3.75456537
                  atom     8     C          :         3.75520614
     total charge in muffin-tins            :        30.03645111
     total charge                           :        48.00000000
 
 Estimated fundamental gap                  :         0.15181275
        valence-band maximum at    1      0.0000  0.0000  0.0000
     conduction-band minimum at   29      0.3750  0.0000  0.2500
 
 Wall time (seconds)                        :       270.14
 
 RMS change in effective potential (target) :  0.130017E-03  ( 0.100000E-05)
 Absolute change in total energy   (target) :  0.614984E-06  ( 0.100000E-05)
 Charge distance                   (target) :  0.340677E-04  ( 0.100000E-04)
 Abs. change in max-nonIBS-force   (target) :  0.298205E-03  ( 0.500000E-04)
 
++++++++++++++++++++++++++++++++++++++++++++++++++++++++++++++++++++++++++++++++
+ SCF iteration number :    7                                                  +
++++++++++++++++++++++++++++++++++++++++++++++++++++++++++++++++++++++++++++++++
 Total energy                               :      -304.79360296
 _______________________________________________________________
 Fermi energy                               :         0.51690634
 Kinetic energy                             :       303.61983846
 Coulomb energy                             :      -564.99827207
 Exchange energy                            :       -41.63642025
 Correlation energy                         :        -1.77874909
 
 DOS at Fermi energy (states/Ha/cell)       :         0.00000000
 
 Electron charges :
     core                                   :        16.00000000
     core leakage                           :         0.00340895
     valence                                :        32.00000000
     interstitial                           :        17.96355023
     charge in muffin-tin spheres :
                  atom     1     C          :         3.75456849
                  atom     2     C          :         3.75458240
                  atom     3     C          :         3.75456849
                  atom     4     C          :         3.75446648
                  atom     5     C          :         3.75456634
                  atom     6     C          :         3.75393270
                  atom     7     C          :         3.75456634
                  atom     8     C          :         3.75519851
     total charge in muffin-tins            :        30.03644977
     total charge                           :        48.00000000
 
 Estimated fundamental gap                  :         0.15181284
        valence-band maximum at    1      0.0000  0.0000  0.0000
     conduction-band minimum at   29      0.3750  0.0000  0.2500
 
 Wall time (seconds)                        :       314.85
 
 RMS change in effective potential (target) :  0.836420E-04  ( 0.100000E-05)
 Absolute change in total energy   (target) :  0.328418E-04  ( 0.100000E-05)
 Charge distance                   (target) :  0.201695E-04  ( 0.100000E-04)
 Abs. change in max-nonIBS-force   (target) :  0.341654E-03  ( 0.500000E-04)
 
++++++++++++++++++++++++++++++++++++++++++++++++++++++++++++++++++++++++++++++++
+ SCF iteration number :    8                                                  +
++++++++++++++++++++++++++++++++++++++++++++++++++++++++++++++++++++++++++++++++
 Total energy                               :      -304.79353464
 _______________________________________________________________
 Fermi energy                               :         0.51690736
 Kinetic energy                             :       303.61989413
 Coulomb energy                             :      -564.99826082
 Exchange energy                            :       -41.63641877
 Correlation energy                         :        -1.77874919
 
 DOS at Fermi energy (states/Ha/cell)       :         0.00000000
 
 Electron charges :
     core                                   :        16.00000000
     core leakage                           :         0.00340895
     valence                                :        32.00000000
     interstitial                           :        17.96355274
     charge in muffin-tin spheres :
                  atom     1     C          :         3.75457433
                  atom     2     C          :         3.75455958
                  atom     3     C          :         3.75457433
                  atom     4     C          :         3.75448402
                  atom     5     C          :         3.75456132
                  atom     6     C          :         3.75386687
                  atom     7     C          :         3.75456132
                  atom     8     C          :         3.75526551
     total charge in muffin-tins            :        30.03644726
     total charge                           :        48.00000000
 
 Estimated fundamental gap                  :         0.15181277
        valence-band maximum at    1      0.0000  0.0000  0.0000
     conduction-band minimum at   29      0.3750  0.0000  0.2500
 
 Wall time (seconds)                        :       361.27
 
 RMS change in effective potential (target) :  0.116345E-04  ( 0.100000E-05)
 Absolute change in total energy   (target) :  0.683114E-04  ( 0.100000E-05)
 Charge distance                   (target) :  0.228924E-04  ( 0.100000E-04)
 Abs. change in max-nonIBS-force   (target) :  0.661685E-03  ( 0.500000E-04)
 
++++++++++++++++++++++++++++++++++++++++++++++++++++++++++++++++++++++++++++++++
+ SCF iteration number :    9                                                  +
++++++++++++++++++++++++++++++++++++++++++++++++++++++++++++++++++++++++++++++++
 Total energy                               :      -304.79353425
 _______________________________________________________________
 Fermi energy                               :         0.51690742
 Kinetic energy                             :       303.61989552
 Coulomb energy                             :      -564.99826172
 Exchange energy                            :       -41.63641886
 Correlation energy                         :        -1.77874918
 
 DOS at Fermi energy (states/Ha/cell)       :         0.00000000
 
 Electron charges :
     core                                   :        16.00000000
     core leakage                           :         0.00340895
     valence                                :        32.00000000
     interstitial                           :        17.96355257
     charge in muffin-tin spheres :
                  atom     1     C          :         3.75455955
                  atom     2     C          :         3.75457170
                  atom     3     C          :         3.75455955
                  atom     4     C          :         3.75448330
                  atom     5     C          :         3.75457188
                  atom     6     C          :         3.75384276
                  atom     7     C          :         3.75457188
                  atom     8     C          :         3.75528681
     total charge in muffin-tins            :        30.03644743
     total charge                           :        48.00000000
 
 Estimated fundamental gap                  :         0.15181276
        valence-band maximum at    1      0.0000  0.0000  0.0000
     conduction-band minimum at   29      0.3750  0.0000  0.2500
 
 Wall time (seconds)                        :       406.45
 
 RMS change in effective potential (target) :  0.763999E-05  ( 0.100000E-05)
 Absolute change in total energy   (target) :  0.396002E-06  ( 0.100000E-05)
 Charge distance                   (target) :  0.385649E-05  ( 0.100000E-04)
 Abs. change in max-nonIBS-force   (target) :  0.120548E-04  ( 0.500000E-04)
 
++++++++++++++++++++++++++++++++++++++++++++++++++++++++++++++++++++++++++++++++
+ SCF iteration number :   10                                                  +
++++++++++++++++++++++++++++++++++++++++++++++++++++++++++++++++++++++++++++++++
 Total energy                               :      -304.79353260
 _______________________________________________________________
 Fermi energy                               :         0.51690744
 Kinetic energy                             :       303.61989694
 Coulomb energy                             :      -564.99826152
 Exchange energy                            :       -41.63641883
 Correlation energy                         :        -1.77874918
 
 DOS at Fermi energy (states/Ha/cell)       :         0.00000000
 
 Electron charges :
     core                                   :        16.00000000
     core leakage                           :         0.00340895
     valence                                :        32.00000000
     interstitial                           :        17.96355262
     charge in muffin-tin spheres :
                  atom     1     C          :         3.75456856
                  atom     2     C          :         3.75456573
                  atom     3     C          :         3.75456856
                  atom     4     C          :         3.75448127
                  atom     5     C          :         3.75456552
                  atom     6     C          :         3.75384826
                  atom     7     C          :         3.75456552
                  atom     8     C          :         3.75528397
     total charge in muffin-tins            :        30.03644738
     total charge                           :        48.00000000
 
 Estimated fundamental gap                  :         0.15181277
        valence-band maximum at    1      0.0000  0.0000  0.0000
     conduction-band minimum at   29      0.3750  0.0000  0.2500
 
 Wall time (seconds)                        :       450.68
 
 RMS change in effective potential (target) :  0.826490E-06  ( 0.100000E-05)
 Absolute change in total energy   (target) :  0.164939E-05  ( 0.100000E-05)
 Charge distance                   (target) :  0.185726E-05  ( 0.100000E-04)
 Abs. change in max-nonIBS-force   (target) :  0.111208E-04  ( 0.500000E-04)
 
++++++++++++++++++++++++++++++++++++++++++++++++++++++++++++++++++++++++++++++++
+ SCF iteration number :   11                                                  +
++++++++++++++++++++++++++++++++++++++++++++++++++++++++++++++++++++++++++++++++
 Total energy                               :      -304.79353202
 _______________________________________________________________
 Fermi energy                               :         0.51690744
 Kinetic energy                             :       303.61989732
 Coulomb energy                             :      -564.99826134
 Exchange energy                            :       -41.63641881
 Correlation energy                         :        -1.77874919
 
 DOS at Fermi energy (states/Ha/cell)       :         0.00000000
 
 Electron charges :
     core                                   :        16.00000000
     core leakage                           :         0.00340895
     valence                                :        32.00000000
     interstitial                           :        17.96355266
     charge in muffin-tin spheres :
                  atom     1     C          :         3.75456790
                  atom     2     C          :         3.75456493
                  atom     3     C          :         3.75456790
                  atom     4     C          :         3.75448363
                  atom     5     C          :         3.75456590
                  atom     6     C          :         3.75384903
                  atom     7     C          :         3.75456590
                  atom     8     C          :         3.75528216
     total charge in muffin-tins            :        30.03644734
     total charge                           :        48.00000000
 
 Estimated fundamental gap                  :         0.15181276
        valence-band maximum at    1      0.0000  0.0000  0.0000
     conduction-band minimum at   29      0.3750  0.0000  0.2500
 
 Wall time (seconds)                        :       495.43
 
 RMS change in effective potential (target) :  0.619656E-06  ( 0.100000E-05)
 Absolute change in total energy   (target) :  0.578730E-06  ( 0.100000E-05)
 Charge distance                   (target) :  0.401800E-06  ( 0.100000E-04)
 Abs. change in max-nonIBS-force   (target) :  0.356733E-05  ( 0.500000E-04)
 
++++++++++++++++++++++++++++++++++++++++++++++++++++++++++++++++++++++++++++++++
+ SCF iteration number :   12                                                  +
++++++++++++++++++++++++++++++++++++++++++++++++++++++++++++++++++++++++++++++++
 Total energy                               :      -304.79353205
 _______________________________________________________________
 Fermi energy                               :         0.51690744
 Kinetic energy                             :       303.61989728
 Coulomb energy                             :      -564.99826133
 Exchange energy                            :       -41.63641881
 Correlation energy                         :        -1.77874919
 
 DOS at Fermi energy (states/Ha/cell)       :         0.00000000
 
 Electron charges :
     core                                   :        16.00000000
     core leakage                           :         0.00340895
     valence                                :        32.00000000
     interstitial                           :        17.96355266
     charge in muffin-tin spheres :
                  atom     1     C          :         3.75456822
                  atom     2     C          :         3.75456466
                  atom     3     C          :         3.75456822
                  atom     4     C          :         3.75448309
                  atom     5     C          :         3.75456572
                  atom     6     C          :         3.75384832
                  atom     7     C          :         3.75456572
                  atom     8     C          :         3.75528341
     total charge in muffin-tins            :        30.03644734
     total charge                           :        48.00000000
 
 Estimated fundamental gap                  :         0.15181276
        valence-band maximum at    1      0.0000  0.0000  0.0000
     conduction-band minimum at   29      0.3750  0.0000  0.2500
 
 Wall time (seconds)                        :       539.85
 
 RMS change in effective potential (target) :  0.238746E-06  ( 0.100000E-05)
 Absolute change in total energy   (target) :  0.273091E-07  ( 0.100000E-05)
 Charge distance                   (target) :  0.150843E-06  ( 0.100000E-04)
 Abs. change in max-nonIBS-force   (target) :  0.224568E-05  ( 0.500000E-04)
                                                                                
++++++++++++++++++++++++++++++++++++++++++++++++++++++++++++++++++++++++++++++++
| Convergency criteria checked for the last 2 iterations                       +
| Convergence targets achieved. Performing final SCF iteration                 +
++++++++++++++++++++++++++++++++++++++++++++++++++++++++++++++++++++++++++++++++
 Total energy                               :      -304.79353207
 _______________________________________________________________
 Fermi energy                               :         0.51690744
 Kinetic energy                             :       303.61989727
 Coulomb energy                             :      -564.99826134
 Exchange energy                            :       -41.63641881
 Correlation energy                         :        -1.77874919
 
 DOS at Fermi energy (states/Ha/cell)       :         0.00000000
 
 Electron charges :
     core                                   :        16.00000000
     core leakage                           :         0.00340895
     valence                                :        32.00000000
     interstitial                           :        17.96355265
     charge in muffin-tin spheres :
                  atom     1     C          :         3.75456819
                  atom     2     C          :         3.75456510
                  atom     3     C          :         3.75456819
                  atom     4     C          :         3.75448285
                  atom     5     C          :         3.75456572
                  atom     6     C          :         3.75384837
                  atom     7     C          :         3.75456572
                  atom     8     C          :         3.75528321
     total charge in muffin-tins            :        30.03644735
     total charge                           :        48.00000000
 
 Estimated fundamental gap                  :         0.15181276
        valence-band maximum at    1      0.0000  0.0000  0.0000
     conduction-band minimum at   29      0.3750  0.0000  0.2500
 
++++++++++++++++++++++++++++++++++++++++++++++++++++++++++++++++++++++++++++++++
+ Self-consistent loop stopped                                                 +
++++++++++++++++++++++++++++++++++++++++++++++++++++++++++++++++++++++++++++++++
 STATE.OUT is written
 
--------------------------------------------------------------------------------
- Writing atomic positions and forces                                          -
--------------------------------------------------------------------------------
 
 Atomic positions (lattice) :
 atom     1   C  :     0.00000000    0.00000000    0.00000000
 atom     2   C  :     0.50000000    0.50059242    0.25000000
 atom     3   C  :     0.00000000    0.00000000    0.50000000
 atom     4   C  :     0.50000000    0.49940758    0.75000000
 atom     5   C  :     0.50000000    0.75000000    0.00000000
 atom     6   C  :     0.00000000    0.25000000    0.25000000
 atom     7   C  :     0.50000000    0.75000000    0.50000000
 atom     8   C  :     0.00000000    0.25000000    0.75000000
 
 Total atomic forces including IBS (cartesian) :
 atom     1   C  :     0.00000507    0.00011160   -0.00011160
 atom     2   C  :     0.00184619    0.00000000    0.00000000
 atom     3   C  :     0.00000507   -0.00011160    0.00011160
 atom     4   C  :    -0.00183671    0.00000000    0.00000000
 atom     5   C  :    -0.00002553    0.00016524   -0.00016524
 atom     6   C  :    -0.00076427    0.00000000    0.00000000
 atom     7   C  :    -0.00002553   -0.00016524    0.00016524
 atom     8   C  :     0.00079571    0.00000000    0.00000000
 
 Atomic force components including IBS (cartesian) :
 atom     1   C  :    -0.00001892    0.00017218   -0.00017218   HF force
                 :     0.00000944   -0.00005829    0.00005829   core correction
                 :     0.00001454   -0.00000229    0.00000229   IBS correction
 atom     2   C  :     0.00179632   -0.00000000    0.00000000   HF force
                 :     0.00005592    0.00000000   -0.00000000   core correction
                 :    -0.00000604    0.00000000   -0.00000000   IBS correction
 atom     3   C  :    -0.00001892   -0.00017218    0.00017218   HF force
                 :     0.00000944    0.00005829   -0.00005829   core correction
                 :     0.00001454    0.00000229   -0.00000229   IBS correction
 atom     4   C  :    -0.00183527    0.00000000    0.00000000   HF force
                 :    -0.00003650    0.00000000    0.00000000   core correction
                 :     0.00003507    0.00000000   -0.00000000   IBS correction
 atom     5   C  :    -0.00000275    0.00013998   -0.00013998   HF force
                 :    -0.00000831    0.00002832   -0.00002832   core correction
                 :    -0.00001447   -0.00000306    0.00000306   IBS correction
 atom     6   C  :    -0.00092564    0.00000000   -0.00000000   HF force
                 :     0.00016411    0.00000000   -0.00000000   core correction
                 :    -0.00000273   -0.00000000    0.00000000   IBS correction
 atom     7   C  :    -0.00000275   -0.00013998    0.00013998   HF force
                 :    -0.00000831   -0.00002832    0.00002832   core correction
                 :    -0.00001447    0.00000306   -0.00000306   IBS correction
 atom     8   C  :     0.00100794    0.00000000    0.00000000   HF force
                 :    -0.00018580    0.00000000    0.00000000   core correction
                 :    -0.00002643   -0.00000000    0.00000000   IBS correction
 
********************************************************************************
* Groundstate module stopped                                                   *
********************************************************************************
 
 Total time spent (seconds)                 :       651.98
================================================================================
| EXCITING NITROGEN-13 stopped                                                 =
================================================================================
