  0.1002611862E-01
  0.7367590650E-02
  0.1066889075E-02
  0.1303096225E-02
  0.1182706620E-03
  0.8346078150E-04
  0.7245776965E-05
  0.2270223054E-05
  0.1132336296E-05
  0.1853248615E-06
  0.3488404268E-07
  0.1561169237E-07
 
