 
(rotation matrices are in lattice coordinates)
 
 
Species :    1 (C), atom :    1
   4 : nsymsite
 
 Site symmetry :    1
  spatial rotation :
   1   0   0
   0   1   0
   0   0   1
  global spin rotation :
   1   0   0
   0   1   0
   0   0   1
 
 Site symmetry :    2
  spatial rotation :
  -1   0   0
   0   1   0
   0   0  -1
  global spin rotation :
   1   0   0
   0   1   0
   0   0   1
 
 Site symmetry :    3
  spatial rotation :
  -1   0   0
   0   1   0
   0   0   1
  global spin rotation :
   1   0   0
   0   1   0
   0   0   1
 
 Site symmetry :    4
  spatial rotation :
   1   0   0
   0   1   0
   0   0  -1
  global spin rotation :
   1   0   0
   0   1   0
   0   0   1
 
 
Species :    1 (C), atom :    2
   2 : nsymsite
 
 Site symmetry :    1
  spatial rotation :
   1   0   0
   0   1   0
   0   0   1
  global spin rotation :
   1   0   0
   0   1   0
   0   0   1
 
 Site symmetry :    2
  spatial rotation :
  -1   0   0
   0   1   0
   0   0   1
  global spin rotation :
   1   0   0
   0   1   0
   0   0   1
 
 
Species :    1 (C), atom :    3
   4 : nsymsite
 
 Site symmetry :    1
  spatial rotation :
   1   0   0
   0   1   0
   0   0   1
  global spin rotation :
   1   0   0
   0   1   0
   0   0   1
 
 Site symmetry :    2
  spatial rotation :
  -1   0   0
   0   1   0
   0   0  -1
  global spin rotation :
   1   0   0
   0   1   0
   0   0   1
 
 Site symmetry :    3
  spatial rotation :
  -1   0   0
   0   1   0
   0   0   1
  global spin rotation :
   1   0   0
   0   1   0
   0   0   1
 
 Site symmetry :    4
  spatial rotation :
   1   0   0
   0   1   0
   0   0  -1
  global spin rotation :
   1   0   0
   0   1   0
   0   0   1
 
 
Species :    1 (C), atom :    4
   2 : nsymsite
 
 Site symmetry :    1
  spatial rotation :
   1   0   0
   0   1   0
   0   0   1
  global spin rotation :
   1   0   0
   0   1   0
   0   0   1
 
 Site symmetry :    2
  spatial rotation :
  -1   0   0
   0   1   0
   0   0   1
  global spin rotation :
   1   0   0
   0   1   0
   0   0   1
 
 
Species :    1 (C), atom :    5
   4 : nsymsite
 
 Site symmetry :    1
  spatial rotation :
   1   0   0
   0   1   0
   0   0   1
  global spin rotation :
   1   0   0
   0   1   0
   0   0   1
 
 Site symmetry :    2
  spatial rotation :
  -1   0   0
   0   1   0
   0   0  -1
  global spin rotation :
   1   0   0
   0   1   0
   0   0   1
 
 Site symmetry :    3
  spatial rotation :
  -1   0   0
   0   1   0
   0   0   1
  global spin rotation :
   1   0   0
   0   1   0
   0   0   1
 
 Site symmetry :    4
  spatial rotation :
   1   0   0
   0   1   0
   0   0  -1
  global spin rotation :
   1   0   0
   0   1   0
   0   0   1
 
 
Species :    1 (C), atom :    6
   2 : nsymsite
 
 Site symmetry :    1
  spatial rotation :
   1   0   0
   0   1   0
   0   0   1
  global spin rotation :
   1   0   0
   0   1   0
   0   0   1
 
 Site symmetry :    2
  spatial rotation :
  -1   0   0
   0   1   0
   0   0   1
  global spin rotation :
   1   0   0
   0   1   0
   0   0   1
 
 
Species :    1 (C), atom :    7
   4 : nsymsite
 
 Site symmetry :    1
  spatial rotation :
   1   0   0
   0   1   0
   0   0   1
  global spin rotation :
   1   0   0
   0   1   0
   0   0   1
 
 Site symmetry :    2
  spatial rotation :
  -1   0   0
   0   1   0
   0   0  -1
  global spin rotation :
   1   0   0
   0   1   0
   0   0   1
 
 Site symmetry :    3
  spatial rotation :
  -1   0   0
   0   1   0
   0   0   1
  global spin rotation :
   1   0   0
   0   1   0
   0   0   1
 
 Site symmetry :    4
  spatial rotation :
   1   0   0
   0   1   0
   0   0  -1
  global spin rotation :
   1   0   0
   0   1   0
   0   0   1
 
 
Species :    1 (C), atom :    8
   2 : nsymsite
 
 Site symmetry :    1
  spatial rotation :
   1   0   0
   0   1   0
   0   0   1
  global spin rotation :
   1   0   0
   0   1   0
   0   0   1
 
 Site symmetry :    2
  spatial rotation :
  -1   0   0
   0   1   0
   0   0   1
  global spin rotation :
   1   0   0
   0   1   0
   0   0   1
