  0.5441149901      0.7345892194E-04 : is =    1, ia =    1, ip =    1
 -0.3067515372E-01 -0.2984564978E-01 : is =    1, ia =    1, ip =    2
  0.3067515372E-01  0.2984564978E-01 : is =    1, ia =    1, ip =    3
 -0.1080962780     -0.8694820955E-01 : is =    1, ia =    2, ip =    1
 -0.2403579557E-01 -0.1326549952E-01 : is =    1, ia =    2, ip =    2
  0.2403579557E-01  0.1326549952E-01 : is =    1, ia =    2, ip =    3
