 -0.3115901387E-01  0.2979745825E-01 : is =    1, ia =    1, ip =    1
 -0.3350611693E-01 -0.2436303891E-04 : is =    1, ia =    1, ip =    2
  0.4231844912      0.1472329395E-04 : is =    1, ia =    1, ip =    3
 -0.2420451412E-01 -0.1325268689E-01 : is =    1, ia =    2, ip =    1
 -0.7187195865E-01  0.1578087293E-01 : is =    1, ia =    2, ip =    2
 -0.9397796726E-01 -0.8933851437E-01 : is =    1, ia =    2, ip =    3
