   0.000000000      0.6215358083E-01 : is =    1, ia =    1, ip =    1
   0.000000000       0.000000000     : is =    1, ia =    1, ip =    2
  0.5048483616       0.000000000     : is =    1, ia =    1, ip =    3
   0.000000000       0.000000000     : is =    1, ia =    2, ip =    1
 -0.3913598076E-01 -0.3913598076E-01 : is =    1, ia =    2, ip =    2
   0.000000000       0.000000000     : is =    1, ia =    2, ip =    3
