  0.4236306326      0.1167993788E-04 : is =    1, ia =    1, ip =    1
 -0.3377237464E-01 -0.1919069089E-04 : is =    1, ia =    1, ip =    2
  0.3075629897E-01 -0.2975136854E-01 : is =    1, ia =    1, ip =    3
 -0.9380731413E-01 -0.8932755960E-01 : is =    1, ia =    2, ip =    1
 -0.7174590442E-01  0.1582656538E-01 : is =    1, ia =    2, ip =    2
  0.2405883439E-01  0.1333721628E-01 : is =    1, ia =    2, ip =    3
