  0.4199622643     -0.6073420467E-04 : is =    1, ia =    1, ip =    1
  0.3558041846E-01 -0.5417468964E-04 : is =    1, ia =    1, ip =    2
 -0.3558041846E-01  0.5417468964E-04 : is =    1, ia =    1, ip =    3
 -0.2846379351      0.8446303744E-01 : is =    1, ia =    2, ip =    1
  0.1686663763E-01  0.1694903830E-01 : is =    1, ia =    2, ip =    2
 -0.1686663763E-01 -0.1694903830E-01 : is =    1, ia =    2, ip =    3
