 -0.1081457568      0.8686882989E-01 : is =    1, ia =    1, ip =    1
  0.2412875076E-01 -0.1325563635E-01 : is =    1, ia =    1, ip =    2
 -0.2412875076E-01  0.1325563635E-01 : is =    1, ia =    1, ip =    3
  0.5438891602      0.3090329192E-04 : is =    1, ia =    2, ip =    1
  0.3052267344E-01 -0.2979941411E-01 : is =    1, ia =    2, ip =    2
 -0.3052267344E-01  0.2979941411E-01 : is =    1, ia =    2, ip =    3
