  0.3855408992       0.000000000     : is =    1, ia =    1, ip =    1
   0.000000000      0.5016365246E-04 : is =    1, ia =    1, ip =    2
   0.000000000       0.000000000     : is =    1, ia =    1, ip =    3
 -0.1792007393     -0.1792007393     : is =    1, ia =    2, ip =    1
 -0.3955970965E-01  0.3955970965E-01 : is =    1, ia =    2, ip =    2
   0.000000000       0.000000000     : is =    1, ia =    2, ip =    3
