  0.4235737068     -0.3763043410E-04 : is =    1, ia =    1, ip =    1
  0.3364128316E-01 -0.3545389405E-04 : is =    1, ia =    1, ip =    2
 -0.3033215073E-01 -0.2975024414E-01 : is =    1, ia =    1, ip =    3
 -0.8937537870E-01 -0.9413709400E-01 : is =    1, ia =    2, ip =    1
 -0.1580310401E-01  0.7173294029E-01 : is =    1, ia =    2, ip =    2
 -0.1337182813E-01 -0.2403187865E-01 : is =    1, ia =    2, ip =    3
