  0.4960496745E-01   0.000000000     : is =    1, ia =    1, ip =    1
 -0.2064675787       0.000000000     : is =    1, ia =    1, ip =    2
 -0.4960496745E-01   0.000000000     : is =    1, ia =    1, ip =    3
  0.6878360004E-01   0.000000000     : is =    1, ia =    2, ip =    1
  0.4597487209       0.000000000     : is =    1, ia =    2, ip =    2
 -0.6878360004E-01   0.000000000     : is =    1, ia =    2, ip =    3
