  0.4601201767       0.000000000     : is =    1, ia =    1, ip =    1
 -0.6893119550E-01   0.000000000     : is =    1, ia =    1, ip =    2
  0.6893119550E-01   0.000000000     : is =    1, ia =    1, ip =    3
 -0.2060975080       0.000000000     : is =    1, ia =    2, ip =    1
 -0.4946121045E-01   0.000000000     : is =    1, ia =    2, ip =    2
  0.4946121045E-01   0.000000000     : is =    1, ia =    2, ip =    3
