    0.113743316051E-01
    0.318629700697E-02
    0.103838235271E-02
    0.523734533521E-02
    0.157538672354E-05
    0.824223441156E-03
    0.764617844234E-03
    0.259005067173E-03
    0.962334659281E-05
    0.191026052581E-05
    0.609508495295E-06
 
