================================================================================
| EXCITING NITROGEN-13 started                                                 =
| version hash id: de0c1dba9f665d6c60514aa9e8bf40326ac9f394                    =
|                                                                              =
|                                                                              =
| Date (DD-MM-YYYY) : 03-05-2022                                               =
| Time (hh:mm:ss)   : 17:51:05                                                 =
|                                                                              =
| All units are atomic (Hartree, Bohr, etc.)                                   =
================================================================================
 
********************************************************************************
* Ground-state run resuming from STATE.OUT                                     *
********************************************************************************
 
++++++++++++++++++++++++++++++++++++++++++++++++++++++++++++++++++++++++++++++++
+ Starting initialization                                                      +
++++++++++++++++++++++++++++++++++++++++++++++++++++++++++++++++++++++++++++++++
 
 Lattice vectors (cartesian) :
     -3.3759957000     -3.3759957000      0.0000000000
     -3.3759957000      0.0000000000      3.3759957000
      3.3759957000     -6.7519914000      3.3759957000
 
 Reciprocal lattice vectors (cartesian) :
     -0.9305677296     -0.9305677296     -0.9305677296
     -0.4652838648      0.4652838648      1.3958515944
      0.4652838648     -0.4652838648      0.4652838648
 
 Unit cell volume                           :     153.9095774001
 Brillouin zone volume                      :       1.6116619747
 
 Species :    1 (C)
     parameters loaded from                 :    C.xml
     name                                   :    carbon
     nuclear charge                         :      -6.00000000
     electronic charge                      :       6.00000000
     atomic mass                            :   21894.16673000
     muffin-tin radius                      :       1.25000000
     # of radial points in muffin-tin       :     250
 
     atomic positions (lattice) :
       1 :   0.99940758  0.99970379  0.00029621
       2 :   0.00059242  0.50029621  0.49970379
       3 :   0.25000000  0.37500000  0.12500000
       4 :   0.25000000  0.87500000  0.62500000
 
 Total number of atoms per unit cell        :       4
 
 Spin treatment                             :    spin-unpolarised
 
 Number of Bravais lattice symmetries       :      12
 Number of crystal symmetries               :       2
 
 Sphere radius used for k-point grid density:      33.42065234
 
 k-point grid                               :       8    8    5
 Total number of k-points                   :     320
 k-point set is reduced with crystal symmetries
 
 R^MT_min * |G+k|_max (rgkmax)              :       8.00000000
 Species with R^MT_min                      :       1 (C)
 Maximum |G+k| for APW functions            :       6.40000000
 Maximum |G| for potential and density      :      16.00000000
 
 G-vector grid sizes                        :      25    25    45
 Total number of G-vectors                  :   10551
 
 Maximum angular momentum used for
     APW functions                          :       8
     computing H and O matrix elements      :       8
     potential and density                  :       8
     inner part of muffin-tin               :       2
 
 Total nuclear charge                       :     -24.00000000
 Total electronic charge                    :      24.00000000
 Total core charge                          :       8.00000000
 Total valence charge                       :      16.00000000
 
 Number of empty states                     :      20
 Total number of valence states             :      29
 
 Maximum Hamiltonian size                   :     715
 Maximum number of plane-waves              :     699
 Total number of local-orbitals             :      16
 
 Exchange-correlation type                  :      20
     Perdew-Burke-Ernzerhof, Phys. Rev. Lett. 77, 3865 (1996)
     Generalised gradient approximation (GGA)
 
 Smearing scheme                            :    Gaussian
 Smearing width                             :       0.00010000
 
 Using multisecant Broyden potential mixing
 
++++++++++++++++++++++++++++++++++++++++++++++++++++++++++++++++++++++++++++++++
+ Ending initialization                                                        +
++++++++++++++++++++++++++++++++++++++++++++++++++++++++++++++++++++++++++++++++
 
********************************************************************************
* Groundstate module started                                                   *
********************************************************************************
 Output level for this task is set to normal
 
++++++++++++++++++++++++++++++++++++++++++++++++++++++++++++++++++++++++++++++++
+ Self-consistent loop started                                                 +
++++++++++++++++++++++++++++++++++++++++++++++++++++++++++++++++++++++++++++++++
 Supercell potential constructed from STATE.OUT
 
 
++++++++++++++++++++++++++++++++++++++++++++++++++++++++++++++++++++++++++++++++
+ SCF iteration number :    1                                                  +
++++++++++++++++++++++++++++++++++++++++++++++++++++++++++++++++++++++++++++++++
 Total energy                               :      -152.41554191
 _______________________________________________________________
 Fermi energy                               :         0.51575568
 Kinetic energy                             :       151.76159325
 Coulomb energy                             :      -282.47202182
 Exchange energy                            :       -20.81552819
 Correlation energy                         :        -0.88958514
 
 DOS at Fermi energy (states/Ha/cell)       :         0.00000000
 
 Electron charges :
     core                                   :         8.00000000
     core leakage                           :         0.00170447
     valence                                :        16.00000000
     interstitial                           :         8.98951131
     charge in muffin-tin spheres :
                  atom     1     C          :         3.75288038
                  atom     2     C          :         3.75258705
                  atom     3     C          :         3.75308001
                  atom     4     C          :         3.75194125
     total charge in muffin-tins            :        15.01048869
     total charge                           :        24.00000000
 
 Estimated fundamental gap                  :         0.15121644
        valence-band maximum at    1      0.0000  0.0000  0.0000
     conduction-band minimum at  233      0.0000  0.6250  0.6000
 
 Wall time (seconds)                        :        35.45
 
++++++++++++++++++++++++++++++++++++++++++++++++++++++++++++++++++++++++++++++++
+ SCF iteration number :    2                                                  +
++++++++++++++++++++++++++++++++++++++++++++++++++++++++++++++++++++++++++++++++
 Total energy                               :      -152.41615330
 _______________________________________________________________
 Fermi energy                               :         0.51605388
 Kinetic energy                             :       151.77057540
 Coulomb energy                             :      -282.48078185
 Exchange energy                            :       -20.81643176
 Correlation energy                         :        -0.88951509
 
 DOS at Fermi energy (states/Ha/cell)       :         0.00000000
 
 Electron charges :
     core                                   :         8.00000000
     core leakage                           :         0.00170426
     valence                                :        16.00000000
     interstitial                           :         8.98721371
     charge in muffin-tin spheres :
                  atom     1     C          :         3.75316472
                  atom     2     C          :         3.75331644
                  atom     3     C          :         3.75402080
                  atom     4     C          :         3.75228432
     total charge in muffin-tins            :        15.01278629
     total charge                           :        24.00000000
 
 Estimated fundamental gap                  :         0.15155219
        valence-band maximum at    1      0.0000  0.0000  0.0000
     conduction-band minimum at  233      0.0000  0.6250  0.6000
 
 Wall time (seconds)                        :        70.29
 
 RMS change in effective potential (target) :  0.108343E-01  ( 0.100000E-05)
 Absolute change in total energy   (target) :  0.611394E-03  ( 0.100000E-05)
 Charge distance                   (target) :  0.341111E-03  ( 0.100000E-04)
 Abs. change in max-nonIBS-force   (target) :  0.938325E-02  ( 0.500000E-04)
 
++++++++++++++++++++++++++++++++++++++++++++++++++++++++++++++++++++++++++++++++
+ SCF iteration number :    3                                                  +
++++++++++++++++++++++++++++++++++++++++++++++++++++++++++++++++++++++++++++++++
 Total energy                               :      -152.41489522
 _______________________________________________________________
 Fermi energy                               :         0.51632516
 Kinetic energy                             :       151.77895720
 Coulomb energy                             :      -282.48729408
 Exchange energy                            :       -20.81709503
 Correlation energy                         :        -0.88946331
 
 DOS at Fermi energy (states/Ha/cell)       :         0.00000000
 
 Electron charges :
     core                                   :         8.00000000
     core leakage                           :         0.00170415
     valence                                :        16.00000000
     interstitial                           :         8.98545237
     charge in muffin-tin spheres :
                  atom     1     C          :         3.75357827
                  atom     2     C          :         3.75373054
                  atom     3     C          :         3.75449137
                  atom     4     C          :         3.75274746
     total charge in muffin-tins            :        15.01454763
     total charge                           :        24.00000000
 
 Estimated fundamental gap                  :         0.15181771
        valence-band maximum at    1      0.0000  0.0000  0.0000
     conduction-band minimum at  233      0.0000  0.6250  0.6000
 
 Wall time (seconds)                        :       105.42
 
 RMS change in effective potential (target) :  0.793592E-02  ( 0.100000E-05)
 Absolute change in total energy   (target) :  0.125808E-02  ( 0.100000E-05)
 Charge distance                   (target) :  0.243839E-03  ( 0.100000E-04)
 Abs. change in max-nonIBS-force   (target) :  0.135768E-02  ( 0.500000E-04)
 
++++++++++++++++++++++++++++++++++++++++++++++++++++++++++++++++++++++++++++++++
+ SCF iteration number :    4                                                  +
++++++++++++++++++++++++++++++++++++++++++++++++++++++++++++++++++++++++++++++++
 Total energy                               :      -152.39315243
 _______________________________________________________________
 Fermi energy                               :         0.51731490
 Kinetic energy                             :       151.81180080
 Coulomb energy                             :      -282.49753113
 Exchange energy                            :       -20.81803646
 Correlation energy                         :        -0.88938564
 
 DOS at Fermi energy (states/Ha/cell)       :         0.00000000
 
 Electron charges :
     core                                   :         8.00000000
     core leakage                           :         0.00170461
     valence                                :        16.00000000
     interstitial                           :         8.98205650
     charge in muffin-tin spheres :
                  atom     1     C          :         3.75347764
                  atom     2     C          :         3.75533697
                  atom     3     C          :         3.75615197
                  atom     4     C          :         3.75297692
     total charge in muffin-tins            :        15.01794350
     total charge                           :        24.00000000
 
 Estimated fundamental gap                  :         0.15241527
        valence-band maximum at    1      0.0000  0.0000  0.0000
     conduction-band minimum at  153      0.0000  0.3750  0.4000
 
 Wall time (seconds)                        :       141.82
 
 RMS change in effective potential (target) :  0.140443E-02  ( 0.100000E-05)
 Absolute change in total energy   (target) :  0.217428E-01  ( 0.100000E-05)
 Charge distance                   (target) :  0.524412E-03  ( 0.100000E-04)
 Abs. change in max-nonIBS-force   (target) :  0.529545E-02  ( 0.500000E-04)
 
++++++++++++++++++++++++++++++++++++++++++++++++++++++++++++++++++++++++++++++++
+ SCF iteration number :    5                                                  +
++++++++++++++++++++++++++++++++++++++++++++++++++++++++++++++++++++++++++++++++
 Total energy                               :      -152.39640895
 _______________________________________________________________
 Fermi energy                               :         0.51724912
 Kinetic energy                             :       151.81017315
 Coulomb energy                             :      -282.49900577
 Exchange energy                            :       -20.81820285
 Correlation energy                         :        -0.88937347
 
 DOS at Fermi energy (states/Ha/cell)       :         0.00000000
 
 Electron charges :
     core                                   :         8.00000000
     core leakage                           :         0.00170449
     valence                                :        16.00000000
     interstitial                           :         8.98178921
     charge in muffin-tin spheres :
                  atom     1     C          :         3.75620844
                  atom     2     C          :         3.75308027
                  atom     3     C          :         3.75349429
                  atom     4     C          :         3.75542778
     total charge in muffin-tins            :        15.01821079
     total charge                           :        24.00000000
 
 Estimated fundamental gap                  :         0.15247554
        valence-band maximum at    1      0.0000  0.0000  0.0000
     conduction-band minimum at  233      0.0000  0.6250  0.6000
 
 Wall time (seconds)                        :       177.17
 
 RMS change in effective potential (target) :  0.177093E-02  ( 0.100000E-05)
 Absolute change in total energy   (target) :  0.325652E-02  ( 0.100000E-05)
 Charge distance                   (target) :  0.733829E-03  ( 0.100000E-04)
 Abs. change in max-nonIBS-force   (target) :  0.474884E-02  ( 0.500000E-04)
 
++++++++++++++++++++++++++++++++++++++++++++++++++++++++++++++++++++++++++++++++
+ SCF iteration number :    6                                                  +
++++++++++++++++++++++++++++++++++++++++++++++++++++++++++++++++++++++++++++++++
 Total energy                               :      -152.39672599
 _______________________________________________________________
 Fermi energy                               :         0.51724488
 Kinetic energy                             :       151.80994860
 Coulomb energy                             :      -282.49908866
 Exchange energy                            :       -20.81821309
 Correlation energy                         :        -0.88937284
 
 DOS at Fermi energy (states/Ha/cell)       :         0.00000000
 
 Electron charges :
     core                                   :         8.00000000
     core leakage                           :         0.00170448
     valence                                :        16.00000000
     interstitial                           :         8.98176557
     charge in muffin-tin spheres :
                  atom     1     C          :         3.75444038
                  atom     2     C          :         3.75468043
                  atom     3     C          :         3.75533271
                  atom     4     C          :         3.75378091
     total charge in muffin-tins            :        15.01823443
     total charge                           :        24.00000000
 
 Estimated fundamental gap                  :         0.15247616
        valence-band maximum at    1      0.0000  0.0000  0.0000
     conduction-band minimum at  153      0.0000  0.3750  0.4000
 
 Wall time (seconds)                        :       213.16
 
 RMS change in effective potential (target) :  0.917303E-04  ( 0.100000E-05)
 Absolute change in total energy   (target) :  0.317044E-03  ( 0.100000E-05)
 Charge distance                   (target) :  0.517311E-03  ( 0.100000E-04)
 Abs. change in max-nonIBS-force   (target) :  0.587403E-02  ( 0.500000E-04)
 
++++++++++++++++++++++++++++++++++++++++++++++++++++++++++++++++++++++++++++++++
+ SCF iteration number :    7                                                  +
++++++++++++++++++++++++++++++++++++++++++++++++++++++++++++++++++++++++++++++++
 Total energy                               :      -152.39679770
 _______________________________________________________________
 Fermi energy                               :         0.51724436
 Kinetic energy                             :       151.80991269
 Coulomb energy                             :      -282.49912112
 Exchange energy                            :       -20.81821670
 Correlation energy                         :        -0.88937257
 
 DOS at Fermi energy (states/Ha/cell)       :         0.00000000
 
 Electron charges :
     core                                   :         8.00000000
     core leakage                           :         0.00170448
     valence                                :        16.00000000
     interstitial                           :         8.98175939
     charge in muffin-tin spheres :
                  atom     1     C          :         3.75450977
                  atom     2     C          :         3.75452033
                  atom     3     C          :         3.75529295
                  atom     4     C          :         3.75391756
     total charge in muffin-tins            :        15.01824061
     total charge                           :        24.00000000
 
 Estimated fundamental gap                  :         0.15247634
        valence-band maximum at    1      0.0000  0.0000  0.0000
     conduction-band minimum at  233      0.0000  0.6250  0.6000
 
 Wall time (seconds)                        :       248.57
 
 RMS change in effective potential (target) :  0.426934E-04  ( 0.100000E-05)
 Absolute change in total energy   (target) :  0.717069E-04  ( 0.100000E-05)
 Charge distance                   (target) :  0.367511E-04  ( 0.100000E-04)
 Abs. change in max-nonIBS-force   (target) :  0.387295E-03  ( 0.500000E-04)
 
++++++++++++++++++++++++++++++++++++++++++++++++++++++++++++++++++++++++++++++++
+ SCF iteration number :    8                                                  +
++++++++++++++++++++++++++++++++++++++++++++++++++++++++++++++++++++++++++++++++
 Total energy                               :      -152.39678053
 _______________________________________________________________
 Fermi energy                               :         0.51724452
 Kinetic energy                             :       151.80992098
 Coulomb energy                             :      -282.49911307
 Exchange energy                            :       -20.81821579
 Correlation energy                         :        -0.88937264
 
 DOS at Fermi energy (states/Ha/cell)       :         0.00000000
 
 Electron charges :
     core                                   :         8.00000000
     core leakage                           :         0.00170448
     valence                                :        16.00000000
     interstitial                           :         8.98176092
     charge in muffin-tin spheres :
                  atom     1     C          :         3.75451992
                  atom     2     C          :         3.75457890
                  atom     3     C          :         3.75526312
                  atom     4     C          :         3.75387714
     total charge in muffin-tins            :        15.01823908
     total charge                           :        24.00000000
 
 Estimated fundamental gap                  :         0.15247635
        valence-band maximum at    1      0.0000  0.0000  0.0000
     conduction-band minimum at  233      0.0000  0.6250  0.6000
 
 Wall time (seconds)                        :       283.14
 
 RMS change in effective potential (target) :  0.863148E-05  ( 0.100000E-05)
 Absolute change in total energy   (target) :  0.171686E-04  ( 0.100000E-05)
 Charge distance                   (target) :  0.103585E-04  ( 0.100000E-04)
 Abs. change in max-nonIBS-force   (target) :  0.860794E-04  ( 0.500000E-04)
 
++++++++++++++++++++++++++++++++++++++++++++++++++++++++++++++++++++++++++++++++
+ SCF iteration number :    9                                                  +
++++++++++++++++++++++++++++++++++++++++++++++++++++++++++++++++++++++++++++++++
 Total energy                               :      -152.39676265
 _______________________________________________________________
 Fermi energy                               :         0.51724473
 Kinetic energy                             :       151.80992976
 Coulomb energy                             :      -282.49910484
 Exchange energy                            :       -20.81821486
 Correlation energy                         :        -0.88937271
 
 DOS at Fermi energy (states/Ha/cell)       :         0.00000000
 
 Electron charges :
     core                                   :         8.00000000
     core leakage                           :         0.00170448
     valence                                :        16.00000000
     interstitial                           :         8.98176248
     charge in muffin-tin spheres :
                  atom     1     C          :         3.75451063
                  atom     2     C          :         3.75457932
                  atom     3     C          :         3.75527202
                  atom     4     C          :         3.75387554
     total charge in muffin-tins            :        15.01823752
     total charge                           :        24.00000000
 
 Estimated fundamental gap                  :         0.15247625
        valence-band maximum at    1      0.0000  0.0000  0.0000
     conduction-band minimum at  153      0.0000  0.3750  0.4000
 
 Wall time (seconds)                        :       317.59
 
 RMS change in effective potential (target) :  0.267962E-05  ( 0.100000E-05)
 Absolute change in total energy   (target) :  0.178778E-04  ( 0.100000E-05)
 Charge distance                   (target) :  0.245740E-05  ( 0.100000E-04)
 Abs. change in max-nonIBS-force   (target) :  0.285240E-04  ( 0.500000E-04)
 
++++++++++++++++++++++++++++++++++++++++++++++++++++++++++++++++++++++++++++++++
+ SCF iteration number :   10                                                  +
++++++++++++++++++++++++++++++++++++++++++++++++++++++++++++++++++++++++++++++++
 Total energy                               :      -152.39675766
 _______________________________________________________________
 Fermi energy                               :         0.51724478
 Kinetic energy                             :       151.80993230
 Coulomb energy                             :      -282.49910262
 Exchange energy                            :       -20.81821461
 Correlation energy                         :        -0.88937273
 
 DOS at Fermi energy (states/Ha/cell)       :         0.00000000
 
 Electron charges :
     core                                   :         8.00000000
     core leakage                           :         0.00170448
     valence                                :        16.00000000
     interstitial                           :         8.98176290
     charge in muffin-tin spheres :
                  atom     1     C          :         3.75451350
                  atom     2     C          :         3.75457846
                  atom     3     C          :         3.75526964
                  atom     4     C          :         3.75387550
     total charge in muffin-tins            :        15.01823710
     total charge                           :        24.00000000
 
 Estimated fundamental gap                  :         0.15247625
        valence-band maximum at    1      0.0000  0.0000  0.0000
     conduction-band minimum at  153      0.0000  0.3750  0.4000
 
 Wall time (seconds)                        :       353.05
 
 RMS change in effective potential (target) :  0.555035E-06  ( 0.100000E-05)
 Absolute change in total energy   (target) :  0.498951E-05  ( 0.100000E-05)
 Charge distance                   (target) :  0.898843E-06  ( 0.100000E-04)
 Abs. change in max-nonIBS-force   (target) :  0.130461E-04  ( 0.500000E-04)
 
++++++++++++++++++++++++++++++++++++++++++++++++++++++++++++++++++++++++++++++++
+ SCF iteration number :   11                                                  +
++++++++++++++++++++++++++++++++++++++++++++++++++++++++++++++++++++++++++++++++
 Total energy                               :      -152.39675741
 _______________________________________________________________
 Fermi energy                               :         0.51724477
 Kinetic energy                             :       151.80993244
 Coulomb energy                             :      -282.49910253
 Exchange energy                            :       -20.81821459
 Correlation energy                         :        -0.88937273
 
 DOS at Fermi energy (states/Ha/cell)       :         0.00000000
 
 Electron charges :
     core                                   :         8.00000000
     core leakage                           :         0.00170448
     valence                                :        16.00000000
     interstitial                           :         8.98176292
     charge in muffin-tin spheres :
                  atom     1     C          :         3.75451265
                  atom     2     C          :         3.75457837
                  atom     3     C          :         3.75526980
                  atom     4     C          :         3.75387626
     total charge in muffin-tins            :        15.01823708
     total charge                           :        24.00000000
 
 Estimated fundamental gap                  :         0.15247627
        valence-band maximum at    1      0.0000  0.0000  0.0000
     conduction-band minimum at  153      0.0000  0.3750  0.4000
 
 Wall time (seconds)                        :       387.99
 
 RMS change in effective potential (target) :  0.321307E-06  ( 0.100000E-05)
 Absolute change in total energy   (target) :  0.248977E-06  ( 0.100000E-05)
 Charge distance                   (target) :  0.140356E-06  ( 0.100000E-04)
 Abs. change in max-nonIBS-force   (target) :  0.119803E-05  ( 0.500000E-04)
 
++++++++++++++++++++++++++++++++++++++++++++++++++++++++++++++++++++++++++++++++
+ SCF iteration number :   12                                                  +
++++++++++++++++++++++++++++++++++++++++++++++++++++++++++++++++++++++++++++++++
 Total energy                               :      -152.39675732
 _______________________________________________________________
 Fermi energy                               :         0.51724477
 Kinetic energy                             :       151.80993248
 Coulomb energy                             :      -282.49910248
 Exchange energy                            :       -20.81821459
 Correlation energy                         :        -0.88937273
 
 DOS at Fermi energy (states/Ha/cell)       :         0.00000000
 
 Electron charges :
     core                                   :         8.00000000
     core leakage                           :         0.00170448
     valence                                :        16.00000000
     interstitial                           :         8.98176293
     charge in muffin-tin spheres :
                  atom     1     C          :         3.75451277
                  atom     2     C          :         3.75457826
                  atom     3     C          :         3.75527011
                  atom     4     C          :         3.75387593
     total charge in muffin-tins            :        15.01823707
     total charge                           :        24.00000000
 
 Estimated fundamental gap                  :         0.15247627
        valence-band maximum at    1      0.0000  0.0000  0.0000
     conduction-band minimum at  233      0.0000  0.6250  0.6000
 
 Wall time (seconds)                        :       425.54
 
 RMS change in effective potential (target) :  0.344757E-07  ( 0.100000E-05)
 Absolute change in total energy   (target) :  0.928983E-07  ( 0.100000E-05)
 Charge distance                   (target) :  0.636775E-07  ( 0.100000E-04)
 Abs. change in max-nonIBS-force   (target) :  0.774986E-06  ( 0.500000E-04)
                                                                                
++++++++++++++++++++++++++++++++++++++++++++++++++++++++++++++++++++++++++++++++
| Convergency criteria checked for the last 2 iterations                       +
| Convergence targets achieved. Performing final SCF iteration                 +
++++++++++++++++++++++++++++++++++++++++++++++++++++++++++++++++++++++++++++++++
 Total energy                               :      -152.39675730
 _______________________________________________________________
 Fermi energy                               :         0.51724477
 Kinetic energy                             :       151.80993249
 Coulomb energy                             :      -282.49910247
 Exchange energy                            :       -20.81821459
 Correlation energy                         :        -0.88937273
 
 DOS at Fermi energy (states/Ha/cell)       :         0.00000000
 
 Electron charges :
     core                                   :         8.00000000
     core leakage                           :         0.00170448
     valence                                :        16.00000000
     interstitial                           :         8.98176293
     charge in muffin-tin spheres :
                  atom     1     C          :         3.75451276
                  atom     2     C          :         3.75457827
                  atom     3     C          :         3.75527009
                  atom     4     C          :         3.75387595
     total charge in muffin-tins            :        15.01823707
     total charge                           :        24.00000000
 
 Estimated fundamental gap                  :         0.15247627
        valence-band maximum at    1      0.0000  0.0000  0.0000
     conduction-band minimum at  153      0.0000  0.3750  0.4000
 
++++++++++++++++++++++++++++++++++++++++++++++++++++++++++++++++++++++++++++++++
+ Self-consistent loop stopped                                                 +
++++++++++++++++++++++++++++++++++++++++++++++++++++++++++++++++++++++++++++++++
 STATE.OUT is written
 
--------------------------------------------------------------------------------
- Writing atomic positions and forces                                          -
--------------------------------------------------------------------------------
 
 Atomic positions (lattice) :
 atom     1   C  :     0.99940758    0.99970379    0.00029621
 atom     2   C  :     0.00059242    0.50029621    0.49970379
 atom     3   C  :     0.25000000    0.37500000    0.12500000
 atom     4   C  :     0.25000000    0.87500000    0.62500000
 
 Total atomic forces including IBS (cartesian) :
 atom     1   C  :    -0.00183079    0.00026584   -0.00026584
 atom     2   C  :     0.00186003   -0.00029464    0.00029464
 atom     3   C  :     0.00080129    0.00022270   -0.00022270
 atom     4   C  :    -0.00083053   -0.00019391    0.00019391
 
 Atomic force components including IBS (cartesian) :
 atom     1   C  :    -0.00191748    0.00036264   -0.00036264   HF force
                 :     0.00005064   -0.00008535    0.00008535   core correction
                 :     0.00003606   -0.00001145    0.00001145   IBS correction
 atom     2   C  :     0.00186303   -0.00033728    0.00033728   HF force
                 :     0.00000531    0.00004500   -0.00004500   core correction
                 :    -0.00000831   -0.00000236    0.00000236   IBS correction
 atom     3   C  :     0.00097537    0.00015952   -0.00015952   HF force
                 :    -0.00014969    0.00006163   -0.00006163   core correction
                 :    -0.00002440    0.00000154   -0.00000154   IBS correction
 atom     4   C  :    -0.00092092   -0.00018489    0.00018489   HF force
                 :     0.00009374   -0.00002128    0.00002128   core correction
                 :    -0.00000335    0.00001226   -0.00001226   IBS correction
 
********************************************************************************
* Groundstate module stopped                                                   *
********************************************************************************
 
 Total time spent (seconds)                 :       518.94
================================================================================
| EXCITING NITROGEN-13 stopped                                                 =
================================================================================
