 
Species :    1 (C), atom :    1
 APW functions :
  l =  0, order =  1 :   0.1500000000    
  l =  1, order =  1 :   0.4325000000    
  l =  2, order =  1 :   0.1500000000    
  l =  2, order =  2 :   0.1500000000    
  l =  3, order =  1 :   0.1500000000    
  l =  3, order =  2 :   0.1500000000    
  l =  4, order =  1 :   0.1500000000    
  l =  4, order =  2 :   0.1500000000    
  l =  5, order =  1 :   0.1500000000    
  l =  5, order =  2 :   0.1500000000    
  l =  6, order =  1 :   0.1500000000    
  l =  6, order =  2 :   0.1500000000    
  l =  7, order =  1 :   0.1500000000    
  l =  7, order =  2 :   0.1500000000    
  l =  8, order =  1 :   0.1500000000    
  l =  8, order =  2 :   0.1500000000    
 local-orbital functions :
  l.o. =  1, l =  0, order =  1 :   0.1500000000    
  l.o. =  1, l =  0, order =  2 :   0.1500000000    
  l.o. =  2, l =  1, order =  1 :   0.4325000000    
  l.o. =  2, l =  1, order =  2 :   0.4325000000    
 
Species :    1 (C), atom :    2
 APW functions :
  l =  0, order =  1 :   0.1500000000    
  l =  1, order =  1 :   0.4325000000    
  l =  2, order =  1 :   0.1500000000    
  l =  2, order =  2 :   0.1500000000    
  l =  3, order =  1 :   0.1500000000    
  l =  3, order =  2 :   0.1500000000    
  l =  4, order =  1 :   0.1500000000    
  l =  4, order =  2 :   0.1500000000    
  l =  5, order =  1 :   0.1500000000    
  l =  5, order =  2 :   0.1500000000    
  l =  6, order =  1 :   0.1500000000    
  l =  6, order =  2 :   0.1500000000    
  l =  7, order =  1 :   0.1500000000    
  l =  7, order =  2 :   0.1500000000    
  l =  8, order =  1 :   0.1500000000    
  l =  8, order =  2 :   0.1500000000    
 local-orbital functions :
  l.o. =  1, l =  0, order =  1 :   0.1500000000    
  l.o. =  1, l =  0, order =  2 :   0.1500000000    
  l.o. =  2, l =  1, order =  1 :   0.4325000000    
  l.o. =  2, l =  1, order =  2 :   0.4325000000    
 
Species :    1 (C), atom :    3
 APW functions :
  l =  0, order =  1 :   0.1500000000    
  l =  1, order =  1 :   0.4325000000    
  l =  2, order =  1 :   0.1500000000    
  l =  2, order =  2 :   0.1500000000    
  l =  3, order =  1 :   0.1500000000    
  l =  3, order =  2 :   0.1500000000    
  l =  4, order =  1 :   0.1500000000    
  l =  4, order =  2 :   0.1500000000    
  l =  5, order =  1 :   0.1500000000    
  l =  5, order =  2 :   0.1500000000    
  l =  6, order =  1 :   0.1500000000    
  l =  6, order =  2 :   0.1500000000    
  l =  7, order =  1 :   0.1500000000    
  l =  7, order =  2 :   0.1500000000    
  l =  8, order =  1 :   0.1500000000    
  l =  8, order =  2 :   0.1500000000    
 local-orbital functions :
  l.o. =  1, l =  0, order =  1 :   0.1500000000    
  l.o. =  1, l =  0, order =  2 :   0.1500000000    
  l.o. =  2, l =  1, order =  1 :   0.4325000000    
  l.o. =  2, l =  1, order =  2 :   0.4325000000    
 
Species :    1 (C), atom :    4
 APW functions :
  l =  0, order =  1 :   0.1500000000    
  l =  1, order =  1 :   0.4325000000    
  l =  2, order =  1 :   0.1500000000    
  l =  2, order =  2 :   0.1500000000    
  l =  3, order =  1 :   0.1500000000    
  l =  3, order =  2 :   0.1500000000    
  l =  4, order =  1 :   0.1500000000    
  l =  4, order =  2 :   0.1500000000    
  l =  5, order =  1 :   0.1500000000    
  l =  5, order =  2 :   0.1500000000    
  l =  6, order =  1 :   0.1500000000    
  l =  6, order =  2 :   0.1500000000    
  l =  7, order =  1 :   0.1500000000    
  l =  7, order =  2 :   0.1500000000    
  l =  8, order =  1 :   0.1500000000    
  l =  8, order =  2 :   0.1500000000    
 local-orbital functions :
  l.o. =  1, l =  0, order =  1 :   0.1500000000    
  l.o. =  1, l =  0, order =  2 :   0.1500000000    
  l.o. =  2, l =  1, order =  1 :   0.4325000000    
  l.o. =  2, l =  1, order =  2 :   0.4325000000    
