  0.1083432875E-01
  0.7935921874E-02
  0.1404431291E-02
  0.1770928643E-02
  0.9173034014E-04
  0.4269337576E-04
  0.8631482764E-05
  0.2679621042E-05
  0.5550353176E-06
  0.3213074814E-06
  0.3447574156E-07
 
