 
The symmetry group contains spatial inversion symmetry
 (first and second group element and product below)
     1     1          1
     1     2          2
     1     3          3
     1     4          4
     1     5          5
     1     6          6
     1     7          7
     1     8          8
     1     9          9
     1    10         10
     1    11         11
     1    12         12
     1    13         13
     1    14         14
     1    15         15
     1    16         16
     1    17         17
     1    18         18
     1    19         19
     1    20         20
     1    21         21
     1    22         22
     1    23         23
     1    24         24
     2     1          2
     2     2          3
     2     3          1
     2     4          6
     2     5          4
     2     6          5
     2     7          8
     2     8          9
     2     9          7
     2    10         12
     2    11         10
     2    12         11
     2    13         17
     2    14         15
     2    15         18
     2    16         13
     2    17         16
     2    18         14
     2    19         23
     2    20         21
     2    21         24
     2    22         19
     2    23         22
     2    24         20
     3     1          3
     3     2          1
     3     3          2
     3     4          5
     3     5          6
     3     6          4
     3     7          9
     3     8          7
     3     9          8
     3    10         11
     3    11         12
     3    12         10
     3    13         16
     3    14         18
     3    15         14
     3    16         17
     3    17         13
     3    18         15
     3    19         22
     3    20         24
     3    21         20
     3    22         23
     3    23         19
     3    24         21
     4     1          4
     4     2          5
     4     3          6
     4     4          1
     4     5          2
     4     6          3
     4     7         10
     4     8         11
     4     9         12
     4    10          7
     4    11          8
     4    12          9
     4    13         15
     4    14         17
     4    15         13
     4    16         18
     4    17         14
     4    18         16
     4    19         21
     4    20         23
     4    21         19
     4    22         24
     4    23         20
     4    24         22
     5     1          5
     5     2          6
     5     3          4
     5     4          3
     5     5          1
     5     6          2
     5     7         11
     5     8         12
     5     9         10
     5    10          9
     5    11          7
     5    12          8
     5    13         14
     5    14         13
     5    15         16
     5    16         15
     5    17         18
     5    18         17
     5    19         20
     5    20         19
     5    21         22
     5    22         21
     5    23         24
     5    24         23
     6     1          6
     6     2          4
     6     3          5
     6     4          2
     6     5          3
     6     6          1
     6     7         12
     6     8         10
     6     9         11
     6    10          8
     6    11          9
     6    12          7
     6    13         18
     6    14         16
     6    15         17
     6    16         14
     6    17         15
     6    18         13
     6    19         24
     6    20         22
     6    21         23
     6    22         20
     6    23         21
     6    24         19
     7     1          7
     7     2          8
     7     3          9
     7     4         10
     7     5         11
     7     6         12
     7     7          1
     7     8          2
     7     9          3
     7    10          4
     7    11          5
     7    12          6
     7    13         19
     7    14         20
     7    15         21
     7    16         22
     7    17         23
     7    18         24
     7    19         13
     7    20         14
     7    21         15
     7    22         16
     7    23         17
     7    24         18
     8     1          8
     8     2          9
     8     3          7
     8     4         12
     8     5         10
     8     6         11
     8     7          2
     8     8          3
     8     9          1
     8    10          6
     8    11          4
     8    12          5
     8    13         23
     8    14         21
     8    15         24
     8    16         19
     8    17         22
     8    18         20
     8    19         17
     8    20         15
     8    21         18
     8    22         13
     8    23         16
     8    24         14
     9     1          9
     9     2          7
     9     3          8
     9     4         11
     9     5         12
     9     6         10
     9     7          3
     9     8          1
     9     9          2
     9    10          5
     9    11          6
     9    12          4
     9    13         22
     9    14         24
     9    15         20
     9    16         23
     9    17         19
     9    18         21
     9    19         16
     9    20         18
     9    21         14
     9    22         17
     9    23         13
     9    24         15
    10     1         10
    10     2         11
    10     3         12
    10     4          7
    10     5          8
    10     6          9
    10     7          4
    10     8          5
    10     9          6
    10    10          1
    10    11          2
    10    12          3
    10    13         21
    10    14         23
    10    15         19
    10    16         24
    10    17         20
    10    18         22
    10    19         15
    10    20         17
    10    21         13
    10    22         18
    10    23         14
    10    24         16
    11     1         11
    11     2         12
    11     3         10
    11     4          9
    11     5          7
    11     6          8
    11     7          5
    11     8          6
    11     9          4
    11    10          3
    11    11          1
    11    12          2
    11    13         20
    11    14         19
    11    15         22
    11    16         21
    11    17         24
    11    18         23
    11    19         14
    11    20         13
    11    21         16
    11    22         15
    11    23         18
    11    24         17
    12     1         12
    12     2         10
    12     3         11
    12     4          8
    12     5          9
    12     6          7
    12     7          6
    12     8          4
    12     9          5
    12    10          2
    12    11          3
    12    12          1
    12    13         24
    12    14         22
    12    15         23
    12    16         20
    12    17         21
    12    18         19
    12    19         18
    12    20         16
    12    21         17
    12    22         14
    12    23         15
    12    24         13
    13     1         13
    13     2         17
    13     3         16
    13     4         15
    13     5         14
    13     6         18
    13     7         19
    13     8         23
    13     9         22
    13    10         21
    13    11         20
    13    12         24
    13    13          1
    13    14          5
    13    15          4
    13    16          3
    13    17          2
    13    18          6
    13    19          7
    13    20         11
    13    21         10
    13    22          9
    13    23          8
    13    24         12
    14     1         14
    14     2         18
    14     3         15
    14     4         16
    14     5         13
    14     6         17
    14     7         20
    14     8         24
    14     9         21
    14    10         22
    14    11         19
    14    12         23
    14    13          5
    14    14          1
    14    15          3
    14    16          4
    14    17          6
    14    18          2
    14    19         11
    14    20          7
    14    21          9
    14    22         10
    14    23         12
    14    24          8
    15     1         15
    15     2         14
    15     3         18
    15     4         13
    15     5         17
    15     6         16
    15     7         21
    15     8         20
    15     9         24
    15    10         19
    15    11         23
    15    12         22
    15    13          4
    15    14          2
    15    15          1
    15    16          6
    15    17          5
    15    18          3
    15    19         10
    15    20          8
    15    21          7
    15    22         12
    15    23         11
    15    24          9
    16     1         16
    16     2         13
    16     3         17
    16     4         14
    16     5         18
    16     6         15
    16     7         22
    16     8         19
    16     9         23
    16    10         20
    16    11         24
    16    12         21
    16    13          3
    16    14          6
    16    15          5
    16    16          2
    16    17          1
    16    18          4
    16    19          9
    16    20         12
    16    21         11
    16    22          8
    16    23          7
    16    24         10
    17     1         17
    17     2         16
    17     3         13
    17     4         18
    17     5         15
    17     6         14
    17     7         23
    17     8         22
    17     9         19
    17    10         24
    17    11         21
    17    12         20
    17    13          2
    17    14          4
    17    15          6
    17    16          1
    17    17          3
    17    18          5
    17    19          8
    17    20         10
    17    21         12
    17    22          7
    17    23          9
    17    24         11
    18     1         18
    18     2         15
    18     3         14
    18     4         17
    18     5         16
    18     6         13
    18     7         24
    18     8         21
    18     9         20
    18    10         23
    18    11         22
    18    12         19
    18    13          6
    18    14          3
    18    15          2
    18    16          5
    18    17          4
    18    18          1
    18    19         12
    18    20          9
    18    21          8
    18    22         11
    18    23         10
    18    24          7
    19     1         19
    19     2         23
    19     3         22
    19     4         21
    19     5         20
    19     6         24
    19     7         13
    19     8         17
    19     9         16
    19    10         15
    19    11         14
    19    12         18
    19    13          7
    19    14         11
    19    15         10
    19    16          9
    19    17          8
    19    18         12
    19    19          1
    19    20          5
    19    21          4
    19    22          3
    19    23          2
    19    24          6
    20     1         20
    20     2         24
    20     3         21
    20     4         22
    20     5         19
    20     6         23
    20     7         14
    20     8         18
    20     9         15
    20    10         16
    20    11         13
    20    12         17
    20    13         11
    20    14          7
    20    15          9
    20    16         10
    20    17         12
    20    18          8
    20    19          5
    20    20          1
    20    21          3
    20    22          4
    20    23          6
    20    24          2
    21     1         21
    21     2         20
    21     3         24
    21     4         19
    21     5         23
    21     6         22
    21     7         15
    21     8         14
    21     9         18
    21    10         13
    21    11         17
    21    12         16
    21    13         10
    21    14          8
    21    15          7
    21    16         12
    21    17         11
    21    18          9
    21    19          4
    21    20          2
    21    21          1
    21    22          6
    21    23          5
    21    24          3
    22     1         22
    22     2         19
    22     3         23
    22     4         20
    22     5         24
    22     6         21
    22     7         16
    22     8         13
    22     9         17
    22    10         14
    22    11         18
    22    12         15
    22    13          9
    22    14         12
    22    15         11
    22    16          8
    22    17          7
    22    18         10
    22    19          3
    22    20          6
    22    21          5
    22    22          2
    22    23          1
    22    24          4
    23     1         23
    23     2         22
    23     3         19
    23     4         24
    23     5         21
    23     6         20
    23     7         17
    23     8         16
    23     9         13
    23    10         18
    23    11         15
    23    12         14
    23    13          8
    23    14         10
    23    15         12
    23    16          7
    23    17          9
    23    18         11
    23    19          2
    23    20          4
    23    21          6
    23    22          1
    23    23          3
    23    24          5
    24     1         24
    24     2         21
    24     3         20
    24     4         23
    24     5         22
    24     6         19
    24     7         18
    24     8         15
    24     9         14
    24    10         17
    24    11         16
    24    12         13
    24    13         12
    24    14          9
    24    15          8
    24    16         11
    24    17         10
    24    18          7
    24    19          6
    24    20          3
    24    21          2
    24    22          5
    24    23          4
    24    24          1
