 
Species :    1 (C), atom :    1
 n =  1, l =  0, k =  1 :   -9.327441316    
 
Species :    1 (C), atom :    2
 n =  1, l =  0, k =  1 :   -9.327536699    
 
Species :    1 (C), atom :    3
 n =  1, l =  0, k =  1 :   -9.327463363    
 
Species :    1 (C), atom :    4
 n =  1, l =  0, k =  1 :   -9.327395591    
 
Species :    1 (C), atom :    5
 n =  1, l =  0, k =  1 :   -9.327381713    
 
Species :    1 (C), atom :    6
 n =  1, l =  0, k =  1 :   -9.327339493    
 
Species :    1 (C), atom :    7
 n =  1, l =  0, k =  1 :   -9.327466368    
 
Species :    1 (C), atom :    8
 n =  1, l =  0, k =  1 :   -9.327523549    
