================================================================================
| EXCITING NITROGEN-13 started                                                 =
| version hash id: de0c1dba9f665d6c60514aa9e8bf40326ac9f394                    =
|                                                                              =
|                                                                              =
| Date (DD-MM-YYYY) : 04-05-2022                                               =
| Time (hh:mm:ss)   : 12:15:33                                                 =
|                                                                              =
| All units are atomic (Hartree, Bohr, etc.)                                   =
================================================================================
 
********************************************************************************
* Ground-state run resuming from STATE.OUT                                     *
********************************************************************************
 
++++++++++++++++++++++++++++++++++++++++++++++++++++++++++++++++++++++++++++++++
+ Starting initialization                                                      +
++++++++++++++++++++++++++++++++++++++++++++++++++++++++++++++++++++++++++++++++
 
 Lattice vectors (cartesian) :
     -3.3759957000      3.3759957000      0.0000000000
     -3.3759957000     -3.3759957000      6.7519914000
     -6.7519914000     -3.3759957000     -3.3759957000
 
 Reciprocal lattice vectors (cartesian) :
     -0.6979257972      1.1632096620      0.2326419324
     -0.2326419324     -0.2326419324      0.6979257972
     -0.4652838648     -0.4652838648     -0.4652838648
 
 Unit cell volume                           :     307.8191548003
 Brillouin zone volume                      :       0.8058309874
 
 Species :    1 (C)
     parameters loaded from                 :    C.xml
     name                                   :    carbon
     nuclear charge                         :      -6.00000000
     electronic charge                      :       6.00000000
     atomic mass                            :   21894.16673000
     muffin-tin radius                      :       1.25000000
     # of radial points in muffin-tin       :     250
 
     atomic positions (lattice) :
       1 :   0.99911137  0.99970379  0.99940758
       2 :   0.75000000  0.25000000  0.50000000
       3 :   0.50088863  0.50029621  0.00059242
       4 :   0.25000000  0.75000000  0.50000000
       5 :   0.18750000  0.06250000  0.62500000
       6 :   0.93750000  0.31250000  0.12500000
       7 :   0.68750000  0.56250000  0.62500000
       8 :   0.43750000  0.81250000  0.12500000
 
 Total number of atoms per unit cell        :       8
 
 Spin treatment                             :    spin-unpolarised
 
 Number of Bravais lattice symmetries       :       4
 Number of crystal symmetries               :       1
 
 Sphere radius used for k-point grid density:      33.42065234
 
 k-point grid                               :       8    5    5
 Total number of k-points                   :     200
 k-point set is reduced with crystal symmetries
 
 R^MT_min * |G+k|_max (rgkmax)              :       8.00000000
 Species with R^MT_min                      :       1 (C)
 Maximum |G+k| for APW functions            :       6.40000000
 Maximum |G| for potential and density      :      16.00000000
 
 G-vector grid sizes                        :      25    45    45
 Total number of G-vectors                  :   21191
 
 Maximum angular momentum used for
     APW functions                          :       8
     computing H and O matrix elements      :       8
     potential and density                  :       8
     inner part of muffin-tin               :       2
 
 Total nuclear charge                       :     -48.00000000
 Total electronic charge                    :      48.00000000
 Total core charge                          :      16.00000000
 Total valence charge                       :      32.00000000
 
 Number of empty states                     :      20
 Total number of valence states             :      37
 
 Maximum Hamiltonian size                   :    1408
 Maximum number of plane-waves              :    1376
 Total number of local-orbitals             :      32
 
 Exchange-correlation type                  :      20
     Perdew-Burke-Ernzerhof, Phys. Rev. Lett. 77, 3865 (1996)
     Generalised gradient approximation (GGA)
 
 Smearing scheme                            :    Gaussian
 Smearing width                             :       0.00010000
 
 Using multisecant Broyden potential mixing
 
++++++++++++++++++++++++++++++++++++++++++++++++++++++++++++++++++++++++++++++++
+ Ending initialization                                                        +
++++++++++++++++++++++++++++++++++++++++++++++++++++++++++++++++++++++++++++++++
 
********************************************************************************
* Groundstate module started                                                   *
********************************************************************************
 Output level for this task is set to normal
 
++++++++++++++++++++++++++++++++++++++++++++++++++++++++++++++++++++++++++++++++
+ Self-consistent loop started                                                 +
++++++++++++++++++++++++++++++++++++++++++++++++++++++++++++++++++++++++++++++++
 Potential read in from STATE.OUT
 
 
++++++++++++++++++++++++++++++++++++++++++++++++++++++++++++++++++++++++++++++++
+ SCF iteration number :    1                                                  +
++++++++++++++++++++++++++++++++++++++++++++++++++++++++++++++++++++++++++++++++
 Total energy                               :      -304.79356632
 _______________________________________________________________
 Fermi energy                               :         0.51735906
 Kinetic energy                             :       303.61984974
 Coulomb energy                             :      -564.99827292
 Exchange energy                            :       -41.63639037
 Correlation energy                         :        -1.77875278
 
 DOS at Fermi energy (states/Ha/cell)       :         0.00000000
 
 Electron charges :
     core                                   :        16.00000000
     core leakage                           :         0.00340897
     valence                                :        32.00000000
     interstitial                           :        17.96361515
     charge in muffin-tin spheres :
                  atom     1     C          :         3.75450403
                  atom     2     C          :         3.75450721
                  atom     3     C          :         3.75457681
                  atom     4     C          :         3.75451544
                  atom     5     C          :         3.75504812
                  atom     6     C          :         3.75413626
                  atom     7     C          :         3.75409932
                  atom     8     C          :         3.75499765
     total charge in muffin-tins            :        30.03638485
     total charge                           :        48.00000000
 
 Estimated fundamental gap                  :         0.15272933
        valence-band maximum at    1      0.0000  0.0000  0.0000
     conduction-band minimum at  102      0.6250  0.4000  0.4000
 
 Wall time (seconds)                        :       118.43
 
++++++++++++++++++++++++++++++++++++++++++++++++++++++++++++++++++++++++++++++++
+ SCF iteration number :    2                                                  +
++++++++++++++++++++++++++++++++++++++++++++++++++++++++++++++++++++++++++++++++
 Total energy                               :      -304.79349740
 _______________________________________________________________
 Fermi energy                               :         0.51735864
 Kinetic energy                             :       303.61988709
 Coulomb energy                             :      -564.99824483
 Exchange energy                            :       -41.63638661
 Correlation energy                         :        -1.77875306
 
 DOS at Fermi energy (states/Ha/cell)       :         0.00000000
 
 Electron charges :
     core                                   :        16.00000000
     core leakage                           :         0.00340897
     valence                                :        32.00000000
     interstitial                           :        17.96362811
     charge in muffin-tin spheres :
                  atom     1     C          :         3.75449657
                  atom     2     C          :         3.75449234
                  atom     3     C          :         3.75457750
                  atom     4     C          :         3.75453199
                  atom     5     C          :         3.75542361
                  atom     6     C          :         3.75370872
                  atom     7     C          :         3.75372147
                  atom     8     C          :         3.75541969
     total charge in muffin-tins            :        30.03637189
     total charge                           :        48.00000000
 
 Estimated fundamental gap                  :         0.15272812
        valence-band maximum at    1      0.0000  0.0000  0.0000
     conduction-band minimum at  148      0.3750  0.6000  0.6000
 
 Wall time (seconds)                        :       236.82
 
 RMS change in effective potential (target) :  0.111894E-02  ( 0.100000E-05)
 Absolute change in total energy   (target) :  0.689194E-04  ( 0.100000E-05)
 Charge distance                   (target) :  0.234482E-03  ( 0.100000E-04)
 Abs. change in max-nonIBS-force   (target) :  0.109398E-01  ( 0.500000E-04)
 
++++++++++++++++++++++++++++++++++++++++++++++++++++++++++++++++++++++++++++++++
+ SCF iteration number :    3                                                  +
++++++++++++++++++++++++++++++++++++++++++++++++++++++++++++++++++++++++++++++++
 Total energy                               :      -304.79351973
 _______________________________________________________________
 Fermi energy                               :         0.51735880
 Kinetic energy                             :       303.61987723
 Coulomb energy                             :      -564.99825644
 Exchange energy                            :       -41.63638742
 Correlation energy                         :        -1.77875310
 
 DOS at Fermi energy (states/Ha/cell)       :         0.00000000
 
 Electron charges :
     core                                   :        16.00000000
     core leakage                           :         0.00340897
     valence                                :        32.00000000
     interstitial                           :        17.96362377
     charge in muffin-tin spheres :
                  atom     1     C          :         3.75446841
                  atom     2     C          :         3.75449527
                  atom     3     C          :         3.75460575
                  atom     4     C          :         3.75453001
                  atom     5     C          :         3.75540678
                  atom     6     C          :         3.75368830
                  atom     7     C          :         3.75373894
                  atom     8     C          :         3.75544276
     total charge in muffin-tins            :        30.03637623
     total charge                           :        48.00000000
 
 Estimated fundamental gap                  :         0.15272792
        valence-band maximum at    1      0.0000  0.0000  0.0000
     conduction-band minimum at  102      0.6250  0.4000  0.4000
 
 Wall time (seconds)                        :       354.71
 
 RMS change in effective potential (target) :  0.782211E-03  ( 0.100000E-05)
 Absolute change in total energy   (target) :  0.223258E-04  ( 0.100000E-05)
 Charge distance                   (target) :  0.904927E-04  ( 0.100000E-04)
 Abs. change in max-nonIBS-force   (target) :  0.368339E-02  ( 0.500000E-04)
 
++++++++++++++++++++++++++++++++++++++++++++++++++++++++++++++++++++++++++++++++
+ SCF iteration number :    4                                                  +
++++++++++++++++++++++++++++++++++++++++++++++++++++++++++++++++++++++++++++++++
 Total energy                               :      -304.79353439
 _______________________________________________________________
 Fermi energy                               :         0.51735858
 Kinetic energy                             :       303.61987184
 Coulomb energy                             :      -564.99826547
 Exchange energy                            :       -41.63638770
 Correlation energy                         :        -1.77875307
 
 DOS at Fermi energy (states/Ha/cell)       :         0.00000000
 
 Electron charges :
     core                                   :        16.00000000
     core leakage                           :         0.00340897
     valence                                :        32.00000000
     interstitial                           :        17.96361886
     charge in muffin-tin spheres :
                  atom     1     C          :         3.75487490
                  atom     2     C          :         3.75462245
                  atom     3     C          :         3.75419771
                  atom     4     C          :         3.75439324
                  atom     5     C          :         3.75509138
                  atom     6     C          :         3.75455975
                  atom     7     C          :         3.75406158
                  atom     8     C          :         3.75458013
     total charge in muffin-tins            :        30.03638114
     total charge                           :        48.00000000
 
 Estimated fundamental gap                  :         0.15272680
        valence-band maximum at    1      0.0000  0.0000  0.0000
     conduction-band minimum at  102      0.6250  0.4000  0.4000
 
 Wall time (seconds)                        :       473.28
 
 RMS change in effective potential (target) :  0.482824E-03  ( 0.100000E-05)
 Absolute change in total energy   (target) :  0.146606E-04  ( 0.100000E-05)
 Charge distance                   (target) :  0.203905E-03  ( 0.100000E-04)
 Abs. change in max-nonIBS-force   (target) :  0.388123E-02  ( 0.500000E-04)
 
++++++++++++++++++++++++++++++++++++++++++++++++++++++++++++++++++++++++++++++++
+ SCF iteration number :    5                                                  +
++++++++++++++++++++++++++++++++++++++++++++++++++++++++++++++++++++++++++++++++
 Total energy                               :      -304.79356908
 _______________________________________________________________
 Fermi energy                               :         0.51735852
 Kinetic energy                             :       303.61984482
 Coulomb energy                             :      -564.99827204
 Exchange energy                            :       -41.63638877
 Correlation energy                         :        -1.77875309
 
 DOS at Fermi energy (states/Ha/cell)       :         0.00000000
 
 Electron charges :
     core                                   :        16.00000000
     core leakage                           :         0.00340897
     valence                                :        32.00000000
     interstitial                           :        17.96361661
     charge in muffin-tin spheres :
                  atom     1     C          :         3.75442522
                  atom     2     C          :         3.75445432
                  atom     3     C          :         3.75465159
                  atom     4     C          :         3.75457078
                  atom     5     C          :         3.75517847
                  atom     6     C          :         3.75383685
                  atom     7     C          :         3.75396750
                  atom     8     C          :         3.75529866
     total charge in muffin-tins            :        30.03638339
     total charge                           :        48.00000000
 
 Estimated fundamental gap                  :         0.15272701
        valence-band maximum at    1      0.0000  0.0000  0.0000
     conduction-band minimum at  148      0.3750  0.6000  0.6000
 
 Wall time (seconds)                        :       592.84
 
 RMS change in effective potential (target) :  0.155615E-03  ( 0.100000E-05)
 Absolute change in total energy   (target) :  0.346885E-04  ( 0.100000E-05)
 Charge distance                   (target) :  0.133366E-03  ( 0.100000E-04)
 Abs. change in max-nonIBS-force   (target) :  0.212618E-02  ( 0.500000E-04)
 
++++++++++++++++++++++++++++++++++++++++++++++++++++++++++++++++++++++++++++++++
+ SCF iteration number :    6                                                  +
++++++++++++++++++++++++++++++++++++++++++++++++++++++++++++++++++++++++++++++++
 Total energy                               :      -304.79356895
 _______________________________________________________________
 Fermi energy                               :         0.51735863
 Kinetic energy                             :       303.61984549
 Coulomb energy                             :      -564.99827244
 Exchange energy                            :       -41.63638891
 Correlation energy                         :        -1.77875310
 
 DOS at Fermi energy (states/Ha/cell)       :         0.00000000
 
 Electron charges :
     core                                   :        16.00000000
     core leakage                           :         0.00340897
     valence                                :        32.00000000
     interstitial                           :        17.96361638
     charge in muffin-tin spheres :
                  atom     1     C          :         3.75452352
                  atom     2     C          :         3.75453835
                  atom     3     C          :         3.75455170
                  atom     4     C          :         3.75448578
                  atom     5     C          :         3.75530695
                  atom     6     C          :         3.75386651
                  atom     7     C          :         3.75384158
                  atom     8     C          :         3.75526924
     total charge in muffin-tins            :        30.03638362
     total charge                           :        48.00000000
 
 Estimated fundamental gap                  :         0.15272701
        valence-band maximum at    1      0.0000  0.0000  0.0000
     conduction-band minimum at  148      0.3750  0.6000  0.6000
 
 Wall time (seconds)                        :       713.53
 
 RMS change in effective potential (target) :  0.958711E-04  ( 0.100000E-05)
 Absolute change in total energy   (target) :  0.125836E-06  ( 0.100000E-05)
 Charge distance                   (target) :  0.261496E-04  ( 0.100000E-04)
 Abs. change in max-nonIBS-force   (target) :  0.208041E-03  ( 0.500000E-04)
 
++++++++++++++++++++++++++++++++++++++++++++++++++++++++++++++++++++++++++++++++
+ SCF iteration number :    7                                                  +
++++++++++++++++++++++++++++++++++++++++++++++++++++++++++++++++++++++++++++++++
 Total energy                               :      -304.79356145
 _______________________________________________________________
 Fermi energy                               :         0.51735868
 Kinetic energy                             :       303.61985177
 Coulomb energy                             :      -564.99827139
 Exchange energy                            :       -41.63638873
 Correlation energy                         :        -1.77875310
 
 DOS at Fermi energy (states/Ha/cell)       :         0.00000000
 
 Electron charges :
     core                                   :        16.00000000
     core leakage                           :         0.00340897
     valence                                :        32.00000000
     interstitial                           :        17.96361677
     charge in muffin-tin spheres :
                  atom     1     C          :         3.75450753
                  atom     2     C          :         3.75450227
                  atom     3     C          :         3.75456776
                  atom     4     C          :         3.75452201
                  atom     5     C          :         3.75526488
                  atom     6     C          :         3.75386861
                  atom     7     C          :         3.75388271
                  atom     8     C          :         3.75526747
     total charge in muffin-tins            :        30.03638323
     total charge                           :        48.00000000
 
 Estimated fundamental gap                  :         0.15272701
        valence-band maximum at    1      0.0000  0.0000  0.0000
     conduction-band minimum at  102      0.6250  0.4000  0.4000
 
 Wall time (seconds)                        :       832.00
 
 RMS change in effective potential (target) :  0.759763E-04  ( 0.100000E-05)
 Absolute change in total energy   (target) :  0.750561E-05  ( 0.100000E-05)
 Charge distance                   (target) :  0.123353E-04  ( 0.100000E-04)
 Abs. change in max-nonIBS-force   (target) :  0.502332E-03  ( 0.500000E-04)
 
++++++++++++++++++++++++++++++++++++++++++++++++++++++++++++++++++++++++++++++++
+ SCF iteration number :    8                                                  +
++++++++++++++++++++++++++++++++++++++++++++++++++++++++++++++++++++++++++++++++
 Total energy                               :      -304.79355660
 _______________________________________________________________
 Fermi energy                               :         0.51735873
 Kinetic energy                             :       303.61985576
 Coulomb energy                             :      -564.99827065
 Exchange energy                            :       -41.63638861
 Correlation energy                         :        -1.77875310
 
 DOS at Fermi energy (states/Ha/cell)       :         0.00000000
 
 Electron charges :
     core                                   :        16.00000000
     core leakage                           :         0.00340897
     valence                                :        32.00000000
     interstitial                           :        17.96361703
     charge in muffin-tin spheres :
                  atom     1     C          :         3.75451291
                  atom     2     C          :         3.75451505
                  atom     3     C          :         3.75456283
                  atom     4     C          :         3.75450916
                  atom     5     C          :         3.75528961
                  atom     6     C          :         3.75385813
                  atom     7     C          :         3.75385806
                  atom     8     C          :         3.75527722
     total charge in muffin-tins            :        30.03638297
     total charge                           :        48.00000000
 
 Estimated fundamental gap                  :         0.15272701
        valence-band maximum at    1      0.0000  0.0000  0.0000
     conduction-band minimum at  102      0.6250  0.4000  0.4000
 
 Wall time (seconds)                        :       951.51
 
 RMS change in effective potential (target) :  0.554573E-04  ( 0.100000E-05)
 Absolute change in total energy   (target) :  0.484868E-05  ( 0.100000E-05)
 Charge distance                   (target) :  0.794268E-05  ( 0.100000E-04)
 Abs. change in max-nonIBS-force   (target) :  0.703037E-03  ( 0.500000E-04)
 
++++++++++++++++++++++++++++++++++++++++++++++++++++++++++++++++++++++++++++++++
+ SCF iteration number :    9                                                  +
++++++++++++++++++++++++++++++++++++++++++++++++++++++++++++++++++++++++++++++++
 Total energy                               :      -304.79354463
 _______________________________________________________________
 Fermi energy                               :         0.51735883
 Kinetic energy                             :       303.61986568
 Coulomb energy                             :      -564.99826887
 Exchange energy                            :       -41.63638833
 Correlation energy                         :        -1.77875311
 
 DOS at Fermi energy (states/Ha/cell)       :         0.00000000
 
 Electron charges :
     core                                   :        16.00000000
     core leakage                           :         0.00340897
     valence                                :        32.00000000
     interstitial                           :        17.96361766
     charge in muffin-tin spheres :
                  atom     1     C          :         3.75451971
                  atom     2     C          :         3.75450656
                  atom     3     C          :         3.75455524
                  atom     4     C          :         3.75451766
                  atom     5     C          :         3.75529660
                  atom     6     C          :         3.75384061
                  atom     7     C          :         3.75385096
                  atom     8     C          :         3.75529500
     total charge in muffin-tins            :        30.03638234
     total charge                           :        48.00000000
 
 Estimated fundamental gap                  :         0.15272699
        valence-band maximum at    1      0.0000  0.0000  0.0000
     conduction-band minimum at  102      0.6250  0.4000  0.4000
 
 Wall time (seconds)                        :      1069.90
 
 RMS change in effective potential (target) :  0.155798E-04  ( 0.100000E-05)
 Absolute change in total energy   (target) :  0.119685E-04  ( 0.100000E-05)
 Charge distance                   (target) :  0.136937E-04  ( 0.100000E-04)
 Abs. change in max-nonIBS-force   (target) :  0.635607E-03  ( 0.500000E-04)
 
++++++++++++++++++++++++++++++++++++++++++++++++++++++++++++++++++++++++++++++++
+ SCF iteration number :   10                                                  +
++++++++++++++++++++++++++++++++++++++++++++++++++++++++++++++++++++++++++++++++
 Total energy                               :      -304.79354148
 _______________________________________________________________
 Fermi energy                               :         0.51735887
 Kinetic energy                             :       303.61986835
 Coulomb energy                             :      -564.99826845
 Exchange energy                            :       -41.63638828
 Correlation energy                         :        -1.77875311
 
 DOS at Fermi energy (states/Ha/cell)       :         0.00000000
 
 Electron charges :
     core                                   :        16.00000000
     core leakage                           :         0.00340897
     valence                                :        32.00000000
     interstitial                           :        17.96361781
     charge in muffin-tin spheres :
                  atom     1     C          :         3.75451711
                  atom     2     C          :         3.75450524
                  atom     3     C          :         3.75455960
                  atom     4     C          :         3.75451889
                  atom     5     C          :         3.75531430
                  atom     6     C          :         3.75383871
                  atom     7     C          :         3.75383290
                  atom     8     C          :         3.75529543
     total charge in muffin-tins            :        30.03638219
     total charge                           :        48.00000000
 
 Estimated fundamental gap                  :         0.15272700
        valence-band maximum at    1      0.0000  0.0000  0.0000
     conduction-band minimum at  148      0.3750  0.6000  0.6000
 
 Wall time (seconds)                        :      1189.30
 
 RMS change in effective potential (target) :  0.437886E-05  ( 0.100000E-05)
 Absolute change in total energy   (target) :  0.314656E-05  ( 0.100000E-05)
 Charge distance                   (target) :  0.471138E-05  ( 0.100000E-04)
 Abs. change in max-nonIBS-force   (target) :  0.133434E-03  ( 0.500000E-04)
 
++++++++++++++++++++++++++++++++++++++++++++++++++++++++++++++++++++++++++++++++
+ SCF iteration number :   11                                                  +
++++++++++++++++++++++++++++++++++++++++++++++++++++++++++++++++++++++++++++++++
 Total energy                               :      -304.79354130
 _______________________________________________________________
 Fermi energy                               :         0.51735887
 Kinetic energy                             :       303.61986849
 Coulomb energy                             :      -564.99826841
 Exchange energy                            :       -41.63638827
 Correlation energy                         :        -1.77875311
 
 DOS at Fermi energy (states/Ha/cell)       :         0.00000000
 
 Electron charges :
     core                                   :        16.00000000
     core leakage                           :         0.00340897
     valence                                :        32.00000000
     interstitial                           :        17.96361782
     charge in muffin-tin spheres :
                  atom     1     C          :         3.75452083
                  atom     2     C          :         3.75450870
                  atom     3     C          :         3.75455468
                  atom     4     C          :         3.75451562
                  atom     5     C          :         3.75531084
                  atom     6     C          :         3.75383526
                  atom     7     C          :         3.75383645
                  atom     8     C          :         3.75529980
     total charge in muffin-tins            :        30.03638218
     total charge                           :        48.00000000
 
 Estimated fundamental gap                  :         0.15272699
        valence-band maximum at    1      0.0000  0.0000  0.0000
     conduction-band minimum at  148      0.3750  0.6000  0.6000
 
 Wall time (seconds)                        :      1309.39
 
 RMS change in effective potential (target) :  0.534738E-06  ( 0.100000E-05)
 Absolute change in total energy   (target) :  0.182719E-06  ( 0.100000E-05)
 Charge distance                   (target) :  0.993345E-06  ( 0.100000E-04)
 Abs. change in max-nonIBS-force   (target) :  0.713104E-05  ( 0.500000E-04)
 
++++++++++++++++++++++++++++++++++++++++++++++++++++++++++++++++++++++++++++++++
+ SCF iteration number :   12                                                  +
++++++++++++++++++++++++++++++++++++++++++++++++++++++++++++++++++++++++++++++++
 Total energy                               :      -304.79354124
 _______________________________________________________________
 Fermi energy                               :         0.51735887
 Kinetic energy                             :       303.61986853
 Coulomb energy                             :      -564.99826839
 Exchange energy                            :       -41.63638827
 Correlation energy                         :        -1.77875311
 
 DOS at Fermi energy (states/Ha/cell)       :         0.00000000
 
 Electron charges :
     core                                   :        16.00000000
     core leakage                           :         0.00340897
     valence                                :        32.00000000
     interstitial                           :        17.96361782
     charge in muffin-tin spheres :
                  atom     1     C          :         3.75452100
                  atom     2     C          :         3.75450807
                  atom     3     C          :         3.75455473
                  atom     4     C          :         3.75451603
                  atom     5     C          :         3.75531113
                  atom     6     C          :         3.75383478
                  atom     7     C          :         3.75383640
                  atom     8     C          :         3.75530004
     total charge in muffin-tins            :        30.03638218
     total charge                           :        48.00000000
 
 Estimated fundamental gap                  :         0.15272699
        valence-band maximum at    1      0.0000  0.0000  0.0000
     conduction-band minimum at  102      0.6250  0.4000  0.4000
 
 Wall time (seconds)                        :      1429.09
 
 RMS change in effective potential (target) :  0.188064E-06  ( 0.100000E-05)
 Absolute change in total energy   (target) :  0.599872E-07  ( 0.100000E-05)
 Charge distance                   (target) :  0.203259E-06  ( 0.100000E-04)
 Abs. change in max-nonIBS-force   (target) :  0.553943E-06  ( 0.500000E-04)
                                                                                
++++++++++++++++++++++++++++++++++++++++++++++++++++++++++++++++++++++++++++++++
| Convergency criteria checked for the last 2 iterations                       +
| Convergence targets achieved. Performing final SCF iteration                 +
++++++++++++++++++++++++++++++++++++++++++++++++++++++++++++++++++++++++++++++++
 Total energy                               :      -304.79354124
 _______________________________________________________________
 Fermi energy                               :         0.51735887
 Kinetic energy                             :       303.61986853
 Coulomb energy                             :      -564.99826839
 Exchange energy                            :       -41.63638827
 Correlation energy                         :        -1.77875311
 
 DOS at Fermi energy (states/Ha/cell)       :         0.00000000
 
 Electron charges :
     core                                   :        16.00000000
     core leakage                           :         0.00340897
     valence                                :        32.00000000
     interstitial                           :        17.96361782
     charge in muffin-tin spheres :
                  atom     1     C          :         3.75452065
                  atom     2     C          :         3.75450828
                  atom     3     C          :         3.75455483
                  atom     4     C          :         3.75451607
                  atom     5     C          :         3.75531077
                  atom     6     C          :         3.75383497
                  atom     7     C          :         3.75383649
                  atom     8     C          :         3.75530012
     total charge in muffin-tins            :        30.03638218
     total charge                           :        48.00000000
 
 Estimated fundamental gap                  :         0.15272699
        valence-band maximum at    1      0.0000  0.0000  0.0000
     conduction-band minimum at  102      0.6250  0.4000  0.4000
 
++++++++++++++++++++++++++++++++++++++++++++++++++++++++++++++++++++++++++++++++
+ Self-consistent loop stopped                                                 +
++++++++++++++++++++++++++++++++++++++++++++++++++++++++++++++++++++++++++++++++
 STATE.OUT is written
 
--------------------------------------------------------------------------------
- Writing atomic positions and forces                                          -
--------------------------------------------------------------------------------
 
 Atomic positions (lattice) :
 atom     1   C  :     0.99911137    0.99970379    0.99940758
 atom     2   C  :     0.75000000    0.25000000    0.50000000
 atom     3   C  :     0.50088863    0.50029621    0.00059242
 atom     4   C  :     0.25000000    0.75000000    0.50000000
 atom     5   C  :     0.18750000    0.06250000    0.62500000
 atom     6   C  :     0.93750000    0.31250000    0.12500000
 atom     7   C  :     0.68750000    0.56250000    0.62500000
 atom     8   C  :     0.43750000    0.81250000    0.12500000
 
 Total atomic forces including IBS (cartesian) :
 atom     1   C  :    -0.00337888   -0.00028706    0.00024338
 atom     2   C  :    -0.00000035   -0.00002253   -0.00024055
 atom     3   C  :     0.00339940    0.00025294   -0.00024490
 atom     4   C  :     0.00000368   -0.00001871    0.00023122
 atom     5   C  :     0.00070895    0.00013443    0.00009509
 atom     6   C  :    -0.00075337    0.00060276   -0.00019739
 atom     7   C  :    -0.00072564   -0.00010462   -0.00009461
 atom     8   C  :     0.00074621   -0.00055721    0.00020775
 
 Atomic force components including IBS (cartesian) :
 atom     1   C  :    -0.00312152   -0.00028557    0.00031393   HF force
                 :    -0.00030640    0.00000325   -0.00007068   core correction
                 :     0.00004904   -0.00000474    0.00000013   IBS correction
 atom     2   C  :    -0.00001404    0.00016160   -0.00020912   HF force
                 :    -0.00000237   -0.00017378   -0.00003847   core correction
                 :     0.00001606   -0.00001035    0.00000703   IBS correction
 atom     3   C  :     0.00309516    0.00024543   -0.00030444   HF force
                 :     0.00032362    0.00002077    0.00004730   core correction
                 :    -0.00001939   -0.00001326    0.00001223   IBS correction
 atom     4   C  :    -0.00004110   -0.00021074    0.00020976   HF force
                 :     0.00002766    0.00019889    0.00001490   core correction
                 :     0.00001711   -0.00000686    0.00000656   IBS correction
 atom     5   C  :     0.00083435    0.00019185    0.00014801   HF force
                 :    -0.00009631   -0.00006565   -0.00004635   core correction
                 :    -0.00002909    0.00000823   -0.00000657   IBS correction
 atom     6   C  :    -0.00074486    0.00070525   -0.00013615   HF force
                 :    -0.00000145   -0.00009606   -0.00005589   core correction
                 :    -0.00000706   -0.00000642   -0.00000534   IBS correction
 atom     7   C  :    -0.00080203   -0.00016537   -0.00016459   HF force
                 :     0.00007749    0.00004817    0.00007433   core correction
                 :    -0.00000110    0.00001258   -0.00000434   IBS correction
 atom     8   C  :     0.00079403   -0.00064245    0.00014259   HF force
                 :    -0.00002224    0.00006442    0.00007487   core correction
                 :    -0.00002558    0.00002082   -0.00000971   IBS correction
 
********************************************************************************
* Groundstate module stopped                                                   *
********************************************************************************
 
 Total time spent (seconds)                 :      1733.09
================================================================================
| EXCITING NITROGEN-13 stopped                                                 =
================================================================================
