================================================================================
| EXCITING NITROGEN-13 started                                                 =
| version hash id: de0c1dba9f665d6c60514aa9e8bf40326ac9f394                    =
|                                                                              =
|                                                                              =
| Date (DD-MM-YYYY) : 04-05-2022                                               =
| Time (hh:mm:ss)   : 12:44:26                                                 =
|                                                                              =
| All units are atomic (Hartree, Bohr, etc.)                                   =
================================================================================
 
********************************************************************************
* Ground-state run resuming from STATE.OUT                                     *
********************************************************************************
 
++++++++++++++++++++++++++++++++++++++++++++++++++++++++++++++++++++++++++++++++
+ Starting initialization                                                      +
++++++++++++++++++++++++++++++++++++++++++++++++++++++++++++++++++++++++++++++++
 
 Lattice vectors (cartesian) :
     -3.3759957000      3.3759957000      0.0000000000
     -3.3759957000     -3.3759957000      6.7519914000
     -6.7519914000     -3.3759957000     -3.3759957000
 
 Reciprocal lattice vectors (cartesian) :
     -0.6979257972      1.1632096620      0.2326419324
     -0.2326419324     -0.2326419324      0.6979257972
     -0.4652838648     -0.4652838648     -0.4652838648
 
 Unit cell volume                           :     307.8191548003
 Brillouin zone volume                      :       0.8058309874
 
 Species :    1 (C)
     parameters loaded from                 :    C.xml
     name                                   :    carbon
     nuclear charge                         :      -6.00000000
     electronic charge                      :       6.00000000
     atomic mass                            :   21894.16673000
     muffin-tin radius                      :       1.25000000
     # of radial points in muffin-tin       :     250
 
     atomic positions (lattice) :
       1 :   0.00000000  0.00000000  0.00000000
       2 :   0.74955569  0.24985190  0.49970379
       3 :   0.50000000  0.50000000  0.00000000
       4 :   0.25044431  0.75014810  0.50029621
       5 :   0.18750000  0.06250000  0.62500000
       6 :   0.93750000  0.31250000  0.12500000
       7 :   0.68750000  0.56250000  0.62500000
       8 :   0.43750000  0.81250000  0.12500000
 
 Total number of atoms per unit cell        :       8
 
 Spin treatment                             :    spin-unpolarised
 
 Number of Bravais lattice symmetries       :       4
 Number of crystal symmetries               :       1
 
 Sphere radius used for k-point grid density:      33.42065234
 
 k-point grid                               :       8    5    5
 Total number of k-points                   :     200
 k-point set is reduced with crystal symmetries
 
 R^MT_min * |G+k|_max (rgkmax)              :       8.00000000
 Species with R^MT_min                      :       1 (C)
 Maximum |G+k| for APW functions            :       6.40000000
 Maximum |G| for potential and density      :      16.00000000
 
 G-vector grid sizes                        :      25    45    45
 Total number of G-vectors                  :   21191
 
 Maximum angular momentum used for
     APW functions                          :       8
     computing H and O matrix elements      :       8
     potential and density                  :       8
     inner part of muffin-tin               :       2
 
 Total nuclear charge                       :     -48.00000000
 Total electronic charge                    :      48.00000000
 Total core charge                          :      16.00000000
 Total valence charge                       :      32.00000000
 
 Number of empty states                     :      20
 Total number of valence states             :      37
 
 Maximum Hamiltonian size                   :    1408
 Maximum number of plane-waves              :    1376
 Total number of local-orbitals             :      32
 
 Exchange-correlation type                  :      20
     Perdew-Burke-Ernzerhof, Phys. Rev. Lett. 77, 3865 (1996)
     Generalised gradient approximation (GGA)
 
 Smearing scheme                            :    Gaussian
 Smearing width                             :       0.00010000
 
 Using multisecant Broyden potential mixing
 
++++++++++++++++++++++++++++++++++++++++++++++++++++++++++++++++++++++++++++++++
+ Ending initialization                                                        +
++++++++++++++++++++++++++++++++++++++++++++++++++++++++++++++++++++++++++++++++
 
********************************************************************************
* Groundstate module started                                                   *
********************************************************************************
 Output level for this task is set to normal
 
++++++++++++++++++++++++++++++++++++++++++++++++++++++++++++++++++++++++++++++++
+ Self-consistent loop started                                                 +
++++++++++++++++++++++++++++++++++++++++++++++++++++++++++++++++++++++++++++++++
 Potential read in from STATE.OUT
 
 
++++++++++++++++++++++++++++++++++++++++++++++++++++++++++++++++++++++++++++++++
+ SCF iteration number :    1                                                  +
++++++++++++++++++++++++++++++++++++++++++++++++++++++++++++++++++++++++++++++++
 Total energy                               :      -304.79380798
 _______________________________________________________________
 Fermi energy                               :         0.51736017
 Kinetic energy                             :       303.61967012
 Coulomb energy                             :      -564.99833202
 Exchange energy                            :       -41.63639435
 Correlation energy                         :        -1.77875173
 
 DOS at Fermi energy (states/Ha/cell)       :         0.00000000
 
 Electron charges :
     core                                   :        16.00000000
     core leakage                           :         0.00340897
     valence                                :        32.00000000
     interstitial                           :        17.96359724
     charge in muffin-tin spheres :
                  atom     1     C          :         3.75461216
                  atom     2     C          :         3.75448288
                  atom     3     C          :         3.75449482
                  atom     4     C          :         3.75455472
                  atom     5     C          :         3.75516303
                  atom     6     C          :         3.75406375
                  atom     7     C          :         3.75397873
                  atom     8     C          :         3.75505267
     total charge in muffin-tins            :        30.03640276
     total charge                           :        48.00000000
 
 Estimated fundamental gap                  :         0.15273572
        valence-band maximum at    1      0.0000  0.0000  0.0000
     conduction-band minimum at  148      0.3750  0.6000  0.6000
 
 Wall time (seconds)                        :       120.36
 
++++++++++++++++++++++++++++++++++++++++++++++++++++++++++++++++++++++++++++++++
+ SCF iteration number :    2                                                  +
++++++++++++++++++++++++++++++++++++++++++++++++++++++++++++++++++++++++++++++++
 Total energy                               :      -304.79356976
 _______________________________________________________________
 Fermi energy                               :         0.51736073
 Kinetic energy                             :       303.61970733
 Coulomb energy                             :      -564.99814391
 Exchange energy                            :       -41.63638037
 Correlation energy                         :        -1.77875282
 
 DOS at Fermi energy (states/Ha/cell)       :         0.00000000
 
 Electron charges :
     core                                   :        16.00000000
     core leakage                           :         0.00340897
     valence                                :        32.00000000
     interstitial                           :        17.96366214
     charge in muffin-tin spheres :
                  atom     1     C          :         3.75461111
                  atom     2     C          :         3.75450511
                  atom     3     C          :         3.75444640
                  atom     4     C          :         3.75452168
                  atom     5     C          :         3.75483322
                  atom     6     C          :         3.75528900
                  atom     7     C          :         3.75430591
                  atom     8     C          :         3.75382543
     total charge in muffin-tins            :        30.03633786
     total charge                           :        48.00000000
 
 Estimated fundamental gap                  :         0.15273692
        valence-band maximum at    1      0.0000  0.0000  0.0000
     conduction-band minimum at  102      0.6250  0.4000  0.4000
 
 Wall time (seconds)                        :       239.81
 
 RMS change in effective potential (target) :  0.250203E-02  ( 0.100000E-05)
 Absolute change in total energy   (target) :  0.238212E-03  ( 0.100000E-05)
 Charge distance                   (target) :  0.638787E-03  ( 0.100000E-04)
 Abs. change in max-nonIBS-force   (target) :  0.149399E-01  ( 0.500000E-04)
 
++++++++++++++++++++++++++++++++++++++++++++++++++++++++++++++++++++++++++++++++
+ SCF iteration number :    3                                                  +
++++++++++++++++++++++++++++++++++++++++++++++++++++++++++++++++++++++++++++++++
 Total energy                               :      -304.79357073
 _______________________________________________________________
 Fermi energy                               :         0.51736097
 Kinetic energy                             :       303.61974898
 Coulomb energy                             :      -564.99818563
 Exchange energy                            :       -41.63638130
 Correlation energy                         :        -1.77875279
 
 DOS at Fermi energy (states/Ha/cell)       :         0.00000000
 
 Electron charges :
     core                                   :        16.00000000
     core leakage                           :         0.00340897
     valence                                :        32.00000000
     interstitial                           :        17.96365287
     charge in muffin-tin spheres :
                  atom     1     C          :         3.75466405
                  atom     2     C          :         3.75446976
                  atom     3     C          :         3.75439302
                  atom     4     C          :         3.75455836
                  atom     5     C          :         3.75488410
                  atom     6     C          :         3.75531762
                  atom     7     C          :         3.75425825
                  atom     8     C          :         3.75380198
     total charge in muffin-tins            :        30.03634713
     total charge                           :        48.00000000
 
 Estimated fundamental gap                  :         0.15273719
        valence-band maximum at    1      0.0000  0.0000  0.0000
     conduction-band minimum at  102      0.6250  0.4000  0.4000
 
 Wall time (seconds)                        :       359.18
 
 RMS change in effective potential (target) :  0.174905E-02  ( 0.100000E-05)
 Absolute change in total energy   (target) :  0.966989E-06  ( 0.100000E-05)
 Charge distance                   (target) :  0.242967E-03  ( 0.100000E-04)
 Abs. change in max-nonIBS-force   (target) :  0.732791E-02  ( 0.500000E-04)
 
++++++++++++++++++++++++++++++++++++++++++++++++++++++++++++++++++++++++++++++++
+ SCF iteration number :    4                                                  +
++++++++++++++++++++++++++++++++++++++++++++++++++++++++++++++++++++++++++++++++
 Total energy                               :      -304.79367299
 _______________________________________________________________
 Fermi energy                               :         0.51736002
 Kinetic energy                             :       303.61974337
 Coulomb energy                             :      -564.99827606
 Exchange energy                            :       -41.63638791
 Correlation energy                         :        -1.77875239
 
 DOS at Fermi energy (states/Ha/cell)       :         0.00000000
 
 Electron charges :
     core                                   :        16.00000000
     core leakage                           :         0.00340897
     valence                                :        32.00000000
     interstitial                           :        17.96364364
     charge in muffin-tin spheres :
                  atom     1     C          :         3.75374041
                  atom     2     C          :         3.75463287
                  atom     3     C          :         3.75534404
                  atom     4     C          :         3.75439269
                  atom     5     C          :         3.75467951
                  atom     6     C          :         3.75327147
                  atom     7     C          :         3.75446334
                  atom     8     C          :         3.75583203
     total charge in muffin-tins            :        30.03635636
     total charge                           :        48.00000000
 
 Estimated fundamental gap                  :         0.15273592
        valence-band maximum at    1      0.0000  0.0000  0.0000
     conduction-band minimum at  102      0.6250  0.4000  0.4000
 
 Wall time (seconds)                        :       477.64
 
 RMS change in effective potential (target) :  0.107155E-02  ( 0.100000E-05)
 Absolute change in total energy   (target) :  0.102263E-03  ( 0.100000E-05)
 Charge distance                   (target) :  0.482525E-03  ( 0.100000E-04)
 Abs. change in max-nonIBS-force   (target) :  0.247930E-02  ( 0.500000E-04)
 
++++++++++++++++++++++++++++++++++++++++++++++++++++++++++++++++++++++++++++++++
+ SCF iteration number :    5                                                  +
++++++++++++++++++++++++++++++++++++++++++++++++++++++++++++++++++++++++++++++++
 Total energy                               :      -304.79366795
 _______________________________________________________________
 Fermi energy                               :         0.51735976
 Kinetic energy                             :       303.61970738
 Coulomb energy                             :      -564.99823809
 Exchange energy                            :       -41.63638457
 Correlation energy                         :        -1.77875266
 
 DOS at Fermi energy (states/Ha/cell)       :         0.00000000
 
 Electron charges :
     core                                   :        16.00000000
     core leakage                           :         0.00340897
     valence                                :        32.00000000
     interstitial                           :        17.96364071
     charge in muffin-tin spheres :
                  atom     1     C          :         3.75480405
                  atom     2     C          :         3.75450898
                  atom     3     C          :         3.75426351
                  atom     4     C          :         3.75452574
                  atom     5     C          :         3.75520624
                  atom     6     C          :         3.75480006
                  atom     7     C          :         3.75393560
                  atom     8     C          :         3.75431511
     total charge in muffin-tins            :        30.03635929
     total charge                           :        48.00000000
 
 Estimated fundamental gap                  :         0.15273694
        valence-band maximum at    1      0.0000  0.0000  0.0000
     conduction-band minimum at  102      0.6250  0.4000  0.4000
 
 Wall time (seconds)                        :       595.94
 
 RMS change in effective potential (target) :  0.349592E-03  ( 0.100000E-05)
 Absolute change in total energy   (target) :  0.504665E-05  ( 0.100000E-05)
 Charge distance                   (target) :  0.301179E-03  ( 0.100000E-04)
 Abs. change in max-nonIBS-force   (target) :  0.763732E-03  ( 0.500000E-04)
 
++++++++++++++++++++++++++++++++++++++++++++++++++++++++++++++++++++++++++++++++
+ SCF iteration number :    6                                                  +
++++++++++++++++++++++++++++++++++++++++++++++++++++++++++++++++++++++++++++++++
 Total energy                               :      -304.79365662
 _______________________________________________________________
 Fermi energy                               :         0.51736015
 Kinetic energy                             :       303.61972204
 Coulomb energy                             :      -564.99824115
 Exchange energy                            :       -41.63638487
 Correlation energy                         :        -1.77875264
 
 DOS at Fermi energy (states/Ha/cell)       :         0.00000000
 
 Electron charges :
     core                                   :        16.00000000
     core leakage                           :         0.00340897
     valence                                :        32.00000000
     interstitial                           :        17.96364007
     charge in muffin-tin spheres :
                  atom     1     C          :         3.75451245
                  atom     2     C          :         3.75444000
                  atom     3     C          :         3.75454717
                  atom     4     C          :         3.75458796
                  atom     5     C          :         3.75491888
                  atom     6     C          :         3.75486402
                  atom     7     C          :         3.75422921
                  atom     8     C          :         3.75426025
     total charge in muffin-tins            :        30.03635993
     total charge                           :        48.00000000
 
 Estimated fundamental gap                  :         0.15273694
        valence-band maximum at    1      0.0000  0.0000  0.0000
     conduction-band minimum at  102      0.6250  0.4000  0.4000
 
 Wall time (seconds)                        :       714.66
 
 RMS change in effective potential (target) :  0.215212E-03  ( 0.100000E-05)
 Absolute change in total energy   (target) :  0.113269E-04  ( 0.100000E-05)
 Charge distance                   (target) :  0.583735E-04  ( 0.100000E-04)
 Abs. change in max-nonIBS-force   (target) :  0.409632E-03  ( 0.500000E-04)
 
++++++++++++++++++++++++++++++++++++++++++++++++++++++++++++++++++++++++++++++++
+ SCF iteration number :    7                                                  +
++++++++++++++++++++++++++++++++++++++++++++++++++++++++++++++++++++++++++++++++
 Total energy                               :      -304.79363656
 _______________________________________________________________
 Fermi energy                               :         0.51736045
 Kinetic energy                             :       303.61973969
 Coulomb energy                             :      -564.99823907
 Exchange energy                            :       -41.63638451
 Correlation energy                         :        -1.77875266
 
 DOS at Fermi energy (states/Ha/cell)       :         0.00000000
 
 Electron charges :
     core                                   :        16.00000000
     core leakage                           :         0.00340897
     valence                                :        32.00000000
     interstitial                           :        17.96364059
     charge in muffin-tin spheres :
                  atom     1     C          :         3.75458255
                  atom     2     C          :         3.75449730
                  atom     3     C          :         3.75447965
                  atom     4     C          :         3.75453340
                  atom     5     C          :         3.75499957
                  atom     6     C          :         3.75481977
                  atom     7     C          :         3.75414570
                  atom     8     C          :         3.75430146
     total charge in muffin-tins            :        30.03635941
     total charge                           :        48.00000000
 
 Estimated fundamental gap                  :         0.15273688
        valence-band maximum at    1      0.0000  0.0000  0.0000
     conduction-band minimum at  102      0.6250  0.4000  0.4000
 
 Wall time (seconds)                        :       833.41
 
 RMS change in effective potential (target) :  0.170184E-03  ( 0.100000E-05)
 Absolute change in total energy   (target) :  0.200621E-04  ( 0.100000E-05)
 Charge distance                   (target) :  0.283026E-04  ( 0.100000E-04)
 Abs. change in max-nonIBS-force   (target) :  0.101112E-02  ( 0.500000E-04)
 
++++++++++++++++++++++++++++++++++++++++++++++++++++++++++++++++++++++++++++++++
+ SCF iteration number :    8                                                  +
++++++++++++++++++++++++++++++++++++++++++++++++++++++++++++++++++++++++++++++++
 Total energy                               :      -304.79361938
 _______________________________________________________________
 Fermi energy                               :         0.51736071
 Kinetic energy                             :       303.61975412
 Coulomb energy                             :      -564.99823667
 Exchange energy                            :       -41.63638415
 Correlation energy                         :        -1.77875268
 
 DOS at Fermi energy (states/Ha/cell)       :         0.00000000
 
 Electron charges :
     core                                   :        16.00000000
     core leakage                           :         0.00340897
     valence                                :        32.00000000
     interstitial                           :        17.96364117
     charge in muffin-tin spheres :
                  atom     1     C          :         3.75455918
                  atom     2     C          :         3.75447563
                  atom     3     C          :         3.75450196
                  atom     4     C          :         3.75455389
                  atom     5     C          :         3.75496098
                  atom     6     C          :         3.75486528
                  atom     7     C          :         3.75418527
                  atom     8     C          :         3.75425662
     total charge in muffin-tins            :        30.03635883
     total charge                           :        48.00000000
 
 Estimated fundamental gap                  :         0.15273683
        valence-band maximum at    1      0.0000  0.0000  0.0000
     conduction-band minimum at  102      0.6250  0.4000  0.4000
 
 Wall time (seconds)                        :       952.74
 
 RMS change in effective potential (target) :  0.124429E-03  ( 0.100000E-05)
 Absolute change in total energy   (target) :  0.171817E-04  ( 0.100000E-05)
 Charge distance                   (target) :  0.183943E-04  ( 0.100000E-04)
 Abs. change in max-nonIBS-force   (target) :  0.133346E-02  ( 0.500000E-04)
 
++++++++++++++++++++++++++++++++++++++++++++++++++++++++++++++++++++++++++++++++
+ SCF iteration number :    9                                                  +
++++++++++++++++++++++++++++++++++++++++++++++++++++++++++++++++++++++++++++++++
 Total energy                               :      -304.79357738
 _______________________________________________________________
 Fermi energy                               :         0.51736134
 Kinetic energy                             :       303.61978848
 Coulomb energy                             :      -564.99822990
 Exchange energy                            :       -41.63638321
 Correlation energy                         :        -1.77875275
 
 DOS at Fermi energy (states/Ha/cell)       :         0.00000000
 
 Electron charges :
     core                                   :        16.00000000
     core leakage                           :         0.00340897
     valence                                :        32.00000000
     interstitial                           :        17.96364273
     charge in muffin-tin spheres :
                  atom     1     C          :         3.75455324
                  atom     2     C          :         3.75450050
                  atom     3     C          :         3.75450580
                  atom     4     C          :         3.75452896
                  atom     5     C          :         3.75496545
                  atom     6     C          :         3.75490540
                  atom     7     C          :         3.75418039
                  atom     8     C          :         3.75421753
     total charge in muffin-tins            :        30.03635727
     total charge                           :        48.00000000
 
 Estimated fundamental gap                  :         0.15273671
        valence-band maximum at    1      0.0000  0.0000  0.0000
     conduction-band minimum at  148      0.3750  0.6000  0.6000
 
 Wall time (seconds)                        :      1070.47
 
 RMS change in effective potential (target) :  0.398889E-04  ( 0.100000E-05)
 Absolute change in total energy   (target) :  0.419986E-04  ( 0.100000E-05)
 Charge distance                   (target) :  0.344033E-04  ( 0.100000E-04)
 Abs. change in max-nonIBS-force   (target) :  0.721568E-04  ( 0.500000E-04)
 
++++++++++++++++++++++++++++++++++++++++++++++++++++++++++++++++++++++++++++++++
+ SCF iteration number :   10                                                  +
++++++++++++++++++++++++++++++++++++++++++++++++++++++++++++++++++++++++++++++++
 Total energy                               :      -304.79356219
 _______________________________________________________________
 Fermi energy                               :         0.51736158
 Kinetic energy                             :       303.61980127
 Coulomb energy                             :      -564.99822777
 Exchange energy                            :       -41.63638292
 Correlation energy                         :        -1.77875277
 
 DOS at Fermi energy (states/Ha/cell)       :         0.00000000
 
 Electron charges :
     core                                   :        16.00000000
     core leakage                           :         0.00340897
     valence                                :        32.00000000
     interstitial                           :        17.96364322
     charge in muffin-tin spheres :
                  atom     1     C          :         3.75456156
                  atom     2     C          :         3.75449888
                  atom     3     C          :         3.75449926
                  atom     4     C          :         3.75453082
                  atom     5     C          :         3.75493056
                  atom     6     C          :         3.75492674
                  atom     7     C          :         3.75421506
                  atom     8     C          :         3.75419391
     total charge in muffin-tins            :        30.03635678
     total charge                           :        48.00000000
 
 Estimated fundamental gap                  :         0.15273667
        valence-band maximum at    1      0.0000  0.0000  0.0000
     conduction-band minimum at  102      0.6250  0.4000  0.4000
 
 Wall time (seconds)                        :      1188.62
 
 RMS change in effective potential (target) :  0.997304E-05  ( 0.100000E-05)
 Absolute change in total energy   (target) :  0.151905E-04  ( 0.100000E-05)
 Charge distance                   (target) :  0.138676E-04  ( 0.100000E-04)
 Abs. change in max-nonIBS-force   (target) :  0.200195E-03  ( 0.500000E-04)
 
++++++++++++++++++++++++++++++++++++++++++++++++++++++++++++++++++++++++++++++++
+ SCF iteration number :   11                                                  +
++++++++++++++++++++++++++++++++++++++++++++++++++++++++++++++++++++++++++++++++
 Total energy                               :      -304.79356171
 _______________________________________________________________
 Fermi energy                               :         0.51736159
 Kinetic energy                             :       303.61980166
 Coulomb energy                             :      -564.99822768
 Exchange energy                            :       -41.63638291
 Correlation energy                         :        -1.77875277
 
 DOS at Fermi energy (states/Ha/cell)       :         0.00000000
 
 Electron charges :
     core                                   :        16.00000000
     core leakage                           :         0.00340897
     valence                                :        32.00000000
     interstitial                           :        17.96364323
     charge in muffin-tin spheres :
                  atom     1     C          :         3.75454811
                  atom     2     C          :         3.75449748
                  atom     3     C          :         3.75451079
                  atom     4     C          :         3.75453194
                  atom     5     C          :         3.75494140
                  atom     6     C          :         3.75493289
                  atom     7     C          :         3.75420443
                  atom     8     C          :         3.75418973
     total charge in muffin-tins            :        30.03635677
     total charge                           :        48.00000000
 
 Estimated fundamental gap                  :         0.15273667
        valence-band maximum at    1      0.0000  0.0000  0.0000
     conduction-band minimum at  102      0.6250  0.4000  0.4000
 
 Wall time (seconds)                        :      1307.68
 
 RMS change in effective potential (target) :  0.118620E-05  ( 0.100000E-05)
 Absolute change in total energy   (target) :  0.479546E-06  ( 0.100000E-05)
 Charge distance                   (target) :  0.202638E-05  ( 0.100000E-04)
 Abs. change in max-nonIBS-force   (target) :  0.738837E-05  ( 0.500000E-04)
 
++++++++++++++++++++++++++++++++++++++++++++++++++++++++++++++++++++++++++++++++
+ SCF iteration number :   12                                                  +
++++++++++++++++++++++++++++++++++++++++++++++++++++++++++++++++++++++++++++++++
 Total energy                               :      -304.79356158
 _______________________________________________________________
 Fermi energy                               :         0.51736159
 Kinetic energy                             :       303.61980173
 Coulomb energy                             :      -564.99822763
 Exchange energy                            :       -41.63638291
 Correlation energy                         :        -1.77875277
 
 DOS at Fermi energy (states/Ha/cell)       :         0.00000000
 
 Electron charges :
     core                                   :        16.00000000
     core leakage                           :         0.00340897
     valence                                :        32.00000000
     interstitial                           :        17.96364324
     charge in muffin-tin spheres :
                  atom     1     C          :         3.75454913
                  atom     2     C          :         3.75449807
                  atom     3     C          :         3.75451009
                  atom     4     C          :         3.75453103
                  atom     5     C          :         3.75494128
                  atom     6     C          :         3.75493363
                  atom     7     C          :         3.75420485
                  atom     8     C          :         3.75418866
     total charge in muffin-tins            :        30.03635676
     total charge                           :        48.00000000
 
 Estimated fundamental gap                  :         0.15273667
        valence-band maximum at    1      0.0000  0.0000  0.0000
     conduction-band minimum at  148      0.3750  0.6000  0.6000
 
 Wall time (seconds)                        :      1425.87
 
 RMS change in effective potential (target) :  0.356522E-06  ( 0.100000E-05)
 Absolute change in total energy   (target) :  0.127453E-06  ( 0.100000E-05)
 Charge distance                   (target) :  0.476983E-06  ( 0.100000E-04)
 Abs. change in max-nonIBS-force   (target) :  0.724203E-06  ( 0.500000E-04)
 
++++++++++++++++++++++++++++++++++++++++++++++++++++++++++++++++++++++++++++++++
+ SCF iteration number :   13                                                  +
++++++++++++++++++++++++++++++++++++++++++++++++++++++++++++++++++++++++++++++++
 Total energy                               :      -304.79356154
 _______________________________________________________________
 Fermi energy                               :         0.51736159
 Kinetic energy                             :       303.61980175
 Coulomb energy                             :      -564.99822762
 Exchange energy                            :       -41.63638291
 Correlation energy                         :        -1.77875277
 
 DOS at Fermi energy (states/Ha/cell)       :         0.00000000
 
 Electron charges :
     core                                   :        16.00000000
     core leakage                           :         0.00340897
     valence                                :        32.00000000
     interstitial                           :        17.96364325
     charge in muffin-tin spheres :
                  atom     1     C          :         3.75454915
                  atom     2     C          :         3.75449818
                  atom     3     C          :         3.75450966
                  atom     4     C          :         3.75453140
                  atom     5     C          :         3.75494140
                  atom     6     C          :         3.75493343
                  atom     7     C          :         3.75420427
                  atom     8     C          :         3.75418927
     total charge in muffin-tins            :        30.03635675
     total charge                           :        48.00000000
 
 Estimated fundamental gap                  :         0.15273667
        valence-band maximum at    1      0.0000  0.0000  0.0000
     conduction-band minimum at  102      0.6250  0.4000  0.4000
 
 Wall time (seconds)                        :      1544.35
 
 RMS change in effective potential (target) :  0.175340E-06  ( 0.100000E-05)
 Absolute change in total energy   (target) :  0.375957E-07  ( 0.100000E-05)
 Charge distance                   (target) :  0.111888E-06  ( 0.100000E-04)
 Abs. change in max-nonIBS-force   (target) :  0.186005E-06  ( 0.500000E-04)
                                                                                
++++++++++++++++++++++++++++++++++++++++++++++++++++++++++++++++++++++++++++++++
| Convergency criteria checked for the last 2 iterations                       +
| Convergence targets achieved. Performing final SCF iteration                 +
++++++++++++++++++++++++++++++++++++++++++++++++++++++++++++++++++++++++++++++++
 Total energy                               :      -304.79356155
 _______________________________________________________________
 Fermi energy                               :         0.51736159
 Kinetic energy                             :       303.61980175
 Coulomb energy                             :      -564.99822762
 Exchange energy                            :       -41.63638291
 Correlation energy                         :        -1.77875277
 
 DOS at Fermi energy (states/Ha/cell)       :         0.00000000
 
 Electron charges :
     core                                   :        16.00000000
     core leakage                           :         0.00340897
     valence                                :        32.00000000
     interstitial                           :        17.96364324
     charge in muffin-tin spheres :
                  atom     1     C          :         3.75454931
                  atom     2     C          :         3.75449809
                  atom     3     C          :         3.75450989
                  atom     4     C          :         3.75453108
                  atom     5     C          :         3.75494150
                  atom     6     C          :         3.75493323
                  atom     7     C          :         3.75420457
                  atom     8     C          :         3.75418908
     total charge in muffin-tins            :        30.03635676
     total charge                           :        48.00000000
 
 Estimated fundamental gap                  :         0.15273667
        valence-band maximum at    1      0.0000  0.0000  0.0000
     conduction-band minimum at  102      0.6250  0.4000  0.4000
 
++++++++++++++++++++++++++++++++++++++++++++++++++++++++++++++++++++++++++++++++
+ Self-consistent loop stopped                                                 +
++++++++++++++++++++++++++++++++++++++++++++++++++++++++++++++++++++++++++++++++
 STATE.OUT is written
 
--------------------------------------------------------------------------------
- Writing atomic positions and forces                                          -
--------------------------------------------------------------------------------
 
 Atomic positions (lattice) :
 atom     1   C  :     0.00000000    0.00000000    0.00000000
 atom     2   C  :     0.74955569    0.24985190    0.49970379
 atom     3   C  :     0.50000000    0.50000000    0.00000000
 atom     4   C  :     0.25044431    0.75014810    0.50029621
 atom     5   C  :     0.18750000    0.06250000    0.62500000
 atom     6   C  :     0.93750000    0.31250000    0.12500000
 atom     7   C  :     0.68750000    0.56250000    0.62500000
 atom     8   C  :     0.43750000    0.81250000    0.12500000
 
 Total atomic forces including IBS (cartesian) :
 atom     1   C  :     0.00000787   -0.00001731    0.00012045
 atom     2   C  :    -0.00169463   -0.00015764    0.00011827
 atom     3   C  :     0.00001057   -0.00001518   -0.00012075
 atom     4   C  :     0.00169861    0.00011566   -0.00012898
 atom     5   C  :     0.00036578   -0.00028354    0.00008086
 atom     6   C  :     0.00036216    0.00009624    0.00005255
 atom     7   C  :    -0.00039113    0.00030462   -0.00008879
 atom     8   C  :    -0.00035923   -0.00004285   -0.00003360
 
 Atomic force components including IBS (cartesian) :
 atom     1   C  :    -0.00002614   -0.00011865    0.00011903   HF force
                 :     0.00001822    0.00010817   -0.00000279   core correction
                 :     0.00001579   -0.00000683    0.00000421   IBS correction
 atom     2   C  :    -0.00158322   -0.00016843    0.00015748   HF force
                 :    -0.00014502    0.00001506   -0.00004218   core correction
                 :     0.00003361   -0.00000427    0.00000297   IBS correction
 atom     3   C  :    -0.00000764    0.00008273   -0.00010605   HF force
                 :     0.00000278   -0.00008617   -0.00002257   core correction
                 :     0.00001543   -0.00001174    0.00000786   IBS correction
 atom     4   C  :     0.00153062    0.00011697   -0.00015992   HF force
                 :     0.00016892    0.00001144    0.00002018   core correction
                 :    -0.00000093   -0.00001275    0.00001076   IBS correction
 atom     5   C  :     0.00041394   -0.00033870    0.00003176   HF force
                 :    -0.00002426    0.00003612    0.00005293   core correction
                 :    -0.00002390    0.00001904   -0.00000383   IBS correction
 atom     6   C  :     0.00043078    0.00014167    0.00008875   HF force
                 :    -0.00004809   -0.00004952   -0.00002620   core correction
                 :    -0.00002054    0.00000409   -0.00001001   IBS correction
 atom     7   C  :    -0.00038878    0.00035557   -0.00005710   HF force
                 :     0.00000436   -0.00005300   -0.00002483   core correction
                 :    -0.00000671    0.00000205   -0.00000687   IBS correction
 atom     8   C  :    -0.00036956   -0.00007116   -0.00007395   HF force
                 :     0.00002307    0.00001790    0.00004544   core correction
                 :    -0.00001275    0.00001041   -0.00000509   IBS correction
 
********************************************************************************
* Groundstate module stopped                                                   *
********************************************************************************
 
 Total time spent (seconds)                 :      1855.76
================================================================================
| EXCITING NITROGEN-13 stopped                                                 =
================================================================================
