 
(translation vectors and rotation matrices are in lattice coordinates)
 
   1 : nsymcrys
 
Crystal symmetry :    1
 spatial translation :
   0.000000000       0.000000000       0.000000000    
 spatial rotation :
   1   0   0
   0   1   0
   0   0   1
 global spin rotation :
   1   0   0
   0   1   0
   0   0   1
