    -304.793566324    
    -304.793497404    
    -304.793519730    
    -304.793534391    
    -304.793569079    
    -304.793568953    
    -304.793561448    
    -304.793556599    
    -304.793544631    
    -304.793541484    
    -304.793541301    
    -304.793541241    
    -304.793541243    
 
