    55 : nkpt; k-point, vkl, wkpt, nmat below
     1   0.000000000       0.000000000       0.000000000      0.5208333333E-02    1391
     2  0.1250000000       0.000000000       0.000000000      0.2083333333E-01    1391
     3  0.2500000000       0.000000000       0.000000000      0.2083333333E-01    1380
     4  0.3750000000       0.000000000       0.000000000      0.2083333333E-01    1408
     5  0.5000000000       0.000000000       0.000000000      0.1041666667E-01    1398
     6  0.1250000000      0.1250000000       0.000000000      0.1041666667E-01    1381
     7  0.2500000000      0.1250000000       0.000000000      0.2083333333E-01    1389
     8  0.3750000000      0.1250000000       0.000000000      0.2083333333E-01    1392
     9  0.5000000000      0.1250000000       0.000000000      0.2083333333E-01    1402
    10  0.6250000000      0.1250000000       0.000000000      0.2083333333E-01    1392
    11  0.7500000000      0.1250000000       0.000000000      0.2083333333E-01    1389
    12  0.8750000000      0.1250000000       0.000000000      0.1041666667E-01    1381
    13  0.2500000000      0.2500000000       0.000000000      0.1041666667E-01    1413
    14  0.3750000000      0.2500000000       0.000000000      0.2083333333E-01    1394
    15  0.5000000000      0.2500000000       0.000000000      0.2083333333E-01    1404
    16  0.6250000000      0.2500000000       0.000000000      0.2083333333E-01    1394
    17  0.7500000000      0.2500000000       0.000000000      0.1041666667E-01    1413
    18  0.3750000000      0.3750000000       0.000000000      0.1041666667E-01    1389
    19  0.5000000000      0.3750000000       0.000000000      0.2083333333E-01    1398
    20  0.6250000000      0.3750000000       0.000000000      0.1041666667E-01    1389
    21  0.5000000000      0.5000000000       0.000000000      0.5208333333E-02    1436
    22   0.000000000       0.000000000      0.3333333333      0.1041666667E-01    1372
    23  0.1250000000       0.000000000      0.3333333333      0.2083333333E-01    1378
    24  0.2500000000       0.000000000      0.3333333333      0.2083333333E-01    1396
    25  0.3750000000       0.000000000      0.3333333333      0.2083333333E-01    1402
    26  0.5000000000       0.000000000      0.3333333333      0.1041666667E-01    1414
    27   0.000000000      0.1250000000      0.3333333333      0.2083333333E-01    1378
    28  0.1250000000      0.1250000000      0.3333333333      0.2083333333E-01    1382
    29  0.2500000000      0.1250000000      0.3333333333      0.2083333333E-01    1391
    30  0.3750000000      0.1250000000      0.3333333333      0.2083333333E-01    1396
    31  0.5000000000      0.1250000000      0.3333333333      0.2083333333E-01    1392
    32  0.6250000000      0.1250000000      0.3333333333      0.2083333333E-01    1396
    33  0.7500000000      0.1250000000      0.3333333333      0.2083333333E-01    1391
    34  0.8750000000      0.1250000000      0.3333333333      0.2083333333E-01    1382
    35   0.000000000      0.2500000000      0.3333333333      0.2083333333E-01    1396
    36  0.1250000000      0.2500000000      0.3333333333      0.2083333333E-01    1391
    37  0.2500000000      0.2500000000      0.3333333333      0.2083333333E-01    1395
    38  0.3750000000      0.2500000000      0.3333333333      0.2083333333E-01    1398
    39  0.5000000000      0.2500000000      0.3333333333      0.2083333333E-01    1394
    40  0.6250000000      0.2500000000      0.3333333333      0.2083333333E-01    1398
    41  0.7500000000      0.2500000000      0.3333333333      0.2083333333E-01    1395
    42  0.8750000000      0.2500000000      0.3333333333      0.2083333333E-01    1391
    43   0.000000000      0.3750000000      0.3333333333      0.2083333333E-01    1402
    44  0.1250000000      0.3750000000      0.3333333333      0.2083333333E-01    1396
    45  0.2500000000      0.3750000000      0.3333333333      0.2083333333E-01    1398
    46  0.3750000000      0.3750000000      0.3333333333      0.2083333333E-01    1403
    47  0.5000000000      0.3750000000      0.3333333333      0.2083333333E-01    1400
    48  0.6250000000      0.3750000000      0.3333333333      0.2083333333E-01    1403
    49  0.7500000000      0.3750000000      0.3333333333      0.2083333333E-01    1398
    50  0.8750000000      0.3750000000      0.3333333333      0.2083333333E-01    1396
    51   0.000000000      0.5000000000      0.3333333333      0.1041666667E-01    1414
    52  0.1250000000      0.5000000000      0.3333333333      0.2083333333E-01    1392
    53  0.2500000000      0.5000000000      0.3333333333      0.2083333333E-01    1394
    54  0.3750000000      0.5000000000      0.3333333333      0.2083333333E-01    1400
    55  0.5000000000      0.5000000000      0.3333333333      0.1041666667E-01    1412
