 
+----------------------------+
| Real-space lattice vectors |
+----------------------------+
 
vector a1 :   -3.375995700      -3.375995700       0.000000000    
vector a2 :   -3.375995700       3.375995700       0.000000000    
vector a3 :    0.000000000       0.000000000       13.50398280    
 
Stored column-wise as a matrix :
  -3.375995700      -3.375995700       0.000000000    
  -3.375995700       3.375995700       0.000000000    
   0.000000000       0.000000000       13.50398280    
 
Inverse of matrix :
 -0.1481044540     -0.1481044540       0.000000000    
 -0.1481044540      0.1481044540       0.000000000    
   0.000000000       0.000000000      0.7405222702E-01
 
Unit cell volume :    307.8191548    
 
 
+----------------------------------+
| Reciprocal-space lattice vectors |
+----------------------------------+
 
vector b1 :  -0.9305677296     -0.9305677296       0.000000000    
vector b2 :  -0.9305677296      0.9305677296       0.000000000    
vector b3 :    0.000000000       0.000000000      0.4652838648    
 
Stored column-wise as a matrix :
 -0.9305677296     -0.9305677296       0.000000000    
 -0.9305677296      0.9305677296       0.000000000    
   0.000000000       0.000000000      0.4652838648    
 
Inverse of matrix :
 -0.5373064035     -0.5373064035       0.000000000    
 -0.5373064035      0.5373064035       0.000000000    
   0.000000000       0.000000000       2.149225614    
 
Brillouin zone volume :   0.8058309874    
