 
The symmetry group is Abelian (commutative)
 (first and second group element and product below)
     1     1          1
     1     2          2
     1     3          3
     1     4          4
     2     1          2
     2     2          1
     2     3          4
     2     4          3
     3     1          3
     3     2          4
     3     3          1
     3     4          2
     4     1          4
     4     2          3
     4     3          2
     4     4          1
