    -304.832584954    
    -304.833253391    
    -304.830353352    
    -304.787390490    
    -304.793338335    
    -304.793533032    
    -304.793592929    
    -304.793561324    
    -304.793538439    
    -304.793539572    
    -304.793539972    
    -304.793539991    
    -304.793539986    
 
