  0.1002044740E-01
  0.7369119375E-02
  0.2046745288E-02
  0.2410389045E-02
  0.1373139278E-03
  0.1029963252E-03
  0.1484036200E-04
  0.5557407075E-05
  0.2170708770E-05
  0.2395596708E-06
  0.1113793182E-06
  0.2677524085E-07
 
