   8 : nsymcrys
 
Crystal symmetry, Bravais symmetry :    1   1
 inverse operations		     :    1   1
 spatial rotation and inverse (lattice coordinates):
   1   0   0        1   0   0
   0   1   0        0   1   0
   0   0   1        0   0   1
 spatial rotation and inverse (Cartesian coordinates):
   1.000000000       0.000000000       0.000000000            1.000000000       0.000000000       0.000000000    
   0.000000000       1.000000000       0.000000000            0.000000000       1.000000000       0.000000000    
   0.000000000       0.000000000       1.000000000            0.000000000       0.000000000       1.000000000    
 spatial translation and inverse (lattice coordinates) :
   0.000000000       0.000000000       0.000000000            0.000000000       0.000000000       0.000000000    
 spatial translation and inverse (Cartesian coordinates) :
   0.000000000       0.000000000       0.000000000            0.000000000       0.000000000       0.000000000    
 global spin rotation and inverse (lattice coordinates) :
   1   0   0        1   0   0
   0   1   0        0   1   0
   0   0   1        0   0   1
 global spin rotation and inverse (Cartesian coordinates) :
   1.000000000       0.000000000       0.000000000            1.000000000       0.000000000       0.000000000    
   0.000000000       1.000000000       0.000000000            0.000000000       1.000000000       0.000000000    
   0.000000000       0.000000000       1.000000000            0.000000000       0.000000000       1.000000000    
 
Crystal symmetry, Bravais symmetry :    2   2
 inverse operations		     :    2   2
 spatial rotation and inverse (lattice coordinates):
  -1   0   0       -1   0   0
   0  -1   0        0  -1   0
   0   0   1        0   0   1
 spatial rotation and inverse (Cartesian coordinates):
   1.000000000       0.000000000       0.000000000            1.000000000       0.000000000       0.000000000    
   0.000000000      -1.000000000       0.000000000            0.000000000      -1.000000000       0.000000000    
   0.000000000       0.000000000      -1.000000000            0.000000000       0.000000000      -1.000000000    
 spatial translation and inverse (lattice coordinates) :
   0.000000000       0.000000000       0.000000000            0.000000000       0.000000000       0.000000000    
 spatial translation and inverse (Cartesian coordinates) :
   0.000000000       0.000000000       0.000000000            0.000000000       0.000000000       0.000000000    
 global spin rotation and inverse (lattice coordinates) :
   1   0   0        1   0   0
   0   1   0        0   1   0
   0   0   1        0   0   1
 global spin rotation and inverse (Cartesian coordinates) :
   1.000000000       0.000000000       0.000000000            1.000000000       0.000000000       0.000000000    
   0.000000000       1.000000000       0.000000000            0.000000000       1.000000000       0.000000000    
   0.000000000       0.000000000       1.000000000            0.000000000       0.000000000       1.000000000    
 
Crystal symmetry, Bravais symmetry :    3   4
 inverse operations		     :    3   4
 spatial rotation and inverse (lattice coordinates):
  -1   0   0       -1   0   0
   0   1   0        0   1   0
   0   0   1        0   0   1
 spatial rotation and inverse (Cartesian coordinates):
   1.000000000       0.000000000       0.000000000            1.000000000       0.000000000       0.000000000    
   0.000000000       0.000000000       1.000000000            0.000000000       0.000000000       1.000000000    
   0.000000000       1.000000000       0.000000000            0.000000000       1.000000000       0.000000000    
 spatial translation and inverse (lattice coordinates) :
   0.000000000       0.000000000       0.000000000            0.000000000       0.000000000       0.000000000    
 spatial translation and inverse (Cartesian coordinates) :
   0.000000000       0.000000000       0.000000000            0.000000000       0.000000000       0.000000000    
 global spin rotation and inverse (lattice coordinates) :
   1   0   0        1   0   0
   0   1   0        0   1   0
   0   0   1        0   0   1
 global spin rotation and inverse (Cartesian coordinates) :
   1.000000000       0.000000000       0.000000000            1.000000000       0.000000000       0.000000000    
   0.000000000       1.000000000       0.000000000            0.000000000       1.000000000       0.000000000    
   0.000000000       0.000000000       1.000000000            0.000000000       0.000000000       1.000000000    
 
Crystal symmetry, Bravais symmetry :    4  14
 inverse operations		     :    4  14
 spatial rotation and inverse (lattice coordinates):
   1   0   0        1   0   0
   0  -1   0        0  -1   0
   0   0   1        0   0   1
 spatial rotation and inverse (Cartesian coordinates):
   1.000000000       0.000000000       0.000000000            1.000000000       0.000000000       0.000000000    
   0.000000000       0.000000000      -1.000000000            0.000000000       0.000000000      -1.000000000    
   0.000000000      -1.000000000       0.000000000            0.000000000      -1.000000000       0.000000000    
 spatial translation and inverse (lattice coordinates) :
   0.000000000       0.000000000       0.000000000            0.000000000       0.000000000       0.000000000    
 spatial translation and inverse (Cartesian coordinates) :
   0.000000000       0.000000000       0.000000000            0.000000000       0.000000000       0.000000000    
 global spin rotation and inverse (lattice coordinates) :
   1   0   0        1   0   0
   0   1   0        0   1   0
   0   0   1        0   0   1
 global spin rotation and inverse (Cartesian coordinates) :
   1.000000000       0.000000000       0.000000000            1.000000000       0.000000000       0.000000000    
   0.000000000       1.000000000       0.000000000            0.000000000       1.000000000       0.000000000    
   0.000000000       0.000000000       1.000000000            0.000000000       0.000000000       1.000000000    
 
Crystal symmetry, Bravais symmetry :    5   5
 inverse operations		     :    5   5
 spatial rotation and inverse (lattice coordinates):
   0  -1   0        0  -1   0
  -1   0   0       -1   0   0
   0   0  -1        0   0  -1
 spatial rotation and inverse (Cartesian coordinates):
  -1.000000000       0.000000000       0.000000000           -1.000000000       0.000000000       0.000000000    
   0.000000000      -1.000000000       0.000000000            0.000000000      -1.000000000       0.000000000    
   0.000000000       0.000000000       1.000000000            0.000000000       0.000000000       1.000000000    
 spatial translation and inverse (lattice coordinates) :
   0.000000000       0.000000000      0.5000000000            0.000000000       0.000000000      0.5000000000    
 spatial translation and inverse (Cartesian coordinates) :
  -6.751991400       0.000000000       0.000000000           -6.751991400       0.000000000       0.000000000    
 global spin rotation and inverse (lattice coordinates) :
   1   0   0        1   0   0
   0   1   0        0   1   0
   0   0   1        0   0   1
 global spin rotation and inverse (Cartesian coordinates) :
   1.000000000       0.000000000       0.000000000            1.000000000       0.000000000       0.000000000    
   0.000000000       1.000000000       0.000000000            0.000000000       1.000000000       0.000000000    
   0.000000000       0.000000000       1.000000000            0.000000000       0.000000000       1.000000000    
 
Crystal symmetry, Bravais symmetry :    6   7
 inverse operations		     :    7   9
 spatial rotation and inverse (lattice coordinates):
   0  -1   0        0   1   0
   1   0   0       -1   0   0
   0   0  -1        0   0  -1
 spatial rotation and inverse (Cartesian coordinates):
  -1.000000000       0.000000000       0.000000000           -1.000000000       0.000000000       0.000000000    
   0.000000000       0.000000000      -1.000000000            0.000000000       0.000000000       1.000000000    
   0.000000000       1.000000000       0.000000000            0.000000000      -1.000000000       0.000000000    
 spatial translation and inverse (lattice coordinates) :
   0.000000000       0.000000000      0.5000000000            0.000000000       0.000000000      0.5000000000    
 spatial translation and inverse (Cartesian coordinates) :
  -6.751991400       0.000000000       0.000000000           -6.751991400       0.000000000       0.000000000    
 global spin rotation and inverse (lattice coordinates) :
   1   0   0        1   0   0
   0   1   0        0   1   0
   0   0   1        0   0   1
 global spin rotation and inverse (Cartesian coordinates) :
   1.000000000       0.000000000       0.000000000            1.000000000       0.000000000       0.000000000    
   0.000000000       1.000000000       0.000000000            0.000000000       1.000000000       0.000000000    
   0.000000000       0.000000000       1.000000000            0.000000000       0.000000000       1.000000000    
 
Crystal symmetry, Bravais symmetry :    7   9
 inverse operations		     :    6   7
 spatial rotation and inverse (lattice coordinates):
   0   1   0        0  -1   0
  -1   0   0        1   0   0
   0   0  -1        0   0  -1
 spatial rotation and inverse (Cartesian coordinates):
  -1.000000000       0.000000000       0.000000000           -1.000000000       0.000000000       0.000000000    
   0.000000000       0.000000000       1.000000000            0.000000000       0.000000000      -1.000000000    
   0.000000000      -1.000000000       0.000000000            0.000000000       1.000000000       0.000000000    
 spatial translation and inverse (lattice coordinates) :
   0.000000000       0.000000000      0.5000000000            0.000000000       0.000000000      0.5000000000    
 spatial translation and inverse (Cartesian coordinates) :
  -6.751991400       0.000000000       0.000000000           -6.751991400       0.000000000       0.000000000    
 global spin rotation and inverse (lattice coordinates) :
   1   0   0        1   0   0
   0   1   0        0   1   0
   0   0   1        0   0   1
 global spin rotation and inverse (Cartesian coordinates) :
   1.000000000       0.000000000       0.000000000            1.000000000       0.000000000       0.000000000    
   0.000000000       1.000000000       0.000000000            0.000000000       1.000000000       0.000000000    
   0.000000000       0.000000000       1.000000000            0.000000000       0.000000000       1.000000000    
 
Crystal symmetry, Bravais symmetry :    8  11
 inverse operations		     :    8  11
 spatial rotation and inverse (lattice coordinates):
   0   1   0        0   1   0
   1   0   0        1   0   0
   0   0  -1        0   0  -1
 spatial rotation and inverse (Cartesian coordinates):
  -1.000000000       0.000000000       0.000000000           -1.000000000       0.000000000       0.000000000    
   0.000000000       1.000000000       0.000000000            0.000000000       1.000000000       0.000000000    
   0.000000000       0.000000000      -1.000000000            0.000000000       0.000000000      -1.000000000    
 spatial translation and inverse (lattice coordinates) :
   0.000000000       0.000000000      0.5000000000            0.000000000       0.000000000      0.5000000000    
 spatial translation and inverse (Cartesian coordinates) :
  -6.751991400       0.000000000       0.000000000           -6.751991400       0.000000000       0.000000000    
 global spin rotation and inverse (lattice coordinates) :
   1   0   0        1   0   0
   0   1   0        0   1   0
   0   0   1        0   0   1
 global spin rotation and inverse (Cartesian coordinates) :
   1.000000000       0.000000000       0.000000000            1.000000000       0.000000000       0.000000000    
   0.000000000       1.000000000       0.000000000            0.000000000       1.000000000       0.000000000    
   0.000000000       0.000000000       1.000000000            0.000000000       0.000000000       1.000000000    
