 
 (first and second group element and product below)
     1     1          1
     1     2          2
     1     3          3
     1     4          4
     1     5          5
     1     6          6
     1     7          7
     1     8          8
     2     1          2
     2     2          1
     2     3          8
     2     4          7
     2     5          6
     2     6          5
     2     7          4
     2     8          3
     3     1          3
     3     2          8
     3     3          1
     3     4          6
     3     5          7
     3     6          4
     3     7          5
     3     8          2
     4     1          4
     4     2          7
     4     3          5
     4     4          1
     4     5          3
     4     6          8
     4     7          2
     4     8          6
     5     1          5
     5     2          6
     5     3          4
     5     4          8
     5     5          2
     5     6          1
     5     7          3
     5     8          7
     6     1          6
     6     2          5
     6     3          7
     6     4          3
     6     5          1
     6     6          2
     6     7          8
     6     8          4
     7     1          7
     7     2          4
     7     3          6
     7     4          2
     7     5          8
     7     6          3
     7     7          1
     7     8          5
     8     1          8
     8     2          3
     8     3          2
     8     4          5
     8     5          4
     8     6          7
     8     7          6
     8     8          1
