================================================================================
| EXCITING NITROGEN-13 started                                                 =
| version hash id: de0c1dba9f665d6c60514aa9e8bf40326ac9f394                    =
|                                                                              =
|                                                                              =
| Date (DD-MM-YYYY) : 04-05-2022                                               =
| Time (hh:mm:ss)   : 02:59:16                                                 =
|                                                                              =
| All units are atomic (Hartree, Bohr, etc.)                                   =
================================================================================
 
********************************************************************************
* Ground-state run resuming from STATE.OUT                                     *
********************************************************************************
 
++++++++++++++++++++++++++++++++++++++++++++++++++++++++++++++++++++++++++++++++
+ Starting initialization                                                      +
++++++++++++++++++++++++++++++++++++++++++++++++++++++++++++++++++++++++++++++++
 
 Lattice vectors (cartesian) :
     -3.3759957000     -3.3759957000      0.0000000000
      0.0000000000     -3.3759957000      3.3759957000
    -10.1279871000      6.7519914000     10.1279871000
 
 Reciprocal lattice vectors (cartesian) :
     -1.1632096620     -0.6979257972     -0.6979257972
      0.6979257972     -0.6979257972      1.1632096620
     -0.2326419324      0.2326419324      0.2326419324
 
 Unit cell volume                           :     307.8191548003
 Brillouin zone volume                      :       0.8058309874
 
 Species :    1 (C)
     parameters loaded from                 :    C.xml
     name                                   :    carbon
     nuclear charge                         :      -6.00000000
     electronic charge                      :       6.00000000
     atomic mass                            :   21894.16673000
     muffin-tin radius                      :       1.25000000
     # of radial points in muffin-tin       :     250
 
     atomic positions (lattice) :
       1 :   0.99925948  0.00044431  0.99985190
       2 :   0.25000000  0.25000000  0.25000000
       3 :   0.50074052  0.49955569  0.50014810
       4 :   0.75000000  0.75000000  0.75000000
       5 :   0.31250000  0.31250000  0.06250000
       6 :   0.56250000  0.56250000  0.31250000
       7 :   0.81250000  0.81250000  0.56250000
       8 :   0.06250000  0.06250000  0.81250000
 
 Total number of atoms per unit cell        :       8
 
 Spin treatment                             :    spin-unpolarised
 
 Number of Bravais lattice symmetries       :      12
 Number of crystal symmetries               :       2
 
 Sphere radius used for k-point grid density:      33.42065234
 
 k-point grid                               :       8    8    3
 Total number of k-points                   :     192
 k-point set is reduced with crystal symmetries
 
 R^MT_min * |G+k|_max (rgkmax)              :       8.00000000
 Species with R^MT_min                      :       1 (C)
 Maximum |G+k| for APW functions            :       6.40000000
 Maximum |G| for potential and density      :      16.00000000
 
 G-vector grid sizes                        :      25    25    81
 Total number of G-vectors                  :   21163
 
 Maximum angular momentum used for
     APW functions                          :       8
     computing H and O matrix elements      :       8
     potential and density                  :       8
     inner part of muffin-tin               :       2
 
 Total nuclear charge                       :     -48.00000000
 Total electronic charge                    :      48.00000000
 Total core charge                          :      16.00000000
 Total valence charge                       :      32.00000000
 
 Number of empty states                     :      20
 Total number of valence states             :      37
 
 Maximum Hamiltonian size                   :    1423
 Maximum number of plane-waves              :    1391
 Total number of local-orbitals             :      32
 
 Exchange-correlation type                  :      20
     Perdew-Burke-Ernzerhof, Phys. Rev. Lett. 77, 3865 (1996)
     Generalised gradient approximation (GGA)
 
 Smearing scheme                            :    Gaussian
 Smearing width                             :       0.00010000
 
 Using multisecant Broyden potential mixing
 
++++++++++++++++++++++++++++++++++++++++++++++++++++++++++++++++++++++++++++++++
+ Ending initialization                                                        +
++++++++++++++++++++++++++++++++++++++++++++++++++++++++++++++++++++++++++++++++
 
********************************************************************************
* Groundstate module started                                                   *
********************************************************************************
 Output level for this task is set to normal
 
++++++++++++++++++++++++++++++++++++++++++++++++++++++++++++++++++++++++++++++++
+ Self-consistent loop started                                                 +
++++++++++++++++++++++++++++++++++++++++++++++++++++++++++++++++++++++++++++++++
 Supercell potential constructed from STATE.OUT
 
 
++++++++++++++++++++++++++++++++++++++++++++++++++++++++++++++++++++++++++++++++
+ SCF iteration number :    1                                                  +
++++++++++++++++++++++++++++++++++++++++++++++++++++++++++++++++++++++++++++++++
 Total energy                               :      -304.83394290
 _______________________________________________________________
 Fermi energy                               :         0.51597082
 Kinetic energy                             :       303.51994893
 Coulomb energy                             :      -564.94367102
 Exchange energy                            :       -41.63104901
 Correlation energy                         :        -1.77917180
 
 DOS at Fermi energy (states/Ha/cell)       :         0.00000000
 
 Electron charges :
     core                                   :        16.00000000
     core leakage                           :         0.00340894
     valence                                :        32.00000000
     interstitial                           :        17.97909542
     charge in muffin-tin spheres :
                  atom     1     C          :         3.75288831
                  atom     2     C          :         3.75253302
                  atom     3     C          :         3.75227887
                  atom     4     C          :         3.75284804
                  atom     5     C          :         3.75215312
                  atom     6     C          :         3.75233489
                  atom     7     C          :         3.75300356
                  atom     8     C          :         3.75286477
     total charge in muffin-tins            :        30.02090458
     total charge                           :        48.00000000
 
 Estimated fundamental gap                  :         0.15168224
        valence-band maximum at    1      0.0000  0.0000  0.0000
     conduction-band minimum at   92      0.3750  0.3750  0.3333
 
 Wall time (seconds)                        :       112.89
 
++++++++++++++++++++++++++++++++++++++++++++++++++++++++++++++++++++++++++++++++
+ SCF iteration number :    2                                                  +
++++++++++++++++++++++++++++++++++++++++++++++++++++++++++++++++++++++++++++++++
 Total energy                               :      -304.83389013
 _______________________________________________________________
 Fermi energy                               :         0.51624642
 Kinetic energy                             :       303.53928089
 Coulomb energy                             :      -564.96128802
 Exchange energy                            :       -41.63285025
 Correlation energy                         :        -1.77903276
 
 DOS at Fermi energy (states/Ha/cell)       :         0.00000000
 
 Electron charges :
     core                                   :        16.00000000
     core leakage                           :         0.00340851
     valence                                :        32.00000000
     interstitial                           :        17.97449366
     charge in muffin-tin spheres :
                  atom     1     C          :         3.75343263
                  atom     2     C          :         3.75293785
                  atom     3     C          :         3.75291233
                  atom     4     C          :         3.75343537
                  atom     5     C          :         3.75268434
                  atom     6     C          :         3.75264844
                  atom     7     C          :         3.75368541
                  atom     8     C          :         3.75376999
     total charge in muffin-tins            :        30.02550634
     total charge                           :        48.00000000
 
 Estimated fundamental gap                  :         0.15208944
        valence-band maximum at    1      0.0000  0.0000  0.0000
     conduction-band minimum at  174      0.6250  0.6250  0.6667
 
 Wall time (seconds)                        :       226.69
 
 RMS change in effective potential (target) :  0.102858E-01  ( 0.100000E-05)
 Absolute change in total energy   (target) :  0.527670E-04  ( 0.100000E-05)
 Charge distance                   (target) :  0.387348E-03  ( 0.100000E-04)
 Abs. change in max-nonIBS-force   (target) :  0.945025E-02  ( 0.500000E-04)
 
++++++++++++++++++++++++++++++++++++++++++++++++++++++++++++++++++++++++++++++++
+ SCF iteration number :    3                                                  +
++++++++++++++++++++++++++++++++++++++++++++++++++++++++++++++++++++++++++++++++
 Total energy                               :      -304.83031761
 _______________________________________________________________
 Fermi energy                               :         0.51650868
 Kinetic energy                             :       303.55702178
 Coulomb energy                             :      -564.97425592
 Exchange energy                            :       -41.63415129
 Correlation energy                         :        -1.77893219
 
 DOS at Fermi energy (states/Ha/cell)       :         0.00000000
 
 Electron charges :
     core                                   :        16.00000000
     core leakage                           :         0.00340829
     valence                                :        32.00000000
     interstitial                           :        17.97102146
     charge in muffin-tin spheres :
                  atom     1     C          :         3.75375397
                  atom     2     C          :         3.75341167
                  atom     3     C          :         3.75349788
                  atom     4     C          :         3.75377106
                  atom     5     C          :         3.75321525
                  atom     6     C          :         3.75309921
                  atom     7     C          :         3.75406320
                  atom     8     C          :         3.75416630
     total charge in muffin-tins            :        30.02897854
     total charge                           :        48.00000000
 
 Estimated fundamental gap                  :         0.15239074
        valence-band maximum at    1      0.0000  0.0000  0.0000
     conduction-band minimum at   92      0.3750  0.3750  0.3333
 
 Wall time (seconds)                        :       340.14
 
 RMS change in effective potential (target) :  0.750494E-02  ( 0.100000E-05)
 Absolute change in total energy   (target) :  0.357252E-02  ( 0.100000E-05)
 Charge distance                   (target) :  0.291869E-03  ( 0.100000E-04)
 Abs. change in max-nonIBS-force   (target) :  0.103691E-02  ( 0.500000E-04)
 
++++++++++++++++++++++++++++++++++++++++++++++++++++++++++++++++++++++++++++++++
+ SCF iteration number :    4                                                  +
++++++++++++++++++++++++++++++++++++++++++++++++++++++++++++++++++++++++++++++++
 Total energy                               :      -304.78701954
 _______________________________________________________________
 Fermi energy                               :         0.51754702
 Kinetic energy                             :       303.62320536
 Coulomb energy                             :      -564.99535343
 Exchange energy                            :       -41.63610053
 Correlation energy                         :        -1.77877094
 
 DOS at Fermi energy (states/Ha/cell)       :         0.00000000
 
 Electron charges :
     core                                   :        16.00000000
     core leakage                           :         0.00340924
     valence                                :        32.00000000
     interstitial                           :        17.96402586
     charge in muffin-tin spheres :
                  atom     1     C          :         3.75528920
                  atom     2     C          :         3.75354500
                  atom     3     C          :         3.75345351
                  atom     4     C          :         3.75550331
                  atom     5     C          :         3.75332720
                  atom     6     C          :         3.75340961
                  atom     7     C          :         3.75560511
                  atom     8     C          :         3.75584120
     total charge in muffin-tins            :        30.03597414
     total charge                           :        48.00000000
 
 Estimated fundamental gap                  :         0.15285922
        valence-band maximum at    1      0.0000  0.0000  0.0000
     conduction-band minimum at   92      0.3750  0.3750  0.3333
 
 Wall time (seconds)                        :       454.63
 
 RMS change in effective potential (target) :  0.257276E-02  ( 0.100000E-05)
 Absolute change in total energy   (target) :  0.432981E-01  ( 0.100000E-05)
 Charge distance                   (target) :  0.683326E-03  ( 0.100000E-04)
 Abs. change in max-nonIBS-force   (target) :  0.132340E-02  ( 0.500000E-04)
 
++++++++++++++++++++++++++++++++++++++++++++++++++++++++++++++++++++++++++++++++
+ SCF iteration number :    5                                                  +
++++++++++++++++++++++++++++++++++++++++++++++++++++++++++++++++++++++++++++++++
 Total energy                               :      -304.79271537
 _______________________________________________________________
 Fermi energy                               :         0.51749316
 Kinetic energy                             :       303.62042428
 Coulomb energy                             :      -564.99799467
 Exchange energy                            :       -41.63639478
 Correlation energy                         :        -1.77875020
 
 DOS at Fermi energy (states/Ha/cell)       :         0.00000000
 
 Electron charges :
     core                                   :        16.00000000
     core leakage                           :         0.00340900
     valence                                :        32.00000000
     interstitial                           :        17.96357016
     charge in muffin-tin spheres :
                  atom     1     C          :         3.75355480
                  atom     2     C          :         3.75579476
                  atom     3     C          :         3.75568120
                  atom     4     C          :         3.75313519
                  atom     5     C          :         3.75526075
                  atom     6     C          :         3.75548585
                  atom     7     C          :         3.75391419
                  atom     8     C          :         3.75360310
     total charge in muffin-tins            :        30.03642984
     total charge                           :        48.00000000
 
 Estimated fundamental gap                  :         0.15289403
        valence-band maximum at    1      0.0000  0.0000  0.0000
     conduction-band minimum at   92      0.3750  0.3750  0.3333
 
 Wall time (seconds)                        :       567.64
 
 RMS change in effective potential (target) :  0.353324E-02  ( 0.100000E-05)
 Absolute change in total energy   (target) :  0.569582E-02  ( 0.100000E-05)
 Charge distance                   (target) :  0.736614E-03  ( 0.100000E-04)
 Abs. change in max-nonIBS-force   (target) :  0.668274E-02  ( 0.500000E-04)
 
++++++++++++++++++++++++++++++++++++++++++++++++++++++++++++++++++++++++++++++++
+ SCF iteration number :    6                                                  +
++++++++++++++++++++++++++++++++++++++++++++++++++++++++++++++++++++++++++++++++
 Total energy                               :      -304.79349439
 _______________________________________________________________
 Fermi energy                               :         0.51747909
 Kinetic energy                             :       303.61986233
 Coulomb energy                             :      -564.99819219
 Exchange energy                            :       -41.63641540
 Correlation energy                         :        -1.77874914
 
 DOS at Fermi energy (states/Ha/cell)       :         0.00000000
 
 Electron charges :
     core                                   :        16.00000000
     core leakage                           :         0.00340897
     valence                                :        32.00000000
     interstitial                           :        17.96353063
     charge in muffin-tin spheres :
                  atom     1     C          :         3.75460606
                  atom     2     C          :         3.75439133
                  atom     3     C          :         3.75457530
                  atom     4     C          :         3.75471343
                  atom     5     C          :         3.75428649
                  atom     6     C          :         3.75409617
                  atom     7     C          :         3.75489837
                  atom     8     C          :         3.75490221
     total charge in muffin-tins            :        30.03646937
     total charge                           :        48.00000000
 
 Estimated fundamental gap                  :         0.15293750
        valence-band maximum at    1      0.0000  0.0000  0.0000
     conduction-band minimum at   92      0.3750  0.3750  0.3333
 
 Wall time (seconds)                        :       683.39
 
 RMS change in effective potential (target) :  0.146734E-03  ( 0.100000E-05)
 Absolute change in total energy   (target) :  0.779021E-03  ( 0.100000E-05)
 Charge distance                   (target) :  0.458477E-03  ( 0.100000E-04)
 Abs. change in max-nonIBS-force   (target) :  0.148875E-01  ( 0.500000E-04)
 
++++++++++++++++++++++++++++++++++++++++++++++++++++++++++++++++++++++++++++++++
+ SCF iteration number :    7                                                  +
++++++++++++++++++++++++++++++++++++++++++++++++++++++++++++++++++++++++++++++++
 Total energy                               :      -304.79358399
 _______________________________________________________________
 Fermi energy                               :         0.51748043
 Kinetic energy                             :       303.61984001
 Coulomb energy                             :      -564.99825302
 Exchange energy                            :       -41.63642234
 Correlation energy                         :        -1.77874864
 
 DOS at Fermi energy (states/Ha/cell)       :         0.00000000
 
 Electron charges :
     core                                   :        16.00000000
     core leakage                           :         0.00340896
     valence                                :        32.00000000
     interstitial                           :        17.96351804
     charge in muffin-tin spheres :
                  atom     1     C          :         3.75458472
                  atom     2     C          :         3.75446590
                  atom     3     C          :         3.75441633
                  atom     4     C          :         3.75453438
                  atom     5     C          :         3.75409474
                  atom     6     C          :         3.75429535
                  atom     7     C          :         3.75501775
                  atom     8     C          :         3.75507279
     total charge in muffin-tins            :        30.03648196
     total charge                           :        48.00000000
 
 Estimated fundamental gap                  :         0.15293591
        valence-band maximum at    1      0.0000  0.0000  0.0000
     conduction-band minimum at  174      0.6250  0.6250  0.6667
 
 Wall time (seconds)                        :       798.12
 
 RMS change in effective potential (target) :  0.120567E-03  ( 0.100000E-05)
 Absolute change in total energy   (target) :  0.896024E-04  ( 0.100000E-05)
 Charge distance                   (target) :  0.390007E-04  ( 0.100000E-04)
 Abs. change in max-nonIBS-force   (target) :  0.247715E-03  ( 0.500000E-04)
 
++++++++++++++++++++++++++++++++++++++++++++++++++++++++++++++++++++++++++++++++
+ SCF iteration number :    8                                                  +
++++++++++++++++++++++++++++++++++++++++++++++++++++++++++++++++++++++++++++++++
 Total energy                               :      -304.79354768
 _______________________________________________________________
 Fermi energy                               :         0.51748033
 Kinetic energy                             :       303.61986072
 Coulomb energy                             :      -564.99823891
 Exchange energy                            :       -41.63642073
 Correlation energy                         :        -1.77874876
 
 DOS at Fermi energy (states/Ha/cell)       :         0.00000000
 
 Electron charges :
     core                                   :        16.00000000
     core leakage                           :         0.00340896
     valence                                :        32.00000000
     interstitial                           :        17.96352048
     charge in muffin-tin spheres :
                  atom     1     C          :         3.75460169
                  atom     2     C          :         3.75447317
                  atom     3     C          :         3.75448332
                  atom     4     C          :         3.75460081
                  atom     5     C          :         3.75423446
                  atom     6     C          :         3.75419076
                  atom     7     C          :         3.75492100
                  atom     8     C          :         3.75497431
     total charge in muffin-tins            :        30.03647952
     total charge                           :        48.00000000
 
 Estimated fundamental gap                  :         0.15293667
        valence-band maximum at    1      0.0000  0.0000  0.0000
     conduction-band minimum at   92      0.3750  0.3750  0.3333
 
 Wall time (seconds)                        :       913.74
 
 RMS change in effective potential (target) :  0.409972E-04  ( 0.100000E-05)
 Absolute change in total energy   (target) :  0.363146E-04  ( 0.100000E-05)
 Charge distance                   (target) :  0.224995E-04  ( 0.100000E-04)
 Abs. change in max-nonIBS-force   (target) :  0.128032E-04  ( 0.500000E-04)
 
++++++++++++++++++++++++++++++++++++++++++++++++++++++++++++++++++++++++++++++++
+ SCF iteration number :    9                                                  +
++++++++++++++++++++++++++++++++++++++++++++++++++++++++++++++++++++++++++++++++
 Total energy                               :      -304.79353761
 _______________________________________________________________
 Fermi energy                               :         0.51748057
 Kinetic energy                             :       303.61986626
 Coulomb energy                             :      -564.99823482
 Exchange energy                            :       -41.63642026
 Correlation energy                         :        -1.77874879
 
 DOS at Fermi energy (states/Ha/cell)       :         0.00000000
 
 Electron charges :
     core                                   :        16.00000000
     core leakage                           :         0.00340896
     valence                                :        32.00000000
     interstitial                           :        17.96352116
     charge in muffin-tin spheres :
                  atom     1     C          :         3.75458424
                  atom     2     C          :         3.75445107
                  atom     3     C          :         3.75451727
                  atom     4     C          :         3.75461604
                  atom     5     C          :         3.75421988
                  atom     6     C          :         3.75420120
                  atom     7     C          :         3.75493301
                  atom     8     C          :         3.75495613
     total charge in muffin-tins            :        30.03647884
     total charge                           :        48.00000000
 
 Estimated fundamental gap                  :         0.15293632
        valence-band maximum at    1      0.0000  0.0000  0.0000
     conduction-band minimum at   92      0.3750  0.3750  0.3333
 
 Wall time (seconds)                        :      1032.35
 
 RMS change in effective potential (target) :  0.123436E-04  ( 0.100000E-05)
 Absolute change in total energy   (target) :  0.100625E-04  ( 0.100000E-05)
 Charge distance                   (target) :  0.646135E-05  ( 0.100000E-04)
 Abs. change in max-nonIBS-force   (target) :  0.381994E-04  ( 0.500000E-04)
 
++++++++++++++++++++++++++++++++++++++++++++++++++++++++++++++++++++++++++++++++
+ SCF iteration number :   10                                                  +
++++++++++++++++++++++++++++++++++++++++++++++++++++++++++++++++++++++++++++++++
 Total energy                               :      -304.79351887
 _______________________________________________________________
 Fermi energy                               :         0.51748062
 Kinetic energy                             :       303.61987646
 Coulomb energy                             :      -564.99822709
 Exchange energy                            :       -41.63641939
 Correlation energy                         :        -1.77874885
 
 DOS at Fermi energy (states/Ha/cell)       :         0.00000000
 
 Electron charges :
     core                                   :        16.00000000
     core leakage                           :         0.00340896
     valence                                :        32.00000000
     interstitial                           :        17.96352244
     charge in muffin-tin spheres :
                  atom     1     C          :         3.75459135
                  atom     2     C          :         3.75445015
                  atom     3     C          :         3.75451000
                  atom     4     C          :         3.75460434
                  atom     5     C          :         3.75421815
                  atom     6     C          :         3.75420460
                  atom     7     C          :         3.75493090
                  atom     8     C          :         3.75496807
     total charge in muffin-tins            :        30.03647756
     total charge                           :        48.00000000
 
 Estimated fundamental gap                  :         0.15293646
        valence-band maximum at    1      0.0000  0.0000  0.0000
     conduction-band minimum at   92      0.3750  0.3750  0.3333
 
 Wall time (seconds)                        :      1146.37
 
 RMS change in effective potential (target) :  0.410214E-05  ( 0.100000E-05)
 Absolute change in total energy   (target) :  0.187453E-04  ( 0.100000E-05)
 Charge distance                   (target) :  0.218410E-05  ( 0.100000E-04)
 Abs. change in max-nonIBS-force   (target) :  0.229607E-04  ( 0.500000E-04)
 
++++++++++++++++++++++++++++++++++++++++++++++++++++++++++++++++++++++++++++++++
+ SCF iteration number :   11                                                  +
++++++++++++++++++++++++++++++++++++++++++++++++++++++++++++++++++++++++++++++++
 Total energy                               :      -304.79352045
 _______________________________________________________________
 Fermi energy                               :         0.51748063
 Kinetic energy                             :       303.61987580
 Coulomb energy                             :      -564.99822792
 Exchange energy                            :       -41.63641949
 Correlation energy                         :        -1.77874884
 
 DOS at Fermi energy (states/Ha/cell)       :         0.00000000
 
 Electron charges :
     core                                   :        16.00000000
     core leakage                           :         0.00340896
     valence                                :        32.00000000
     interstitial                           :        17.96352226
     charge in muffin-tin spheres :
                  atom     1     C          :         3.75458701
                  atom     2     C          :         3.75445613
                  atom     3     C          :         3.75450634
                  atom     4     C          :         3.75461126
                  atom     5     C          :         3.75422083
                  atom     6     C          :         3.75419998
                  atom     7     C          :         3.75493399
                  atom     8     C          :         3.75496219
     total charge in muffin-tins            :        30.03647774
     total charge                           :        48.00000000
 
 Estimated fundamental gap                  :         0.15293643
        valence-band maximum at    1      0.0000  0.0000  0.0000
     conduction-band minimum at  174      0.6250  0.6250  0.6667
 
 Wall time (seconds)                        :      1260.15
 
 RMS change in effective potential (target) :  0.189422E-05  ( 0.100000E-05)
 Absolute change in total energy   (target) :  0.157998E-05  ( 0.100000E-05)
 Charge distance                   (target) :  0.154381E-05  ( 0.100000E-04)
 Abs. change in max-nonIBS-force   (target) :  0.199451E-04  ( 0.500000E-04)
 
++++++++++++++++++++++++++++++++++++++++++++++++++++++++++++++++++++++++++++++++
+ SCF iteration number :   12                                                  +
++++++++++++++++++++++++++++++++++++++++++++++++++++++++++++++++++++++++++++++++
 Total energy                               :      -304.79352077
 _______________________________________________________________
 Fermi energy                               :         0.51748064
 Kinetic energy                             :       303.61987570
 Coulomb energy                             :      -564.99822812
 Exchange energy                            :       -41.63641951
 Correlation energy                         :        -1.77874884
 
 DOS at Fermi energy (states/Ha/cell)       :         0.00000000
 
 Electron charges :
     core                                   :        16.00000000
     core leakage                           :         0.00340896
     valence                                :        32.00000000
     interstitial                           :        17.96352222
     charge in muffin-tin spheres :
                  atom     1     C          :         3.75458881
                  atom     2     C          :         3.75445394
                  atom     3     C          :         3.75450902
                  atom     4     C          :         3.75461014
                  atom     5     C          :         3.75422002
                  atom     6     C          :         3.75420126
                  atom     7     C          :         3.75493157
                  atom     8     C          :         3.75496301
     total charge in muffin-tins            :        30.03647778
     total charge                           :        48.00000000
 
 Estimated fundamental gap                  :         0.15293641
        valence-band maximum at    1      0.0000  0.0000  0.0000
     conduction-band minimum at  174      0.6250  0.6250  0.6667
 
 Wall time (seconds)                        :      1373.28
 
 RMS change in effective potential (target) :  0.364437E-06  ( 0.100000E-05)
 Absolute change in total energy   (target) :  0.321011E-06  ( 0.100000E-05)
 Charge distance                   (target) :  0.474638E-06  ( 0.100000E-04)
 Abs. change in max-nonIBS-force   (target) :  0.146940E-05  ( 0.500000E-04)
 
++++++++++++++++++++++++++++++++++++++++++++++++++++++++++++++++++++++++++++++++
+ SCF iteration number :   13                                                  +
++++++++++++++++++++++++++++++++++++++++++++++++++++++++++++++++++++++++++++++++
 Total energy                               :      -304.79352039
 _______________________________________________________________
 Fermi energy                               :         0.51748065
 Kinetic energy                             :       303.61987588
 Coulomb energy                             :      -564.99822793
 Exchange energy                            :       -41.63641949
 Correlation energy                         :        -1.77874884
 
 DOS at Fermi energy (states/Ha/cell)       :         0.00000000
 
 Electron charges :
     core                                   :        16.00000000
     core leakage                           :         0.00340896
     valence                                :        32.00000000
     interstitial                           :        17.96352226
     charge in muffin-tin spheres :
                  atom     1     C          :         3.75458859
                  atom     2     C          :         3.75445370
                  atom     3     C          :         3.75450877
                  atom     4     C          :         3.75460960
                  atom     5     C          :         3.75422044
                  atom     6     C          :         3.75420122
                  atom     7     C          :         3.75493210
                  atom     8     C          :         3.75496333
     total charge in muffin-tins            :        30.03647774
     total charge                           :        48.00000000
 
 Estimated fundamental gap                  :         0.15293640
        valence-band maximum at    1      0.0000  0.0000  0.0000
     conduction-band minimum at   92      0.3750  0.3750  0.3333
 
 Wall time (seconds)                        :      1487.21
 
 RMS change in effective potential (target) :  0.168951E-06  ( 0.100000E-05)
 Absolute change in total energy   (target) :  0.384317E-06  ( 0.100000E-05)
 Charge distance                   (target) :  0.902329E-07  ( 0.100000E-04)
 Abs. change in max-nonIBS-force   (target) :  0.758522E-06  ( 0.500000E-04)
                                                                                
++++++++++++++++++++++++++++++++++++++++++++++++++++++++++++++++++++++++++++++++
| Convergency criteria checked for the last 2 iterations                       +
| Convergence targets achieved. Performing final SCF iteration                 +
++++++++++++++++++++++++++++++++++++++++++++++++++++++++++++++++++++++++++++++++
 Total energy                               :      -304.79352022
 _______________________________________________________________
 Fermi energy                               :         0.51748065
 Kinetic energy                             :       303.61987595
 Coulomb energy                             :      -564.99822785
 Exchange energy                            :       -41.63641948
 Correlation energy                         :        -1.77874884
 
 DOS at Fermi energy (states/Ha/cell)       :         0.00000000
 
 Electron charges :
     core                                   :        16.00000000
     core leakage                           :         0.00340896
     valence                                :        32.00000000
     interstitial                           :        17.96352227
     charge in muffin-tin spheres :
                  atom     1     C          :         3.75458872
                  atom     2     C          :         3.75445383
                  atom     3     C          :         3.75450875
                  atom     4     C          :         3.75460976
                  atom     5     C          :         3.75422018
                  atom     6     C          :         3.75420126
                  atom     7     C          :         3.75493193
                  atom     8     C          :         3.75496330
     total charge in muffin-tins            :        30.03647773
     total charge                           :        48.00000000
 
 Estimated fundamental gap                  :         0.15293640
        valence-band maximum at    1      0.0000  0.0000  0.0000
     conduction-band minimum at  174      0.6250  0.6250  0.6667
 
++++++++++++++++++++++++++++++++++++++++++++++++++++++++++++++++++++++++++++++++
+ Self-consistent loop stopped                                                 +
++++++++++++++++++++++++++++++++++++++++++++++++++++++++++++++++++++++++++++++++
 STATE.OUT is written
 
--------------------------------------------------------------------------------
- Writing atomic positions and forces                                          -
--------------------------------------------------------------------------------
 
 Atomic positions (lattice) :
 atom     1   C  :     0.99925948    0.00044431    0.99985190
 atom     2   C  :     0.25000000    0.25000000    0.25000000
 atom     3   C  :     0.50074052    0.49955569    0.50014810
 atom     4   C  :     0.75000000    0.75000000    0.75000000
 atom     5   C  :     0.31250000    0.31250000    0.06250000
 atom     6   C  :     0.56250000    0.56250000    0.31250000
 atom     7   C  :     0.81250000    0.81250000    0.56250000
 atom     8   C  :     0.06250000    0.06250000    0.81250000
 
 Total atomic forces including IBS (cartesian) :
 atom     1   C  :    -0.00168310    0.00013929    0.00013929
 atom     2   C  :    -0.00000167   -0.00000520   -0.00000520
 atom     3   C  :     0.00168216   -0.00015057   -0.00015057
 atom     4   C  :    -0.00000379   -0.00000360   -0.00000360
 atom     5   C  :     0.00114969    0.00006807    0.00006807
 atom     6   C  :    -0.00034029    0.00007284    0.00007284
 atom     7   C  :    -0.00113855   -0.00006134   -0.00006134
 atom     8   C  :     0.00033555   -0.00005950   -0.00005950
 
 Atomic force components including IBS (cartesian) :
 atom     1   C  :    -0.00176270    0.00015250    0.00015250   HF force
                 :     0.00004545   -0.00001064   -0.00001064   core correction
                 :     0.00003415   -0.00000256   -0.00000256   IBS correction
 atom     2   C  :     0.00000548    0.00003195    0.00003195   HF force
                 :    -0.00002359   -0.00003397   -0.00003397   core correction
                 :     0.00001643   -0.00000318   -0.00000318   IBS correction
 atom     3   C  :     0.00175286   -0.00022735   -0.00022735   HF force
                 :    -0.00006637    0.00007573    0.00007573   core correction
                 :    -0.00000434    0.00000105    0.00000105   IBS correction
 atom     4   C  :    -0.00002442   -0.00010399   -0.00010399   HF force
                 :     0.00000698    0.00009861    0.00009861   core correction
                 :     0.00001364    0.00000178    0.00000178   IBS correction
 atom     5   C  :     0.00128727    0.00007653    0.00007653   HF force
                 :    -0.00010752   -0.00000611   -0.00000611   core correction
                 :    -0.00003006   -0.00000235   -0.00000235   IBS correction
 atom     6   C  :    -0.00033404    0.00008979    0.00008979   HF force
                 :     0.00000204   -0.00001536   -0.00001536   core correction
                 :    -0.00000829   -0.00000159   -0.00000159   IBS correction
 atom     7   C  :    -0.00125724   -0.00000615   -0.00000615   HF force
                 :     0.00012068   -0.00005895   -0.00005895   core correction
                 :    -0.00000199    0.00000376    0.00000376   IBS correction
 atom     8   C  :     0.00033278   -0.00001329   -0.00001329   HF force
                 :     0.00002233   -0.00004930   -0.00004930   core correction
                 :    -0.00001955    0.00000310    0.00000310   IBS correction
 
********************************************************************************
* Groundstate module stopped                                                   *
********************************************************************************
 
 Total time spent (seconds)                 :      1783.62
================================================================================
| EXCITING NITROGEN-13 stopped                                                 =
================================================================================
