   192 : nkpt; k-point, vkl, wkpt, nmat below
     1   0.000000000       0.000000000       0.000000000      0.5208333333E-02    1395
     2  0.1250000000       0.000000000       0.000000000      0.5208333333E-02    1382
     3  0.2500000000       0.000000000       0.000000000      0.5208333333E-02    1389
     4  0.3750000000       0.000000000       0.000000000      0.5208333333E-02    1386
     5  0.5000000000       0.000000000       0.000000000      0.5208333333E-02    1400
     6  0.6250000000       0.000000000       0.000000000      0.5208333333E-02    1386
     7  0.7500000000       0.000000000       0.000000000      0.5208333333E-02    1389
     8  0.8750000000       0.000000000       0.000000000      0.5208333333E-02    1382
     9   0.000000000      0.1250000000       0.000000000      0.5208333333E-02    1382
    10  0.1250000000      0.1250000000       0.000000000      0.5208333333E-02    1375
    11  0.2500000000      0.1250000000       0.000000000      0.5208333333E-02    1385
    12  0.3750000000      0.1250000000       0.000000000      0.5208333333E-02    1389
    13  0.5000000000      0.1250000000       0.000000000      0.5208333333E-02    1401
    14  0.6250000000      0.1250000000       0.000000000      0.5208333333E-02    1404
    15  0.7500000000      0.1250000000       0.000000000      0.5208333333E-02    1388
    16  0.8750000000      0.1250000000       0.000000000      0.5208333333E-02    1387
    17   0.000000000      0.2500000000       0.000000000      0.5208333333E-02    1389
    18  0.1250000000      0.2500000000       0.000000000      0.5208333333E-02    1385
    19  0.2500000000      0.2500000000       0.000000000      0.5208333333E-02    1386
    20  0.3750000000      0.2500000000       0.000000000      0.5208333333E-02    1391
    21  0.5000000000      0.2500000000       0.000000000      0.5208333333E-02    1401
    22  0.6250000000      0.2500000000       0.000000000      0.5208333333E-02    1409
    23  0.7500000000      0.2500000000       0.000000000      0.5208333333E-02    1423
    24  0.8750000000      0.2500000000       0.000000000      0.5208333333E-02    1388
    25   0.000000000      0.3750000000       0.000000000      0.5208333333E-02    1386
    26  0.1250000000      0.3750000000       0.000000000      0.5208333333E-02    1389
    27  0.2500000000      0.3750000000       0.000000000      0.5208333333E-02    1391
    28  0.3750000000      0.3750000000       0.000000000      0.5208333333E-02    1399
    29  0.5000000000      0.3750000000       0.000000000      0.5208333333E-02    1395
    30  0.6250000000      0.3750000000       0.000000000      0.5208333333E-02    1413
    31  0.7500000000      0.3750000000       0.000000000      0.5208333333E-02    1409
    32  0.8750000000      0.3750000000       0.000000000      0.5208333333E-02    1404
    33   0.000000000      0.5000000000       0.000000000      0.5208333333E-02    1400
    34  0.1250000000      0.5000000000       0.000000000      0.5208333333E-02    1401
    35  0.2500000000      0.5000000000       0.000000000      0.5208333333E-02    1401
    36  0.3750000000      0.5000000000       0.000000000      0.5208333333E-02    1395
    37  0.5000000000      0.5000000000       0.000000000      0.5208333333E-02    1410
    38  0.6250000000      0.5000000000       0.000000000      0.5208333333E-02    1395
    39  0.7500000000      0.5000000000       0.000000000      0.5208333333E-02    1401
    40  0.8750000000      0.5000000000       0.000000000      0.5208333333E-02    1401
    41   0.000000000      0.6250000000       0.000000000      0.5208333333E-02    1386
    42  0.1250000000      0.6250000000       0.000000000      0.5208333333E-02    1404
    43  0.2500000000      0.6250000000       0.000000000      0.5208333333E-02    1409
    44  0.3750000000      0.6250000000       0.000000000      0.5208333333E-02    1413
    45  0.5000000000      0.6250000000       0.000000000      0.5208333333E-02    1395
    46  0.6250000000      0.6250000000       0.000000000      0.5208333333E-02    1399
    47  0.7500000000      0.6250000000       0.000000000      0.5208333333E-02    1391
    48  0.8750000000      0.6250000000       0.000000000      0.5208333333E-02    1389
    49   0.000000000      0.7500000000       0.000000000      0.5208333333E-02    1389
    50  0.1250000000      0.7500000000       0.000000000      0.5208333333E-02    1388
    51  0.2500000000      0.7500000000       0.000000000      0.5208333333E-02    1423
    52  0.3750000000      0.7500000000       0.000000000      0.5208333333E-02    1409
    53  0.5000000000      0.7500000000       0.000000000      0.5208333333E-02    1401
    54  0.6250000000      0.7500000000       0.000000000      0.5208333333E-02    1391
    55  0.7500000000      0.7500000000       0.000000000      0.5208333333E-02    1386
    56  0.8750000000      0.7500000000       0.000000000      0.5208333333E-02    1385
    57   0.000000000      0.8750000000       0.000000000      0.5208333333E-02    1382
    58  0.1250000000      0.8750000000       0.000000000      0.5208333333E-02    1387
    59  0.2500000000      0.8750000000       0.000000000      0.5208333333E-02    1388
    60  0.3750000000      0.8750000000       0.000000000      0.5208333333E-02    1404
    61  0.5000000000      0.8750000000       0.000000000      0.5208333333E-02    1401
    62  0.6250000000      0.8750000000       0.000000000      0.5208333333E-02    1389
    63  0.7500000000      0.8750000000       0.000000000      0.5208333333E-02    1385
    64  0.8750000000      0.8750000000       0.000000000      0.5208333333E-02    1375
    65   0.000000000       0.000000000      0.3333333333      0.5208333333E-02    1384
    66  0.1250000000       0.000000000      0.3333333333      0.5208333333E-02    1378
    67  0.2500000000       0.000000000      0.3333333333      0.5208333333E-02    1387
    68  0.3750000000       0.000000000      0.3333333333      0.5208333333E-02    1395
    69  0.5000000000       0.000000000      0.3333333333      0.5208333333E-02    1404
    70  0.6250000000       0.000000000      0.3333333333      0.5208333333E-02    1393
    71  0.7500000000       0.000000000      0.3333333333      0.5208333333E-02    1400
    72  0.8750000000       0.000000000      0.3333333333      0.5208333333E-02    1387
    73   0.000000000      0.1250000000      0.3333333333      0.5208333333E-02    1378
    74  0.1250000000      0.1250000000      0.3333333333      0.5208333333E-02    1391
    75  0.2500000000      0.1250000000      0.3333333333      0.5208333333E-02    1387
    76  0.3750000000      0.1250000000      0.3333333333      0.5208333333E-02    1389
    77  0.5000000000      0.1250000000      0.3333333333      0.5208333333E-02    1398
    78  0.6250000000      0.1250000000      0.3333333333      0.5208333333E-02    1403
    79  0.7500000000      0.1250000000      0.3333333333      0.5208333333E-02    1392
    80  0.8750000000      0.1250000000      0.3333333333      0.5208333333E-02    1382
    81   0.000000000      0.2500000000      0.3333333333      0.5208333333E-02    1387
    82  0.1250000000      0.2500000000      0.3333333333      0.5208333333E-02    1387
    83  0.2500000000      0.2500000000      0.3333333333      0.5208333333E-02    1395
    84  0.3750000000      0.2500000000      0.3333333333      0.5208333333E-02    1387
    85  0.5000000000      0.2500000000      0.3333333333      0.5208333333E-02    1402
    86  0.6250000000      0.2500000000      0.3333333333      0.5208333333E-02    1409
    87  0.7500000000      0.2500000000      0.3333333333      0.5208333333E-02    1405
    88  0.8750000000      0.2500000000      0.3333333333      0.5208333333E-02    1391
    89   0.000000000      0.3750000000      0.3333333333      0.5208333333E-02    1395
    90  0.1250000000      0.3750000000      0.3333333333      0.5208333333E-02    1389
    91  0.2500000000      0.3750000000      0.3333333333      0.5208333333E-02    1387
    92  0.3750000000      0.3750000000      0.3333333333      0.5208333333E-02    1386
    93  0.5000000000      0.3750000000      0.3333333333      0.5208333333E-02    1402
    94  0.6250000000      0.3750000000      0.3333333333      0.5208333333E-02    1412
    95  0.7500000000      0.3750000000      0.3333333333      0.5208333333E-02    1413
    96  0.8750000000      0.3750000000      0.3333333333      0.5208333333E-02    1395
    97   0.000000000      0.5000000000      0.3333333333      0.5208333333E-02    1404
    98  0.1250000000      0.5000000000      0.3333333333      0.5208333333E-02    1398
    99  0.2500000000      0.5000000000      0.3333333333      0.5208333333E-02    1402
   100  0.3750000000      0.5000000000      0.3333333333      0.5208333333E-02    1402
   101  0.5000000000      0.5000000000      0.3333333333      0.5208333333E-02    1387
   102  0.6250000000      0.5000000000      0.3333333333      0.5208333333E-02    1400
   103  0.7500000000      0.5000000000      0.3333333333      0.5208333333E-02    1399
   104  0.8750000000      0.5000000000      0.3333333333      0.5208333333E-02    1402
   105   0.000000000      0.6250000000      0.3333333333      0.5208333333E-02    1393
   106  0.1250000000      0.6250000000      0.3333333333      0.5208333333E-02    1403
   107  0.2500000000      0.6250000000      0.3333333333      0.5208333333E-02    1409
   108  0.3750000000      0.6250000000      0.3333333333      0.5208333333E-02    1412
   109  0.5000000000      0.6250000000      0.3333333333      0.5208333333E-02    1400
   110  0.6250000000      0.6250000000      0.3333333333      0.5208333333E-02    1392
   111  0.7500000000      0.6250000000      0.3333333333      0.5208333333E-02    1391
   112  0.8750000000      0.6250000000      0.3333333333      0.5208333333E-02    1392
   113   0.000000000      0.7500000000      0.3333333333      0.5208333333E-02    1400
   114  0.1250000000      0.7500000000      0.3333333333      0.5208333333E-02    1392
   115  0.2500000000      0.7500000000      0.3333333333      0.5208333333E-02    1405
   116  0.3750000000      0.7500000000      0.3333333333      0.5208333333E-02    1413
   117  0.5000000000      0.7500000000      0.3333333333      0.5208333333E-02    1399
   118  0.6250000000      0.7500000000      0.3333333333      0.5208333333E-02    1391
   119  0.7500000000      0.7500000000      0.3333333333      0.5208333333E-02    1399
   120  0.8750000000      0.7500000000      0.3333333333      0.5208333333E-02    1382
   121   0.000000000      0.8750000000      0.3333333333      0.5208333333E-02    1387
   122  0.1250000000      0.8750000000      0.3333333333      0.5208333333E-02    1382
   123  0.2500000000      0.8750000000      0.3333333333      0.5208333333E-02    1391
   124  0.3750000000      0.8750000000      0.3333333333      0.5208333333E-02    1395
   125  0.5000000000      0.8750000000      0.3333333333      0.5208333333E-02    1402
   126  0.6250000000      0.8750000000      0.3333333333      0.5208333333E-02    1392
   127  0.7500000000      0.8750000000      0.3333333333      0.5208333333E-02    1382
   128  0.8750000000      0.8750000000      0.3333333333      0.5208333333E-02    1381
   129   0.000000000       0.000000000      0.6666666667      0.5208333333E-02    1384
   130  0.1250000000       0.000000000      0.6666666667      0.5208333333E-02    1387
   131  0.2500000000       0.000000000      0.6666666667      0.5208333333E-02    1400
   132  0.3750000000       0.000000000      0.6666666667      0.5208333333E-02    1393
   133  0.5000000000       0.000000000      0.6666666667      0.5208333333E-02    1404
   134  0.6250000000       0.000000000      0.6666666667      0.5208333333E-02    1395
   135  0.7500000000       0.000000000      0.6666666667      0.5208333333E-02    1387
   136  0.8750000000       0.000000000      0.6666666667      0.5208333333E-02    1378
   137   0.000000000      0.1250000000      0.6666666667      0.5208333333E-02    1387
   138  0.1250000000      0.1250000000      0.6666666667      0.5208333333E-02    1381
   139  0.2500000000      0.1250000000      0.6666666667      0.5208333333E-02    1382
   140  0.3750000000      0.1250000000      0.6666666667      0.5208333333E-02    1392
   141  0.5000000000      0.1250000000      0.6666666667      0.5208333333E-02    1402
   142  0.6250000000      0.1250000000      0.6666666667      0.5208333333E-02    1395
   143  0.7500000000      0.1250000000      0.6666666667      0.5208333333E-02    1391
   144  0.8750000000      0.1250000000      0.6666666667      0.5208333333E-02    1382
   145   0.000000000      0.2500000000      0.6666666667      0.5208333333E-02    1400
   146  0.1250000000      0.2500000000      0.6666666667      0.5208333333E-02    1382
   147  0.2500000000      0.2500000000      0.6666666667      0.5208333333E-02    1399
   148  0.3750000000      0.2500000000      0.6666666667      0.5208333333E-02    1391
   149  0.5000000000      0.2500000000      0.6666666667      0.5208333333E-02    1399
   150  0.6250000000      0.2500000000      0.6666666667      0.5208333333E-02    1413
   151  0.7500000000      0.2500000000      0.6666666667      0.5208333333E-02    1405
   152  0.8750000000      0.2500000000      0.6666666667      0.5208333333E-02    1392
   153   0.000000000      0.3750000000      0.6666666667      0.5208333333E-02    1393
   154  0.1250000000      0.3750000000      0.6666666667      0.5208333333E-02    1392
   155  0.2500000000      0.3750000000      0.6666666667      0.5208333333E-02    1391
   156  0.3750000000      0.3750000000      0.6666666667      0.5208333333E-02    1392
   157  0.5000000000      0.3750000000      0.6666666667      0.5208333333E-02    1400
   158  0.6250000000      0.3750000000      0.6666666667      0.5208333333E-02    1412
   159  0.7500000000      0.3750000000      0.6666666667      0.5208333333E-02    1409
   160  0.8750000000      0.3750000000      0.6666666667      0.5208333333E-02    1403
   161   0.000000000      0.5000000000      0.6666666667      0.5208333333E-02    1404
   162  0.1250000000      0.5000000000      0.6666666667      0.5208333333E-02    1402
   163  0.2500000000      0.5000000000      0.6666666667      0.5208333333E-02    1399
   164  0.3750000000      0.5000000000      0.6666666667      0.5208333333E-02    1400
   165  0.5000000000      0.5000000000      0.6666666667      0.5208333333E-02    1387
   166  0.6250000000      0.5000000000      0.6666666667      0.5208333333E-02    1402
   167  0.7500000000      0.5000000000      0.6666666667      0.5208333333E-02    1402
   168  0.8750000000      0.5000000000      0.6666666667      0.5208333333E-02    1398
   169   0.000000000      0.6250000000      0.6666666667      0.5208333333E-02    1395
   170  0.1250000000      0.6250000000      0.6666666667      0.5208333333E-02    1395
   171  0.2500000000      0.6250000000      0.6666666667      0.5208333333E-02    1413
   172  0.3750000000      0.6250000000      0.6666666667      0.5208333333E-02    1412
   173  0.5000000000      0.6250000000      0.6666666667      0.5208333333E-02    1402
   174  0.6250000000      0.6250000000      0.6666666667      0.5208333333E-02    1386
   175  0.7500000000      0.6250000000      0.6666666667      0.5208333333E-02    1387
   176  0.8750000000      0.6250000000      0.6666666667      0.5208333333E-02    1389
   177   0.000000000      0.7500000000      0.6666666667      0.5208333333E-02    1387
   178  0.1250000000      0.7500000000      0.6666666667      0.5208333333E-02    1391
   179  0.2500000000      0.7500000000      0.6666666667      0.5208333333E-02    1405
   180  0.3750000000      0.7500000000      0.6666666667      0.5208333333E-02    1409
   181  0.5000000000      0.7500000000      0.6666666667      0.5208333333E-02    1402
   182  0.6250000000      0.7500000000      0.6666666667      0.5208333333E-02    1387
   183  0.7500000000      0.7500000000      0.6666666667      0.5208333333E-02    1395
   184  0.8750000000      0.7500000000      0.6666666667      0.5208333333E-02    1387
   185   0.000000000      0.8750000000      0.6666666667      0.5208333333E-02    1378
   186  0.1250000000      0.8750000000      0.6666666667      0.5208333333E-02    1382
   187  0.2500000000      0.8750000000      0.6666666667      0.5208333333E-02    1392
   188  0.3750000000      0.8750000000      0.6666666667      0.5208333333E-02    1403
   189  0.5000000000      0.8750000000      0.6666666667      0.5208333333E-02    1398
   190  0.6250000000      0.8750000000      0.6666666667      0.5208333333E-02    1389
   191  0.7500000000      0.8750000000      0.6666666667      0.5208333333E-02    1387
   192  0.8750000000      0.8750000000      0.6666666667      0.5208333333E-02    1391
