  0.2492204695E-02
  0.1764511301E-02
  0.3241903782E-02
  0.4549940700E-03
  0.1956824905E-03
  0.1277302568E-03
  0.8221327229E-04
  0.2674469964E-04
  0.1088584010E-04
  0.4068366316E-05
  0.4646302572E-06
  0.1879058525E-06
 
