 
Distance between is =    1 (C), ia =    1 and
 is =    1 (C), ia =    1 :    0.000000000    
 is =    1 (C), ia =    2 :    4.771551317    
 is =    1 (C), ia =    3 :    8.262936157    
 is =    1 (C), ia =    4 :    4.774380581    
 is =    1 (C), ia =    5 :    2.921390464    
 is =    1 (C), ia =    6 :    5.594837639    
 is =    1 (C), ia =    7 :    7.358730738    
 is =    1 (C), ia =    8 :    2.926009263    
 
Distance between is =    1 (C), ia =    2 and
 is =    1 (C), ia =    1 :    4.771551317    
 is =    1 (C), ia =    2 :    0.000000000    
 is =    1 (C), ia =    3 :    4.771551317    
 is =    1 (C), ia =    4 :    8.269466839    
 is =    1 (C), ia =    5 :    2.923698039    
 is =    1 (C), ia =    6 :    2.923698039    
 is =    1 (C), ia =    7 :    5.598455515    
 is =    1 (C), ia =    8 :    7.357812045    
 
Distance between is =    1 (C), ia =    3 and
 is =    1 (C), ia =    1 :    8.262936157    
 is =    1 (C), ia =    2 :    4.771551317    
 is =    1 (C), ia =    3 :    0.000000000    
 is =    1 (C), ia =    4 :    4.774380581    
 is =    1 (C), ia =    5 :    7.355059629    
 is =    1 (C), ia =    6 :    2.921390464    
 is =    1 (C), ia =    7 :    2.921390464    
 is =    1 (C), ia =    8 :    5.599662860    
 
Distance between is =    1 (C), ia =    4 and
 is =    1 (C), ia =    1 :    4.774380581    
 is =    1 (C), ia =    2 :    8.269466839    
 is =    1 (C), ia =    3 :    4.774380581    
 is =    1 (C), ia =    4 :    0.000000000    
 is =    1 (C), ia =    5 :    5.598455515    
 is =    1 (C), ia =    6 :    7.357812045    
 is =    1 (C), ia =    7 :    2.923698039    
 is =    1 (C), ia =    8 :    2.923698039    
 
Distance between is =    1 (C), ia =    5 and
 is =    1 (C), ia =    1 :    2.921390464    
 is =    1 (C), ia =    2 :    2.923698039    
 is =    1 (C), ia =    3 :    7.355059629    
 is =    1 (C), ia =    4 :    5.598455515    
 is =    1 (C), ia =    5 :    0.000000000    
 is =    1 (C), ia =    6 :    4.774378905    
 is =    1 (C), ia =    7 :    8.269466839    
 is =    1 (C), ia =    8 :    4.774378905    
 
Distance between is =    1 (C), ia =    6 and
 is =    1 (C), ia =    1 :    5.594837639    
 is =    1 (C), ia =    2 :    2.923698039    
 is =    1 (C), ia =    3 :    2.921390464    
 is =    1 (C), ia =    4 :    7.357812045    
 is =    1 (C), ia =    5 :    4.774378905    
 is =    1 (C), ia =    6 :    0.000000000    
 is =    1 (C), ia =    7 :    4.774378905    
 is =    1 (C), ia =    8 :    8.269466839    
 
Distance between is =    1 (C), ia =    7 and
 is =    1 (C), ia =    1 :    7.358730738    
 is =    1 (C), ia =    2 :    5.598455515    
 is =    1 (C), ia =    3 :    2.921390464    
 is =    1 (C), ia =    4 :    2.923698039    
 is =    1 (C), ia =    5 :    8.269466839    
 is =    1 (C), ia =    6 :    4.774378905    
 is =    1 (C), ia =    7 :    0.000000000    
 is =    1 (C), ia =    8 :    4.774378905    
 
Distance between is =    1 (C), ia =    8 and
 is =    1 (C), ia =    1 :    2.926009263    
 is =    1 (C), ia =    2 :    7.357812045    
 is =    1 (C), ia =    3 :    5.599662860    
 is =    1 (C), ia =    4 :    2.923698039    
 is =    1 (C), ia =    5 :    4.774378905    
 is =    1 (C), ia =    6 :    8.269466839    
 is =    1 (C), ia =    7 :    4.774378905    
 is =    1 (C), ia =    8 :    0.000000000    
