================================================================================
| EXCITING NITROGEN-13 started                                                 =
| version hash id: de0c1dba9f665d6c60514aa9e8bf40326ac9f394                    =
|                                                                              =
|                                                                              =
| Date (DD-MM-YYYY) : 03-05-2022                                               =
| Time (hh:mm:ss)   : 17:16:11                                                 =
|                                                                              =
| All units are atomic (Hartree, Bohr, etc.)                                   =
================================================================================
 
********************************************************************************
* Ground-state run resuming from STATE.OUT                                     *
********************************************************************************
 
++++++++++++++++++++++++++++++++++++++++++++++++++++++++++++++++++++++++++++++++
+ Starting initialization                                                      +
++++++++++++++++++++++++++++++++++++++++++++++++++++++++++++++++++++++++++++++++
 
 Lattice vectors (cartesian) :
     -3.3759957000     -3.3759957000      0.0000000000
     -3.3759957000      0.0000000000      3.3759957000
      6.7519914000    -10.1279871000     10.1279871000
 
 Reciprocal lattice vectors (cartesian) :
     -0.6979257972     -1.1632096620     -0.6979257972
     -0.6979257972      0.6979257972      1.1632096620
      0.2326419324     -0.2326419324      0.2326419324
 
 Unit cell volume                           :     307.8191548003
 Brillouin zone volume                      :       0.8058309874
 
 Species :    1 (C)
     parameters loaded from                 :    C.xml
     name                                   :    carbon
     nuclear charge                         :      -6.00000000
     electronic charge                      :       6.00000000
     atomic mass                            :   21894.16673000
     muffin-tin radius                      :       1.25000000
     # of radial points in muffin-tin       :     250
 
     atomic positions (lattice) :
       1 :   0.00000000  0.00000000  0.00000000
       2 :   0.24955569  0.24955569  0.25014810
       3 :   0.50000000  0.50000000  0.50000000
       4 :   0.75044431  0.75044431  0.74985190
       5 :   0.31250000  0.31250000  0.06250000
       6 :   0.56250000  0.56250000  0.31250000
       7 :   0.81250000  0.81250000  0.56250000
       8 :   0.06250000  0.06250000  0.81250000
 
 Total number of atoms per unit cell        :       8
 
 Spin treatment                             :    spin-unpolarised
 
 Number of Bravais lattice symmetries       :      12
 Number of crystal symmetries               :       2
 
 Sphere radius used for k-point grid density:      33.42065234
 
 k-point grid                               :       8    8    3
 Total number of k-points                   :     108
 k-point set is reduced with crystal symmetries
 
 R^MT_min * |G+k|_max (rgkmax)              :       8.00000000
 Species with R^MT_min                      :       1 (C)
 Maximum |G+k| for APW functions            :       6.40000000
 Maximum |G| for potential and density      :      16.00000000
 
 G-vector grid sizes                        :      25    25    81
 Total number of G-vectors                  :   21163
 
 Maximum angular momentum used for
     APW functions                          :       8
     computing H and O matrix elements      :       8
     potential and density                  :       8
     inner part of muffin-tin               :       2
 
 Total nuclear charge                       :     -48.00000000
 Total electronic charge                    :      48.00000000
 Total core charge                          :      16.00000000
 Total valence charge                       :      32.00000000
 
 Number of empty states                     :      20
 Total number of valence states             :      37
 
 Maximum Hamiltonian size                   :    1423
 Maximum number of plane-waves              :    1391
 Total number of local-orbitals             :      32
 
 Exchange-correlation type                  :      20
     Perdew-Burke-Ernzerhof, Phys. Rev. Lett. 77, 3865 (1996)
     Generalised gradient approximation (GGA)
 
 Smearing scheme                            :    Gaussian
 Smearing width                             :       0.00010000
 
 Using multisecant Broyden potential mixing
 
++++++++++++++++++++++++++++++++++++++++++++++++++++++++++++++++++++++++++++++++
+ Ending initialization                                                        +
++++++++++++++++++++++++++++++++++++++++++++++++++++++++++++++++++++++++++++++++
 
********************************************************************************
* Groundstate module started                                                   *
********************************************************************************
 Output level for this task is set to normal
 
++++++++++++++++++++++++++++++++++++++++++++++++++++++++++++++++++++++++++++++++
+ Self-consistent loop started                                                 +
++++++++++++++++++++++++++++++++++++++++++++++++++++++++++++++++++++++++++++++++
 Potential read in from STATE.OUT
 
 
++++++++++++++++++++++++++++++++++++++++++++++++++++++++++++++++++++++++++++++++
+ SCF iteration number :    1                                                  +
++++++++++++++++++++++++++++++++++++++++++++++++++++++++++++++++++++++++++++++++
 Total energy                               :      -304.79376013
 _______________________________________________________________
 Fermi energy                               :         0.51748007
 Kinetic energy                             :       303.61974007
 Coulomb energy                             :      -564.99832410
 Exchange energy                            :       -41.63642747
 Correlation energy                         :        -1.77874864
 
 DOS at Fermi energy (states/Ha/cell)       :         0.00000000
 
 Electron charges :
     core                                   :        16.00000000
     core leakage                           :         0.00340896
     valence                                :        32.00000000
     interstitial                           :        17.96348188
     charge in muffin-tin spheres :
                  atom     1     C          :         3.75451524
                  atom     2     C          :         3.75428491
                  atom     3     C          :         3.75462479
                  atom     4     C          :         3.75479391
                  atom     5     C          :         3.75516527
                  atom     6     C          :         3.75517169
                  atom     7     C          :         3.75397709
                  atom     8     C          :         3.75398522
     total charge in muffin-tins            :        30.03651812
     total charge                           :        48.00000000
 
 Estimated fundamental gap                  :         0.15294258
        valence-band maximum at    1      0.0000  0.0000  0.0000
     conduction-band minimum at   58      0.3750  0.3750  0.3333
 
 Wall time (seconds)                        :        64.58
 
++++++++++++++++++++++++++++++++++++++++++++++++++++++++++++++++++++++++++++++++
+ SCF iteration number :    2                                                  +
++++++++++++++++++++++++++++++++++++++++++++++++++++++++++++++++++++++++++++++++
 Total energy                               :      -304.79354061
 _______________________________________________________________
 Fermi energy                               :         0.51747888
 Kinetic energy                             :       303.61976432
 Coulomb energy                             :      -564.99814141
 Exchange energy                            :       -41.63641380
 Correlation energy                         :        -1.77874972
 
 DOS at Fermi energy (states/Ha/cell)       :         0.00000000
 
 Electron charges :
     core                                   :        16.00000000
     core leakage                           :         0.00340896
     valence                                :        32.00000000
     interstitial                           :        17.96354628
     charge in muffin-tin spheres :
                  atom     1     C          :         3.75440275
                  atom     2     C          :         3.75423355
                  atom     3     C          :         3.75469168
                  atom     4     C          :         3.75483634
                  atom     5     C          :         3.75351734
                  atom     6     C          :         3.75475778
                  atom     7     C          :         3.75561967
                  atom     8     C          :         3.75439461
     total charge in muffin-tins            :        30.03645372
     total charge                           :        48.00000000
 
 Estimated fundamental gap                  :         0.15294196
        valence-band maximum at    1      0.0000  0.0000  0.0000
     conduction-band minimum at   58      0.3750  0.3750  0.3333
 
 Wall time (seconds)                        :       130.11
 
 RMS change in effective potential (target) :  0.249196E-02  ( 0.100000E-05)
 Absolute change in total energy   (target) :  0.219528E-03  ( 0.100000E-05)
 Charge distance                   (target) :  0.670114E-03  ( 0.100000E-04)
 Abs. change in max-nonIBS-force   (target) :  0.141558E-01  ( 0.500000E-04)
 
++++++++++++++++++++++++++++++++++++++++++++++++++++++++++++++++++++++++++++++++
+ SCF iteration number :    3                                                  +
++++++++++++++++++++++++++++++++++++++++++++++++++++++++++++++++++++++++++++++++
 Total energy                               :      -304.79353415
 _______________________________________________________________
 Fermi energy                               :         0.51747937
 Kinetic energy                             :       303.61981616
 Coulomb energy                             :      -564.99818529
 Exchange energy                            :       -41.63641541
 Correlation energy                         :        -1.77874961
 
 DOS at Fermi energy (states/Ha/cell)       :         0.00000000
 
 Electron charges :
     core                                   :        16.00000000
     core leakage                           :         0.00340896
     valence                                :        32.00000000
     interstitial                           :        17.96353587
     charge in muffin-tin spheres :
                  atom     1     C          :         3.75451814
                  atom     2     C          :         3.75433103
                  atom     3     C          :         3.75457523
                  atom     4     C          :         3.75473801
                  atom     5     C          :         3.75370225
                  atom     6     C          :         3.75465674
                  atom     7     C          :         3.75544101
                  atom     8     C          :         3.75450173
     total charge in muffin-tins            :        30.03646413
     total charge                           :        48.00000000
 
 Estimated fundamental gap                  :         0.15294388
        valence-band maximum at    1      0.0000  0.0000  0.0000
     conduction-band minimum at  103      0.6250  0.6250  0.6667
 
 Wall time (seconds)                        :       195.74
 
 RMS change in effective potential (target) :  0.176444E-02  ( 0.100000E-05)
 Absolute change in total energy   (target) :  0.645559E-05  ( 0.100000E-05)
 Charge distance                   (target) :  0.205114E-03  ( 0.100000E-04)
 Abs. change in max-nonIBS-force   (target) :  0.651440E-02  ( 0.500000E-04)
 
++++++++++++++++++++++++++++++++++++++++++++++++++++++++++++++++++++++++++++++++
+ SCF iteration number :    4                                                  +
++++++++++++++++++++++++++++++++++++++++++++++++++++++++++++++++++++++++++++++++
 Total energy                               :      -304.79364907
 _______________________________________________________________
 Fermi energy                               :         0.51749369
 Kinetic energy                             :       303.61978862
 Coulomb energy                             :      -564.99826654
 Exchange energy                            :       -41.63642177
 Correlation energy                         :        -1.77874939
 
 DOS at Fermi energy (states/Ha/cell)       :         0.00000000
 
 Electron charges :
     core                                   :        16.00000000
     core leakage                           :         0.00340895
     valence                                :        32.00000000
     interstitial                           :        17.96353598
     charge in muffin-tin spheres :
                  atom     1     C          :         3.75359279
                  atom     2     C          :         3.75533097
                  atom     3     C          :         3.75552351
                  atom     4     C          :         3.75375242
                  atom     5     C          :         3.75530251
                  atom     6     C          :         3.75658820
                  atom     7     C          :         3.75381915
                  atom     8     C          :         3.75255448
     total charge in muffin-tins            :        30.03646402
     total charge                           :        48.00000000
 
 Estimated fundamental gap                  :         0.15287698
        valence-band maximum at    1      0.0000  0.0000  0.0000
     conduction-band minimum at   58      0.3750  0.3750  0.3333
 
 Wall time (seconds)                        :       262.53
 
 RMS change in effective potential (target) :  0.324210E-02  ( 0.100000E-05)
 Absolute change in total energy   (target) :  0.114921E-03  ( 0.100000E-05)
 Charge distance                   (target) :  0.613580E-03  ( 0.100000E-04)
 Abs. change in max-nonIBS-force   (target) :  0.852141E-02  ( 0.500000E-04)
 
++++++++++++++++++++++++++++++++++++++++++++++++++++++++++++++++++++++++++++++++
+ SCF iteration number :    5                                                  +
++++++++++++++++++++++++++++++++++++++++++++++++++++++++++++++++++++++++++++++++
 Total energy                               :      -304.79354730
 _______________________________________________________________
 Fermi energy                               :         0.51748062
 Kinetic energy                             :       303.61982849
 Coulomb energy                             :      -564.99821081
 Exchange energy                            :       -41.63641528
 Correlation energy                         :        -1.77874971
 
 DOS at Fermi energy (states/Ha/cell)       :         0.00000000
 
 Electron charges :
     core                                   :        16.00000000
     core leakage                           :         0.00340895
     valence                                :        32.00000000
     interstitial                           :        17.96352991
     charge in muffin-tin spheres :
                  atom     1     C          :         3.75462002
                  atom     2     C          :         3.75427092
                  atom     3     C          :         3.75448808
                  atom     4     C          :         3.75479910
                  atom     5     C          :         3.75452625
                  atom     6     C          :         3.75498733
                  atom     7     C          :         3.75461101
                  atom     8     C          :         3.75416739
     total charge in muffin-tins            :        30.03647009
     total charge                           :        48.00000000
 
 Estimated fundamental gap                  :         0.15294196
        valence-band maximum at    1      0.0000  0.0000  0.0000
     conduction-band minimum at   58      0.3750  0.3750  0.3333
 
 Wall time (seconds)                        :       327.21
 
 RMS change in effective potential (target) :  0.454969E-03  ( 0.100000E-05)
 Absolute change in total energy   (target) :  0.101768E-03  ( 0.100000E-05)
 Charge distance                   (target) :  0.417945E-03  ( 0.100000E-04)
 Abs. change in max-nonIBS-force   (target) :  0.137580E-01  ( 0.500000E-04)
 
++++++++++++++++++++++++++++++++++++++++++++++++++++++++++++++++++++++++++++++++
+ SCF iteration number :    6                                                  +
++++++++++++++++++++++++++++++++++++++++++++++++++++++++++++++++++++++++++++++++
 Total energy                               :      -304.79357760
 _______________________________________________________________
 Fermi energy                               :         0.51748081
 Kinetic energy                             :       303.61981554
 Coulomb energy                             :      -564.99822652
 Exchange energy                            :       -41.63641703
 Correlation energy                         :        -1.77874959
 
 DOS at Fermi energy (states/Ha/cell)       :         0.00000000
 
 Electron charges :
     core                                   :        16.00000000
     core leakage                           :         0.00340895
     valence                                :        32.00000000
     interstitial                           :        17.96352669
     charge in muffin-tin spheres :
                  atom     1     C          :         3.75452146
                  atom     2     C          :         3.75460257
                  atom     3     C          :         3.75457065
                  atom     4     C          :         3.75446895
                  atom     5     C          :         3.75426957
                  atom     6     C          :         3.75485819
                  atom     7     C          :         3.75487750
                  atom     8     C          :         3.75430442
     total charge in muffin-tins            :        30.03647331
     total charge                           :        48.00000000
 
 Estimated fundamental gap                  :         0.15294119
        valence-band maximum at    1      0.0000  0.0000  0.0000
     conduction-band minimum at  103      0.6250  0.6250  0.6667
 
 Wall time (seconds)                        :       392.77
 
 RMS change in effective potential (target) :  0.195030E-03  ( 0.100000E-05)
 Absolute change in total energy   (target) :  0.302948E-04  ( 0.100000E-05)
 Charge distance                   (target) :  0.591484E-04  ( 0.100000E-04)
 Abs. change in max-nonIBS-force   (target) :  0.150391E-03  ( 0.500000E-04)
 
++++++++++++++++++++++++++++++++++++++++++++++++++++++++++++++++++++++++++++++++
+ SCF iteration number :    7                                                  +
++++++++++++++++++++++++++++++++++++++++++++++++++++++++++++++++++++++++++++++++
 Total energy                               :      -304.79355664
 _______________________________________________________________
 Fermi energy                               :         0.51748109
 Kinetic energy                             :       303.61983453
 Coulomb energy                             :      -564.99822482
 Exchange energy                            :       -41.63641673
 Correlation energy                         :        -1.77874961
 
 DOS at Fermi energy (states/Ha/cell)       :         0.00000000
 
 Electron charges :
     core                                   :        16.00000000
     core leakage                           :         0.00340895
     valence                                :        32.00000000
     interstitial                           :        17.96352713
     charge in muffin-tin spheres :
                  atom     1     C          :         3.75451944
                  atom     2     C          :         3.75450139
                  atom     3     C          :         3.75457985
                  atom     4     C          :         3.75456895
                  atom     5     C          :         3.75427232
                  atom     6     C          :         3.75494454
                  atom     7     C          :         3.75487035
                  atom     8     C          :         3.75421604
     total charge in muffin-tins            :        30.03647287
     total charge                           :        48.00000000
 
 Estimated fundamental gap                  :         0.15294141
        valence-band maximum at    1      0.0000  0.0000  0.0000
     conduction-band minimum at  103      0.6250  0.6250  0.6667
 
 Wall time (seconds)                        :       460.60
 
 RMS change in effective potential (target) :  0.127387E-03  ( 0.100000E-05)
 Absolute change in total energy   (target) :  0.209549E-04  ( 0.100000E-05)
 Charge distance                   (target) :  0.281488E-04  ( 0.100000E-04)
 Abs. change in max-nonIBS-force   (target) :  0.815189E-03  ( 0.500000E-04)
 
++++++++++++++++++++++++++++++++++++++++++++++++++++++++++++++++++++++++++++++++
+ SCF iteration number :    8                                                  +
++++++++++++++++++++++++++++++++++++++++++++++++++++++++++++++++++++++++++++++++
 Total energy                               :      -304.79354181
 _______________________________________________________________
 Fermi energy                               :         0.51748130
 Kinetic energy                             :       303.61984670
 Coulomb energy                             :      -564.99822247
 Exchange energy                            :       -41.63641641
 Correlation energy                         :        -1.77874964
 
 DOS at Fermi energy (states/Ha/cell)       :         0.00000000
 
 Electron charges :
     core                                   :        16.00000000
     core leakage                           :         0.00340895
     valence                                :        32.00000000
     interstitial                           :        17.96352767
     charge in muffin-tin spheres :
                  atom     1     C          :         3.75449825
                  atom     2     C          :         3.75453822
                  atom     3     C          :         3.75459591
                  atom     4     C          :         3.75453434
                  atom     5     C          :         3.75424597
                  atom     6     C          :         3.75491375
                  atom     7     C          :         3.75489980
                  atom     8     C          :         3.75424610
     total charge in muffin-tins            :        30.03647233
     total charge                           :        48.00000000
 
 Estimated fundamental gap                  :         0.15294137
        valence-band maximum at    1      0.0000  0.0000  0.0000
     conduction-band minimum at   58      0.3750  0.3750  0.3333
 
 Wall time (seconds)                        :       526.92
 
 RMS change in effective potential (target) :  0.817840E-04  ( 0.100000E-05)
 Absolute change in total energy   (target) :  0.148343E-04  ( 0.100000E-05)
 Charge distance                   (target) :  0.132494E-04  ( 0.100000E-04)
 Abs. change in max-nonIBS-force   (target) :  0.142676E-03  ( 0.500000E-04)
 
++++++++++++++++++++++++++++++++++++++++++++++++++++++++++++++++++++++++++++++++
+ SCF iteration number :    9                                                  +
++++++++++++++++++++++++++++++++++++++++++++++++++++++++++++++++++++++++++++++++
 Total energy                               :      -304.79352836
 _______________________________________________________________
 Fermi energy                               :         0.51748147
 Kinetic energy                             :       303.61985792
 Coulomb energy                             :      -564.99822049
 Exchange energy                            :       -41.63641613
 Correlation energy                         :        -1.77874966
 
 DOS at Fermi energy (states/Ha/cell)       :         0.00000000
 
 Electron charges :
     core                                   :        16.00000000
     core leakage                           :         0.00340895
     valence                                :        32.00000000
     interstitial                           :        17.96352812
     charge in muffin-tin spheres :
                  atom     1     C          :         3.75449607
                  atom     2     C          :         3.75449883
                  atom     3     C          :         3.75460460
                  atom     4     C          :         3.75457000
                  atom     5     C          :         3.75420344
                  atom     6     C          :         3.75495325
                  atom     7     C          :         3.75493695
                  atom     8     C          :         3.75420875
     total charge in muffin-tins            :        30.03647188
     total charge                           :        48.00000000
 
 Estimated fundamental gap                  :         0.15294146
        valence-band maximum at    1      0.0000  0.0000  0.0000
     conduction-band minimum at   58      0.3750  0.3750  0.3333
 
 Wall time (seconds)                        :       589.10
 
 RMS change in effective potential (target) :  0.267392E-04  ( 0.100000E-05)
 Absolute change in total energy   (target) :  0.134470E-04  ( 0.100000E-05)
 Charge distance                   (target) :  0.138232E-04  ( 0.100000E-04)
 Abs. change in max-nonIBS-force   (target) :  0.297051E-05  ( 0.500000E-04)
 
++++++++++++++++++++++++++++++++++++++++++++++++++++++++++++++++++++++++++++++++
+ SCF iteration number :   10                                                  +
++++++++++++++++++++++++++++++++++++++++++++++++++++++++++++++++++++++++++++++++
 Total energy                               :      -304.79352246
 _______________________________________________________________
 Fermi energy                               :         0.51748155
 Kinetic energy                             :       303.61986296
 Coulomb energy                             :      -564.99821973
 Exchange energy                            :       -41.63641602
 Correlation energy                         :        -1.77874967
 
 DOS at Fermi energy (states/Ha/cell)       :         0.00000000
 
 Electron charges :
     core                                   :        16.00000000
     core leakage                           :         0.00340895
     valence                                :        32.00000000
     interstitial                           :        17.96352830
     charge in muffin-tin spheres :
                  atom     1     C          :         3.75449111
                  atom     2     C          :         3.75450921
                  atom     3     C          :         3.75460608
                  atom     4     C          :         3.75456205
                  atom     5     C          :         3.75419717
                  atom     6     C          :         3.75494391
                  atom     7     C          :         3.75494625
                  atom     8     C          :         3.75421592
     total charge in muffin-tins            :        30.03647170
     total charge                           :        48.00000000
 
 Estimated fundamental gap                  :         0.15294148
        valence-band maximum at    1      0.0000  0.0000  0.0000
     conduction-band minimum at   58      0.3750  0.3750  0.3333
 
 Wall time (seconds)                        :       654.35
 
 RMS change in effective potential (target) :  0.110326E-04  ( 0.100000E-05)
 Absolute change in total energy   (target) :  0.590586E-05  ( 0.100000E-05)
 Charge distance                   (target) :  0.563685E-05  ( 0.100000E-04)
 Abs. change in max-nonIBS-force   (target) :  0.106974E-03  ( 0.500000E-04)
 
++++++++++++++++++++++++++++++++++++++++++++++++++++++++++++++++++++++++++++++++
+ SCF iteration number :   11                                                  +
++++++++++++++++++++++++++++++++++++++++++++++++++++++++++++++++++++++++++++++++
 Total energy                               :      -304.79351913
 _______________________________________________________________
 Fermi energy                               :         0.51748159
 Kinetic energy                             :       303.61986587
 Coulomb energy                             :      -564.99821936
 Exchange energy                            :       -41.63641597
 Correlation energy                         :        -1.77874967
 
 DOS at Fermi energy (states/Ha/cell)       :         0.00000000
 
 Electron charges :
     core                                   :        16.00000000
     core leakage                           :         0.00340895
     valence                                :        32.00000000
     interstitial                           :        17.96352839
     charge in muffin-tin spheres :
                  atom     1     C          :         3.75448140
                  atom     2     C          :         3.75451068
                  atom     3     C          :         3.75461656
                  atom     4     C          :         3.75455937
                  atom     5     C          :         3.75419431
                  atom     6     C          :         3.75493901
                  atom     7     C          :         3.75494775
                  atom     8     C          :         3.75422253
     total charge in muffin-tins            :        30.03647161
     total charge                           :        48.00000000
 
 Estimated fundamental gap                  :         0.15294153
        valence-band maximum at    1      0.0000  0.0000  0.0000
     conduction-band minimum at  103      0.6250  0.6250  0.6667
 
 Wall time (seconds)                        :       720.42
 
 RMS change in effective potential (target) :  0.403651E-05  ( 0.100000E-05)
 Absolute change in total energy   (target) :  0.332346E-05  ( 0.100000E-05)
 Charge distance                   (target) :  0.312725E-05  ( 0.100000E-04)
 Abs. change in max-nonIBS-force   (target) :  0.122675E-04  ( 0.500000E-04)
 
++++++++++++++++++++++++++++++++++++++++++++++++++++++++++++++++++++++++++++++++
+ SCF iteration number :   12                                                  +
++++++++++++++++++++++++++++++++++++++++++++++++++++++++++++++++++++++++++++++++
 Total energy                               :      -304.79351911
 _______________________________________________________________
 Fermi energy                               :         0.51748159
 Kinetic energy                             :       303.61986587
 Coulomb energy                             :      -564.99821935
 Exchange energy                            :       -41.63641597
 Correlation energy                         :        -1.77874967
 
 DOS at Fermi energy (states/Ha/cell)       :         0.00000000
 
 Electron charges :
     core                                   :        16.00000000
     core leakage                           :         0.00340895
     valence                                :        32.00000000
     interstitial                           :        17.96352839
     charge in muffin-tin spheres :
                  atom     1     C          :         3.75448561
                  atom     2     C          :         3.75451259
                  atom     3     C          :         3.75461089
                  atom     4     C          :         3.75455895
                  atom     5     C          :         3.75419139
                  atom     6     C          :         3.75493895
                  atom     7     C          :         3.75495235
                  atom     8     C          :         3.75422089
     total charge in muffin-tins            :        30.03647161
     total charge                           :        48.00000000
 
 Estimated fundamental gap                  :         0.15294152
        valence-band maximum at    1      0.0000  0.0000  0.0000
     conduction-band minimum at   58      0.3750  0.3750  0.3333
 
 Wall time (seconds)                        :       785.36
 
 RMS change in effective potential (target) :  0.471539E-06  ( 0.100000E-05)
 Absolute change in total energy   (target) :  0.177655E-07  ( 0.100000E-05)
 Charge distance                   (target) :  0.731939E-06  ( 0.100000E-04)
 Abs. change in max-nonIBS-force   (target) :  0.346107E-05  ( 0.500000E-04)
 
++++++++++++++++++++++++++++++++++++++++++++++++++++++++++++++++++++++++++++++++
+ SCF iteration number :   13                                                  +
++++++++++++++++++++++++++++++++++++++++++++++++++++++++++++++++++++++++++++++++
 Total energy                               :      -304.79351904
 _______________________________________________________________
 Fermi energy                               :         0.51748159
 Kinetic energy                             :       303.61986592
 Coulomb energy                             :      -564.99821932
 Exchange energy                            :       -41.63641597
 Correlation energy                         :        -1.77874967
 
 DOS at Fermi energy (states/Ha/cell)       :         0.00000000
 
 Electron charges :
     core                                   :        16.00000000
     core leakage                           :         0.00340895
     valence                                :        32.00000000
     interstitial                           :        17.96352840
     charge in muffin-tin spheres :
                  atom     1     C          :         3.75448612
                  atom     2     C          :         3.75451211
                  atom     3     C          :         3.75461089
                  atom     4     C          :         3.75455888
                  atom     5     C          :         3.75419106
                  atom     6     C          :         3.75493946
                  atom     7     C          :         3.75495219
                  atom     8     C          :         3.75422089
     total charge in muffin-tins            :        30.03647160
     total charge                           :        48.00000000
 
 Estimated fundamental gap                  :         0.15294152
        valence-band maximum at    1      0.0000  0.0000  0.0000
     conduction-band minimum at  103      0.6250  0.6250  0.6667
 
 Wall time (seconds)                        :       856.87
 
 RMS change in effective potential (target) :  0.226101E-06  ( 0.100000E-05)
 Absolute change in total energy   (target) :  0.770263E-07  ( 0.100000E-05)
 Charge distance                   (target) :  0.131260E-06  ( 0.100000E-04)
 Abs. change in max-nonIBS-force   (target) :  0.118335E-05  ( 0.500000E-04)
                                                                                
++++++++++++++++++++++++++++++++++++++++++++++++++++++++++++++++++++++++++++++++
| Convergency criteria checked for the last 2 iterations                       +
| Convergence targets achieved. Performing final SCF iteration                 +
++++++++++++++++++++++++++++++++++++++++++++++++++++++++++++++++++++++++++++++++
 Total energy                               :      -304.79351905
 _______________________________________________________________
 Fermi energy                               :         0.51748159
 Kinetic energy                             :       303.61986591
 Coulomb energy                             :      -564.99821932
 Exchange energy                            :       -41.63641597
 Correlation energy                         :        -1.77874967
 
 DOS at Fermi energy (states/Ha/cell)       :         0.00000000
 
 Electron charges :
     core                                   :        16.00000000
     core leakage                           :         0.00340895
     valence                                :        32.00000000
     interstitial                           :        17.96352840
     charge in muffin-tin spheres :
                  atom     1     C          :         3.75448578
                  atom     2     C          :         3.75451232
                  atom     3     C          :         3.75461066
                  atom     4     C          :         3.75455927
                  atom     5     C          :         3.75419138
                  atom     6     C          :         3.75493915
                  atom     7     C          :         3.75495244
                  atom     8     C          :         3.75422060
     total charge in muffin-tins            :        30.03647160
     total charge                           :        48.00000000
 
 Estimated fundamental gap                  :         0.15294152
        valence-band maximum at    1      0.0000  0.0000  0.0000
     conduction-band minimum at  103      0.6250  0.6250  0.6667
 
++++++++++++++++++++++++++++++++++++++++++++++++++++++++++++++++++++++++++++++++
+ Self-consistent loop stopped                                                 +
++++++++++++++++++++++++++++++++++++++++++++++++++++++++++++++++++++++++++++++++
 STATE.OUT is written
 
--------------------------------------------------------------------------------
- Writing atomic positions and forces                                          -
--------------------------------------------------------------------------------
 
 Atomic positions (lattice) :
 atom     1   C  :     0.00000000    0.00000000    0.00000000
 atom     2   C  :     0.24955569    0.24955569    0.25014810
 atom     3   C  :     0.50000000    0.50000000    0.50000000
 atom     4   C  :     0.75044431    0.75044431    0.74985190
 atom     5   C  :     0.31250000    0.31250000    0.06250000
 atom     6   C  :     0.56250000    0.56250000    0.31250000
 atom     7   C  :     0.81250000    0.81250000    0.56250000
 atom     8   C  :     0.06250000    0.06250000    0.81250000
 
 Total atomic forces including IBS (cartesian) :
 atom     1   C  :     0.00001249   -0.00001725    0.00001725
 atom     2   C  :    -0.00166944    0.00012992   -0.00012992
 atom     3   C  :     0.00001015   -0.00001149    0.00001149
 atom     4   C  :     0.00169301   -0.00015921    0.00015921
 atom     5   C  :     0.00032633   -0.00004260    0.00004260
 atom     6   C  :     0.00112377    0.00007733   -0.00007733
 atom     7   C  :    -0.00035059    0.00008192   -0.00008192
 atom     8   C  :    -0.00114574   -0.00005862    0.00005862
 
 Atomic force components including IBS (cartesian) :
 atom     1   C  :    -0.00005307   -0.00005906    0.00005906   HF force
                 :     0.00005062    0.00004537   -0.00004537   core correction
                 :     0.00001495   -0.00000357    0.00000357   IBS correction
 atom     2   C  :    -0.00179303    0.00018912   -0.00018912   HF force
                 :     0.00008901   -0.00005502    0.00005502   core correction
                 :     0.00003457   -0.00000417    0.00000417   IBS correction
 atom     3   C  :    -0.00001221    0.00007477   -0.00007477   HF force
                 :     0.00000927   -0.00008164    0.00008164   core correction
                 :     0.00001309   -0.00000462    0.00000462   IBS correction
 atom     4   C  :     0.00172791   -0.00017495    0.00017495   HF force
                 :    -0.00002834    0.00002036   -0.00002036   core correction
                 :    -0.00000656   -0.00000462    0.00000462   IBS correction
 atom     5   C  :     0.00037575   -0.00003781    0.00003781   HF force
                 :    -0.00002625   -0.00000874    0.00000874   core correction
                 :    -0.00002317    0.00000395   -0.00000395   IBS correction
 atom     6   C  :     0.00129113    0.00001312   -0.00001312   HF force
                 :    -0.00014036    0.00005790   -0.00005790   core correction
                 :    -0.00002700    0.00000631   -0.00000631   IBS correction
 atom     7   C  :    -0.00030085    0.00004283   -0.00004283   HF force
                 :    -0.00004164    0.00003747   -0.00003747   core correction
                 :    -0.00000810    0.00000162   -0.00000162   IBS correction
 atom     8   C  :    -0.00123563   -0.00004802    0.00004802   HF force
                 :     0.00008769   -0.00001571    0.00001571   core correction
                 :     0.00000221    0.00000511   -0.00000511   IBS correction
 
********************************************************************************
* Groundstate module stopped                                                   *
********************************************************************************
 
 Total time spent (seconds)                 :      1029.23
================================================================================
| EXCITING NITROGEN-13 stopped                                                 =
================================================================================
