================================================================================
| EXCITING NITROGEN-13 started                                                 =
| version hash id: de0c1dba9f665d6c60514aa9e8bf40326ac9f394                    =
|                                                                              =
|                                                                              =
| Date (DD-MM-YYYY) : 03-05-2022                                               =
| Time (hh:mm:ss)   : 16:58:56                                                 =
|                                                                              =
| All units are atomic (Hartree, Bohr, etc.)                                   =
================================================================================
 
********************************************************************************
* Ground-state run resuming from STATE.OUT                                     *
********************************************************************************
 
++++++++++++++++++++++++++++++++++++++++++++++++++++++++++++++++++++++++++++++++
+ Starting initialization                                                      +
++++++++++++++++++++++++++++++++++++++++++++++++++++++++++++++++++++++++++++++++
 
 Lattice vectors (cartesian) :
     -3.3759957000     -3.3759957000      0.0000000000
     -3.3759957000      0.0000000000      3.3759957000
      6.7519914000    -10.1279871000     10.1279871000
 
 Reciprocal lattice vectors (cartesian) :
     -0.6979257972     -1.1632096620     -0.6979257972
     -0.6979257972      0.6979257972      1.1632096620
      0.2326419324     -0.2326419324      0.2326419324
 
 Unit cell volume                           :     307.8191548003
 Brillouin zone volume                      :       0.8058309874
 
 Species :    1 (C)
     parameters loaded from                 :    C.xml
     name                                   :    carbon
     nuclear charge                         :      -6.00000000
     electronic charge                      :       6.00000000
     atomic mass                            :   21894.16673000
     muffin-tin radius                      :       1.25000000
     # of radial points in muffin-tin       :     250
 
     atomic positions (lattice) :
       1 :   0.99911137  0.99911137  0.00029621
       2 :   0.25000000  0.25000000  0.25000000
       3 :   0.50088863  0.50088863  0.49970379
       4 :   0.75000000  0.75000000  0.75000000
       5 :   0.31250000  0.31250000  0.06250000
       6 :   0.56250000  0.56250000  0.31250000
       7 :   0.81250000  0.81250000  0.56250000
       8 :   0.06250000  0.06250000  0.81250000
 
 Total number of atoms per unit cell        :       8
 
 Spin treatment                             :    spin-unpolarised
 
 Number of Bravais lattice symmetries       :      12
 Number of crystal symmetries               :       2
 
 Sphere radius used for k-point grid density:      33.42065234
 
 k-point grid                               :       8    8    3
 Total number of k-points                   :     108
 k-point set is reduced with crystal symmetries
 
 R^MT_min * |G+k|_max (rgkmax)              :       8.00000000
 Species with R^MT_min                      :       1 (C)
 Maximum |G+k| for APW functions            :       6.40000000
 Maximum |G| for potential and density      :      16.00000000
 
 G-vector grid sizes                        :      25    25    81
 Total number of G-vectors                  :   21163
 
 Maximum angular momentum used for
     APW functions                          :       8
     computing H and O matrix elements      :       8
     potential and density                  :       8
     inner part of muffin-tin               :       2
 
 Total nuclear charge                       :     -48.00000000
 Total electronic charge                    :      48.00000000
 Total core charge                          :      16.00000000
 Total valence charge                       :      32.00000000
 
 Number of empty states                     :      20
 Total number of valence states             :      37
 
 Maximum Hamiltonian size                   :    1423
 Maximum number of plane-waves              :    1391
 Total number of local-orbitals             :      32
 
 Exchange-correlation type                  :      20
     Perdew-Burke-Ernzerhof, Phys. Rev. Lett. 77, 3865 (1996)
     Generalised gradient approximation (GGA)
 
 Smearing scheme                            :    Gaussian
 Smearing width                             :       0.00010000
 
 Using multisecant Broyden potential mixing
 
++++++++++++++++++++++++++++++++++++++++++++++++++++++++++++++++++++++++++++++++
+ Ending initialization                                                        +
++++++++++++++++++++++++++++++++++++++++++++++++++++++++++++++++++++++++++++++++
 
********************************************************************************
* Groundstate module started                                                   *
********************************************************************************
 Output level for this task is set to normal
 
++++++++++++++++++++++++++++++++++++++++++++++++++++++++++++++++++++++++++++++++
+ Self-consistent loop started                                                 +
++++++++++++++++++++++++++++++++++++++++++++++++++++++++++++++++++++++++++++++++
 Potential read in from STATE.OUT
 
 
++++++++++++++++++++++++++++++++++++++++++++++++++++++++++++++++++++++++++++++++
+ SCF iteration number :    1                                                  +
++++++++++++++++++++++++++++++++++++++++++++++++++++++++++++++++++++++++++++++++
 Total energy                               :      -304.79351336
 _______________________________________________________________
 Fermi energy                               :         0.51749094
 Kinetic energy                             :       303.61991564
 Coulomb energy                             :      -564.99825694
 Exchange energy                            :       -41.63642233
 Correlation energy                         :        -1.77874972
 
 DOS at Fermi energy (states/Ha/cell)       :         0.00000000
 
 Electron charges :
     core                                   :        16.00000000
     core leakage                           :         0.00340895
     valence                                :        32.00000000
     interstitial                           :        17.96350152
     charge in muffin-tin spheres :
                  atom     1     C          :         3.75447908
                  atom     2     C          :         3.75478097
                  atom     3     C          :         3.75464095
                  atom     4     C          :         3.75428426
                  atom     5     C          :         3.75495048
                  atom     6     C          :         3.75505940
                  atom     7     C          :         3.75420103
                  atom     8     C          :         3.75410232
     total charge in muffin-tins            :        30.03649848
     total charge                           :        48.00000000
 
 Estimated fundamental gap                  :         0.15291848
        valence-band maximum at    1      0.0000  0.0000  0.0000
     conduction-band minimum at   58      0.3750  0.3750  0.3333
 
 Wall time (seconds)                        :        65.11
 
++++++++++++++++++++++++++++++++++++++++++++++++++++++++++++++++++++++++++++++++
+ SCF iteration number :    2                                                  +
++++++++++++++++++++++++++++++++++++++++++++++++++++++++++++++++++++++++++++++++
 Total energy                               :      -304.79346761
 _______________________________________________________________
 Fermi energy                               :         0.51749023
 Kinetic energy                             :       303.61993659
 Coulomb energy                             :      -564.99823492
 Exchange energy                            :       -41.63641932
 Correlation energy                         :        -1.77874997
 
 DOS at Fermi energy (states/Ha/cell)       :         0.00000000
 
 Electron charges :
     core                                   :        16.00000000
     core leakage                           :         0.00340895
     valence                                :        32.00000000
     interstitial                           :        17.96351347
     charge in muffin-tin spheres :
                  atom     1     C          :         3.75450301
                  atom     2     C          :         3.75481864
                  atom     3     C          :         3.75461210
                  atom     4     C          :         3.75424855
                  atom     5     C          :         3.75552336
                  atom     6     C          :         3.75555155
                  atom     7     C          :         3.75362234
                  atom     8     C          :         3.75360699
     total charge in muffin-tins            :        30.03648653
     total charge                           :        48.00000000
 
 Estimated fundamental gap                  :         0.15292020
        valence-band maximum at    1      0.0000  0.0000  0.0000
     conduction-band minimum at   58      0.3750  0.3750  0.3333
 
 Wall time (seconds)                        :       129.84
 
 RMS change in effective potential (target) :  0.111452E-02  ( 0.100000E-05)
 Absolute change in total energy   (target) :  0.457464E-04  ( 0.100000E-05)
 Charge distance                   (target) :  0.255974E-03  ( 0.100000E-04)
 Abs. change in max-nonIBS-force   (target) :  0.102330E-01  ( 0.500000E-04)
 
++++++++++++++++++++++++++++++++++++++++++++++++++++++++++++++++++++++++++++++++
+ SCF iteration number :    3                                                  +
++++++++++++++++++++++++++++++++++++++++++++++++++++++++++++++++++++++++++++++++
 Total energy                               :      -304.79348078
 _______________________________________________________________
 Fermi energy                               :         0.51749132
 Kinetic energy                             :       303.61993328
 Coulomb energy                             :      -564.99824437
 Exchange energy                            :       -41.63641969
 Correlation energy                         :        -1.77875001
 
 DOS at Fermi energy (states/Ha/cell)       :         0.00000000
 
 Electron charges :
     core                                   :        16.00000000
     core leakage                           :         0.00340895
     valence                                :        32.00000000
     interstitial                           :        17.96350989
     charge in muffin-tin spheres :
                  atom     1     C          :         3.75446760
                  atom     2     C          :         3.75477549
                  atom     3     C          :         3.75464571
                  atom     4     C          :         3.75429185
                  atom     5     C          :         3.75545007
                  atom     6     C          :         3.75553110
                  atom     7     C          :         3.75369899
                  atom     8     C          :         3.75362930
     total charge in muffin-tins            :        30.03649011
     total charge                           :        48.00000000
 
 Estimated fundamental gap                  :         0.15291772
        valence-band maximum at    1      0.0000  0.0000  0.0000
     conduction-band minimum at  103      0.6250  0.6250  0.6667
 
 Wall time (seconds)                        :       193.79
 
 RMS change in effective potential (target) :  0.788806E-03  ( 0.100000E-05)
 Absolute change in total energy   (target) :  0.131650E-04  ( 0.100000E-05)
 Charge distance                   (target) :  0.805964E-04  ( 0.100000E-04)
 Abs. change in max-nonIBS-force   (target) :  0.296345E-02  ( 0.500000E-04)
 
++++++++++++++++++++++++++++++++++++++++++++++++++++++++++++++++++++++++++++++++
+ SCF iteration number :    4                                                  +
++++++++++++++++++++++++++++++++++++++++++++++++++++++++++++++++++++++++++++++++
 Total energy                               :      -304.79353633
 _______________________________________________________________
 Fermi energy                               :         0.51750108
 Kinetic energy                             :       303.62002128
 Coulomb energy                             :      -564.99837831
 Exchange energy                            :       -41.63643013
 Correlation energy                         :        -1.77874916
 
 DOS at Fermi energy (states/Ha/cell)       :         0.00000000
 
 Electron charges :
     core                                   :        16.00000000
     core leakage                           :         0.00340896
     valence                                :        32.00000000
     interstitial                           :        17.96350910
     charge in muffin-tin spheres :
                  atom     1     C          :         3.75510952
                  atom     2     C          :         3.75443060
                  atom     3     C          :         3.75399657
                  atom     4     C          :         3.75462832
                  atom     5     C          :         3.75511089
                  atom     6     C          :         3.75458064
                  atom     7     C          :         3.75405133
                  atom     8     C          :         3.75458303
     total charge in muffin-tins            :        30.03649090
     total charge                           :        48.00000000
 
 Estimated fundamental gap                  :         0.15288851
        valence-band maximum at    1      0.0000  0.0000  0.0000
     conduction-band minimum at   58      0.3750  0.3750  0.3333
 
 Wall time (seconds)                        :       257.73
 
 RMS change in effective potential (target) :  0.146502E-02  ( 0.100000E-05)
 Absolute change in total energy   (target) :  0.555512E-04  ( 0.100000E-05)
 Charge distance                   (target) :  0.254240E-03  ( 0.100000E-04)
 Abs. change in max-nonIBS-force   (target) :  0.872267E-03  ( 0.500000E-04)
 
++++++++++++++++++++++++++++++++++++++++++++++++++++++++++++++++++++++++++++++++
+ SCF iteration number :    5                                                  +
++++++++++++++++++++++++++++++++++++++++++++++++++++++++++++++++++++++++++++++++
 Total energy                               :      -304.79348235
 _______________________________________________________________
 Fermi energy                               :         0.51749394
 Kinetic energy                             :       303.61992932
 Coulomb energy                             :      -564.99824240
 Exchange energy                            :       -41.63641923
 Correlation energy                         :        -1.77875004
 
 DOS at Fermi energy (states/Ha/cell)       :         0.00000000
 
 Electron charges :
     core                                   :        16.00000000
     core leakage                           :         0.00340896
     valence                                :        32.00000000
     interstitial                           :        17.96350513
     charge in muffin-tin spheres :
                  atom     1     C          :         3.75444453
                  atom     2     C          :         3.75472995
                  atom     3     C          :         3.75467287
                  atom     4     C          :         3.75433511
                  atom     5     C          :         3.75513896
                  atom     6     C          :         3.75530141
                  atom     7     C          :         3.75401403
                  atom     8     C          :         3.75385801
     total charge in muffin-tins            :        30.03649487
     total charge                           :        48.00000000
 
 Estimated fundamental gap                  :         0.15291121
        valence-band maximum at    1      0.0000  0.0000  0.0000
     conduction-band minimum at   58      0.3750  0.3750  0.3333
 
 Wall time (seconds)                        :       322.50
 
 RMS change in effective potential (target) :  0.219474E-03  ( 0.100000E-05)
 Absolute change in total energy   (target) :  0.539754E-04  ( 0.100000E-05)
 Charge distance                   (target) :  0.189853E-03  ( 0.100000E-04)
 Abs. change in max-nonIBS-force   (target) :  0.565707E-02  ( 0.500000E-04)
 
++++++++++++++++++++++++++++++++++++++++++++++++++++++++++++++++++++++++++++++++
+ SCF iteration number :    6                                                  +
++++++++++++++++++++++++++++++++++++++++++++++++++++++++++++++++++++++++++++++++
 Total energy                               :      -304.79350939
 _______________________________________________________________
 Fermi energy                               :         0.51749500
 Kinetic energy                             :       303.61991434
 Coulomb energy                             :      -564.99825336
 Exchange energy                            :       -41.63642038
 Correlation energy                         :        -1.77874999
 
 DOS at Fermi energy (states/Ha/cell)       :         0.00000000
 
 Electron charges :
     core                                   :        16.00000000
     core leakage                           :         0.00340896
     valence                                :        32.00000000
     interstitial                           :        17.96350323
     charge in muffin-tin spheres :
                  atom     1     C          :         3.75449939
                  atom     2     C          :         3.75468493
                  atom     3     C          :         3.75461000
                  atom     4     C          :         3.75438272
                  atom     5     C          :         3.75526586
                  atom     6     C          :         3.75533373
                  atom     7     C          :         3.75389101
                  atom     8     C          :         3.75382913
     total charge in muffin-tins            :        30.03649677
     total charge                           :        48.00000000
 
 Estimated fundamental gap                  :         0.15290757
        valence-band maximum at    1      0.0000  0.0000  0.0000
     conduction-band minimum at  103      0.6250  0.6250  0.6667
 
 Wall time (seconds)                        :       387.97
 
 RMS change in effective potential (target) :  0.874261E-04  ( 0.100000E-05)
 Absolute change in total energy   (target) :  0.270348E-04  ( 0.100000E-05)
 Charge distance                   (target) :  0.256261E-04  ( 0.100000E-04)
 Abs. change in max-nonIBS-force   (target) :  0.228679E-04  ( 0.500000E-04)
 
++++++++++++++++++++++++++++++++++++++++++++++++++++++++++++++++++++++++++++++++
+ SCF iteration number :    7                                                  +
++++++++++++++++++++++++++++++++++++++++++++++++++++++++++++++++++++++++++++++++
 Total energy                               :      -304.79350489
 _______________________________________________________________
 Fermi energy                               :         0.51749488
 Kinetic energy                             :       303.61992050
 Coulomb energy                             :      -564.99825495
 Exchange energy                            :       -41.63642045
 Correlation energy                         :        -1.77874999
 
 DOS at Fermi energy (states/Ha/cell)       :         0.00000000
 
 Electron charges :
     core                                   :        16.00000000
     core leakage                           :         0.00340896
     valence                                :        32.00000000
     interstitial                           :        17.96350330
     charge in muffin-tin spheres :
                  atom     1     C          :         3.75451203
                  atom     2     C          :         3.75467511
                  atom     3     C          :         3.75460283
                  atom     4     C          :         3.75439041
                  atom     5     C          :         3.75526069
                  atom     6     C          :         3.75534223
                  atom     7     C          :         3.75389301
                  atom     8     C          :         3.75382039
     total charge in muffin-tins            :        30.03649670
     total charge                           :        48.00000000
 
 Estimated fundamental gap                  :         0.15290830
        valence-band maximum at    1      0.0000  0.0000  0.0000
     conduction-band minimum at  103      0.6250  0.6250  0.6667
 
 Wall time (seconds)                        :       452.79
 
 RMS change in effective potential (target) :  0.637919E-04  ( 0.100000E-05)
 Absolute change in total energy   (target) :  0.450226E-05  ( 0.100000E-05)
 Charge distance                   (target) :  0.114552E-04  ( 0.100000E-04)
 Abs. change in max-nonIBS-force   (target) :  0.292964E-03  ( 0.500000E-04)
 
++++++++++++++++++++++++++++++++++++++++++++++++++++++++++++++++++++++++++++++++
+ SCF iteration number :    8                                                  +
++++++++++++++++++++++++++++++++++++++++++++++++++++++++++++++++++++++++++++++++
 Total energy                               :      -304.79350416
 _______________________________________________________________
 Fermi energy                               :         0.51749502
 Kinetic energy                             :       303.61992124
 Coulomb energy                             :      -564.99825496
 Exchange energy                            :       -41.63642043
 Correlation energy                         :        -1.77874999
 
 DOS at Fermi energy (states/Ha/cell)       :         0.00000000
 
 Electron charges :
     core                                   :        16.00000000
     core leakage                           :         0.00340896
     valence                                :        32.00000000
     interstitial                           :        17.96350335
     charge in muffin-tin spheres :
                  atom     1     C          :         3.75451327
                  atom     2     C          :         3.75470572
                  atom     3     C          :         3.75459669
                  atom     4     C          :         3.75436271
                  atom     5     C          :         3.75527674
                  atom     6     C          :         3.75532470
                  atom     7     C          :         3.75388027
                  atom     8     C          :         3.75383653
     total charge in muffin-tins            :        30.03649665
     total charge                           :        48.00000000
 
 Estimated fundamental gap                  :         0.15290780
        valence-band maximum at    1      0.0000  0.0000  0.0000
     conduction-band minimum at  103      0.6250  0.6250  0.6667
 
 Wall time (seconds)                        :       516.56
 
 RMS change in effective potential (target) :  0.383113E-04  ( 0.100000E-05)
 Absolute change in total energy   (target) :  0.730893E-06  ( 0.100000E-05)
 Charge distance                   (target) :  0.639219E-05  ( 0.100000E-04)
 Abs. change in max-nonIBS-force   (target) :  0.165295E-03  ( 0.500000E-04)
 
++++++++++++++++++++++++++++++++++++++++++++++++++++++++++++++++++++++++++++++++
+ SCF iteration number :    9                                                  +
++++++++++++++++++++++++++++++++++++++++++++++++++++++++++++++++++++++++++++++++
 Total energy                               :      -304.79350154
 _______________________________________________________________
 Fermi energy                               :         0.51749508
 Kinetic energy                             :       303.61992397
 Coulomb energy                             :      -564.99825509
 Exchange energy                            :       -41.63642042
 Correlation energy                         :        -1.77874999
 
 DOS at Fermi energy (states/Ha/cell)       :         0.00000000
 
 Electron charges :
     core                                   :        16.00000000
     core leakage                           :         0.00340896
     valence                                :        32.00000000
     interstitial                           :        17.96350344
     charge in muffin-tin spheres :
                  atom     1     C          :         3.75451934
                  atom     2     C          :         3.75468856
                  atom     3     C          :         3.75459326
                  atom     4     C          :         3.75437797
                  atom     5     C          :         3.75528779
                  atom     6     C          :         3.75534326
                  atom     7     C          :         3.75386693
                  atom     8     C          :         3.75381945
     total charge in muffin-tins            :        30.03649656
     total charge                           :        48.00000000
 
 Estimated fundamental gap                  :         0.15290777
        valence-band maximum at    1      0.0000  0.0000  0.0000
     conduction-band minimum at  103      0.6250  0.6250  0.6667
 
 Wall time (seconds)                        :       584.87
 
 RMS change in effective potential (target) :  0.180785E-04  ( 0.100000E-05)
 Absolute change in total energy   (target) :  0.261550E-05  ( 0.100000E-05)
 Charge distance                   (target) :  0.616569E-05  ( 0.100000E-04)
 Abs. change in max-nonIBS-force   (target) :  0.257827E-03  ( 0.500000E-04)
 
++++++++++++++++++++++++++++++++++++++++++++++++++++++++++++++++++++++++++++++++
+ SCF iteration number :   10                                                  +
++++++++++++++++++++++++++++++++++++++++++++++++++++++++++++++++++++++++++++++++
 Total energy                               :      -304.79349997
 _______________________________________________________________
 Fermi energy                               :         0.51749508
 Kinetic energy                             :       303.61992565
 Coulomb energy                             :      -564.99825521
 Exchange energy                            :       -41.63642042
 Correlation energy                         :        -1.77874999
 
 DOS at Fermi energy (states/Ha/cell)       :         0.00000000
 
 Electron charges :
     core                                   :        16.00000000
     core leakage                           :         0.00340896
     valence                                :        32.00000000
     interstitial                           :        17.96350350
     charge in muffin-tin spheres :
                  atom     1     C          :         3.75452313
                  atom     2     C          :         3.75469295
                  atom     3     C          :         3.75458959
                  atom     4     C          :         3.75437427
                  atom     5     C          :         3.75529067
                  atom     6     C          :         3.75534303
                  atom     7     C          :         3.75386445
                  atom     8     C          :         3.75381841
     total charge in muffin-tins            :        30.03649650
     total charge                           :        48.00000000
 
 Estimated fundamental gap                  :         0.15290784
        valence-band maximum at    1      0.0000  0.0000  0.0000
     conduction-band minimum at   58      0.3750  0.3750  0.3333
 
 Wall time (seconds)                        :       654.90
 
 RMS change in effective potential (target) :  0.782519E-05  ( 0.100000E-05)
 Absolute change in total energy   (target) :  0.157182E-05  ( 0.100000E-05)
 Charge distance                   (target) :  0.287241E-05  ( 0.100000E-04)
 Abs. change in max-nonIBS-force   (target) :  0.180257E-03  ( 0.500000E-04)
 
++++++++++++++++++++++++++++++++++++++++++++++++++++++++++++++++++++++++++++++++
+ SCF iteration number :   11                                                  +
++++++++++++++++++++++++++++++++++++++++++++++++++++++++++++++++++++++++++++++++
 Total energy                               :      -304.79349899
 _______________________________________________________________
 Fermi energy                               :         0.51749509
 Kinetic energy                             :       303.61992677
 Coulomb energy                             :      -564.99825534
 Exchange energy                            :       -41.63642042
 Correlation energy                         :        -1.77874999
 
 DOS at Fermi energy (states/Ha/cell)       :         0.00000000
 
 Electron charges :
     core                                   :        16.00000000
     core leakage                           :         0.00340896
     valence                                :        32.00000000
     interstitial                           :        17.96350353
     charge in muffin-tin spheres :
                  atom     1     C          :         3.75452431
                  atom     2     C          :         3.75469048
                  atom     3     C          :         3.75458994
                  atom     4     C          :         3.75437485
                  atom     5     C          :         3.75529528
                  atom     6     C          :         3.75534811
                  atom     7     C          :         3.75385803
                  atom     8     C          :         3.75381548
     total charge in muffin-tins            :        30.03649647
     total charge                           :        48.00000000
 
 Estimated fundamental gap                  :         0.15290788
        valence-band maximum at    1      0.0000  0.0000  0.0000
     conduction-band minimum at   58      0.3750  0.3750  0.3333
 
 Wall time (seconds)                        :       724.28
 
 RMS change in effective potential (target) :  0.108541E-05  ( 0.100000E-05)
 Absolute change in total energy   (target) :  0.981032E-06  ( 0.100000E-05)
 Charge distance                   (target) :  0.222476E-05  ( 0.100000E-04)
 Abs. change in max-nonIBS-force   (target) :  0.614313E-04  ( 0.500000E-04)
 
++++++++++++++++++++++++++++++++++++++++++++++++++++++++++++++++++++++++++++++++
+ SCF iteration number :   12                                                  +
++++++++++++++++++++++++++++++++++++++++++++++++++++++++++++++++++++++++++++++++
 Total energy                               :      -304.79349891
 _______________________________________________________________
 Fermi energy                               :         0.51749509
 Kinetic energy                             :       303.61992680
 Coulomb energy                             :      -564.99825530
 Exchange energy                            :       -41.63642042
 Correlation energy                         :        -1.77874999
 
 DOS at Fermi energy (states/Ha/cell)       :         0.00000000
 
 Electron charges :
     core                                   :        16.00000000
     core leakage                           :         0.00340896
     valence                                :        32.00000000
     interstitial                           :        17.96350353
     charge in muffin-tin spheres :
                  atom     1     C          :         3.75452499
                  atom     2     C          :         3.75469117
                  atom     3     C          :         3.75458816
                  atom     4     C          :         3.75437591
                  atom     5     C          :         3.75529502
                  atom     6     C          :         3.75534770
                  atom     7     C          :         3.75385979
                  atom     8     C          :         3.75381372
     total charge in muffin-tins            :        30.03649647
     total charge                           :        48.00000000
 
 Estimated fundamental gap                  :         0.15290787
        valence-band maximum at    1      0.0000  0.0000  0.0000
     conduction-band minimum at   58      0.3750  0.3750  0.3333
 
 Wall time (seconds)                        :       797.79
 
 RMS change in effective potential (target) :  0.312750E-06  ( 0.100000E-05)
 Absolute change in total energy   (target) :  0.751676E-07  ( 0.100000E-05)
 Charge distance                   (target) :  0.298794E-06  ( 0.100000E-04)
 Abs. change in max-nonIBS-force   (target) :  0.230420E-05  ( 0.500000E-04)
 
++++++++++++++++++++++++++++++++++++++++++++++++++++++++++++++++++++++++++++++++
+ SCF iteration number :   13                                                  +
++++++++++++++++++++++++++++++++++++++++++++++++++++++++++++++++++++++++++++++++
 Total energy                               :      -304.79349888
 _______________________________________________________________
 Fermi energy                               :         0.51749509
 Kinetic energy                             :       303.61992681
 Coulomb energy                             :      -564.99825529
 Exchange energy                            :       -41.63642041
 Correlation energy                         :        -1.77874999
 
 DOS at Fermi energy (states/Ha/cell)       :         0.00000000
 
 Electron charges :
     core                                   :        16.00000000
     core leakage                           :         0.00340896
     valence                                :        32.00000000
     interstitial                           :        17.96350354
     charge in muffin-tin spheres :
                  atom     1     C          :         3.75452537
                  atom     2     C          :         3.75469061
                  atom     3     C          :         3.75458850
                  atom     4     C          :         3.75437573
                  atom     5     C          :         3.75529472
                  atom     6     C          :         3.75534821
                  atom     7     C          :         3.75385939
                  atom     8     C          :         3.75381394
     total charge in muffin-tins            :        30.03649646
     total charge                           :        48.00000000
 
 Estimated fundamental gap                  :         0.15290787
        valence-band maximum at    1      0.0000  0.0000  0.0000
     conduction-band minimum at  103      0.6250  0.6250  0.6667
 
 Wall time (seconds)                        :       861.99
 
 RMS change in effective potential (target) :  0.181382E-06  ( 0.100000E-05)
 Absolute change in total energy   (target) :  0.328000E-07  ( 0.100000E-05)
 Charge distance                   (target) :  0.111601E-06  ( 0.100000E-04)
 Abs. change in max-nonIBS-force   (target) :  0.129838E-05  ( 0.500000E-04)
                                                                                
++++++++++++++++++++++++++++++++++++++++++++++++++++++++++++++++++++++++++++++++
| Convergency criteria checked for the last 2 iterations                       +
| Convergence targets achieved. Performing final SCF iteration                 +
++++++++++++++++++++++++++++++++++++++++++++++++++++++++++++++++++++++++++++++++
 Total energy                               :      -304.79349888
 _______________________________________________________________
 Fermi energy                               :         0.51749509
 Kinetic energy                             :       303.61992681
 Coulomb energy                             :      -564.99825529
 Exchange energy                            :       -41.63642041
 Correlation energy                         :        -1.77874999
 
 DOS at Fermi energy (states/Ha/cell)       :         0.00000000
 
 Electron charges :
     core                                   :        16.00000000
     core leakage                           :         0.00340896
     valence                                :        32.00000000
     interstitial                           :        17.96350354
     charge in muffin-tin spheres :
                  atom     1     C          :         3.75452503
                  atom     2     C          :         3.75469075
                  atom     3     C          :         3.75458849
                  atom     4     C          :         3.75437587
                  atom     5     C          :         3.75529499
                  atom     6     C          :         3.75534804
                  atom     7     C          :         3.75385941
                  atom     8     C          :         3.75381388
     total charge in muffin-tins            :        30.03649646
     total charge                           :        48.00000000
 
 Estimated fundamental gap                  :         0.15290787
        valence-band maximum at    1      0.0000  0.0000  0.0000
     conduction-band minimum at  103      0.6250  0.6250  0.6667
 
++++++++++++++++++++++++++++++++++++++++++++++++++++++++++++++++++++++++++++++++
+ Self-consistent loop stopped                                                 +
++++++++++++++++++++++++++++++++++++++++++++++++++++++++++++++++++++++++++++++++
 STATE.OUT is written
 
--------------------------------------------------------------------------------
- Writing atomic positions and forces                                          -
--------------------------------------------------------------------------------
 
 Atomic positions (lattice) :
 atom     1   C  :     0.99911137    0.99911137    0.00029621
 atom     2   C  :     0.25000000    0.25000000    0.25000000
 atom     3   C  :     0.50088863    0.50088863    0.49970379
 atom     4   C  :     0.75000000    0.75000000    0.75000000
 atom     5   C  :     0.31250000    0.31250000    0.06250000
 atom     6   C  :     0.56250000    0.56250000    0.31250000
 atom     7   C  :     0.81250000    0.81250000    0.56250000
 atom     8   C  :     0.06250000    0.06250000    0.81250000
 
 Total atomic forces including IBS (cartesian) :
 atom     1   C  :    -0.00334641    0.00026918   -0.00026918
 atom     2   C  :     0.00001200   -0.00001365    0.00001365
 atom     3   C  :     0.00336818   -0.00029749    0.00029749
 atom     4   C  :     0.00001245   -0.00001582    0.00001582
 atom     5   C  :     0.00226876    0.00015518   -0.00015518
 atom     6   C  :    -0.00069549    0.00014988   -0.00014988
 atom     7   C  :    -0.00228398   -0.00012434    0.00012434
 atom     8   C  :     0.00066448   -0.00012295    0.00012295
 
 Atomic force components including IBS (cartesian) :
 atom     1   C  :    -0.00354127    0.00038416   -0.00038416   HF force
                 :     0.00014128   -0.00010576    0.00010576   core correction
                 :     0.00005359   -0.00000922    0.00000922   IBS correction
 atom     2   C  :     0.00000802    0.00013149   -0.00013149   HF force
                 :    -0.00000938   -0.00014020    0.00014020   core correction
                 :     0.00001337   -0.00000495    0.00000495   IBS correction
 atom     3   C  :     0.00347746   -0.00036914    0.00036914   HF force
                 :    -0.00008253    0.00007065   -0.00007065   core correction
                 :    -0.00002675    0.00000100   -0.00000100   IBS correction
 atom     4   C  :    -0.00007236   -0.00011650    0.00011650   HF force
                 :     0.00006972    0.00010463   -0.00010463   core correction
                 :     0.00001509   -0.00000394    0.00000394   IBS correction
 atom     5   C  :     0.00258654    0.00008381   -0.00008381   HF force
                 :    -0.00026933    0.00007168   -0.00007168   core correction
                 :    -0.00004845   -0.00000030    0.00000030   IBS correction
 atom     6   C  :    -0.00063000    0.00007325   -0.00007325   HF force
                 :    -0.00006051    0.00007098   -0.00007098   core correction
                 :    -0.00000498    0.00000566   -0.00000566   IBS correction
 atom     7   C  :    -0.00250325   -0.00008738    0.00008738   HF force
                 :     0.00020167   -0.00004295    0.00004295   core correction
                 :     0.00001760    0.00000599   -0.00000599   IBS correction
 atom     8   C  :     0.00067485   -0.00009968    0.00009968   HF force
                 :     0.00000909   -0.00002903    0.00002903   core correction
                 :    -0.00001946    0.00000576   -0.00000576   IBS correction
 
********************************************************************************
* Groundstate module stopped                                                   *
********************************************************************************
 
 Total time spent (seconds)                 :      1035.46
================================================================================
| EXCITING NITROGEN-13 stopped                                                 =
================================================================================
