    -304.793760134    
    -304.793540606    
    -304.793534151    
    -304.793649071    
    -304.793547303    
    -304.793577598    
    -304.793556643    
    -304.793541809    
    -304.793528362    
    -304.793522456    
    -304.793519132    
    -304.793519115    
    -304.793519038    
    -304.793519049    
 
