    0.104207491415E-01
    0.231366245142E-02
    0.573409234501E-02
    0.873791461008E-02
    0.925370548348E-02
    0.356873635779E-03
    0.277221912135E-04
    0.443466160862E-04
    0.159119090810E-04
    0.545093662070E-05
    0.198984872768E-05
    0.127117191497E-06
 
