  0.2556747641E-02
  0.1776012893E-02
  0.1657675375E-02
  0.4977974052E-03
  0.2562723064E-03
  0.1777159615E-03
  0.1205993463E-03
  0.3866794220E-04
  0.8429356640E-05
  0.2599585137E-05
  0.7033516668E-06
  0.2491697461E-06
 
