    -304.793528836    
    -304.793488563    
    -304.793543082    
    -304.793354884    
    -304.793512116    
    -304.793557020    
    -304.793558733    
    -304.793542446    
    -304.793531877    
    -304.793535354    
    -304.793535182    
    -304.793534808    
    -304.793535182    
    -304.793535235    
 
