    -304.793528683    
    -304.793487465    
    -304.793542402    
    -304.793353462    
    -304.793512087    
    -304.793557500    
    -304.793559185    
    -304.793542612    
    -304.793531868    
    -304.793535391    
    -304.793535220    
    -304.793534841    
    -304.793535220    
    -304.793535276    
 
