    -304.829738132    
    -304.831560269    
    -304.829458022    
    -304.787428402    
    -304.792618817    
    -304.793554667    
    -304.793631028    
    -304.793609895    
    -304.793572451    
    -304.793563067    
    -304.793561232    
    -304.793561231    
    -304.793561332    
    -304.793561353    
 
