 
Species :    1 (C), atom :    1
 n =  1, l =  0, k =  1 :   -9.327403452    
 
Species :    1 (C), atom :    2
 n =  1, l =  0, k =  1 :   -9.327394625    
 
Species :    1 (C), atom :    3
 n =  1, l =  0, k =  1 :   -9.327492949    
 
Species :    1 (C), atom :    4
 n =  1, l =  0, k =  1 :   -9.327529521    
 
Species :    1 (C), atom :    5
 n =  1, l =  0, k =  1 :   -9.327382563    
 
Species :    1 (C), atom :    6
 n =  1, l =  0, k =  1 :   -9.327485641    
 
Species :    1 (C), atom :    7
 n =  1, l =  0, k =  1 :   -9.327488989    
 
Species :    1 (C), atom :    8
 n =  1, l =  0, k =  1 :   -9.327371979    
