 
Species :    1 (C), atom :    1
 n =  1, l =  0, k =  1 :   -9.327569425    
 
Species :    1 (C), atom :    2
 n =  1, l =  0, k =  1 :   -9.327404551    
 
Species :    1 (C), atom :    3
 n =  1, l =  0, k =  1 :   -9.327328991    
 
Species :    1 (C), atom :    4
 n =  1, l =  0, k =  1 :   -9.327520965    
 
Species :    1 (C), atom :    5
 n =  1, l =  0, k =  1 :   -9.327326906    
 
Species :    1 (C), atom :    6
 n =  1, l =  0, k =  1 :   -9.327321147    
 
Species :    1 (C), atom :    7
 n =  1, l =  0, k =  1 :   -9.327544589    
 
Species :    1 (C), atom :    8
 n =  1, l =  0, k =  1 :   -9.327537190    
