    -304.793528893    
    -304.793488543    
    -304.793543068    
    -304.793354903    
    -304.793512167    
    -304.793557058    
    -304.793558757    
    -304.793542473    
    -304.793531886    
    -304.793535383    
    -304.793535211    
    -304.793534832    
    -304.793535198    
    -304.793535254    
 
