 
Species :    1 (C), atom :    1
 n =  1, l =  0, k =  1 :   -9.327415658    
 
Species :    1 (C), atom :    2
 n =  1, l =  0, k =  1 :   -9.327424978    
 
Species :    1 (C), atom :    3
 n =  1, l =  0, k =  1 :   -9.327415658    
 
Species :    1 (C), atom :    4
 n =  1, l =  0, k =  1 :   -9.327481112    
 
Species :    1 (C), atom :    5
 n =  1, l =  0, k =  1 :   -9.327356963    
 
Species :    1 (C), atom :    6
 n =  1, l =  0, k =  1 :   -9.327421182    
 
Species :    1 (C), atom :    7
 n =  1, l =  0, k =  1 :   -9.327485199    
 
Species :    1 (C), atom :    8
 n =  1, l =  0, k =  1 :   -9.327421182    
