================================================================================
| EXCITING NITROGEN-13 started                                                 =
| version hash id: de0c1dba9f665d6c60514aa9e8bf40326ac9f394                    =
|                                                                              =
|                                                                              =
| Date (DD-MM-YYYY) : 04-05-2022                                               =
| Time (hh:mm:ss)   : 10:53:48                                                 =
|                                                                              =
| All units are atomic (Hartree, Bohr, etc.)                                   =
================================================================================
 
********************************************************************************
* Ground-state run resuming from STATE.OUT                                     *
********************************************************************************
 
++++++++++++++++++++++++++++++++++++++++++++++++++++++++++++++++++++++++++++++++
+ Starting initialization                                                      +
++++++++++++++++++++++++++++++++++++++++++++++++++++++++++++++++++++++++++++++++
 
 Lattice vectors (cartesian) :
     -3.3759957000      3.3759957000      0.0000000000
      0.0000000000      0.0000000000      6.7519914000
     -6.7519914000     -6.7519914000      0.0000000000
 
 Reciprocal lattice vectors (cartesian) :
     -0.9305677296      0.9305677296      0.0000000000
      0.0000000000      0.0000000000      0.9305677296
     -0.4652838648     -0.4652838648      0.0000000000
 
 Unit cell volume                           :     307.8191548003
 Brillouin zone volume                      :       0.8058309874
 
 Species :    1 (C)
     parameters loaded from                 :    C.xml
     name                                   :    carbon
     nuclear charge                         :      -6.00000000
     electronic charge                      :       6.00000000
     atomic mass                            :   21894.16673000
     muffin-tin radius                      :       1.25000000
     # of radial points in muffin-tin       :     250
 
     atomic positions (lattice) :
       1 :   0.99940758  0.00000000  0.99970379
       2 :   0.50000000  0.50000000  0.75000000
       3 :   0.00059242  0.00000000  0.50029621
       4 :   0.50000000  0.50000000  0.25000000
       5 :   0.00000000  0.25000000  0.75000000
       6 :   0.50000000  0.75000000  0.50000000
       7 :   0.00000000  0.25000000  0.25000000
       8 :   0.50000000  0.75000000  0.00000000
 
 Total number of atoms per unit cell        :       8
 
 Spin treatment                             :    spin-unpolarised
 
 Number of Bravais lattice symmetries       :       8
 Number of crystal symmetries               :       2
 
 Sphere radius used for k-point grid density:      33.42065234
 
 k-point grid                               :       8    5    4
 Total number of k-points                   :      90
 k-point set is reduced with crystal symmetries
 
 R^MT_min * |G+k|_max (rgkmax)              :       8.00000000
 Species with R^MT_min                      :       1 (C)
 Maximum |G+k| for APW functions            :       6.40000000
 Maximum |G| for potential and density      :      16.00000000
 
 G-vector grid sizes                        :      25    36    50
 Total number of G-vectors                  :   21203
 
 Maximum angular momentum used for
     APW functions                          :       8
     computing H and O matrix elements      :       8
     potential and density                  :       8
     inner part of muffin-tin               :       2
 
 Total nuclear charge                       :     -48.00000000
 Total electronic charge                    :      48.00000000
 Total core charge                          :      16.00000000
 Total valence charge                       :      32.00000000
 
 Number of empty states                     :      20
 Total number of valence states             :      37
 
 Maximum Hamiltonian size                   :    1438
 Maximum number of plane-waves              :    1406
 Total number of local-orbitals             :      32
 
 Exchange-correlation type                  :      20
     Perdew-Burke-Ernzerhof, Phys. Rev. Lett. 77, 3865 (1996)
     Generalised gradient approximation (GGA)
 
 Smearing scheme                            :    Gaussian
 Smearing width                             :       0.00010000
 
 Using multisecant Broyden potential mixing
 
++++++++++++++++++++++++++++++++++++++++++++++++++++++++++++++++++++++++++++++++
+ Ending initialization                                                        +
++++++++++++++++++++++++++++++++++++++++++++++++++++++++++++++++++++++++++++++++
 
********************************************************************************
* Groundstate module started                                                   *
********************************************************************************
 Output level for this task is set to normal
 
++++++++++++++++++++++++++++++++++++++++++++++++++++++++++++++++++++++++++++++++
+ Self-consistent loop started                                                 +
++++++++++++++++++++++++++++++++++++++++++++++++++++++++++++++++++++++++++++++++
 Supercell potential constructed from STATE.OUT
 
 
++++++++++++++++++++++++++++++++++++++++++++++++++++++++++++++++++++++++++++++++
+ SCF iteration number :    1                                                  +
++++++++++++++++++++++++++++++++++++++++++++++++++++++++++++++++++++++++++++++++
 Total energy                               :      -304.83225738
 _______________________________________________________________
 Fermi energy                               :         0.51540337
 Kinetic energy                             :       303.52149480
 Coulomb energy                             :      -564.94356949
 Exchange energy                            :       -41.63100430
 Correlation energy                         :        -1.77917839
 
 DOS at Fermi energy (states/Ha/cell)       :         0.00000000
 
 Electron charges :
     core                                   :        16.00000000
     core leakage                           :         0.00340894
     valence                                :        32.00000000
     interstitial                           :        17.97918978
     charge in muffin-tin spheres :
                  atom     1     C          :         3.75273411
                  atom     2     C          :         3.75273166
                  atom     3     C          :         3.75273411
                  atom     4     C          :         3.75243811
                  atom     5     C          :         3.75326256
                  atom     6     C          :         3.75251210
                  atom     7     C          :         3.75188547
                  atom     8     C          :         3.75251210
     total charge in muffin-tins            :        30.02081022
     total charge                           :        48.00000000
 
 Estimated fundamental gap                  :         0.15054533
        valence-band maximum at    1      0.0000  0.0000  0.0000
     conduction-band minimum at   29      0.3750  0.0000  0.2500
 
 Wall time (seconds)                        :        54.21
 
++++++++++++++++++++++++++++++++++++++++++++++++++++++++++++++++++++++++++++++++
+ SCF iteration number :    2                                                  +
++++++++++++++++++++++++++++++++++++++++++++++++++++++++++++++++++++++++++++++++
 Total energy                               :      -304.83316281
 _______________________________________________________________
 Fermi energy                               :         0.51570947
 Kinetic energy                             :       303.53994616
 Coulomb energy                             :      -564.96124875
 Exchange energy                            :       -41.63282268
 Correlation energy                         :        -1.77903754
 
 DOS at Fermi energy (states/Ha/cell)       :         0.00000000
 
 Electron charges :
     core                                   :        16.00000000
     core leakage                           :         0.00340851
     valence                                :        32.00000000
     interstitial                           :        17.97455982
     charge in muffin-tin spheres :
                  atom     1     C          :         3.75323770
                  atom     2     C          :         3.75336410
                  atom     3     C          :         3.75323770
                  atom     4     C          :         3.75293281
                  atom     5     C          :         3.75419598
                  atom     6     C          :         3.75315636
                  atom     7     C          :         3.75215917
                  atom     8     C          :         3.75315636
     total charge in muffin-tins            :        30.02544018
     total charge                           :        48.00000000
 
 Estimated fundamental gap                  :         0.15088028
        valence-band maximum at    1      0.0000  0.0000  0.0000
     conduction-band minimum at   29      0.3750  0.0000  0.2500
 
 Wall time (seconds)                        :       107.82
 
 RMS change in effective potential (target) :  0.100254E-01  ( 0.100000E-05)
 Absolute change in total energy   (target) :  0.905425E-03  ( 0.100000E-05)
 Charge distance                   (target) :  0.305413E-03  ( 0.100000E-04)
 Abs. change in max-nonIBS-force   (target) :  0.685440E-02  ( 0.500000E-04)
 
++++++++++++++++++++++++++++++++++++++++++++++++++++++++++++++++++++++++++++++++
+ SCF iteration number :    3                                                  +
++++++++++++++++++++++++++++++++++++++++++++++++++++++++++++++++++++++++++++++++
 Total energy                               :      -304.83032296
 _______________________________________________________________
 Fermi energy                               :         0.51598575
 Kinetic energy                             :       303.55713251
 Coulomb energy                             :      -564.97436881
 Exchange energy                            :       -41.63415279
 Correlation energy                         :        -1.77893387
 
 DOS at Fermi energy (states/Ha/cell)       :         0.00000000
 
 Electron charges :
     core                                   :        16.00000000
     core leakage                           :         0.00340829
     valence                                :        32.00000000
     interstitial                           :        17.97102131
     charge in muffin-tin spheres :
                  atom     1     C          :         3.75365575
                  atom     2     C          :         3.75373402
                  atom     3     C          :         3.75365575
                  atom     4     C          :         3.75342612
                  atom     5     C          :         3.75462587
                  atom     6     C          :         3.75362954
                  atom     7     C          :         3.75262210
                  atom     8     C          :         3.75362954
     total charge in muffin-tins            :        30.02897869
     total charge                           :        48.00000000
 
 Estimated fundamental gap                  :         0.15114837
        valence-band maximum at    1      0.0000  0.0000  0.0000
     conduction-band minimum at   29      0.3750  0.0000  0.2500
 
 Wall time (seconds)                        :       162.01
 
 RMS change in effective potential (target) :  0.736727E-02  ( 0.100000E-05)
 Absolute change in total energy   (target) :  0.283985E-02  ( 0.100000E-05)
 Charge distance                   (target) :  0.223292E-03  ( 0.100000E-04)
 Abs. change in max-nonIBS-force   (target) :  0.114985E-02  ( 0.500000E-04)
 
++++++++++++++++++++++++++++++++++++++++++++++++++++++++++++++++++++++++++++++++
+ SCF iteration number :    4                                                  +
++++++++++++++++++++++++++++++++++++++++++++++++++++++++++++++++++++++++++++++++
 Total energy                               :      -304.78667116
 _______________________________________________________________
 Fermi energy                               :         0.51697968
 Kinetic energy                             :       303.62344663
 Coulomb energy                             :      -564.99526620
 Exchange energy                            :       -41.63607656
 Correlation energy                         :        -1.77877503
 
 DOS at Fermi energy (states/Ha/cell)       :         0.00000000
 
 Electron charges :
     core                                   :        16.00000000
     core leakage                           :         0.00340922
     valence                                :        32.00000000
     interstitial                           :        17.96412294
     charge in muffin-tin spheres :
                  atom     1     C          :         3.75440809
                  atom     2     C          :         3.75558777
                  atom     3     C          :         3.75440809
                  atom     4     C          :         3.75342561
                  atom     5     C          :         3.75650088
                  atom     6     C          :         3.75446541
                  atom     7     C          :         3.75261580
                  atom     8     C          :         3.75446541
     total charge in muffin-tins            :        30.03587706
     total charge                           :        48.00000000
 
 Estimated fundamental gap                  :         0.15174650
        valence-band maximum at    1      0.0000  0.0000  0.0000
     conduction-band minimum at   29      0.3750  0.0000  0.2500
 
 Wall time (seconds)                        :       215.84
 
 RMS change in effective potential (target) :  0.155239E-02  ( 0.100000E-05)
 Absolute change in total energy   (target) :  0.436518E-01  ( 0.100000E-05)
 Charge distance                   (target) :  0.486884E-03  ( 0.100000E-04)
 Abs. change in max-nonIBS-force   (target) :  0.131647E-02  ( 0.500000E-04)
 
++++++++++++++++++++++++++++++++++++++++++++++++++++++++++++++++++++++++++++++++
+ SCF iteration number :    5                                                  +
++++++++++++++++++++++++++++++++++++++++++++++++++++++++++++++++++++++++++++++++
 Total energy                               :      -304.79214821
 _______________________________________________________________
 Fermi energy                               :         0.51692563
 Kinetic energy                             :       303.62069041
 Coulomb energy                             :      -564.99772896
 Exchange energy                            :       -41.63635463
 Correlation energy                         :        -1.77875504
 
 DOS at Fermi energy (states/Ha/cell)       :         0.00000000
 
 Electron charges :
     core                                   :        16.00000000
     core leakage                           :         0.00340900
     valence                                :        32.00000000
     interstitial                           :        17.96367076
     charge in muffin-tin spheres :
                  atom     1     C          :         3.75470161
                  atom     2     C          :         3.75272717
                  atom     3     C          :         3.75470161
                  atom     4     C          :         3.75616675
                  atom     5     C          :         3.75299826
                  atom     6     C          :         3.75454797
                  atom     7     C          :         3.75593791
                  atom     8     C          :         3.75454797
     total charge in muffin-tins            :        30.03632924
     total charge                           :        48.00000000
 
 Estimated fundamental gap                  :         0.15179215
        valence-band maximum at    1      0.0000  0.0000  0.0000
     conduction-band minimum at   29      0.3750  0.0000  0.2500
 
 Wall time (seconds)                        :       270.23
 
 RMS change in effective potential (target) :  0.215220E-02  ( 0.100000E-05)
 Absolute change in total energy   (target) :  0.547705E-02  ( 0.100000E-05)
 Charge distance                   (target) :  0.632584E-03  ( 0.100000E-04)
 Abs. change in max-nonIBS-force   (target) :  0.887891E-02  ( 0.500000E-04)
 
++++++++++++++++++++++++++++++++++++++++++++++++++++++++++++++++++++++++++++++++
+ SCF iteration number :    6                                                  +
++++++++++++++++++++++++++++++++++++++++++++++++++++++++++++++++++++++++++++++++
 Total energy                               :      -304.79321076
 _______________________________________________________________
 Fermi energy                               :         0.51691223
 Kinetic energy                             :       303.62004596
 Coulomb energy                             :      -564.99810640
 Exchange energy                            :       -41.63639832
 Correlation energy                         :        -1.77875199
 
 DOS at Fermi energy (states/Ha/cell)       :         0.00000000
 
 Electron charges :
     core                                   :        16.00000000
     core leakage                           :         0.00340896
     valence                                :        32.00000000
     interstitial                           :        17.96358505
     charge in muffin-tin spheres :
                  atom     1     C          :         3.75460074
                  atom     2     C          :         3.75468502
                  atom     3     C          :         3.75460074
                  atom     4     C          :         3.75433158
                  atom     5     C          :         3.75530823
                  atom     6     C          :         3.75456109
                  atom     7     C          :         3.75376645
                  atom     8     C          :         3.75456109
     total charge in muffin-tins            :        30.03641495
     total charge                           :        48.00000000
 
 Estimated fundamental gap                  :         0.15181173
        valence-band maximum at    1      0.0000  0.0000  0.0000
     conduction-band minimum at   29      0.3750  0.0000  0.2500
 
 Wall time (seconds)                        :       324.98
 
 RMS change in effective potential (target) :  0.795988E-04  ( 0.100000E-05)
 Absolute change in total energy   (target) :  0.106255E-02  ( 0.100000E-05)
 Charge distance                   (target) :  0.435381E-03  ( 0.100000E-04)
 Abs. change in max-nonIBS-force   (target) :  0.117180E-01  ( 0.500000E-04)
 
++++++++++++++++++++++++++++++++++++++++++++++++++++++++++++++++++++++++++++++++
+ SCF iteration number :    7                                                  +
++++++++++++++++++++++++++++++++++++++++++++++++++++++++++++++++++++++++++++++++
 Total energy                               :      -304.79359088
 _______________________________________________________________
 Fermi energy                               :         0.51691000
 Kinetic energy                             :       303.61986416
 Coulomb energy                             :      -564.99828607
 Exchange energy                            :       -41.63641841
 Correlation energy                         :        -1.77875056
 
 DOS at Fermi energy (states/Ha/cell)       :         0.00000000
 
 Electron charges :
     core                                   :        16.00000000
     core leakage                           :         0.00340895
     valence                                :        32.00000000
     interstitial                           :        17.96355041
     charge in muffin-tin spheres :
                  atom     1     C          :         3.75451633
                  atom     2     C          :         3.75454419
                  atom     3     C          :         3.75451633
                  atom     4     C          :         3.75453948
                  atom     5     C          :         3.75539856
                  atom     6     C          :         3.75456478
                  atom     7     C          :         3.75380514
                  atom     8     C          :         3.75456478
     total charge in muffin-tins            :        30.03644959
     total charge                           :        48.00000000
 
 Estimated fundamental gap                  :         0.15181328
        valence-band maximum at    1      0.0000  0.0000  0.0000
     conduction-band minimum at   29      0.3750  0.0000  0.2500
 
 Wall time (seconds)                        :       379.71
 
 RMS change in effective potential (target) :  0.690451E-04  ( 0.100000E-05)
 Absolute change in total energy   (target) :  0.380127E-03  ( 0.100000E-05)
 Charge distance                   (target) :  0.275298E-04  ( 0.100000E-04)
 Abs. change in max-nonIBS-force   (target) :  0.344806E-03  ( 0.500000E-04)
 
++++++++++++++++++++++++++++++++++++++++++++++++++++++++++++++++++++++++++++++++
+ SCF iteration number :    8                                                  +
++++++++++++++++++++++++++++++++++++++++++++++++++++++++++++++++++++++++++++++++
 Total energy                               :      -304.79358740
 _______________________________________________________________
 Fermi energy                               :         0.51691013
 Kinetic energy                             :       303.61986636
 Coulomb energy                             :      -564.99828493
 Exchange energy                            :       -41.63641826
 Correlation energy                         :        -1.77875057
 
 DOS at Fermi energy (states/Ha/cell)       :         0.00000000
 
 Electron charges :
     core                                   :        16.00000000
     core leakage                           :         0.00340895
     valence                                :        32.00000000
     interstitial                           :        17.96355054
     charge in muffin-tin spheres :
                  atom     1     C          :         3.75457634
                  atom     2     C          :         3.75459786
                  atom     3     C          :         3.75457634
                  atom     4     C          :         3.75444117
                  atom     5     C          :         3.75530572
                  atom     6     C          :         3.75456638
                  atom     7     C          :         3.75381927
                  atom     8     C          :         3.75456638
     total charge in muffin-tins            :        30.03644946
     total charge                           :        48.00000000
 
 Estimated fundamental gap                  :         0.15181313
        valence-band maximum at    1      0.0000  0.0000  0.0000
     conduction-band minimum at   29      0.3750  0.0000  0.2500
 
 Wall time (seconds)                        :       434.57
 
 RMS change in effective potential (target) :  0.102423E-04  ( 0.100000E-05)
 Absolute change in total energy   (target) :  0.348757E-05  ( 0.100000E-05)
 Charge distance                   (target) :  0.139589E-04  ( 0.100000E-04)
 Abs. change in max-nonIBS-force   (target) :  0.445395E-04  ( 0.500000E-04)
 
++++++++++++++++++++++++++++++++++++++++++++++++++++++++++++++++++++++++++++++++
+ SCF iteration number :    9                                                  +
++++++++++++++++++++++++++++++++++++++++++++++++++++++++++++++++++++++++++++++++
 Total energy                               :      -304.79354634
 _______________________________________________________________
 Fermi energy                               :         0.51691040
 Kinetic energy                             :       303.61988633
 Coulomb energy                             :      -564.99826583
 Exchange energy                            :       -41.63641611
 Correlation energy                         :        -1.77875073
 
 DOS at Fermi energy (states/Ha/cell)       :         0.00000000
 
 Electron charges :
     core                                   :        16.00000000
     core leakage                           :         0.00340895
     valence                                :        32.00000000
     interstitial                           :        17.96355412
     charge in muffin-tin spheres :
                  atom     1     C          :         3.75456855
                  atom     2     C          :         3.75460284
                  atom     3     C          :         3.75456855
                  atom     4     C          :         3.75444646
                  atom     5     C          :         3.75531637
                  atom     6     C          :         3.75456385
                  atom     7     C          :         3.75381543
                  atom     8     C          :         3.75456385
     total charge in muffin-tins            :        30.03644588
     total charge                           :        48.00000000
 
 Estimated fundamental gap                  :         0.15181298
        valence-band maximum at    1      0.0000  0.0000  0.0000
     conduction-band minimum at   29      0.3750  0.0000  0.2500
 
 Wall time (seconds)                        :       488.99
 
 RMS change in effective potential (target) :  0.361269E-05  ( 0.100000E-05)
 Absolute change in total energy   (target) :  0.410552E-04  ( 0.100000E-05)
 Charge distance                   (target) :  0.211116E-05  ( 0.100000E-04)
 Abs. change in max-nonIBS-force   (target) :  0.382203E-04  ( 0.500000E-04)
 
++++++++++++++++++++++++++++++++++++++++++++++++++++++++++++++++++++++++++++++++
+ SCF iteration number :   10                                                  +
++++++++++++++++++++++++++++++++++++++++++++++++++++++++++++++++++++++++++++++++
 Total energy                               :      -304.79353009
 _______________________________________________________________
 Fermi energy                               :         0.51691048
 Kinetic energy                             :       303.61989432
 Coulomb energy                             :      -564.99825834
 Exchange energy                            :       -41.63641527
 Correlation energy                         :        -1.77875079
 
 DOS at Fermi energy (states/Ha/cell)       :         0.00000000
 
 Electron charges :
     core                                   :        16.00000000
     core leakage                           :         0.00340895
     valence                                :        32.00000000
     interstitial                           :        17.96355552
     charge in muffin-tin spheres :
                  atom     1     C          :         3.75457107
                  atom     2     C          :         3.75459709
                  atom     3     C          :         3.75457107
                  atom     4     C          :         3.75444446
                  atom     5     C          :         3.75531530
                  atom     6     C          :         3.75456565
                  atom     7     C          :         3.75381420
                  atom     8     C          :         3.75456565
     total charge in muffin-tins            :        30.03644448
     total charge                           :        48.00000000
 
 Estimated fundamental gap                  :         0.15181297
        valence-band maximum at    1      0.0000  0.0000  0.0000
     conduction-band minimum at   29      0.3750  0.0000  0.2500
 
 Wall time (seconds)                        :       543.72
 
 RMS change in effective potential (target) :  0.157309E-05  ( 0.100000E-05)
 Absolute change in total energy   (target) :  0.162515E-04  ( 0.100000E-05)
 Charge distance                   (target) :  0.814355E-06  ( 0.100000E-04)
 Abs. change in max-nonIBS-force   (target) :  0.142060E-04  ( 0.500000E-04)
 
++++++++++++++++++++++++++++++++++++++++++++++++++++++++++++++++++++++++++++++++
+ SCF iteration number :   11                                                  +
++++++++++++++++++++++++++++++++++++++++++++++++++++++++++++++++++++++++++++++++
 Total energy                               :      -304.79352949
 _______________________________________________________________
 Fermi energy                               :         0.51691047
 Kinetic energy                             :       303.61989463
 Coulomb energy                             :      -564.99825809
 Exchange energy                            :       -41.63641524
 Correlation energy                         :        -1.77875079
 
 DOS at Fermi energy (states/Ha/cell)       :         0.00000000
 
 Electron charges :
     core                                   :        16.00000000
     core leakage                           :         0.00340895
     valence                                :        32.00000000
     interstitial                           :        17.96355557
     charge in muffin-tin spheres :
                  atom     1     C          :         3.75457041
                  atom     2     C          :         3.75460009
                  atom     3     C          :         3.75457041
                  atom     4     C          :         3.75444487
                  atom     5     C          :         3.75531365
                  atom     6     C          :         3.75456453
                  atom     7     C          :         3.75381593
                  atom     8     C          :         3.75456453
     total charge in muffin-tins            :        30.03644443
     total charge                           :        48.00000000
 
 Estimated fundamental gap                  :         0.15181299
        valence-band maximum at    1      0.0000  0.0000  0.0000
     conduction-band minimum at   29      0.3750  0.0000  0.2500
 
 Wall time (seconds)                        :       598.50
 
 RMS change in effective potential (target) :  0.309740E-06  ( 0.100000E-05)
 Absolute change in total energy   (target) :  0.596648E-06  ( 0.100000E-05)
 Charge distance                   (target) :  0.346693E-06  ( 0.100000E-04)
 Abs. change in max-nonIBS-force   (target) :  0.287251E-05  ( 0.500000E-04)
 
++++++++++++++++++++++++++++++++++++++++++++++++++++++++++++++++++++++++++++++++
+ SCF iteration number :   12                                                  +
++++++++++++++++++++++++++++++++++++++++++++++++++++++++++++++++++++++++++++++++
 Total energy                               :      -304.79352972
 _______________________________________________________________
 Fermi energy                               :         0.51691047
 Kinetic energy                             :       303.61989452
 Coulomb energy                             :      -564.99825819
 Exchange energy                            :       -41.63641525
 Correlation energy                         :        -1.77875079
 
 DOS at Fermi energy (states/Ha/cell)       :         0.00000000
 
 Electron charges :
     core                                   :        16.00000000
     core leakage                           :         0.00340895
     valence                                :        32.00000000
     interstitial                           :        17.96355556
     charge in muffin-tin spheres :
                  atom     1     C          :         3.75457067
                  atom     2     C          :         3.75459990
                  atom     3     C          :         3.75457067
                  atom     4     C          :         3.75444455
                  atom     5     C          :         3.75531366
                  atom     6     C          :         3.75456466
                  atom     7     C          :         3.75381568
                  atom     8     C          :         3.75456466
     total charge in muffin-tins            :        30.03644444
     total charge                           :        48.00000000
 
 Estimated fundamental gap                  :         0.15181299
        valence-band maximum at    1      0.0000  0.0000  0.0000
     conduction-band minimum at   29      0.3750  0.0000  0.2500
 
 Wall time (seconds)                        :       652.65
 
 RMS change in effective potential (target) :  0.454694E-07  ( 0.100000E-05)
 Absolute change in total energy   (target) :  0.230032E-06  ( 0.100000E-05)
 Charge distance                   (target) :  0.948981E-07  ( 0.100000E-04)
 Abs. change in max-nonIBS-force   (target) :  0.194945E-05  ( 0.500000E-04)
                                                                                
++++++++++++++++++++++++++++++++++++++++++++++++++++++++++++++++++++++++++++++++
| Convergency criteria checked for the last 2 iterations                       +
| Convergence targets achieved. Performing final SCF iteration                 +
++++++++++++++++++++++++++++++++++++++++++++++++++++++++++++++++++++++++++++++++
 Total energy                               :      -304.79352974
 _______________________________________________________________
 Fermi energy                               :         0.51691047
 Kinetic energy                             :       303.61989451
 Coulomb energy                             :      -564.99825821
 Exchange energy                            :       -41.63641525
 Correlation energy                         :        -1.77875079
 
 DOS at Fermi energy (states/Ha/cell)       :         0.00000000
 
 Electron charges :
     core                                   :        16.00000000
     core leakage                           :         0.00340895
     valence                                :        32.00000000
     interstitial                           :        17.96355555
     charge in muffin-tin spheres :
                  atom     1     C          :         3.75457062
                  atom     2     C          :         3.75459987
                  atom     3     C          :         3.75457062
                  atom     4     C          :         3.75444459
                  atom     5     C          :         3.75531371
                  atom     6     C          :         3.75456467
                  atom     7     C          :         3.75381569
                  atom     8     C          :         3.75456467
     total charge in muffin-tins            :        30.03644445
     total charge                           :        48.00000000
 
 Estimated fundamental gap                  :         0.15181299
        valence-band maximum at    1      0.0000  0.0000  0.0000
     conduction-band minimum at   29      0.3750  0.0000  0.2500
 
++++++++++++++++++++++++++++++++++++++++++++++++++++++++++++++++++++++++++++++++
+ Self-consistent loop stopped                                                 +
++++++++++++++++++++++++++++++++++++++++++++++++++++++++++++++++++++++++++++++++
 STATE.OUT is written
 
--------------------------------------------------------------------------------
- Writing atomic positions and forces                                          -
--------------------------------------------------------------------------------
 
 Atomic positions (lattice) :
 atom     1   C  :     0.99940758    0.00000000    0.99970379
 atom     2   C  :     0.50000000    0.50000000    0.75000000
 atom     3   C  :     0.00059242    0.00000000    0.50029621
 atom     4   C  :     0.50000000    0.50000000    0.25000000
 atom     5   C  :     0.00000000    0.25000000    0.75000000
 atom     6   C  :     0.50000000    0.75000000    0.50000000
 atom     7   C  :     0.00000000    0.25000000    0.25000000
 atom     8   C  :     0.50000000    0.75000000    0.00000000
 
 Total atomic forces including IBS (cartesian) :
 atom     1   C  :    -0.00178974   -0.00025034    0.00000024
 atom     2   C  :     0.00000000    0.00000000   -0.00011147
 atom     3   C  :     0.00178974    0.00025034    0.00000024
 atom     4   C  :     0.00000000    0.00000000    0.00011164
 atom     5   C  :     0.00000000    0.00000000    0.00014811
 atom     6   C  :    -0.00072234    0.00012823    0.00001709
 atom     7   C  :     0.00000000    0.00000000   -0.00018294
 atom     8   C  :     0.00072234   -0.00012823    0.00001709
 
 Atomic force components including IBS (cartesian) :
 atom     1   C  :    -0.00172692   -0.00027423   -0.00001528   HF force
                 :    -0.00008156    0.00002010    0.00000933   core correction
                 :     0.00001875    0.00000380    0.00000619   IBS correction
 atom     2   C  :     0.00000000    0.00000000   -0.00000962   HF force
                 :     0.00000000    0.00000000   -0.00010676   core correction
                 :     0.00000000    0.00000000    0.00000491   IBS correction
 atom     3   C  :     0.00172692    0.00027423   -0.00001528   HF force
                 :     0.00008156   -0.00002010    0.00000933   core correction
                 :    -0.00001875   -0.00000380    0.00000619   IBS correction
 atom     4   C  :     0.00000000    0.00000000   -0.00002135   HF force
                 :     0.00000000    0.00000000    0.00012546   core correction
                 :     0.00000000    0.00000000    0.00000753   IBS correction
 atom     5   C  :     0.00000000    0.00000000    0.00023774   HF force
                 :     0.00000000    0.00000000   -0.00007883   core correction
                 :     0.00000000    0.00000000   -0.00001080   IBS correction
 atom     6   C  :    -0.00073728    0.00015952    0.00003384   HF force
                 :     0.00000694   -0.00002749   -0.00001046   core correction
                 :     0.00000800   -0.00000380   -0.00000629   IBS correction
 atom     7   C  :     0.00000000    0.00000000   -0.00024388   HF force
                 :     0.00000000    0.00000000    0.00006238   core correction
                 :     0.00000000    0.00000000   -0.00000144   IBS correction
 atom     8   C  :     0.00073728   -0.00015952    0.00003384   HF force
                 :    -0.00000694    0.00002749   -0.00001046   core correction
                 :    -0.00000800    0.00000380   -0.00000629   IBS correction
 
********************************************************************************
* Groundstate module stopped                                                   *
********************************************************************************
 
 Total time spent (seconds)                 :       789.86
================================================================================
| EXCITING NITROGEN-13 stopped                                                 =
================================================================================
