================================================================================
| EXCITING NITROGEN-13 started                                                 =
| version hash id: de0c1dba9f665d6c60514aa9e8bf40326ac9f394                    =
|                                                                              =
|                                                                              =
| Date (DD-MM-YYYY) : 04-05-2022                                               =
| Time (hh:mm:ss)   : 11:20:14                                                 =
|                                                                              =
| All units are atomic (Hartree, Bohr, etc.)                                   =
================================================================================
 
********************************************************************************
* Ground-state run resuming from STATE.OUT                                     *
********************************************************************************
 
++++++++++++++++++++++++++++++++++++++++++++++++++++++++++++++++++++++++++++++++
+ Starting initialization                                                      +
++++++++++++++++++++++++++++++++++++++++++++++++++++++++++++++++++++++++++++++++
 
 Lattice vectors (cartesian) :
     -3.3759957000      3.3759957000      0.0000000000
      0.0000000000      0.0000000000      6.7519914000
     -6.7519914000     -6.7519914000      0.0000000000
 
 Reciprocal lattice vectors (cartesian) :
     -0.9305677296      0.9305677296      0.0000000000
      0.0000000000      0.0000000000      0.9305677296
     -0.4652838648     -0.4652838648      0.0000000000
 
 Unit cell volume                           :     307.8191548003
 Brillouin zone volume                      :       0.8058309874
 
 Species :    1 (C)
     parameters loaded from                 :    C.xml
     name                                   :    carbon
     nuclear charge                         :      -6.00000000
     electronic charge                      :       6.00000000
     atomic mass                            :   21894.16673000
     muffin-tin radius                      :       1.25000000
     # of radial points in muffin-tin       :     250
 
     atomic positions (lattice) :
       1 :   0.00000000  0.00000000  0.00000000
       2 :   0.49940758  0.50000000  0.74970379
       3 :   0.00000000  0.00000000  0.50000000
       4 :   0.50059242  0.50000000  0.25029621
       5 :   0.00000000  0.25000000  0.75000000
       6 :   0.50000000  0.75000000  0.50000000
       7 :   0.00000000  0.25000000  0.25000000
       8 :   0.50000000  0.75000000  0.00000000
 
 Total number of atoms per unit cell        :       8
 
 Spin treatment                             :    spin-unpolarised
 
 Number of Bravais lattice symmetries       :       8
 Number of crystal symmetries               :       2
 
 Sphere radius used for k-point grid density:      33.42065234
 
 k-point grid                               :       8    5    4
 Total number of k-points                   :      90
 k-point set is reduced with crystal symmetries
 
 R^MT_min * |G+k|_max (rgkmax)              :       8.00000000
 Species with R^MT_min                      :       1 (C)
 Maximum |G+k| for APW functions            :       6.40000000
 Maximum |G| for potential and density      :      16.00000000
 
 G-vector grid sizes                        :      25    36    50
 Total number of G-vectors                  :   21203
 
 Maximum angular momentum used for
     APW functions                          :       8
     computing H and O matrix elements      :       8
     potential and density                  :       8
     inner part of muffin-tin               :       2
 
 Total nuclear charge                       :     -48.00000000
 Total electronic charge                    :      48.00000000
 Total core charge                          :      16.00000000
 Total valence charge                       :      32.00000000
 
 Number of empty states                     :      20
 Total number of valence states             :      37
 
 Maximum Hamiltonian size                   :    1438
 Maximum number of plane-waves              :    1406
 Total number of local-orbitals             :      32
 
 Exchange-correlation type                  :      20
     Perdew-Burke-Ernzerhof, Phys. Rev. Lett. 77, 3865 (1996)
     Generalised gradient approximation (GGA)
 
 Smearing scheme                            :    Gaussian
 Smearing width                             :       0.00010000
 
 Using multisecant Broyden potential mixing
 
++++++++++++++++++++++++++++++++++++++++++++++++++++++++++++++++++++++++++++++++
+ Ending initialization                                                        +
++++++++++++++++++++++++++++++++++++++++++++++++++++++++++++++++++++++++++++++++
 
********************************************************************************
* Groundstate module started                                                   *
********************************************************************************
 Output level for this task is set to normal
 
++++++++++++++++++++++++++++++++++++++++++++++++++++++++++++++++++++++++++++++++
+ Self-consistent loop started                                                 +
++++++++++++++++++++++++++++++++++++++++++++++++++++++++++++++++++++++++++++++++
 Potential read in from STATE.OUT
 
 
++++++++++++++++++++++++++++++++++++++++++++++++++++++++++++++++++++++++++++++++
+ SCF iteration number :    1                                                  +
++++++++++++++++++++++++++++++++++++++++++++++++++++++++++++++++++++++++++++++++
 Total energy                               :      -304.79295823
 _______________________________________________________________
 Fermi energy                               :         0.51690937
 Kinetic energy                             :       303.62010293
 Coulomb energy                             :      -564.99791801
 Exchange energy                            :       -41.63639307
 Correlation energy                         :        -1.77875008
 
 DOS at Fermi energy (states/Ha/cell)       :         0.00000000
 
 Electron charges :
     core                                   :        16.00000000
     core leakage                           :         0.00340915
     valence                                :        32.00000000
     interstitial                           :        17.96350990
     charge in muffin-tin spheres :
                  atom     1     C          :         3.75441906
                  atom     2     C          :         3.75452895
                  atom     3     C          :         3.75476318
                  atom     4     C          :         3.75452895
                  atom     5     C          :         3.75456169
                  atom     6     C          :         3.75473117
                  atom     7     C          :         3.75456169
                  atom     8     C          :         3.75439540
     total charge in muffin-tins            :        30.03649010
     total charge                           :        48.00000000
 
 Estimated fundamental gap                  :         0.15181136
        valence-band maximum at    1      0.0000  0.0000  0.0000
     conduction-band minimum at   29      0.3750  0.0000  0.2500
 
 Wall time (seconds)                        :        55.63
 
++++++++++++++++++++++++++++++++++++++++++++++++++++++++++++++++++++++++++++++++
+ SCF iteration number :    2                                                  +
++++++++++++++++++++++++++++++++++++++++++++++++++++++++++++++++++++++++++++++++
 Total energy                               :      -304.79293834
 _______________________________________________________________
 Fermi energy                               :         0.51690905
 Kinetic energy                             :       303.62006058
 Coulomb energy                             :      -564.99786080
 Exchange energy                            :       -41.63638706
 Correlation energy                         :        -1.77875107
 
 DOS at Fermi energy (states/Ha/cell)       :         0.00000000
 
 Electron charges :
     core                                   :        16.00000000
     core leakage                           :         0.00340910
     valence                                :        32.00000000
     interstitial                           :        17.96357402
     charge in muffin-tin spheres :
                  atom     1     C          :         3.75439399
                  atom     2     C          :         3.75452333
                  atom     3     C          :         3.75474258
                  atom     4     C          :         3.75452333
                  atom     5     C          :         3.75456082
                  atom     6     C          :         3.75560107
                  atom     7     C          :         3.75456082
                  atom     8     C          :         3.75352005
     total charge in muffin-tins            :        30.03642598
     total charge                           :        48.00000000
 
 Estimated fundamental gap                  :         0.15181311
        valence-band maximum at    1      0.0000  0.0000  0.0000
     conduction-band minimum at   29      0.3750  0.0000  0.2500
 
 Wall time (seconds)                        :       109.78
 
 RMS change in effective potential (target) :  0.226965E-02  ( 0.100000E-05)
 Absolute change in total energy   (target) :  0.198874E-04  ( 0.100000E-05)
 Charge distance                   (target) :  0.259361E-03  ( 0.100000E-04)
 Abs. change in max-nonIBS-force   (target) :  0.933365E-02  ( 0.500000E-04)
 
++++++++++++++++++++++++++++++++++++++++++++++++++++++++++++++++++++++++++++++++
+ SCF iteration number :    3                                                  +
++++++++++++++++++++++++++++++++++++++++++++++++++++++++++++++++++++++++++++++++
 Total energy                               :      -304.79312634
 _______________________________________________________________
 Fermi energy                               :         0.51690947
 Kinetic energy                             :       303.62001277
 Coulomb energy                             :      -564.99799153
 Exchange energy                            :       -41.63639669
 Correlation energy                         :        -1.77875089
 
 DOS at Fermi energy (states/Ha/cell)       :         0.00000000
 
 Electron charges :
     core                                   :        16.00000000
     core leakage                           :         0.00340906
     valence                                :        32.00000000
     interstitial                           :        17.96356498
     charge in muffin-tin spheres :
                  atom     1     C          :         3.75440780
                  atom     2     C          :         3.75452465
                  atom     3     C          :         3.75472527
                  atom     4     C          :         3.75452465
                  atom     5     C          :         3.75456353
                  atom     6     C          :         3.75561264
                  atom     7     C          :         3.75456353
                  atom     8     C          :         3.75351295
     total charge in muffin-tins            :        30.03643502
     total charge                           :        48.00000000
 
 Estimated fundamental gap                  :         0.15181338
        valence-band maximum at    1      0.0000  0.0000  0.0000
     conduction-band minimum at   29      0.3750  0.0000  0.2500
 
 Wall time (seconds)                        :       165.16
 
 RMS change in effective potential (target) :  0.165087E-02  ( 0.100000E-05)
 Absolute change in total energy   (target) :  0.187994E-03  ( 0.100000E-05)
 Charge distance                   (target) :  0.900491E-04  ( 0.100000E-04)
 Abs. change in max-nonIBS-force   (target) :  0.221509E-02  ( 0.500000E-04)
 
++++++++++++++++++++++++++++++++++++++++++++++++++++++++++++++++++++++++++++++++
+ SCF iteration number :    4                                                  +
++++++++++++++++++++++++++++++++++++++++++++++++++++++++++++++++++++++++++++++++
 Total energy                               :      -304.79353329
 _______________________________________________________________
 Fermi energy                               :         0.51690975
 Kinetic energy                             :       303.61991520
 Coulomb energy                             :      -564.99828090
 Exchange energy                            :       -41.63641704
 Correlation energy                         :        -1.77875056
 
 DOS at Fermi energy (states/Ha/cell)       :         0.00000000
 
 Electron charges :
     core                                   :        16.00000000
     core leakage                           :         0.00340895
     valence                                :        32.00000000
     interstitial                           :        17.96356123
     charge in muffin-tin spheres :
                  atom     1     C          :         3.75504779
                  atom     2     C          :         3.75451548
                  atom     3     C          :         3.75412214
                  atom     4     C          :         3.75451548
                  atom     5     C          :         3.75455717
                  atom     6     C          :         3.75392599
                  atom     7     C          :         3.75455717
                  atom     8     C          :         3.75519756
     total charge in muffin-tins            :        30.03643877
     total charge                           :        48.00000000
 
 Estimated fundamental gap                  :         0.15181065
        valence-band maximum at    1      0.0000  0.0000  0.0000
     conduction-band minimum at   29      0.3750  0.0000  0.2500
 
 Wall time (seconds)                        :       218.08
 
 RMS change in effective potential (target) :  0.112245E-02  ( 0.100000E-05)
 Absolute change in total energy   (target) :  0.406950E-03  ( 0.100000E-05)
 Charge distance                   (target) :  0.288585E-03  ( 0.100000E-04)
 Abs. change in max-nonIBS-force   (target) :  0.970043E-03  ( 0.500000E-04)
 
++++++++++++++++++++++++++++++++++++++++++++++++++++++++++++++++++++++++++++++++
+ SCF iteration number :    5                                                  +
++++++++++++++++++++++++++++++++++++++++++++++++++++++++++++++++++++++++++++++++
 Total energy                               :      -304.79366469
 _______________________________________________________________
 Fermi energy                               :         0.51690836
 Kinetic energy                             :       303.61977412
 Coulomb energy                             :      -564.99827070
 Exchange energy                            :       -41.63641748
 Correlation energy                         :        -1.77875063
 
 DOS at Fermi energy (states/Ha/cell)       :         0.00000000
 
 Electron charges :
     core                                   :        16.00000000
     core leakage                           :         0.00340895
     valence                                :        32.00000000
     interstitial                           :        17.96355150
     charge in muffin-tin spheres :
                  atom     1     C          :         3.75423251
                  atom     2     C          :         3.75453085
                  atom     3     C          :         3.75491614
                  atom     4     C          :         3.75453085
                  atom     5     C          :         3.75455972
                  atom     6     C          :         3.75520672
                  atom     7     C          :         3.75455972
                  atom     8     C          :         3.75391198
     total charge in muffin-tins            :        30.03644850
     total charge                           :        48.00000000
 
 Estimated fundamental gap                  :         0.15181326
        valence-band maximum at    1      0.0000  0.0000  0.0000
     conduction-band minimum at   29      0.3750  0.0000  0.2500
 
 Wall time (seconds)                        :       271.70
 
 RMS change in effective potential (target) :  0.246336E-03  ( 0.100000E-05)
 Absolute change in total energy   (target) :  0.131399E-03  ( 0.100000E-05)
 Charge distance                   (target) :  0.296031E-03  ( 0.100000E-04)
 Abs. change in max-nonIBS-force   (target) :  0.633171E-02  ( 0.500000E-04)
 
++++++++++++++++++++++++++++++++++++++++++++++++++++++++++++++++++++++++++++++++
+ SCF iteration number :    6                                                  +
++++++++++++++++++++++++++++++++++++++++++++++++++++++++++++++++++++++++++++++++
 Total energy                               :      -304.79363292
 _______________________________________________________________
 Fermi energy                               :         0.51690890
 Kinetic energy                             :       303.61980720
 Coulomb energy                             :      -564.99827214
 Exchange energy                            :       -41.63641734
 Correlation energy                         :        -1.77875065
 
 DOS at Fermi energy (states/Ha/cell)       :         0.00000000
 
 Electron charges :
     core                                   :        16.00000000
     core leakage                           :         0.00340895
     valence                                :        32.00000000
     interstitial                           :        17.96355191
     charge in muffin-tin spheres :
                  atom     1     C          :         3.75460257
                  atom     2     C          :         3.75452319
                  atom     3     C          :         3.75452744
                  atom     4     C          :         3.75452319
                  atom     5     C          :         3.75456782
                  atom     6     C          :         3.75533542
                  atom     7     C          :         3.75456782
                  atom     8     C          :         3.75380064
     total charge in muffin-tins            :        30.03644809
     total charge                           :        48.00000000
 
 Estimated fundamental gap                  :         0.15181321
        valence-band maximum at    1      0.0000  0.0000  0.0000
     conduction-band minimum at   29      0.3750  0.0000  0.2500
 
 Wall time (seconds)                        :       325.64
 
 RMS change in effective potential (target) :  0.127143E-03  ( 0.100000E-05)
 Absolute change in total energy   (target) :  0.317718E-04  ( 0.100000E-05)
 Charge distance                   (target) :  0.480512E-04  ( 0.100000E-04)
 Abs. change in max-nonIBS-force   (target) :  0.898613E-03  ( 0.500000E-04)
 
++++++++++++++++++++++++++++++++++++++++++++++++++++++++++++++++++++++++++++++++
+ SCF iteration number :    7                                                  +
++++++++++++++++++++++++++++++++++++++++++++++++++++++++++++++++++++++++++++++++
 Total energy                               :      -304.79360176
 _______________________________________________________________
 Fermi energy                               :         0.51690936
 Kinetic energy                             :       303.61983396
 Coulomb energy                             :      -564.99826832
 Exchange energy                            :       -41.63641671
 Correlation energy                         :        -1.77875069
 
 DOS at Fermi energy (states/Ha/cell)       :         0.00000000
 
 Electron charges :
     core                                   :        16.00000000
     core leakage                           :         0.00340895
     valence                                :        32.00000000
     interstitial                           :        17.96355305
     charge in muffin-tin spheres :
                  atom     1     C          :         3.75447212
                  atom     2     C          :         3.75452541
                  atom     3     C          :         3.75466678
                  atom     4     C          :         3.75452541
                  atom     5     C          :         3.75456416
                  atom     6     C          :         3.75525347
                  atom     7     C          :         3.75456416
                  atom     8     C          :         3.75387543
     total charge in muffin-tins            :        30.03644695
     total charge                           :        48.00000000
 
 Estimated fundamental gap                  :         0.15181314
        valence-band maximum at    1      0.0000  0.0000  0.0000
     conduction-band minimum at   29      0.3750  0.0000  0.2500
 
 Wall time (seconds)                        :       379.59
 
 RMS change in effective potential (target) :  0.739759E-04  ( 0.100000E-05)
 Absolute change in total energy   (target) :  0.311605E-04  ( 0.100000E-05)
 Charge distance                   (target) :  0.251647E-04  ( 0.100000E-04)
 Abs. change in max-nonIBS-force   (target) :  0.102505E-03  ( 0.500000E-04)
 
++++++++++++++++++++++++++++++++++++++++++++++++++++++++++++++++++++++++++++++++
+ SCF iteration number :    8                                                  +
++++++++++++++++++++++++++++++++++++++++++++++++++++++++++++++++++++++++++++++++
 Total energy                               :      -304.79353561
 _______________________________________________________________
 Fermi energy                               :         0.51691035
 Kinetic energy                             :       303.61988894
 Coulomb energy                             :      -564.99825843
 Exchange energy                            :       -41.63641534
 Correlation energy                         :        -1.77875078
 
 DOS at Fermi energy (states/Ha/cell)       :         0.00000000
 
 Electron charges :
     core                                   :        16.00000000
     core leakage                           :         0.00340895
     valence                                :        32.00000000
     interstitial                           :        17.96355538
     charge in muffin-tin spheres :
                  atom     1     C          :         3.75449601
                  atom     2     C          :         3.75452559
                  atom     3     C          :         3.75463959
                  atom     4     C          :         3.75452559
                  atom     5     C          :         3.75456434
                  atom     6     C          :         3.75531122
                  atom     7     C          :         3.75456434
                  atom     8     C          :         3.75381793
     total charge in muffin-tins            :        30.03644462
     total charge                           :        48.00000000
 
 Estimated fundamental gap                  :         0.15181300
        valence-band maximum at    1      0.0000  0.0000  0.0000
     conduction-band minimum at   29      0.3750  0.0000  0.2500
 
 Wall time (seconds)                        :       433.95
 
 RMS change in effective potential (target) :  0.109321E-04  ( 0.100000E-05)
 Absolute change in total energy   (target) :  0.661459E-04  ( 0.100000E-05)
 Charge distance                   (target) :  0.239510E-04  ( 0.100000E-04)
 Abs. change in max-nonIBS-force   (target) :  0.850122E-03  ( 0.500000E-04)
 
++++++++++++++++++++++++++++++++++++++++++++++++++++++++++++++++++++++++++++++++
+ SCF iteration number :    9                                                  +
++++++++++++++++++++++++++++++++++++++++++++++++++++++++++++++++++++++++++++++++
 Total energy                               :      -304.79352991
 _______________________________________________________________
 Fermi energy                               :         0.51691046
 Kinetic energy                             :       303.61989431
 Coulomb energy                             :      -564.99825814
 Exchange energy                            :       -41.63641529
 Correlation energy                         :        -1.77875079
 
 DOS at Fermi energy (states/Ha/cell)       :         0.00000000
 
 Electron charges :
     core                                   :        16.00000000
     core leakage                           :         0.00340895
     valence                                :        32.00000000
     interstitial                           :        17.96355546
     charge in muffin-tin spheres :
                  atom     1     C          :         3.75448575
                  atom     2     C          :         3.75452342
                  atom     3     C          :         3.75465255
                  atom     4     C          :         3.75452342
                  atom     5     C          :         3.75456462
                  atom     6     C          :         3.75531063
                  atom     7     C          :         3.75456462
                  atom     8     C          :         3.75381952
     total charge in muffin-tins            :        30.03644454
     total charge                           :        48.00000000
 
 Estimated fundamental gap                  :         0.15181300
        valence-band maximum at    1      0.0000  0.0000  0.0000
     conduction-band minimum at   29      0.3750  0.0000  0.2500
 
 Wall time (seconds)                        :       489.04
 
 RMS change in effective potential (target) :  0.410807E-05  ( 0.100000E-05)
 Absolute change in total energy   (target) :  0.570485E-05  ( 0.100000E-05)
 Charge distance                   (target) :  0.398526E-05  ( 0.100000E-04)
 Abs. change in max-nonIBS-force   (target) :  0.869711E-05  ( 0.500000E-04)
 
++++++++++++++++++++++++++++++++++++++++++++++++++++++++++++++++++++++++++++++++
+ SCF iteration number :   10                                                  +
++++++++++++++++++++++++++++++++++++++++++++++++++++++++++++++++++++++++++++++++
 Total energy                               :      -304.79353003
 _______________________________________________________________
 Fermi energy                               :         0.51691047
 Kinetic energy                             :       303.61989447
 Coulomb energy                             :      -564.99825840
 Exchange energy                            :       -41.63641532
 Correlation energy                         :        -1.77875079
 
 DOS at Fermi energy (states/Ha/cell)       :         0.00000000
 
 Electron charges :
     core                                   :        16.00000000
     core leakage                           :         0.00340895
     valence                                :        32.00000000
     interstitial                           :        17.96355542
     charge in muffin-tin spheres :
                  atom     1     C          :         3.75449044
                  atom     2     C          :         3.75452602
                  atom     3     C          :         3.75464482
                  atom     4     C          :         3.75452602
                  atom     5     C          :         3.75456426
                  atom     6     C          :         3.75531404
                  atom     7     C          :         3.75456426
                  atom     8     C          :         3.75381471
     total charge in muffin-tins            :        30.03644458
     total charge                           :        48.00000000
 
 Estimated fundamental gap                  :         0.15181300
        valence-band maximum at    1      0.0000  0.0000  0.0000
     conduction-band minimum at   29      0.3750  0.0000  0.2500
 
 Wall time (seconds)                        :       542.50
 
 RMS change in effective potential (target) :  0.102807E-05  ( 0.100000E-05)
 Absolute change in total energy   (target) :  0.122718E-06  ( 0.100000E-05)
 Charge distance                   (target) :  0.119309E-05  ( 0.100000E-04)
 Abs. change in max-nonIBS-force   (target) :  0.600667E-05  ( 0.500000E-04)
 
++++++++++++++++++++++++++++++++++++++++++++++++++++++++++++++++++++++++++++++++
+ SCF iteration number :   11                                                  +
++++++++++++++++++++++++++++++++++++++++++++++++++++++++++++++++++++++++++++++++
 Total energy                               :      -304.79352974
 _______________________________________________________________
 Fermi energy                               :         0.51691047
 Kinetic energy                             :       303.61989470
 Coulomb energy                             :      -564.99825834
 Exchange energy                            :       -41.63641531
 Correlation energy                         :        -1.77875079
 
 DOS at Fermi energy (states/Ha/cell)       :         0.00000000
 
 Electron charges :
     core                                   :        16.00000000
     core leakage                           :         0.00340895
     valence                                :        32.00000000
     interstitial                           :        17.96355544
     charge in muffin-tin spheres :
                  atom     1     C          :         3.75449124
                  atom     2     C          :         3.75452415
                  atom     3     C          :         3.75464602
                  atom     4     C          :         3.75452415
                  atom     5     C          :         3.75456457
                  atom     6     C          :         3.75531450
                  atom     7     C          :         3.75456457
                  atom     8     C          :         3.75381535
     total charge in muffin-tins            :        30.03644456
     total charge                           :        48.00000000
 
 Estimated fundamental gap                  :         0.15181300
        valence-band maximum at    1      0.0000  0.0000  0.0000
     conduction-band minimum at   29      0.3750  0.0000  0.2500
 
 Wall time (seconds)                        :       596.91
 
 RMS change in effective potential (target) :  0.421833E-06  ( 0.100000E-05)
 Absolute change in total energy   (target) :  0.290368E-06  ( 0.100000E-05)
 Charge distance                   (target) :  0.296459E-06  ( 0.100000E-04)
 Abs. change in max-nonIBS-force   (target) :  0.393443E-05  ( 0.500000E-04)
 
++++++++++++++++++++++++++++++++++++++++++++++++++++++++++++++++++++++++++++++++
+ SCF iteration number :   12                                                  +
++++++++++++++++++++++++++++++++++++++++++++++++++++++++++++++++++++++++++++++++
 Total energy                               :      -304.79352971
 _______________________________________________________________
 Fermi energy                               :         0.51691047
 Kinetic energy                             :       303.61989470
 Coulomb energy                             :      -564.99825832
 Exchange energy                            :       -41.63641531
 Correlation energy                         :        -1.77875079
 
 DOS at Fermi energy (states/Ha/cell)       :         0.00000000
 
 Electron charges :
     core                                   :        16.00000000
     core leakage                           :         0.00340895
     valence                                :        32.00000000
     interstitial                           :        17.96355544
     charge in muffin-tin spheres :
                  atom     1     C          :         3.75449061
                  atom     2     C          :         3.75452470
                  atom     3     C          :         3.75464596
                  atom     4     C          :         3.75452470
                  atom     5     C          :         3.75456450
                  atom     6     C          :         3.75531406
                  atom     7     C          :         3.75456450
                  atom     8     C          :         3.75381551
     total charge in muffin-tins            :        30.03644456
     total charge                           :        48.00000000
 
 Estimated fundamental gap                  :         0.15181300
        valence-band maximum at    1      0.0000  0.0000  0.0000
     conduction-band minimum at   29      0.3750  0.0000  0.2500
 
 Wall time (seconds)                        :       650.88
 
 RMS change in effective potential (target) :  0.657822E-07  ( 0.100000E-05)
 Absolute change in total energy   (target) :  0.269010E-07  ( 0.100000E-05)
 Charge distance                   (target) :  0.108870E-06  ( 0.100000E-04)
 Abs. change in max-nonIBS-force   (target) :  0.370246E-06  ( 0.500000E-04)
                                                                                
++++++++++++++++++++++++++++++++++++++++++++++++++++++++++++++++++++++++++++++++
| Convergency criteria checked for the last 2 iterations                       +
| Convergence targets achieved. Performing final SCF iteration                 +
++++++++++++++++++++++++++++++++++++++++++++++++++++++++++++++++++++++++++++++++
 Total energy                               :      -304.79352972
 _______________________________________________________________
 Fermi energy                               :         0.51691047
 Kinetic energy                             :       303.61989469
 Coulomb energy                             :      -564.99825832
 Exchange energy                            :       -41.63641531
 Correlation energy                         :        -1.77875079
 
 DOS at Fermi energy (states/Ha/cell)       :         0.00000000
 
 Electron charges :
     core                                   :        16.00000000
     core leakage                           :         0.00340895
     valence                                :        32.00000000
     interstitial                           :        17.96355544
     charge in muffin-tin spheres :
                  atom     1     C          :         3.75449074
                  atom     2     C          :         3.75452469
                  atom     3     C          :         3.75464597
                  atom     4     C          :         3.75452469
                  atom     5     C          :         3.75456447
                  atom     6     C          :         3.75531407
                  atom     7     C          :         3.75456447
                  atom     8     C          :         3.75381545
     total charge in muffin-tins            :        30.03644456
     total charge                           :        48.00000000
 
 Estimated fundamental gap                  :         0.15181300
        valence-band maximum at    1      0.0000  0.0000  0.0000
     conduction-band minimum at   29      0.3750  0.0000  0.2500
 
++++++++++++++++++++++++++++++++++++++++++++++++++++++++++++++++++++++++++++++++
+ Self-consistent loop stopped                                                 +
++++++++++++++++++++++++++++++++++++++++++++++++++++++++++++++++++++++++++++++++
 STATE.OUT is written
 
--------------------------------------------------------------------------------
- Writing atomic positions and forces                                          -
--------------------------------------------------------------------------------
 
 Atomic positions (lattice) :
 atom     1   C  :     0.00000000    0.00000000    0.00000000
 atom     2   C  :     0.49940758    0.50000000    0.74970379
 atom     3   C  :     0.00000000    0.00000000    0.50000000
 atom     4   C  :     0.50059242    0.50000000    0.25029621
 atom     5   C  :     0.00000000    0.25000000    0.75000000
 atom     6   C  :     0.50000000    0.75000000    0.50000000
 atom     7   C  :     0.00000000    0.25000000    0.25000000
 atom     8   C  :     0.50000000    0.75000000    0.00000000
 
 Total atomic forces including IBS (cartesian) :
 atom     1   C  :     0.00000000    0.00000000    0.00011181
 atom     2   C  :    -0.00179202   -0.00025059    0.00000013
 atom     3   C  :     0.00000000    0.00000000   -0.00011142
 atom     4   C  :     0.00179202    0.00025059    0.00000013
 atom     5   C  :     0.00072263   -0.00012878   -0.00002074
 atom     6   C  :     0.00000000    0.00000000    0.00018636
 atom     7   C  :    -0.00072263    0.00012878   -0.00002074
 atom     8   C  :     0.00000000    0.00000000   -0.00014554
 
 Atomic force components including IBS (cartesian) :
 atom     1   C  :     0.00000000    0.00000000   -0.00002115   HF force
                 :     0.00000000    0.00000000    0.00012545   core correction
                 :     0.00000000    0.00000000    0.00000750   IBS correction
 atom     2   C  :    -0.00173361   -0.00027449   -0.00001540   HF force
                 :    -0.00007840    0.00002016    0.00000932   core correction
                 :     0.00001998    0.00000373    0.00000622   IBS correction
 atom     3   C  :     0.00000000    0.00000000   -0.00000958   HF force
                 :     0.00000000    0.00000000   -0.00010672   core correction
                 :     0.00000000    0.00000000    0.00000489   IBS correction
 atom     4   C  :     0.00173361    0.00027449   -0.00001540   HF force
                 :     0.00007840   -0.00002016    0.00000932   core correction
                 :    -0.00001998   -0.00000373    0.00000622   IBS correction
 atom     5   C  :     0.00073757   -0.00016014   -0.00000659   HF force
                 :    -0.00000694    0.00002751   -0.00000806   core correction
                 :    -0.00000800    0.00000384   -0.00000608   IBS correction
 atom     6   C  :     0.00000000    0.00000000    0.00027857   HF force
                 :     0.00000000    0.00000000   -0.00008119   core correction
                 :     0.00000000    0.00000000   -0.00001102   IBS correction
 atom     7   C  :    -0.00073757    0.00016014   -0.00000659   HF force
                 :     0.00000694   -0.00002751   -0.00000806   core correction
                 :     0.00000800   -0.00000384   -0.00000608   IBS correction
 atom     8   C  :     0.00000000    0.00000000   -0.00020385   HF force
                 :     0.00000000    0.00000000    0.00005995   core correction
                 :     0.00000000    0.00000000   -0.00000163   IBS correction
 
********************************************************************************
* Groundstate module stopped                                                   *
********************************************************************************
 
 Total time spent (seconds)                 :       788.13
================================================================================
| EXCITING NITROGEN-13 stopped                                                 =
================================================================================
