================================================================================
| EXCITING NITROGEN-13 started                                                 =
| version hash id: de0c1dba9f665d6c60514aa9e8bf40326ac9f394                    =
|                                                                              =
|                                                                              =
| Date (DD-MM-YYYY) : 04-05-2022                                               =
| Time (hh:mm:ss)   : 11:33:23                                                 =
|                                                                              =
| All units are atomic (Hartree, Bohr, etc.)                                   =
================================================================================
 
********************************************************************************
* Ground-state run resuming from STATE.OUT                                     *
********************************************************************************
 
++++++++++++++++++++++++++++++++++++++++++++++++++++++++++++++++++++++++++++++++
+ Starting initialization                                                      +
++++++++++++++++++++++++++++++++++++++++++++++++++++++++++++++++++++++++++++++++
 
 Lattice vectors (cartesian) :
     -3.3759957000      3.3759957000      0.0000000000
      0.0000000000      0.0000000000      6.7519914000
     -6.7519914000     -6.7519914000      0.0000000000
 
 Reciprocal lattice vectors (cartesian) :
     -0.9305677296      0.9305677296      0.0000000000
      0.0000000000      0.0000000000      0.9305677296
     -0.4652838648     -0.4652838648      0.0000000000
 
 Unit cell volume                           :     307.8191548003
 Brillouin zone volume                      :       0.8058309874
 
 Species :    1 (C)
     parameters loaded from                 :    C.xml
     name                                   :    carbon
     nuclear charge                         :      -6.00000000
     electronic charge                      :       6.00000000
     atomic mass                            :   21894.16673000
     muffin-tin radius                      :       1.25000000
     # of radial points in muffin-tin       :     250
 
     atomic positions (lattice) :
       1 :   0.00000000  0.00000000  0.00000000
       2 :   0.49881516  0.50000000  0.74940758
       3 :   0.00000000  0.00000000  0.50000000
       4 :   0.50118484  0.50000000  0.25059242
       5 :   0.00000000  0.25000000  0.75000000
       6 :   0.50000000  0.75000000  0.50000000
       7 :   0.00000000  0.25000000  0.25000000
       8 :   0.50000000  0.75000000  0.00000000
 
 Total number of atoms per unit cell        :       8
 
 Spin treatment                             :    spin-unpolarised
 
 Number of Bravais lattice symmetries       :       8
 Number of crystal symmetries               :       2
 
 Sphere radius used for k-point grid density:      33.42065234
 
 k-point grid                               :       8    5    4
 Total number of k-points                   :      90
 k-point set is reduced with crystal symmetries
 
 R^MT_min * |G+k|_max (rgkmax)              :       8.00000000
 Species with R^MT_min                      :       1 (C)
 Maximum |G+k| for APW functions            :       6.40000000
 Maximum |G| for potential and density      :      16.00000000
 
 G-vector grid sizes                        :      25    36    50
 Total number of G-vectors                  :   21203
 
 Maximum angular momentum used for
     APW functions                          :       8
     computing H and O matrix elements      :       8
     potential and density                  :       8
     inner part of muffin-tin               :       2
 
 Total nuclear charge                       :     -48.00000000
 Total electronic charge                    :      48.00000000
 Total core charge                          :      16.00000000
 Total valence charge                       :      32.00000000
 
 Number of empty states                     :      20
 Total number of valence states             :      37
 
 Maximum Hamiltonian size                   :    1438
 Maximum number of plane-waves              :    1406
 Total number of local-orbitals             :      32
 
 Exchange-correlation type                  :      20
     Perdew-Burke-Ernzerhof, Phys. Rev. Lett. 77, 3865 (1996)
     Generalised gradient approximation (GGA)
 
 Smearing scheme                            :    Gaussian
 Smearing width                             :       0.00010000
 
 Using multisecant Broyden potential mixing
 
++++++++++++++++++++++++++++++++++++++++++++++++++++++++++++++++++++++++++++++++
+ Ending initialization                                                        +
++++++++++++++++++++++++++++++++++++++++++++++++++++++++++++++++++++++++++++++++
 
********************************************************************************
* Groundstate module started                                                   *
********************************************************************************
 Output level for this task is set to normal
 
++++++++++++++++++++++++++++++++++++++++++++++++++++++++++++++++++++++++++++++++
+ Self-consistent loop started                                                 +
++++++++++++++++++++++++++++++++++++++++++++++++++++++++++++++++++++++++++++++++
 Potential read in from STATE.OUT
 
 
++++++++++++++++++++++++++++++++++++++++++++++++++++++++++++++++++++++++++++++++
+ SCF iteration number :    1                                                  +
++++++++++++++++++++++++++++++++++++++++++++++++++++++++++++++++++++++++++++++++
 Total energy                               :      -304.79351880
 _______________________________________________________________
 Fermi energy                               :         0.51690928
 Kinetic energy                             :       303.61995581
 Coulomb energy                             :      -564.99830130
 Exchange energy                            :       -41.63642251
 Correlation energy                         :        -1.77875081
 
 DOS at Fermi energy (states/Ha/cell)       :         0.00000000
 
 Electron charges :
     core                                   :        16.00000000
     core leakage                           :         0.00340895
     valence                                :        32.00000000
     interstitial                           :        17.96352788
     charge in muffin-tin spheres :
                  atom     1     C          :         3.75431700
                  atom     2     C          :         3.75453390
                  atom     3     C          :         3.75481634
                  atom     4     C          :         3.75453390
                  atom     5     C          :         3.75456698
                  atom     6     C          :         3.75548566
                  atom     7     C          :         3.75456698
                  atom     8     C          :         3.75365134
     total charge in muffin-tins            :        30.03647212
     total charge                           :        48.00000000
 
 Estimated fundamental gap                  :         0.15180633
        valence-band maximum at    1      0.0000  0.0000  0.0000
     conduction-band minimum at   29      0.3750  0.0000  0.2500
 
 Wall time (seconds)                        :        56.04
 
++++++++++++++++++++++++++++++++++++++++++++++++++++++++++++++++++++++++++++++++
+ SCF iteration number :    2                                                  +
++++++++++++++++++++++++++++++++++++++++++++++++++++++++++++++++++++++++++++++++
 Total energy                               :      -304.79346488
 _______________________________________________________________
 Fermi energy                               :         0.51690942
 Kinetic energy                             :       303.61998150
 Coulomb energy                             :      -564.99827600
 Exchange energy                            :       -41.63641928
 Correlation energy                         :        -1.77875110
 
 DOS at Fermi energy (states/Ha/cell)       :         0.00000000
 
 Electron charges :
     core                                   :        16.00000000
     core leakage                           :         0.00340895
     valence                                :        32.00000000
     interstitial                           :        17.96353992
     charge in muffin-tin spheres :
                  atom     1     C          :         3.75431603
                  atom     2     C          :         3.75453138
                  atom     3     C          :         3.75481988
                  atom     4     C          :         3.75453138
                  atom     5     C          :         3.75456507
                  atom     6     C          :         3.75635544
                  atom     7     C          :         3.75456507
                  atom     8     C          :         3.75277584
     total charge in muffin-tins            :        30.03646008
     total charge                           :        48.00000000
 
 Estimated fundamental gap                  :         0.15180630
        valence-band maximum at    1      0.0000  0.0000  0.0000
     conduction-band minimum at   29      0.3750  0.0000  0.2500
 
 Wall time (seconds)                        :       109.25
 
 RMS change in effective potential (target) :  0.107579E-02  ( 0.100000E-05)
 Absolute change in total energy   (target) :  0.539288E-04  ( 0.100000E-05)
 Charge distance                   (target) :  0.258595E-03  ( 0.100000E-04)
 Abs. change in max-nonIBS-force   (target) :  0.111611E-01  ( 0.500000E-04)
 
++++++++++++++++++++++++++++++++++++++++++++++++++++++++++++++++++++++++++++++++
+ SCF iteration number :    3                                                  +
++++++++++++++++++++++++++++++++++++++++++++++++++++++++++++++++++++++++++++++++
 Total energy                               :      -304.79349245
 _______________________________________________________________
 Fermi energy                               :         0.51690956
 Kinetic energy                             :       303.61996623
 Coulomb energy                             :      -564.99828749
 Exchange energy                            :       -41.63642005
 Correlation energy                         :        -1.77875114
 
 DOS at Fermi energy (states/Ha/cell)       :         0.00000000
 
 Electron charges :
     core                                   :        16.00000000
     core leakage                           :         0.00340895
     valence                                :        32.00000000
     interstitial                           :        17.96353561
     charge in muffin-tin spheres :
                  atom     1     C          :         3.75433123
                  atom     2     C          :         3.75453183
                  atom     3     C          :         3.75480510
                  atom     4     C          :         3.75453183
                  atom     5     C          :         3.75456577
                  atom     6     C          :         3.75636508
                  atom     7     C          :         3.75456577
                  atom     8     C          :         3.75276777
     total charge in muffin-tins            :        30.03646439
     total charge                           :        48.00000000
 
 Estimated fundamental gap                  :         0.15180622
        valence-band maximum at    1      0.0000  0.0000  0.0000
     conduction-band minimum at   29      0.3750  0.0000  0.2500
 
 Wall time (seconds)                        :       163.96
 
 RMS change in effective potential (target) :  0.751066E-03  ( 0.100000E-05)
 Absolute change in total energy   (target) :  0.275760E-04  ( 0.100000E-05)
 Charge distance                   (target) :  0.898215E-04  ( 0.100000E-04)
 Abs. change in max-nonIBS-force   (target) :  0.250622E-02  ( 0.500000E-04)
 
++++++++++++++++++++++++++++++++++++++++++++++++++++++++++++++++++++++++++++++++
+ SCF iteration number :    4                                                  +
++++++++++++++++++++++++++++++++++++++++++++++++++++++++++++++++++++++++++++++++
 Total energy                               :      -304.79343868
 _______________________________________________________________
 Fermi energy                               :         0.51690966
 Kinetic energy                             :       303.62001895
 Coulomb energy                             :      -564.99828749
 Exchange energy                            :       -41.63641905
 Correlation energy                         :        -1.77875110
 
 DOS at Fermi energy (states/Ha/cell)       :         0.00000000
 
 Electron charges :
     core                                   :        16.00000000
     core leakage                           :         0.00340895
     valence                                :        32.00000000
     interstitial                           :        17.96353339
     charge in muffin-tin spheres :
                  atom     1     C          :         3.75485302
                  atom     2     C          :         3.75452236
                  atom     3     C          :         3.75427605
                  atom     4     C          :         3.75452236
                  atom     5     C          :         3.75457220
                  atom     6     C          :         3.75505028
                  atom     7     C          :         3.75457220
                  atom     8     C          :         3.75409812
     total charge in muffin-tins            :        30.03646661
     total charge                           :        48.00000000
 
 Estimated fundamental gap                  :         0.15180170
        valence-band maximum at    1      0.0000  0.0000  0.0000
     conduction-band minimum at   29      0.3750  0.0000  0.2500
 
 Wall time (seconds)                        :       218.39
 
 RMS change in effective potential (target) :  0.840129E-03  ( 0.100000E-05)
 Absolute change in total energy   (target) :  0.537702E-04  ( 0.100000E-05)
 Charge distance                   (target) :  0.243400E-03  ( 0.100000E-04)
 Abs. change in max-nonIBS-force   (target) :  0.822956E-03  ( 0.500000E-04)
 
++++++++++++++++++++++++++++++++++++++++++++++++++++++++++++++++++++++++++++++++
+ SCF iteration number :    5                                                  +
++++++++++++++++++++++++++++++++++++++++++++++++++++++++++++++++++++++++++++++++
 Total energy                               :      -304.79353585
 _______________________________________________________________
 Fermi energy                               :         0.51690932
 Kinetic energy                             :       303.61993863
 Coulomb energy                             :      -564.99830225
 Exchange energy                            :       -41.63642109
 Correlation energy                         :        -1.77875114
 
 DOS at Fermi energy (states/Ha/cell)       :         0.00000000
 
 Electron charges :
     core                                   :        16.00000000
     core leakage                           :         0.00340895
     valence                                :        32.00000000
     interstitial                           :        17.96352888
     charge in muffin-tin spheres :
                  atom     1     C          :         3.75422440
                  atom     2     C          :         3.75453459
                  atom     3     C          :         3.75491152
                  atom     4     C          :         3.75453459
                  atom     5     C          :         3.75456617
                  atom     6     C          :         3.75591197
                  atom     7     C          :         3.75456617
                  atom     8     C          :         3.75322171
     total charge in muffin-tins            :        30.03647112
     total charge                           :        48.00000000
 
 Estimated fundamental gap                  :         0.15180483
        valence-band maximum at    1      0.0000  0.0000  0.0000
     conduction-band minimum at   29      0.3750  0.0000  0.2500
 
 Wall time (seconds)                        :       273.11
 
 RMS change in effective potential (target) :  0.173521E-03  ( 0.100000E-05)
 Absolute change in total energy   (target) :  0.971664E-04  ( 0.100000E-05)
 Charge distance                   (target) :  0.203290E-03  ( 0.100000E-04)
 Abs. change in max-nonIBS-force   (target) :  0.607441E-02  ( 0.500000E-04)
 
++++++++++++++++++++++++++++++++++++++++++++++++++++++++++++++++++++++++++++++++
+ SCF iteration number :    6                                                  +
++++++++++++++++++++++++++++++++++++++++++++++++++++++++++++++++++++++++++++++++
 Total energy                               :      -304.79353405
 _______________________________________________________________
 Fermi energy                               :         0.51690941
 Kinetic energy                             :       303.61994064
 Coulomb energy                             :      -564.99830237
 Exchange energy                            :       -41.63642117
 Correlation energy                         :        -1.77875115
 
 DOS at Fermi energy (states/Ha/cell)       :         0.00000000
 
 Electron charges :
     core                                   :        16.00000000
     core leakage                           :         0.00340895
     valence                                :        32.00000000
     interstitial                           :        17.96352875
     charge in muffin-tin spheres :
                  atom     1     C          :         3.75448168
                  atom     2     C          :         3.75453015
                  atom     3     C          :         3.75465353
                  atom     4     C          :         3.75453015
                  atom     5     C          :         3.75456841
                  atom     6     C          :         3.75604782
                  atom     7     C          :         3.75456841
                  atom     8     C          :         3.75309111
     total charge in muffin-tins            :        30.03647125
     total charge                           :        48.00000000
 
 Estimated fundamental gap                  :         0.15180476
        valence-band maximum at    1      0.0000  0.0000  0.0000
     conduction-band minimum at   29      0.3750  0.0000  0.2500
 
 Wall time (seconds)                        :       326.52
 
 RMS change in effective potential (target) :  0.988983E-04  ( 0.100000E-05)
 Absolute change in total energy   (target) :  0.179404E-05  ( 0.100000E-05)
 Charge distance                   (target) :  0.307510E-04  ( 0.100000E-04)
 Abs. change in max-nonIBS-force   (target) :  0.478102E-04  ( 0.500000E-04)
 
++++++++++++++++++++++++++++++++++++++++++++++++++++++++++++++++++++++++++++++++
+ SCF iteration number :    7                                                  +
++++++++++++++++++++++++++++++++++++++++++++++++++++++++++++++++++++++++++++++++
 Total energy                               :      -304.79352639
 _______________________________________________________________
 Fermi energy                               :         0.51690947
 Kinetic energy                             :       303.61994712
 Coulomb energy                             :      -564.99830136
 Exchange energy                            :       -41.63642100
 Correlation energy                         :        -1.77875115
 
 DOS at Fermi energy (states/Ha/cell)       :         0.00000000
 
 Electron charges :
     core                                   :        16.00000000
     core leakage                           :         0.00340895
     valence                                :        32.00000000
     interstitial                           :        17.96352914
     charge in muffin-tin spheres :
                  atom     1     C          :         3.75439895
                  atom     2     C          :         3.75453170
                  atom     3     C          :         3.75473637
                  atom     4     C          :         3.75453170
                  atom     5     C          :         3.75456759
                  atom     6     C          :         3.75600966
                  atom     7     C          :         3.75456759
                  atom     8     C          :         3.75312729
     total charge in muffin-tins            :        30.03647086
     total charge                           :        48.00000000
 
 Estimated fundamental gap                  :         0.15180479
        valence-band maximum at    1      0.0000  0.0000  0.0000
     conduction-band minimum at   29      0.3750  0.0000  0.2500
 
 Wall time (seconds)                        :       381.42
 
 RMS change in effective potential (target) :  0.693646E-04  ( 0.100000E-05)
 Absolute change in total energy   (target) :  0.766727E-05  ( 0.100000E-05)
 Charge distance                   (target) :  0.149942E-04  ( 0.100000E-04)
 Abs. change in max-nonIBS-force   (target) :  0.672235E-03  ( 0.500000E-04)
 
++++++++++++++++++++++++++++++++++++++++++++++++++++++++++++++++++++++++++++++++
+ SCF iteration number :    8                                                  +
++++++++++++++++++++++++++++++++++++++++++++++++++++++++++++++++++++++++++++++++
 Total energy                               :      -304.79351759
 _______________________________________________________________
 Fermi energy                               :         0.51690955
 Kinetic energy                             :       303.61995446
 Coulomb energy                             :      -564.99830008
 Exchange energy                            :       -41.63642081
 Correlation energy                         :        -1.77875115
 
 DOS at Fermi energy (states/Ha/cell)       :         0.00000000
 
 Electron charges :
     core                                   :        16.00000000
     core leakage                           :         0.00340895
     valence                                :        32.00000000
     interstitial                           :        17.96352957
     charge in muffin-tin spheres :
                  atom     1     C          :         3.75441399
                  atom     2     C          :         3.75453121
                  atom     3     C          :         3.75472173
                  atom     4     C          :         3.75453121
                  atom     5     C          :         3.75456768
                  atom     6     C          :         3.75604072
                  atom     7     C          :         3.75456768
                  atom     8     C          :         3.75309621
     total charge in muffin-tins            :        30.03647043
     total charge                           :        48.00000000
 
 Estimated fundamental gap                  :         0.15180481
        valence-band maximum at    1      0.0000  0.0000  0.0000
     conduction-band minimum at   29      0.3750  0.0000  0.2500
 
 Wall time (seconds)                        :       436.14
 
 RMS change in effective potential (target) :  0.366352E-04  ( 0.100000E-05)
 Absolute change in total energy   (target) :  0.879963E-05  ( 0.100000E-05)
 Charge distance                   (target) :  0.117018E-04  ( 0.100000E-04)
 Abs. change in max-nonIBS-force   (target) :  0.688695E-03  ( 0.500000E-04)
 
++++++++++++++++++++++++++++++++++++++++++++++++++++++++++++++++++++++++++++++++
+ SCF iteration number :    9                                                  +
++++++++++++++++++++++++++++++++++++++++++++++++++++++++++++++++++++++++++++++++
 Total energy                               :      -304.79351063
 _______________________________________________________________
 Fermi energy                               :         0.51690963
 Kinetic energy                             :       303.61996030
 Coulomb energy                             :      -564.99829910
 Exchange energy                            :       -41.63642067
 Correlation energy                         :        -1.77875116
 
 DOS at Fermi energy (states/Ha/cell)       :         0.00000000
 
 Electron charges :
     core                                   :        16.00000000
     core leakage                           :         0.00340895
     valence                                :        32.00000000
     interstitial                           :        17.96352992
     charge in muffin-tin spheres :
                  atom     1     C          :         3.75440335
                  atom     2     C          :         3.75453200
                  atom     3     C          :         3.75473139
                  atom     4     C          :         3.75453200
                  atom     5     C          :         3.75456737
                  atom     6     C          :         3.75605332
                  atom     7     C          :         3.75456737
                  atom     8     C          :         3.75308327
     total charge in muffin-tins            :        30.03647008
     total charge                           :        48.00000000
 
 Estimated fundamental gap                  :         0.15180483
        valence-band maximum at    1      0.0000  0.0000  0.0000
     conduction-band minimum at   29      0.3750  0.0000  0.2500
 
 Wall time (seconds)                        :       490.74
 
 RMS change in effective potential (target) :  0.120136E-04  ( 0.100000E-05)
 Absolute change in total energy   (target) :  0.695447E-05  ( 0.100000E-05)
 Charge distance                   (target) :  0.866735E-05  ( 0.100000E-04)
 Abs. change in max-nonIBS-force   (target) :  0.393068E-03  ( 0.500000E-04)
 
++++++++++++++++++++++++++++++++++++++++++++++++++++++++++++++++++++++++++++++++
+ SCF iteration number :   10                                                  +
++++++++++++++++++++++++++++++++++++++++++++++++++++++++++++++++++++++++++++++++
 Total energy                               :      -304.79350838
 _______________________________________________________________
 Fermi energy                               :         0.51690966
 Kinetic energy                             :       303.61996221
 Coulomb energy                             :      -564.99829880
 Exchange energy                            :       -41.63642063
 Correlation energy                         :        -1.77875116
 
 DOS at Fermi energy (states/Ha/cell)       :         0.00000000
 
 Electron charges :
     core                                   :        16.00000000
     core leakage                           :         0.00340895
     valence                                :        32.00000000
     interstitial                           :        17.96353002
     charge in muffin-tin spheres :
                  atom     1     C          :         3.75441351
                  atom     2     C          :         3.75453094
                  atom     3     C          :         3.75472299
                  atom     4     C          :         3.75453094
                  atom     5     C          :         3.75456762
                  atom     6     C          :         3.75606695
                  atom     7     C          :         3.75456762
                  atom     8     C          :         3.75306941
     total charge in muffin-tins            :        30.03646998
     total charge                           :        48.00000000
 
 Estimated fundamental gap                  :         0.15180484
        valence-band maximum at    1      0.0000  0.0000  0.0000
     conduction-band minimum at   29      0.3750  0.0000  0.2500
 
 Wall time (seconds)                        :       544.81
 
 RMS change in effective potential (target) :  0.606369E-06  ( 0.100000E-05)
 Absolute change in total energy   (target) :  0.225023E-05  ( 0.100000E-05)
 Charge distance                   (target) :  0.375587E-05  ( 0.100000E-04)
 Abs. change in max-nonIBS-force   (target) :  0.962860E-04  ( 0.500000E-04)
 
++++++++++++++++++++++++++++++++++++++++++++++++++++++++++++++++++++++++++++++++
+ SCF iteration number :   11                                                  +
++++++++++++++++++++++++++++++++++++++++++++++++++++++++++++++++++++++++++++++++
 Total energy                               :      -304.79350825
 _______________________________________________________________
 Fermi energy                               :         0.51690966
 Kinetic energy                             :       303.61996230
 Coulomb energy                             :      -564.99829877
 Exchange energy                            :       -41.63642063
 Correlation energy                         :        -1.77875116
 
 DOS at Fermi energy (states/Ha/cell)       :         0.00000000
 
 Electron charges :
     core                                   :        16.00000000
     core leakage                           :         0.00340895
     valence                                :        32.00000000
     interstitial                           :        17.96353003
     charge in muffin-tin spheres :
                  atom     1     C          :         3.75441196
                  atom     2     C          :         3.75453206
                  atom     3     C          :         3.75472230
                  atom     4     C          :         3.75453206
                  atom     5     C          :         3.75456738
                  atom     6     C          :         3.75606708
                  atom     7     C          :         3.75456738
                  atom     8     C          :         3.75306973
     total charge in muffin-tins            :        30.03646997
     total charge                           :        48.00000000
 
 Estimated fundamental gap                  :         0.15180484
        valence-band maximum at    1      0.0000  0.0000  0.0000
     conduction-band minimum at   29      0.3750  0.0000  0.2500
 
 Wall time (seconds)                        :       600.35
 
 RMS change in effective potential (target) :  0.541713E-06  ( 0.100000E-05)
 Absolute change in total energy   (target) :  0.135135E-06  ( 0.100000E-05)
 Charge distance                   (target) :  0.287074E-06  ( 0.100000E-04)
 Abs. change in max-nonIBS-force   (target) :  0.386342E-05  ( 0.500000E-04)
 
++++++++++++++++++++++++++++++++++++++++++++++++++++++++++++++++++++++++++++++++
+ SCF iteration number :   12                                                  +
++++++++++++++++++++++++++++++++++++++++++++++++++++++++++++++++++++++++++++++++
 Total energy                               :      -304.79350824
 _______________________________________________________________
 Fermi energy                               :         0.51690966
 Kinetic energy                             :       303.61996231
 Coulomb energy                             :      -564.99829876
 Exchange energy                            :       -41.63642063
 Correlation energy                         :        -1.77875116
 
 DOS at Fermi energy (states/Ha/cell)       :         0.00000000
 
 Electron charges :
     core                                   :        16.00000000
     core leakage                           :         0.00340895
     valence                                :        32.00000000
     interstitial                           :        17.96353003
     charge in muffin-tin spheres :
                  atom     1     C          :         3.75441249
                  atom     2     C          :         3.75453141
                  atom     3     C          :         3.75472310
                  atom     4     C          :         3.75453141
                  atom     5     C          :         3.75456752
                  atom     6     C          :         3.75606683
                  atom     7     C          :         3.75456752
                  atom     8     C          :         3.75306970
     total charge in muffin-tins            :        30.03646997
     total charge                           :        48.00000000
 
 Estimated fundamental gap                  :         0.15180484
        valence-band maximum at    1      0.0000  0.0000  0.0000
     conduction-band minimum at   29      0.3750  0.0000  0.2500
 
 Wall time (seconds)                        :       654.55
 
 RMS change in effective potential (target) :  0.762503E-07  ( 0.100000E-05)
 Absolute change in total energy   (target) :  0.577512E-08  ( 0.100000E-05)
 Charge distance                   (target) :  0.119159E-06  ( 0.100000E-04)
 Abs. change in max-nonIBS-force   (target) :  0.153212E-06  ( 0.500000E-04)
                                                                                
++++++++++++++++++++++++++++++++++++++++++++++++++++++++++++++++++++++++++++++++
| Convergency criteria checked for the last 2 iterations                       +
| Convergence targets achieved. Performing final SCF iteration                 +
++++++++++++++++++++++++++++++++++++++++++++++++++++++++++++++++++++++++++++++++
 Total energy                               :      -304.79350825
 _______________________________________________________________
 Fermi energy                               :         0.51690966
 Kinetic energy                             :       303.61996230
 Coulomb energy                             :      -564.99829877
 Exchange energy                            :       -41.63642063
 Correlation energy                         :        -1.77875116
 
 DOS at Fermi energy (states/Ha/cell)       :         0.00000000
 
 Electron charges :
     core                                   :        16.00000000
     core leakage                           :         0.00340895
     valence                                :        32.00000000
     interstitial                           :        17.96353003
     charge in muffin-tin spheres :
                  atom     1     C          :         3.75441251
                  atom     2     C          :         3.75453146
                  atom     3     C          :         3.75472297
                  atom     4     C          :         3.75453146
                  atom     5     C          :         3.75456751
                  atom     6     C          :         3.75606688
                  atom     7     C          :         3.75456751
                  atom     8     C          :         3.75306968
     total charge in muffin-tins            :        30.03646997
     total charge                           :        48.00000000
 
 Estimated fundamental gap                  :         0.15180484
        valence-band maximum at    1      0.0000  0.0000  0.0000
     conduction-band minimum at   29      0.3750  0.0000  0.2500
 
++++++++++++++++++++++++++++++++++++++++++++++++++++++++++++++++++++++++++++++++
+ Self-consistent loop stopped                                                 +
++++++++++++++++++++++++++++++++++++++++++++++++++++++++++++++++++++++++++++++++
 STATE.OUT is written
 
--------------------------------------------------------------------------------
- Writing atomic positions and forces                                          -
--------------------------------------------------------------------------------
 
 Atomic positions (lattice) :
 atom     1   C  :     0.00000000    0.00000000    0.00000000
 atom     2   C  :     0.49881516    0.50000000    0.74940758
 atom     3   C  :     0.00000000    0.00000000    0.50000000
 atom     4   C  :     0.50118484    0.50000000    0.25059242
 atom     5   C  :     0.00000000    0.25000000    0.75000000
 atom     6   C  :     0.50000000    0.75000000    0.50000000
 atom     7   C  :     0.00000000    0.25000000    0.25000000
 atom     8   C  :     0.50000000    0.75000000    0.00000000
 
 Total atomic forces including IBS (cartesian) :
 atom     1   C  :     0.00000000    0.00000000    0.00022358
 atom     2   C  :    -0.00358404   -0.00050121    0.00000041
 atom     3   C  :     0.00000000    0.00000000   -0.00022287
 atom     4   C  :     0.00358404    0.00050121    0.00000041
 atom     5   C  :     0.00144521   -0.00025754   -0.00002579
 atom     6   C  :     0.00000000    0.00000000    0.00035693
 atom     7   C  :    -0.00144521    0.00025754   -0.00002579
 atom     8   C  :     0.00000000    0.00000000   -0.00030687
 
 Atomic force components including IBS (cartesian) :
 atom     1   C  :     0.00000000    0.00000000   -0.00002677   HF force
                 :     0.00000000    0.00000000    0.00024156   core correction
                 :     0.00000000    0.00000000    0.00000880   IBS correction
 atom     2   C  :    -0.00346721   -0.00054903   -0.00001503   HF force
                 :    -0.00015680    0.00004035    0.00000925   core correction
                 :     0.00003997    0.00000747    0.00000619   IBS correction
 atom     3   C  :     0.00000000    0.00000000   -0.00000370   HF force
                 :     0.00000000    0.00000000   -0.00022275   core correction
                 :     0.00000000    0.00000000    0.00000358   IBS correction
 atom     4   C  :     0.00346721    0.00054903   -0.00001503   HF force
                 :     0.00015680   -0.00004035    0.00000925   core correction
                 :    -0.00003997   -0.00000747    0.00000619   IBS correction
 atom     5   C  :     0.00147507   -0.00032027   -0.00001196   HF force
                 :    -0.00001385    0.00005505   -0.00000781   core correction
                 :    -0.00001600    0.00000768   -0.00000602   IBS correction
 atom     6   C  :     0.00000000    0.00000000    0.00052466   HF force
                 :     0.00000000    0.00000000   -0.00015199   core correction
                 :     0.00000000    0.00000000   -0.00001574   IBS correction
 atom     7   C  :    -0.00147507    0.00032027   -0.00001196   HF force
                 :     0.00001385   -0.00005505   -0.00000781   core correction
                 :     0.00001600   -0.00000768   -0.00000602   IBS correction
 atom     8   C  :     0.00000000    0.00000000   -0.00044020   HF force
                 :     0.00000000    0.00000000    0.00013031   core correction
                 :     0.00000000    0.00000000    0.00000302   IBS correction
 
********************************************************************************
* Groundstate module stopped                                                   *
********************************************************************************
 
 Total time spent (seconds)                 :       792.55
================================================================================
| EXCITING NITROGEN-13 stopped                                                 =
================================================================================
