    -304.793520154    
    -304.793465167    
    -304.793492462    
    -304.793436360    
    -304.793533717    
    -304.793533478    
    -304.793526406    
    -304.793517515    
    -304.793510609    
    -304.793508394    
    -304.793508246    
    -304.793508240    
    -304.793508250    
 
