    -304.793518805    
    -304.793464876    
    -304.793492452    
    -304.793438681    
    -304.793535848    
    -304.793534054    
    -304.793526387    
    -304.793517587    
    -304.793510632    
    -304.793508382    
    -304.793508247    
    -304.793508241    
    -304.793508251    
 
