================================================================================
| EXCITING NITROGEN-13 started                                                 =
| version hash id: de0c1dba9f665d6c60514aa9e8bf40326ac9f394                    =
|                                                                              =
|                                                                              =
| Date (DD-MM-YYYY) : 04-05-2022                                               =
| Time (hh:mm:ss)   : 09:53:58                                                 =
|                                                                              =
| All units are atomic (Hartree, Bohr, etc.)                                   =
================================================================================
 
********************************************************************************
* Ground-state run resuming from STATE.OUT                                     *
********************************************************************************
 
++++++++++++++++++++++++++++++++++++++++++++++++++++++++++++++++++++++++++++++++
+ Starting initialization                                                      +
++++++++++++++++++++++++++++++++++++++++++++++++++++++++++++++++++++++++++++++++
 
 Lattice vectors (cartesian) :
     -3.3759957000      0.0000000000      3.3759957000
      0.0000000000     -3.3759957000      3.3759957000
    -10.1279871000    -10.1279871000     -6.7519914000
 
 Reciprocal lattice vectors (cartesian) :
     -1.1632096620      0.6979257972      0.6979257972
      0.6979257972     -1.1632096620      0.6979257972
     -0.2326419324     -0.2326419324     -0.2326419324
 
 Unit cell volume                           :     307.8191548003
 Brillouin zone volume                      :       0.8058309874
 
 Species :    1 (C)
     parameters loaded from                 :    C.xml
     name                                   :    carbon
     nuclear charge                         :      -6.00000000
     electronic charge                      :       6.00000000
     atomic mass                            :   21894.16673000
     muffin-tin radius                      :       1.25000000
     # of radial points in muffin-tin       :     250
 
     atomic positions (lattice) :
       1 :   0.00000000  0.00000000  0.00000000
       2 :   0.74925948  0.75044431  0.74985190
       3 :   0.50000000  0.50000000  0.50000000
       4 :   0.25074052  0.24955569  0.25014810
       5 :   0.06250000  0.06250000  0.81250000
       6 :   0.81250000  0.81250000  0.56250000
       7 :   0.56250000  0.56250000  0.31250000
       8 :   0.31250000  0.31250000  0.06250000
 
 Total number of atoms per unit cell        :       8
 
 Spin treatment                             :    spin-unpolarised
 
 Number of Bravais lattice symmetries       :      12
 Number of crystal symmetries               :       2
 
 Sphere radius used for k-point grid density:      33.42065234
 
 k-point grid                               :       8    8    3
 Total number of k-points                   :     192
 k-point set is reduced with crystal symmetries
 
 R^MT_min * |G+k|_max (rgkmax)              :       8.00000000
 Species with R^MT_min                      :       1 (C)
 Maximum |G+k| for APW functions            :       6.40000000
 Maximum |G| for potential and density      :      16.00000000
 
 G-vector grid sizes                        :      25    25    81
 Total number of G-vectors                  :   21163
 
 Maximum angular momentum used for
     APW functions                          :       8
     computing H and O matrix elements      :       8
     potential and density                  :       8
     inner part of muffin-tin               :       2
 
 Total nuclear charge                       :     -48.00000000
 Total electronic charge                    :      48.00000000
 Total core charge                          :      16.00000000
 Total valence charge                       :      32.00000000
 
 Number of empty states                     :      20
 Total number of valence states             :      37
 
 Maximum Hamiltonian size                   :    1423
 Maximum number of plane-waves              :    1391
 Total number of local-orbitals             :      32
 
 Exchange-correlation type                  :      20
     Perdew-Burke-Ernzerhof, Phys. Rev. Lett. 77, 3865 (1996)
     Generalised gradient approximation (GGA)
 
 Smearing scheme                            :    Gaussian
 Smearing width                             :       0.00010000
 
 Using multisecant Broyden potential mixing
 
++++++++++++++++++++++++++++++++++++++++++++++++++++++++++++++++++++++++++++++++
+ Ending initialization                                                        +
++++++++++++++++++++++++++++++++++++++++++++++++++++++++++++++++++++++++++++++++
 
********************************************************************************
* Groundstate module started                                                   *
********************************************************************************
 Output level for this task is set to normal
 
++++++++++++++++++++++++++++++++++++++++++++++++++++++++++++++++++++++++++++++++
+ Self-consistent loop started                                                 +
++++++++++++++++++++++++++++++++++++++++++++++++++++++++++++++++++++++++++++++++
 Potential read in from STATE.OUT
 
 
++++++++++++++++++++++++++++++++++++++++++++++++++++++++++++++++++++++++++++++++
+ SCF iteration number :    1                                                  +
++++++++++++++++++++++++++++++++++++++++++++++++++++++++++++++++++++++++++++++++
 Total energy                               :      -304.79377238
 _______________________________________________________________
 Fermi energy                               :         0.51747726
 Kinetic energy                             :       303.61973665
 Coulomb energy                             :      -564.99833032
 Exchange energy                            :       -41.63643085
 Correlation energy                         :        -1.77874786
 
 DOS at Fermi energy (states/Ha/cell)       :         0.00000000
 
 Electron charges :
     core                                   :        16.00000000
     core leakage                           :         0.00340897
     valence                                :        32.00000000
     interstitial                           :        17.96347642
     charge in muffin-tin spheres :
                  atom     1     C          :         3.75431620
                  atom     2     C          :         3.75442935
                  atom     3     C          :         3.75482075
                  atom     4     C          :         3.75464763
                  atom     5     C          :         3.75514124
                  atom     6     C          :         3.75535277
                  atom     7     C          :         3.75402055
                  atom     8     C          :         3.75379509
     total charge in muffin-tins            :        30.03652358
     total charge                           :        48.00000000
 
 Estimated fundamental gap                  :         0.15293793
        valence-band maximum at    1      0.0000  0.0000  0.0000
     conduction-band minimum at  174      0.6250  0.6250  0.6667
 
 Wall time (seconds)                        :       117.57
 
++++++++++++++++++++++++++++++++++++++++++++++++++++++++++++++++++++++++++++++++
+ SCF iteration number :    2                                                  +
++++++++++++++++++++++++++++++++++++++++++++++++++++++++++++++++++++++++++++++++
 Total energy                               :      -304.79355436
 _______________________________________________________________
 Fermi energy                               :         0.51748155
 Kinetic energy                             :       303.61980548
 Coulomb energy                             :      -564.99819082
 Exchange energy                            :       -41.63642037
 Correlation energy                         :        -1.77874865
 
 DOS at Fermi energy (states/Ha/cell)       :         0.00000000
 
 Electron charges :
     core                                   :        16.00000000
     core leakage                           :         0.00340897
     valence                                :        32.00000000
     interstitial                           :        17.96354245
     charge in muffin-tin spheres :
                  atom     1     C          :         3.75430918
                  atom     2     C          :         3.75432420
                  atom     3     C          :         3.75478157
                  atom     4     C          :         3.75474132
                  atom     5     C          :         3.75357657
                  atom     6     C          :         3.75469202
                  atom     7     C          :         3.75558133
                  atom     8     C          :         3.75445137
     total charge in muffin-tins            :        30.03645755
     total charge                           :        48.00000000
 
 Estimated fundamental gap                  :         0.15293054
        valence-band maximum at    1      0.0000  0.0000  0.0000
     conduction-band minimum at   92      0.3750  0.3750  0.3333
 
 Wall time (seconds)                        :       232.34
 
 RMS change in effective potential (target) :  0.249226E-02  ( 0.100000E-05)
 Absolute change in total energy   (target) :  0.218017E-03  ( 0.100000E-05)
 Charge distance                   (target) :  0.684286E-03  ( 0.100000E-04)
 Abs. change in max-nonIBS-force   (target) :  0.132220E-01  ( 0.500000E-04)
 
++++++++++++++++++++++++++++++++++++++++++++++++++++++++++++++++++++++++++++++++
+ SCF iteration number :    3                                                  +
++++++++++++++++++++++++++++++++++++++++++++++++++++++++++++++++++++++++++++++++
 Total energy                               :      -304.79348355
 _______________________________________________________________
 Fermi energy                               :         0.51748128
 Kinetic energy                             :       303.61981023
 Coulomb energy                             :      -564.99813077
 Exchange energy                            :       -41.63641405
 Correlation energy                         :        -1.77874897
 
 DOS at Fermi energy (states/Ha/cell)       :         0.00000000
 
 Electron charges :
     core                                   :        16.00000000
     core leakage                           :         0.00340897
     valence                                :        32.00000000
     interstitial                           :        17.96353457
     charge in muffin-tin spheres :
                  atom     1     C          :         3.75419225
                  atom     2     C          :         3.75445588
                  atom     3     C          :         3.75489714
                  atom     4     C          :         3.75461125
                  atom     5     C          :         3.75373775
                  atom     6     C          :         3.75477269
                  atom     7     C          :         3.75542413
                  atom     8     C          :         3.75437436
     total charge in muffin-tins            :        30.03646543
     total charge                           :        48.00000000
 
 Estimated fundamental gap                  :         0.15293156
        valence-band maximum at    1      0.0000  0.0000  0.0000
     conduction-band minimum at  174      0.6250  0.6250  0.6667
 
 Wall time (seconds)                        :       347.44
 
 RMS change in effective potential (target) :  0.176664E-02  ( 0.100000E-05)
 Absolute change in total energy   (target) :  0.708088E-04  ( 0.100000E-05)
 Charge distance                   (target) :  0.208127E-03  ( 0.100000E-04)
 Abs. change in max-nonIBS-force   (target) :  0.550751E-02  ( 0.500000E-04)
 
++++++++++++++++++++++++++++++++++++++++++++++++++++++++++++++++++++++++++++++++
+ SCF iteration number :    4                                                  +
++++++++++++++++++++++++++++++++++++++++++++++++++++++++++++++++++++++++++++++++
 Total energy                               :      -304.79372666
 _______________________________________________________________
 Fermi energy                               :         0.51747908
 Kinetic energy                             :       303.61989286
 Coulomb energy                             :      -564.99843368
 Exchange energy                            :       -41.63643810
 Correlation energy                         :        -1.77874774
 
 DOS at Fermi energy (states/Ha/cell)       :         0.00000000
 
 Electron charges :
     core                                   :        16.00000000
     core leakage                           :         0.00340896
     valence                                :        32.00000000
     interstitial                           :        17.96352580
     charge in muffin-tin spheres :
                  atom     1     C          :         3.75625521
                  atom     2     C          :         3.75453717
                  atom     3     C          :         3.75284689
                  atom     4     C          :         3.75450535
                  atom     5     C          :         3.75573873
                  atom     6     C          :         3.75487169
                  atom     7     C          :         3.75344633
                  atom     8     C          :         3.75427285
     total charge in muffin-tins            :        30.03647420
     total charge                           :        48.00000000
 
 Estimated fundamental gap                  :         0.15291173
        valence-band maximum at    1      0.0000  0.0000  0.0000
     conduction-band minimum at  174      0.6250  0.6250  0.6667
 
 Wall time (seconds)                        :       464.11
 
 RMS change in effective potential (target) :  0.322423E-02  ( 0.100000E-05)
 Absolute change in total energy   (target) :  0.243101E-03  ( 0.100000E-05)
 Charge distance                   (target) :  0.584578E-03  ( 0.100000E-04)
 Abs. change in max-nonIBS-force   (target) :  0.332707E-02  ( 0.500000E-04)
 
++++++++++++++++++++++++++++++++++++++++++++++++++++++++++++++++++++++++++++++++
+ SCF iteration number :    5                                                  +
++++++++++++++++++++++++++++++++++++++++++++++++++++++++++++++++++++++++++++++++
 Total energy                               :      -304.79362762
 _______________________________________________________________
 Fermi energy                               :         0.51747819
 Kinetic energy                             :       303.61980538
 Coulomb energy                             :      -564.99826177
 Exchange energy                            :       -41.63642245
 Correlation energy                         :        -1.77874878
 
 DOS at Fermi energy (states/Ha/cell)       :         0.00000000
 
 Electron charges :
     core                                   :        16.00000000
     core leakage                           :         0.00340896
     valence                                :        32.00000000
     interstitial                           :        17.96351950
     charge in muffin-tin spheres :
                  atom     1     C          :         3.75440915
                  atom     2     C          :         3.75456087
                  atom     3     C          :         3.75469648
                  atom     4     C          :         3.75451103
                  atom     5     C          :         3.75438416
                  atom     6     C          :         3.75531245
                  atom     7     C          :         3.75477879
                  atom     8     C          :         3.75382758
     total charge in muffin-tins            :        30.03648050
     total charge                           :        48.00000000
 
 Estimated fundamental gap                  :         0.15293702
        valence-band maximum at    1      0.0000  0.0000  0.0000
     conduction-band minimum at   92      0.3750  0.3750  0.3333
 
 Wall time (seconds)                        :       580.15
 
 RMS change in effective potential (target) :  0.509917E-03  ( 0.100000E-05)
 Absolute change in total energy   (target) :  0.990364E-04  ( 0.100000E-05)
 Charge distance                   (target) :  0.424524E-03  ( 0.100000E-04)
 Abs. change in max-nonIBS-force   (target) :  0.891634E-02  ( 0.500000E-04)
 
++++++++++++++++++++++++++++++++++++++++++++++++++++++++++++++++++++++++++++++++
+ SCF iteration number :    6                                                  +
++++++++++++++++++++++++++++++++++++++++++++++++++++++++++++++++++++++++++++++++
 Total energy                               :      -304.79358489
 _______________________________________________________________
 Fermi energy                               :         0.51747914
 Kinetic energy                             :       303.61982241
 Coulomb energy                             :      -564.99823793
 Exchange energy                            :       -41.63642054
 Correlation energy                         :        -1.77874882
 
 DOS at Fermi energy (states/Ha/cell)       :         0.00000000
 
 Electron charges :
     core                                   :        16.00000000
     core leakage                           :         0.00340896
     valence                                :        32.00000000
     interstitial                           :        17.96352123
     charge in muffin-tin spheres :
                  atom     1     C          :         3.75436460
                  atom     2     C          :         3.75455468
                  atom     3     C          :         3.75472692
                  atom     4     C          :         3.75451287
                  atom     5     C          :         3.75433361
                  atom     6     C          :         3.75491488
                  atom     7     C          :         3.75483263
                  atom     8     C          :         3.75423858
     total charge in muffin-tins            :        30.03647877
     total charge                           :        48.00000000
 
 Estimated fundamental gap                  :         0.15293583
        valence-band maximum at    1      0.0000  0.0000  0.0000
     conduction-band minimum at  174      0.6250  0.6250  0.6667
 
 Wall time (seconds)                        :       696.42
 
 RMS change in effective potential (target) :  0.185921E-03  ( 0.100000E-05)
 Absolute change in total energy   (target) :  0.427323E-04  ( 0.100000E-05)
 Charge distance                   (target) :  0.597399E-04  ( 0.100000E-04)
 Abs. change in max-nonIBS-force   (target) :  0.269743E-04  ( 0.500000E-04)
 
++++++++++++++++++++++++++++++++++++++++++++++++++++++++++++++++++++++++++++++++
+ SCF iteration number :    7                                                  +
++++++++++++++++++++++++++++++++++++++++++++++++++++++++++++++++++++++++++++++++
 Total energy                               :      -304.79355447
 _______________________________________________________________
 Fermi energy                               :         0.51747933
 Kinetic energy                             :       303.61984377
 Coulomb energy                             :      -564.99822964
 Exchange energy                            :       -41.63641973
 Correlation energy                         :        -1.77874887
 
 DOS at Fermi energy (states/Ha/cell)       :         0.00000000
 
 Electron charges :
     core                                   :        16.00000000
     core leakage                           :         0.00340896
     valence                                :        32.00000000
     interstitial                           :        17.96352222
     charge in muffin-tin spheres :
                  atom     1     C          :         3.75447570
                  atom     2     C          :         3.75460543
                  atom     3     C          :         3.75461866
                  atom     4     C          :         3.75446272
                  atom     5     C          :         3.75426666
                  atom     6     C          :         3.75502218
                  atom     7     C          :         3.75489936
                  atom     8     C          :         3.75412706
     total charge in muffin-tins            :        30.03647778
     total charge                           :        48.00000000
 
 Estimated fundamental gap                  :         0.15293623
        valence-band maximum at    1      0.0000  0.0000  0.0000
     conduction-band minimum at  174      0.6250  0.6250  0.6667
 
 Wall time (seconds)                        :       813.47
 
 RMS change in effective potential (target) :  0.138566E-03  ( 0.100000E-05)
 Absolute change in total energy   (target) :  0.304189E-04  ( 0.100000E-05)
 Charge distance                   (target) :  0.348402E-04  ( 0.100000E-04)
 Abs. change in max-nonIBS-force   (target) :  0.676463E-03  ( 0.500000E-04)
 
++++++++++++++++++++++++++++++++++++++++++++++++++++++++++++++++++++++++++++++++
+ SCF iteration number :    8                                                  +
++++++++++++++++++++++++++++++++++++++++++++++++++++++++++++++++++++++++++++++++
 Total energy                               :      -304.79354163
 _______________________________________________________________
 Fermi energy                               :         0.51747970
 Kinetic energy                             :       303.61985484
 Coulomb energy                             :      -564.99822806
 Exchange energy                            :       -41.63641955
 Correlation energy                         :        -1.77874887
 
 DOS at Fermi energy (states/Ha/cell)       :         0.00000000
 
 Electron charges :
     core                                   :        16.00000000
     core leakage                           :         0.00340896
     valence                                :        32.00000000
     interstitial                           :        17.96352239
     charge in muffin-tin spheres :
                  atom     1     C          :         3.75444074
                  atom     2     C          :         3.75452910
                  atom     3     C          :         3.75465327
                  atom     4     C          :         3.75453865
                  atom     5     C          :         3.75430167
                  atom     6     C          :         3.75496297
                  atom     7     C          :         3.75486394
                  atom     8     C          :         3.75418727
     total charge in muffin-tins            :        30.03647761
     total charge                           :        48.00000000
 
 Estimated fundamental gap                  :         0.15293585
        valence-band maximum at    1      0.0000  0.0000  0.0000
     conduction-band minimum at   92      0.3750  0.3750  0.3333
 
 Wall time (seconds)                        :       927.80
 
 RMS change in effective potential (target) :  0.782735E-04  ( 0.100000E-05)
 Absolute change in total energy   (target) :  0.128341E-04  ( 0.100000E-05)
 Charge distance                   (target) :  0.176694E-04  ( 0.100000E-04)
 Abs. change in max-nonIBS-force   (target) :  0.192434E-03  ( 0.500000E-04)
 
++++++++++++++++++++++++++++++++++++++++++++++++++++++++++++++++++++++++++++++++
+ SCF iteration number :    9                                                  +
++++++++++++++++++++++++++++++++++++++++++++++++++++++++++++++++++++++++++++++++
 Total energy                               :      -304.79353381
 _______________________________________________________________
 Fermi energy                               :         0.51747986
 Kinetic energy                             :       303.61986234
 Coulomb energy                             :      -564.99822780
 Exchange energy                            :       -41.63641947
 Correlation energy                         :        -1.77874888
 
 DOS at Fermi energy (states/Ha/cell)       :         0.00000000
 
 Electron charges :
     core                                   :        16.00000000
     core leakage                           :         0.00340896
     valence                                :        32.00000000
     interstitial                           :        17.96352251
     charge in muffin-tin spheres :
                  atom     1     C          :         3.75446266
                  atom     2     C          :         3.75457359
                  atom     3     C          :         3.75463013
                  atom     4     C          :         3.75449351
                  atom     5     C          :         3.75424339
                  atom     6     C          :         3.75495417
                  atom     7     C          :         3.75492333
                  atom     8     C          :         3.75419671
     total charge in muffin-tins            :        30.03647749
     total charge                           :        48.00000000
 
 Estimated fundamental gap                  :         0.15293581
        valence-band maximum at    1      0.0000  0.0000  0.0000
     conduction-band minimum at  174      0.6250  0.6250  0.6667
 
 Wall time (seconds)                        :      1042.91
 
 RMS change in effective potential (target) :  0.442563E-04  ( 0.100000E-05)
 Absolute change in total energy   (target) :  0.782039E-05  ( 0.100000E-05)
 Charge distance                   (target) :  0.112797E-04  ( 0.100000E-04)
 Abs. change in max-nonIBS-force   (target) :  0.167134E-03  ( 0.500000E-04)
 
++++++++++++++++++++++++++++++++++++++++++++++++++++++++++++++++++++++++++++++++
+ SCF iteration number :   10                                                  +
++++++++++++++++++++++++++++++++++++++++++++++++++++++++++++++++++++++++++++++++
 Total energy                               :      -304.79352518
 _______________________________________________________________
 Fermi energy                               :         0.51748006
 Kinetic energy                             :       303.61987031
 Coulomb energy                             :      -564.99822724
 Exchange energy                            :       -41.63641936
 Correlation energy                         :        -1.77874889
 
 DOS at Fermi energy (states/Ha/cell)       :         0.00000000
 
 Electron charges :
     core                                   :        16.00000000
     core leakage                           :         0.00340896
     valence                                :        32.00000000
     interstitial                           :        17.96352273
     charge in muffin-tin spheres :
                  atom     1     C          :         3.75448597
                  atom     2     C          :         3.75455554
                  atom     3     C          :         3.75460768
                  atom     4     C          :         3.75451198
                  atom     5     C          :         3.75423225
                  atom     6     C          :         3.75496461
                  atom     7     C          :         3.75493420
                  atom     8     C          :         3.75418505
     total charge in muffin-tins            :        30.03647727
     total charge                           :        48.00000000
 
 Estimated fundamental gap                  :         0.15293567
        valence-band maximum at    1      0.0000  0.0000  0.0000
     conduction-band minimum at  174      0.6250  0.6250  0.6667
 
 Wall time (seconds)                        :      1157.89
 
 RMS change in effective potential (target) :  0.150485E-04  ( 0.100000E-05)
 Absolute change in total energy   (target) :  0.863107E-05  ( 0.100000E-05)
 Charge distance                   (target) :  0.854540E-05  ( 0.100000E-04)
 Abs. change in max-nonIBS-force   (target) :  0.203499E-03  ( 0.500000E-04)
 
++++++++++++++++++++++++++++++++++++++++++++++++++++++++++++++++++++++++++++++++
+ SCF iteration number :   11                                                  +
++++++++++++++++++++++++++++++++++++++++++++++++++++++++++++++++++++++++++++++++
 Total energy                               :      -304.79351995
 _______________________________________________________________
 Fermi energy                               :         0.51748013
 Kinetic energy                             :       303.61987479
 Coulomb energy                             :      -564.99822658
 Exchange energy                            :       -41.63641927
 Correlation energy                         :        -1.77874890
 
 DOS at Fermi energy (states/Ha/cell)       :         0.00000000
 
 Electron charges :
     core                                   :        16.00000000
     core leakage                           :         0.00340896
     valence                                :        32.00000000
     interstitial                           :        17.96352287
     charge in muffin-tin spheres :
                  atom     1     C          :         3.75448188
                  atom     2     C          :         3.75455724
                  atom     3     C          :         3.75461107
                  atom     4     C          :         3.75450997
                  atom     5     C          :         3.75422557
                  atom     6     C          :         3.75495437
                  atom     7     C          :         3.75494098
                  atom     8     C          :         3.75419606
     total charge in muffin-tins            :        30.03647713
     total charge                           :        48.00000000
 
 Estimated fundamental gap                  :         0.15293567
        valence-band maximum at    1      0.0000  0.0000  0.0000
     conduction-band minimum at   92      0.3750  0.3750  0.3333
 
 Wall time (seconds)                        :      1272.05
 
 RMS change in effective potential (target) :  0.412027E-05  ( 0.100000E-05)
 Absolute change in total energy   (target) :  0.523117E-05  ( 0.100000E-05)
 Charge distance                   (target) :  0.490426E-05  ( 0.100000E-04)
 Abs. change in max-nonIBS-force   (target) :  0.749915E-04  ( 0.500000E-04)
 
++++++++++++++++++++++++++++++++++++++++++++++++++++++++++++++++++++++++++++++++
+ SCF iteration number :   12                                                  +
++++++++++++++++++++++++++++++++++++++++++++++++++++++++++++++++++++++++++++++++
 Total energy                               :      -304.79352037
 _______________________________________________________________
 Fermi energy                               :         0.51748014
 Kinetic energy                             :       303.61987457
 Coulomb energy                             :      -564.99822676
 Exchange energy                            :       -41.63641928
 Correlation energy                         :        -1.77874890
 
 DOS at Fermi energy (states/Ha/cell)       :         0.00000000
 
 Electron charges :
     core                                   :        16.00000000
     core leakage                           :         0.00340896
     valence                                :        32.00000000
     interstitial                           :        17.96352284
     charge in muffin-tin spheres :
                  atom     1     C          :         3.75448440
                  atom     2     C          :         3.75455662
                  atom     3     C          :         3.75460902
                  atom     4     C          :         3.75451045
                  atom     5     C          :         3.75422352
                  atom     6     C          :         3.75495543
                  atom     7     C          :         3.75494327
                  atom     8     C          :         3.75419445
     total charge in muffin-tins            :        30.03647716
     total charge                           :        48.00000000
 
 Estimated fundamental gap                  :         0.15293564
        valence-band maximum at    1      0.0000  0.0000  0.0000
     conduction-band minimum at   92      0.3750  0.3750  0.3333
 
 Wall time (seconds)                        :      1386.12
 
 RMS change in effective potential (target) :  0.719923E-06  ( 0.100000E-05)
 Absolute change in total energy   (target) :  0.415789E-06  ( 0.100000E-05)
 Charge distance                   (target) :  0.669280E-06  ( 0.100000E-04)
 Abs. change in max-nonIBS-force   (target) :  0.185129E-05  ( 0.500000E-04)
 
++++++++++++++++++++++++++++++++++++++++++++++++++++++++++++++++++++++++++++++++
+ SCF iteration number :   13                                                  +
++++++++++++++++++++++++++++++++++++++++++++++++++++++++++++++++++++++++++++++++
 Total energy                               :      -304.79352031
 _______________________________________________________________
 Fermi energy                               :         0.51748014
 Kinetic energy                             :       303.61987459
 Coulomb energy                             :      -564.99822672
 Exchange energy                            :       -41.63641928
 Correlation energy                         :        -1.77874890
 
 DOS at Fermi energy (states/Ha/cell)       :         0.00000000
 
 Electron charges :
     core                                   :        16.00000000
     core leakage                           :         0.00340896
     valence                                :        32.00000000
     interstitial                           :        17.96352284
     charge in muffin-tin spheres :
                  atom     1     C          :         3.75448430
                  atom     2     C          :         3.75455735
                  atom     3     C          :         3.75460869
                  atom     4     C          :         3.75451001
                  atom     5     C          :         3.75422291
                  atom     6     C          :         3.75495568
                  atom     7     C          :         3.75494358
                  atom     8     C          :         3.75419464
     total charge in muffin-tins            :        30.03647716
     total charge                           :        48.00000000
 
 Estimated fundamental gap                  :         0.15293564
        valence-band maximum at    1      0.0000  0.0000  0.0000
     conduction-band minimum at  174      0.6250  0.6250  0.6667
 
 Wall time (seconds)                        :      1500.24
 
 RMS change in effective potential (target) :  0.177136E-06  ( 0.100000E-05)
 Absolute change in total energy   (target) :  0.527962E-07  ( 0.100000E-05)
 Charge distance                   (target) :  0.152189E-06  ( 0.100000E-04)
 Abs. change in max-nonIBS-force   (target) :  0.283866E-05  ( 0.500000E-04)
                                                                                
++++++++++++++++++++++++++++++++++++++++++++++++++++++++++++++++++++++++++++++++
| Convergency criteria checked for the last 2 iterations                       +
| Convergence targets achieved. Performing final SCF iteration                 +
++++++++++++++++++++++++++++++++++++++++++++++++++++++++++++++++++++++++++++++++
 Total energy                               :      -304.79352025
 _______________________________________________________________
 Fermi energy                               :         0.51748014
 Kinetic energy                             :       303.61987461
 Coulomb energy                             :      -564.99822669
 Exchange energy                            :       -41.63641928
 Correlation energy                         :        -1.77874890
 
 DOS at Fermi energy (states/Ha/cell)       :         0.00000000
 
 Electron charges :
     core                                   :        16.00000000
     core leakage                           :         0.00340896
     valence                                :        32.00000000
     interstitial                           :        17.96352284
     charge in muffin-tin spheres :
                  atom     1     C          :         3.75448447
                  atom     2     C          :         3.75455695
                  atom     3     C          :         3.75460909
                  atom     4     C          :         3.75450997
                  atom     5     C          :         3.75422329
                  atom     6     C          :         3.75495536
                  atom     7     C          :         3.75494365
                  atom     8     C          :         3.75419437
     total charge in muffin-tins            :        30.03647716
     total charge                           :        48.00000000
 
 Estimated fundamental gap                  :         0.15293564
        valence-band maximum at    1      0.0000  0.0000  0.0000
     conduction-band minimum at  174      0.6250  0.6250  0.6667
 
++++++++++++++++++++++++++++++++++++++++++++++++++++++++++++++++++++++++++++++++
+ Self-consistent loop stopped                                                 +
++++++++++++++++++++++++++++++++++++++++++++++++++++++++++++++++++++++++++++++++
 STATE.OUT is written
 
--------------------------------------------------------------------------------
- Writing atomic positions and forces                                          -
--------------------------------------------------------------------------------
 
 Atomic positions (lattice) :
 atom     1   C  :     0.00000000    0.00000000    0.00000000
 atom     2   C  :     0.74925948    0.75044431    0.74985190
 atom     3   C  :     0.50000000    0.50000000    0.50000000
 atom     4   C  :     0.25074052    0.24955569    0.25014810
 atom     5   C  :     0.06250000    0.06250000    0.81250000
 atom     6   C  :     0.81250000    0.81250000    0.56250000
 atom     7   C  :     0.56250000    0.56250000    0.31250000
 atom     8   C  :     0.31250000    0.31250000    0.06250000
 
 Total atomic forces including IBS (cartesian) :
 atom     1   C  :    -0.00000447   -0.00001926   -0.00001926
 atom     2   C  :    -0.00168383   -0.00016241   -0.00016241
 atom     3   C  :     0.00000173   -0.00001417   -0.00001417
 atom     4   C  :     0.00167836    0.00012488    0.00012488
 atom     5   C  :     0.00113383   -0.00005558   -0.00005558
 atom     6   C  :     0.00034075    0.00008713    0.00008713
 atom     7   C  :    -0.00114212    0.00008374    0.00008374
 atom     8   C  :    -0.00032425   -0.00004433   -0.00004433
 
 Atomic force components including IBS (cartesian) :
 atom     1   C  :     0.00001157   -0.00007394   -0.00007394   HF force
                 :    -0.00003006    0.00005455    0.00005455   core correction
                 :     0.00001401    0.00000013    0.00000013   IBS correction
 atom     2   C  :    -0.00176066   -0.00019608   -0.00019608   HF force
                 :     0.00004321    0.00003295    0.00003295   core correction
                 :     0.00003362    0.00000071    0.00000071   IBS correction
 atom     3   C  :    -0.00002632    0.00005937    0.00005937   HF force
                 :     0.00001168   -0.00007243   -0.00007243   core correction
                 :     0.00001637   -0.00000111   -0.00000111   IBS correction
 atom     4   C  :     0.00174307    0.00017638    0.00017638   HF force
                 :    -0.00006099   -0.00004969   -0.00004969   core correction
                 :    -0.00000372   -0.00000181   -0.00000181   IBS correction
 atom     5   C  :     0.00127325   -0.00003032   -0.00003032   HF force
                 :    -0.00010856   -0.00002537   -0.00002537   core correction
                 :    -0.00003085    0.00000011    0.00000011   IBS correction
 atom     6   C  :     0.00033696    0.00006302    0.00006302   HF force
                 :     0.00002422    0.00002666    0.00002666   core correction
                 :    -0.00002044   -0.00000255   -0.00000255   IBS correction
 atom     7   C  :    -0.00127736    0.00004026    0.00004026   HF force
                 :     0.00013238    0.00004252    0.00004252   core correction
                 :     0.00000286    0.00000095    0.00000095   IBS correction
 atom     8   C  :    -0.00030051   -0.00003870   -0.00003870   HF force
                 :    -0.00001189   -0.00000919   -0.00000919   core correction
                 :    -0.00001185    0.00000356    0.00000356   IBS correction
 
********************************************************************************
* Groundstate module stopped                                                   *
********************************************************************************
 
 Total time spent (seconds)                 :      1799.21
================================================================================
| EXCITING NITROGEN-13 stopped                                                 =
================================================================================
