================================================================================
| EXCITING NITROGEN-13 started                                                 =
| version hash id: de0c1dba9f665d6c60514aa9e8bf40326ac9f394                    =
|                                                                              =
|                                                                              =
| Date (DD-MM-YYYY) : 04-05-2022                                               =
| Time (hh:mm:ss)   : 09:23:32                                                 =
|                                                                              =
| All units are atomic (Hartree, Bohr, etc.)                                   =
================================================================================
 
********************************************************************************
* Ground-state run resuming from STATE.OUT                                     *
********************************************************************************
 
++++++++++++++++++++++++++++++++++++++++++++++++++++++++++++++++++++++++++++++++
+ Starting initialization                                                      +
++++++++++++++++++++++++++++++++++++++++++++++++++++++++++++++++++++++++++++++++
 
 Lattice vectors (cartesian) :
     -3.3759957000      0.0000000000      3.3759957000
      0.0000000000     -3.3759957000      3.3759957000
    -10.1279871000    -10.1279871000     -6.7519914000
 
 Reciprocal lattice vectors (cartesian) :
     -1.1632096620      0.6979257972      0.6979257972
      0.6979257972     -1.1632096620      0.6979257972
     -0.2326419324     -0.2326419324     -0.2326419324
 
 Unit cell volume                           :     307.8191548003
 Brillouin zone volume                      :       0.8058309874
 
 Species :    1 (C)
     parameters loaded from                 :    C.xml
     name                                   :    carbon
     nuclear charge                         :      -6.00000000
     electronic charge                      :       6.00000000
     atomic mass                            :   21894.16673000
     muffin-tin radius                      :       1.25000000
     # of radial points in muffin-tin       :     250
 
     atomic positions (lattice) :
       1 :   0.99851896  0.00088863  0.99970379
       2 :   0.75000000  0.75000000  0.75000000
       3 :   0.50148104  0.49911137  0.50029621
       4 :   0.25000000  0.25000000  0.25000000
       5 :   0.06250000  0.06250000  0.81250000
       6 :   0.81250000  0.81250000  0.56250000
       7 :   0.56250000  0.56250000  0.31250000
       8 :   0.31250000  0.31250000  0.06250000
 
 Total number of atoms per unit cell        :       8
 
 Spin treatment                             :    spin-unpolarised
 
 Number of Bravais lattice symmetries       :      12
 Number of crystal symmetries               :       2
 
 Sphere radius used for k-point grid density:      33.42065234
 
 k-point grid                               :       8    8    3
 Total number of k-points                   :     192
 k-point set is reduced with crystal symmetries
 
 R^MT_min * |G+k|_max (rgkmax)              :       8.00000000
 Species with R^MT_min                      :       1 (C)
 Maximum |G+k| for APW functions            :       6.40000000
 Maximum |G| for potential and density      :      16.00000000
 
 G-vector grid sizes                        :      25    25    81
 Total number of G-vectors                  :   21163
 
 Maximum angular momentum used for
     APW functions                          :       8
     computing H and O matrix elements      :       8
     potential and density                  :       8
     inner part of muffin-tin               :       2
 
 Total nuclear charge                       :     -48.00000000
 Total electronic charge                    :      48.00000000
 Total core charge                          :      16.00000000
 Total valence charge                       :      32.00000000
 
 Number of empty states                     :      20
 Total number of valence states             :      37
 
 Maximum Hamiltonian size                   :    1423
 Maximum number of plane-waves              :    1391
 Total number of local-orbitals             :      32
 
 Exchange-correlation type                  :      20
     Perdew-Burke-Ernzerhof, Phys. Rev. Lett. 77, 3865 (1996)
     Generalised gradient approximation (GGA)
 
 Smearing scheme                            :    Gaussian
 Smearing width                             :       0.00010000
 
 Using multisecant Broyden potential mixing
 
++++++++++++++++++++++++++++++++++++++++++++++++++++++++++++++++++++++++++++++++
+ Ending initialization                                                        +
++++++++++++++++++++++++++++++++++++++++++++++++++++++++++++++++++++++++++++++++
 
********************************************************************************
* Groundstate module started                                                   *
********************************************************************************
 Output level for this task is set to normal
 
++++++++++++++++++++++++++++++++++++++++++++++++++++++++++++++++++++++++++++++++
+ Self-consistent loop started                                                 +
++++++++++++++++++++++++++++++++++++++++++++++++++++++++++++++++++++++++++++++++
 Potential read in from STATE.OUT
 
 
++++++++++++++++++++++++++++++++++++++++++++++++++++++++++++++++++++++++++++++++
+ SCF iteration number :    1                                                  +
++++++++++++++++++++++++++++++++++++++++++++++++++++++++++++++++++++++++++++++++
 Total energy                               :      -304.79351473
 _______________________________________________________________
 Fermi energy                               :         0.51748775
 Kinetic energy                             :       303.61992417
 Coulomb energy                             :      -564.99826419
 Exchange energy                            :       -41.63642578
 Correlation energy                         :        -1.77874892
 
 DOS at Fermi energy (states/Ha/cell)       :         0.00000000
 
 Electron charges :
     core                                   :        16.00000000
     core leakage                           :         0.00340896
     valence                                :        32.00000000
     interstitial                           :        17.96349588
     charge in muffin-tin spheres :
                  atom     1     C          :         3.75467142
                  atom     2     C          :         3.75477836
                  atom     3     C          :         3.75444502
                  atom     4     C          :         3.75428352
                  atom     5     C          :         3.75505930
                  atom     6     C          :         3.75494990
                  atom     7     C          :         3.75410838
                  atom     8     C          :         3.75420821
     total charge in muffin-tins            :        30.03650412
     total charge                           :        48.00000000
 
 Estimated fundamental gap                  :         0.15290952
        valence-band maximum at    1      0.0000  0.0000  0.0000
     conduction-band minimum at   92      0.3750  0.3750  0.3333
 
 Wall time (seconds)                        :       116.19
 
++++++++++++++++++++++++++++++++++++++++++++++++++++++++++++++++++++++++++++++++
+ SCF iteration number :    2                                                  +
++++++++++++++++++++++++++++++++++++++++++++++++++++++++++++++++++++++++++++++++
 Total energy                               :      -304.79346770
 _______________________________________________________________
 Fermi energy                               :         0.51748679
 Kinetic energy                             :       303.61994608
 Coulomb energy                             :      -564.99824186
 Exchange energy                            :       -41.63642277
 Correlation energy                         :        -1.77874915
 
 DOS at Fermi energy (states/Ha/cell)       :         0.00000000
 
 Electron charges :
     core                                   :        16.00000000
     core leakage                           :         0.00340896
     valence                                :        32.00000000
     interstitial                           :        17.96350797
     charge in muffin-tin spheres :
                  atom     1     C          :         3.75464254
                  atom     2     C          :         3.75481588
                  atom     3     C          :         3.75446892
                  atom     4     C          :         3.75424797
                  atom     5     C          :         3.75555117
                  atom     6     C          :         3.75552330
                  atom     7     C          :         3.75361285
                  atom     8     C          :         3.75362940
     total charge in muffin-tins            :        30.03649203
     total charge                           :        48.00000000
 
 Estimated fundamental gap                  :         0.15291065
        valence-band maximum at    1      0.0000  0.0000  0.0000
     conduction-band minimum at  174      0.6250  0.6250  0.6667
 
 Wall time (seconds)                        :       229.99
 
 RMS change in effective potential (target) :  0.111465E-02  ( 0.100000E-05)
 Absolute change in total energy   (target) :  0.470223E-04  ( 0.100000E-05)
 Charge distance                   (target) :  0.256193E-03  ( 0.100000E-04)
 Abs. change in max-nonIBS-force   (target) :  0.102463E-01  ( 0.500000E-04)
 
++++++++++++++++++++++++++++++++++++++++++++++++++++++++++++++++++++++++++++++++
+ SCF iteration number :    3                                                  +
++++++++++++++++++++++++++++++++++++++++++++++++++++++++++++++++++++++++++++++++
 Total energy                               :      -304.79348184
 _______________________________________________________________
 Fermi energy                               :         0.51748795
 Kinetic energy                             :       303.61994175
 Coulomb energy                             :      -564.99825118
 Exchange energy                            :       -41.63642324
 Correlation energy                         :        -1.77874917
 
 DOS at Fermi energy (states/Ha/cell)       :         0.00000000
 
 Electron charges :
     core                                   :        16.00000000
     core leakage                           :         0.00340896
     valence                                :        32.00000000
     interstitial                           :        17.96350439
     charge in muffin-tin spheres :
                  atom     1     C          :         3.75467591
                  atom     2     C          :         3.75477272
                  atom     3     C          :         3.75443374
                  atom     4     C          :         3.75429123
                  atom     5     C          :         3.75553082
                  atom     6     C          :         3.75544978
                  atom     7     C          :         3.75363507
                  atom     8     C          :         3.75370634
     total charge in muffin-tins            :        30.03649561
     total charge                           :        48.00000000
 
 Estimated fundamental gap                  :         0.15290836
        valence-band maximum at    1      0.0000  0.0000  0.0000
     conduction-band minimum at   92      0.3750  0.3750  0.3333
 
 Wall time (seconds)                        :       348.39
 
 RMS change in effective potential (target) :  0.788873E-03  ( 0.100000E-05)
 Absolute change in total energy   (target) :  0.141352E-04  ( 0.100000E-05)
 Charge distance                   (target) :  0.805860E-04  ( 0.100000E-04)
 Abs. change in max-nonIBS-force   (target) :  0.296586E-02  ( 0.500000E-04)
 
++++++++++++++++++++++++++++++++++++++++++++++++++++++++++++++++++++++++++++++++
+ SCF iteration number :    4                                                  +
++++++++++++++++++++++++++++++++++++++++++++++++++++++++++++++++++++++++++++++++
 Total energy                               :      -304.79353587
 _______________________________________________________________
 Fermi energy                               :         0.51749838
 Kinetic energy                             :       303.62003071
 Coulomb energy                             :      -564.99838476
 Exchange energy                            :       -41.63643348
 Correlation energy                         :        -1.77874835
 
 DOS at Fermi energy (states/Ha/cell)       :         0.00000000
 
 Electron charges :
     core                                   :        16.00000000
     core leakage                           :         0.00340897
     valence                                :        32.00000000
     interstitial                           :        17.96350383
     charge in muffin-tin spheres :
                  atom     1     C          :         3.75402707
                  atom     2     C          :         3.75442819
                  atom     3     C          :         3.75507547
                  atom     4     C          :         3.75462762
                  atom     5     C          :         3.75458025
                  atom     6     C          :         3.75511087
                  atom     7     C          :         3.75458946
                  atom     8     C          :         3.75405724
     total charge in muffin-tins            :        30.03649617
     total charge                           :        48.00000000
 
 Estimated fundamental gap                  :         0.15288061
        valence-band maximum at    1      0.0000  0.0000  0.0000
     conduction-band minimum at  174      0.6250  0.6250  0.6667
 
 Wall time (seconds)                        :       463.82
 
 RMS change in effective potential (target) :  0.146503E-02  ( 0.100000E-05)
 Absolute change in total energy   (target) :  0.540365E-04  ( 0.100000E-05)
 Charge distance                   (target) :  0.254231E-03  ( 0.100000E-04)
 Abs. change in max-nonIBS-force   (target) :  0.192691E-03  ( 0.500000E-04)
 
++++++++++++++++++++++++++++++++++++++++++++++++++++++++++++++++++++++++++++++++
+ SCF iteration number :    5                                                  +
++++++++++++++++++++++++++++++++++++++++++++++++++++++++++++++++++++++++++++++++
 Total energy                               :      -304.79348193
 _______________________________________________________________
 Fermi energy                               :         0.51749051
 Kinetic energy                             :       303.61993883
 Coulomb energy                             :      -564.99824892
 Exchange energy                            :       -41.63642261
 Correlation energy                         :        -1.77874923
 
 DOS at Fermi energy (states/Ha/cell)       :         0.00000000
 
 Electron charges :
     core                                   :        16.00000000
     core leakage                           :         0.00340897
     valence                                :        32.00000000
     interstitial                           :        17.96349982
     charge in muffin-tin spheres :
                  atom     1     C          :         3.75470293
                  atom     2     C          :         3.75472740
                  atom     3     C          :         3.75441071
                  atom     4     C          :         3.75433449
                  atom     5     C          :         3.75530112
                  atom     6     C          :         3.75513878
                  atom     7     C          :         3.75386402
                  atom     8     C          :         3.75402073
     total charge in muffin-tins            :        30.03650018
     total charge                           :        48.00000000
 
 Estimated fundamental gap                  :         0.15290187
        valence-band maximum at    1      0.0000  0.0000  0.0000
     conduction-band minimum at   92      0.3750  0.3750  0.3333
 
 Wall time (seconds)                        :       581.37
 
 RMS change in effective potential (target) :  0.219441E-03  ( 0.100000E-05)
 Absolute change in total energy   (target) :  0.539430E-04  ( 0.100000E-05)
 Charge distance                   (target) :  0.189972E-03  ( 0.100000E-04)
 Abs. change in max-nonIBS-force   (target) :  0.463867E-02  ( 0.500000E-04)
 
++++++++++++++++++++++++++++++++++++++++++++++++++++++++++++++++++++++++++++++++
+ SCF iteration number :    6                                                  +
++++++++++++++++++++++++++++++++++++++++++++++++++++++++++++++++++++++++++++++++
 Total energy                               :      -304.79351067
 _______________________________________________________________
 Fermi energy                               :         0.51749191
 Kinetic energy                             :       303.61992249
 Coulomb energy                             :      -564.99826017
 Exchange energy                            :       -41.63642382
 Correlation energy                         :        -1.77874917
 
 DOS at Fermi energy (states/Ha/cell)       :         0.00000000
 
 Electron charges :
     core                                   :        16.00000000
     core leakage                           :         0.00340897
     valence                                :        32.00000000
     interstitial                           :        17.96349780
     charge in muffin-tin spheres :
                  atom     1     C          :         3.75463972
                  atom     2     C          :         3.75468225
                  atom     3     C          :         3.75446582
                  atom     4     C          :         3.75438212
                  atom     5     C          :         3.75533356
                  atom     6     C          :         3.75526545
                  atom     7     C          :         3.75383475
                  atom     8     C          :         3.75389853
     total charge in muffin-tins            :        30.03650220
     total charge                           :        48.00000000
 
 Estimated fundamental gap                  :         0.15289897
        valence-band maximum at    1      0.0000  0.0000  0.0000
     conduction-band minimum at  174      0.6250  0.6250  0.6667
 
 Wall time (seconds)                        :       699.59
 
 RMS change in effective potential (target) :  0.875361E-04  ( 0.100000E-05)
 Absolute change in total energy   (target) :  0.287420E-04  ( 0.100000E-05)
 Charge distance                   (target) :  0.256420E-04  ( 0.100000E-04)
 Abs. change in max-nonIBS-force   (target) :  0.163215E-04  ( 0.500000E-04)
 
++++++++++++++++++++++++++++++++++++++++++++++++++++++++++++++++++++++++++++++++
+ SCF iteration number :    7                                                  +
++++++++++++++++++++++++++++++++++++++++++++++++++++++++++++++++++++++++++++++++
 Total energy                               :      -304.79350655
 _______________________________________________________________
 Fermi energy                               :         0.51749170
 Kinetic energy                             :       303.61992831
 Coulomb energy                             :      -564.99826179
 Exchange energy                            :       -41.63642390
 Correlation energy                         :        -1.77874917
 
 DOS at Fermi energy (states/Ha/cell)       :         0.00000000
 
 Electron charges :
     core                                   :        16.00000000
     core leakage                           :         0.00340897
     valence                                :        32.00000000
     interstitial                           :        17.96349784
     charge in muffin-tin spheres :
                  atom     1     C          :         3.75463308
                  atom     2     C          :         3.75467237
                  atom     3     C          :         3.75447825
                  atom     4     C          :         3.75438972
                  atom     5     C          :         3.75534206
                  atom     6     C          :         3.75526047
                  atom     7     C          :         3.75382632
                  atom     8     C          :         3.75389988
     total charge in muffin-tins            :        30.03650216
     total charge                           :        48.00000000
 
 Estimated fundamental gap                  :         0.15289950
        valence-band maximum at    1      0.0000  0.0000  0.0000
     conduction-band minimum at  174      0.6250  0.6250  0.6667
 
 Wall time (seconds)                        :       817.57
 
 RMS change in effective potential (target) :  0.638486E-04  ( 0.100000E-05)
 Absolute change in total energy   (target) :  0.412148E-05  ( 0.100000E-05)
 Charge distance                   (target) :  0.114367E-04  ( 0.100000E-04)
 Abs. change in max-nonIBS-force   (target) :  0.293275E-03  ( 0.500000E-04)
 
++++++++++++++++++++++++++++++++++++++++++++++++++++++++++++++++++++++++++++++++
+ SCF iteration number :    8                                                  +
++++++++++++++++++++++++++++++++++++++++++++++++++++++++++++++++++++++++++++++++
 Total energy                               :      -304.79350555
 _______________________________________________________________
 Fermi energy                               :         0.51749191
 Kinetic energy                             :       303.61992926
 Coulomb energy                             :      -564.99826177
 Exchange energy                            :       -41.63642388
 Correlation energy                         :        -1.77874917
 
 DOS at Fermi energy (states/Ha/cell)       :         0.00000000
 
 Electron charges :
     core                                   :        16.00000000
     core leakage                           :         0.00340897
     valence                                :        32.00000000
     interstitial                           :        17.96349791
     charge in muffin-tin spheres :
                  atom     1     C          :         3.75462639
                  atom     2     C          :         3.75470313
                  atom     3     C          :         3.75447961
                  atom     4     C          :         3.75436220
                  atom     5     C          :         3.75532440
                  atom     6     C          :         3.75527651
                  atom     7     C          :         3.75384220
                  atom     8     C          :         3.75388766
     total charge in muffin-tins            :        30.03650209
     total charge                           :        48.00000000
 
 Estimated fundamental gap                  :         0.15289912
        valence-band maximum at    1      0.0000  0.0000  0.0000
     conduction-band minimum at   92      0.3750  0.3750  0.3333
 
 Wall time (seconds)                        :       933.17
 
 RMS change in effective potential (target) :  0.383270E-04  ( 0.100000E-05)
 Absolute change in total energy   (target) :  0.100175E-05  ( 0.100000E-05)
 Charge distance                   (target) :  0.637997E-05  ( 0.100000E-04)
 Abs. change in max-nonIBS-force   (target) :  0.170322E-03  ( 0.500000E-04)
 
++++++++++++++++++++++++++++++++++++++++++++++++++++++++++++++++++++++++++++++++
+ SCF iteration number :    9                                                  +
++++++++++++++++++++++++++++++++++++++++++++++++++++++++++++++++++++++++++++++++
 Total energy                               :      -304.79350284
 _______________________________________________________________
 Fermi energy                               :         0.51749197
 Kinetic energy                             :       303.61993208
 Coulomb energy                             :      -564.99826189
 Exchange energy                            :       -41.63642386
 Correlation energy                         :        -1.77874917
 
 DOS at Fermi energy (states/Ha/cell)       :         0.00000000
 
 Electron charges :
     core                                   :        16.00000000
     core leakage                           :         0.00340897
     valence                                :        32.00000000
     interstitial                           :        17.96349800
     charge in muffin-tin spheres :
                  atom     1     C          :         3.75462320
                  atom     2     C          :         3.75468591
                  atom     3     C          :         3.75448569
                  atom     4     C          :         3.75437729
                  atom     5     C          :         3.75534295
                  atom     6     C          :         3.75528757
                  atom     7     C          :         3.75382536
                  atom     8     C          :         3.75387403
     total charge in muffin-tins            :        30.03650200
     total charge                           :        48.00000000
 
 Estimated fundamental gap                  :         0.15289908
        valence-band maximum at    1      0.0000  0.0000  0.0000
     conduction-band minimum at  174      0.6250  0.6250  0.6667
 
 Wall time (seconds)                        :      1051.73
 
 RMS change in effective potential (target) :  0.180780E-04  ( 0.100000E-05)
 Absolute change in total energy   (target) :  0.271288E-05  ( 0.100000E-05)
 Charge distance                   (target) :  0.615531E-05  ( 0.100000E-04)
 Abs. change in max-nonIBS-force   (target) :  0.257340E-03  ( 0.500000E-04)
 
++++++++++++++++++++++++++++++++++++++++++++++++++++++++++++++++++++++++++++++++
+ SCF iteration number :   10                                                  +
++++++++++++++++++++++++++++++++++++++++++++++++++++++++++++++++++++++++++++++++
 Total energy                               :      -304.79350124
 _______________________________________________________________
 Fermi energy                               :         0.51749196
 Kinetic energy                             :       303.61993381
 Coulomb energy                             :      -564.99826202
 Exchange energy                            :       -41.63642386
 Correlation energy                         :        -1.77874917
 
 DOS at Fermi energy (states/Ha/cell)       :         0.00000000
 
 Electron charges :
     core                                   :        16.00000000
     core leakage                           :         0.00340897
     valence                                :        32.00000000
     interstitial                           :        17.96349805
     charge in muffin-tin spheres :
                  atom     1     C          :         3.75461956
                  atom     2     C          :         3.75469030
                  atom     3     C          :         3.75448938
                  atom     4     C          :         3.75437370
                  atom     5     C          :         3.75534271
                  atom     6     C          :         3.75529058
                  atom     7     C          :         3.75382426
                  atom     8     C          :         3.75387145
     total charge in muffin-tins            :        30.03650195
     total charge                           :        48.00000000
 
 Estimated fundamental gap                  :         0.15289913
        valence-band maximum at    1      0.0000  0.0000  0.0000
     conduction-band minimum at  174      0.6250  0.6250  0.6667
 
 Wall time (seconds)                        :      1168.51
 
 RMS change in effective potential (target) :  0.777920E-05  ( 0.100000E-05)
 Absolute change in total energy   (target) :  0.159785E-05  ( 0.100000E-05)
 Charge distance                   (target) :  0.288200E-05  ( 0.100000E-04)
 Abs. change in max-nonIBS-force   (target) :  0.179969E-03  ( 0.500000E-04)
 
++++++++++++++++++++++++++++++++++++++++++++++++++++++++++++++++++++++++++++++++
+ SCF iteration number :   11                                                  +
++++++++++++++++++++++++++++++++++++++++++++++++++++++++++++++++++++++++++++++++
 Total energy                               :      -304.79350025
 _______________________________________________________________
 Fermi energy                               :         0.51749197
 Kinetic energy                             :       303.61993495
 Coulomb energy                             :      -564.99826217
 Exchange energy                            :       -41.63642386
 Correlation energy                         :        -1.77874917
 
 DOS at Fermi energy (states/Ha/cell)       :         0.00000000
 
 Electron charges :
     core                                   :        16.00000000
     core leakage                           :         0.00340897
     valence                                :        32.00000000
     interstitial                           :        17.96349807
     charge in muffin-tin spheres :
                  atom     1     C          :         3.75462003
                  atom     2     C          :         3.75468769
                  atom     3     C          :         3.75449069
                  atom     4     C          :         3.75437416
                  atom     5     C          :         3.75534794
                  atom     6     C          :         3.75529506
                  atom     7     C          :         3.75382142
                  atom     8     C          :         3.75386495
     total charge in muffin-tins            :        30.03650193
     total charge                           :        48.00000000
 
 Estimated fundamental gap                  :         0.15289916
        valence-band maximum at    1      0.0000  0.0000  0.0000
     conduction-band minimum at  174      0.6250  0.6250  0.6667
 
 Wall time (seconds)                        :      1286.83
 
 RMS change in effective potential (target) :  0.110521E-05  ( 0.100000E-05)
 Absolute change in total energy   (target) :  0.990421E-06  ( 0.100000E-05)
 Charge distance                   (target) :  0.222177E-05  ( 0.100000E-04)
 Abs. change in max-nonIBS-force   (target) :  0.609402E-04  ( 0.500000E-04)
 
++++++++++++++++++++++++++++++++++++++++++++++++++++++++++++++++++++++++++++++++
+ SCF iteration number :   12                                                  +
++++++++++++++++++++++++++++++++++++++++++++++++++++++++++++++++++++++++++++++++
 Total energy                               :      -304.79350017
 _______________________________________________________________
 Fermi energy                               :         0.51749197
 Kinetic energy                             :       303.61993499
 Coulomb energy                             :      -564.99826213
 Exchange energy                            :       -41.63642386
 Correlation energy                         :        -1.77874917
 
 DOS at Fermi energy (states/Ha/cell)       :         0.00000000
 
 Electron charges :
     core                                   :        16.00000000
     core leakage                           :         0.00340897
     valence                                :        32.00000000
     interstitial                           :        17.96349808
     charge in muffin-tin spheres :
                  atom     1     C          :         3.75461824
                  atom     2     C          :         3.75468847
                  atom     3     C          :         3.75449119
                  atom     4     C          :         3.75437535
                  atom     5     C          :         3.75534742
                  atom     6     C          :         3.75529495
                  atom     7     C          :         3.75381960
                  atom     8     C          :         3.75386672
     total charge in muffin-tins            :        30.03650192
     total charge                           :        48.00000000
 
 Estimated fundamental gap                  :         0.15289916
        valence-band maximum at    1      0.0000  0.0000  0.0000
     conduction-band minimum at   92      0.3750  0.3750  0.3333
 
 Wall time (seconds)                        :      1405.32
 
 RMS change in effective potential (target) :  0.315778E-06  ( 0.100000E-05)
 Absolute change in total energy   (target) :  0.794594E-07  ( 0.100000E-05)
 Charge distance                   (target) :  0.310556E-06  ( 0.100000E-04)
 Abs. change in max-nonIBS-force   (target) :  0.243454E-05  ( 0.500000E-04)
 
++++++++++++++++++++++++++++++++++++++++++++++++++++++++++++++++++++++++++++++++
+ SCF iteration number :   13                                                  +
++++++++++++++++++++++++++++++++++++++++++++++++++++++++++++++++++++++++++++++++
 Total energy                               :      -304.79350013
 _______________________________________________________________
 Fermi energy                               :         0.51749197
 Kinetic energy                             :       303.61993500
 Coulomb energy                             :      -564.99826211
 Exchange energy                            :       -41.63642386
 Correlation energy                         :        -1.77874917
 
 DOS at Fermi energy (states/Ha/cell)       :         0.00000000
 
 Electron charges :
     core                                   :        16.00000000
     core leakage                           :         0.00340897
     valence                                :        32.00000000
     interstitial                           :        17.96349808
     charge in muffin-tin spheres :
                  atom     1     C          :         3.75461855
                  atom     2     C          :         3.75468791
                  atom     3     C          :         3.75449162
                  atom     4     C          :         3.75437515
                  atom     5     C          :         3.75534793
                  atom     6     C          :         3.75529460
                  atom     7     C          :         3.75381980
                  atom     8     C          :         3.75386635
     total charge in muffin-tins            :        30.03650192
     total charge                           :        48.00000000
 
 Estimated fundamental gap                  :         0.15289916
        valence-band maximum at    1      0.0000  0.0000  0.0000
     conduction-band minimum at  174      0.6250  0.6250  0.6667
 
 Wall time (seconds)                        :      1524.87
 
 RMS change in effective potential (target) :  0.182429E-06  ( 0.100000E-05)
 Absolute change in total energy   (target) :  0.364526E-07  ( 0.100000E-05)
 Charge distance                   (target) :  0.113969E-06  ( 0.100000E-04)
 Abs. change in max-nonIBS-force   (target) :  0.123116E-05  ( 0.500000E-04)
                                                                                
++++++++++++++++++++++++++++++++++++++++++++++++++++++++++++++++++++++++++++++++
| Convergency criteria checked for the last 2 iterations                       +
| Convergence targets achieved. Performing final SCF iteration                 +
++++++++++++++++++++++++++++++++++++++++++++++++++++++++++++++++++++++++++++++++
 Total energy                               :      -304.79350014
 _______________________________________________________________
 Fermi energy                               :         0.51749197
 Kinetic energy                             :       303.61993500
 Coulomb energy                             :      -564.99826211
 Exchange energy                            :       -41.63642386
 Correlation energy                         :        -1.77874917
 
 DOS at Fermi energy (states/Ha/cell)       :         0.00000000
 
 Electron charges :
     core                                   :        16.00000000
     core leakage                           :         0.00340897
     valence                                :        32.00000000
     interstitial                           :        17.96349808
     charge in muffin-tin spheres :
                  atom     1     C          :         3.75461856
                  atom     2     C          :         3.75468805
                  atom     3     C          :         3.75449128
                  atom     4     C          :         3.75437527
                  atom     5     C          :         3.75534777
                  atom     6     C          :         3.75529488
                  atom     7     C          :         3.75381977
                  atom     8     C          :         3.75386635
     total charge in muffin-tins            :        30.03650192
     total charge                           :        48.00000000
 
 Estimated fundamental gap                  :         0.15289916
        valence-band maximum at    1      0.0000  0.0000  0.0000
     conduction-band minimum at  174      0.6250  0.6250  0.6667
 
++++++++++++++++++++++++++++++++++++++++++++++++++++++++++++++++++++++++++++++++
+ Self-consistent loop stopped                                                 +
++++++++++++++++++++++++++++++++++++++++++++++++++++++++++++++++++++++++++++++++
 STATE.OUT is written
 
--------------------------------------------------------------------------------
- Writing atomic positions and forces                                          -
--------------------------------------------------------------------------------
 
 Atomic positions (lattice) :
 atom     1   C  :     0.99851896    0.00088863    0.99970379
 atom     2   C  :     0.75000000    0.75000000    0.75000000
 atom     3   C  :     0.50148104    0.49911137    0.50029621
 atom     4   C  :     0.25000000    0.25000000    0.25000000
 atom     5   C  :     0.06250000    0.06250000    0.81250000
 atom     6   C  :     0.81250000    0.81250000    0.56250000
 atom     7   C  :     0.56250000    0.56250000    0.31250000
 atom     8   C  :     0.31250000    0.31250000    0.06250000
 
 Total atomic forces including IBS (cartesian) :
 atom     1   C  :    -0.00336096   -0.00030566   -0.00030566
 atom     2   C  :    -0.00000424   -0.00001874   -0.00001874
 atom     3   C  :     0.00336267    0.00027105    0.00027105
 atom     4   C  :    -0.00000172   -0.00001731   -0.00001731
 atom     5   C  :     0.00067623    0.00015271    0.00015271
 atom     6   C  :    -0.00228028    0.00014922    0.00014922
 atom     7   C  :    -0.00067595   -0.00011558   -0.00011558
 atom     8   C  :     0.00228424   -0.00011568   -0.00011568
 
 Atomic force components including IBS (cartesian) :
 atom     1   C  :    -0.00351489   -0.00038777   -0.00038777   HF force
                 :     0.00010001    0.00007853    0.00007853   core correction
                 :     0.00005392    0.00000357    0.00000357   IBS correction
 atom     2   C  :    -0.00004673    0.00012461    0.00012461   HF force
                 :     0.00002822   -0.00013906   -0.00013906   core correction
                 :     0.00001427   -0.00000429   -0.00000429   IBS correction
 atom     3   C  :     0.00351141    0.00037097    0.00037097   HF force
                 :    -0.00012396   -0.00009540   -0.00009540   core correction
                 :    -0.00002478   -0.00000452   -0.00000452   IBS correction
 atom     4   C  :     0.00002570   -0.00014191   -0.00014191   HF force
                 :    -0.00004344    0.00012140    0.00012140   core correction
                 :     0.00001602    0.00000319    0.00000319   IBS correction
 atom     5   C  :     0.00065961    0.00010880    0.00010880   HF force
                 :     0.00003981    0.00004702    0.00004702   core correction
                 :    -0.00002319   -0.00000312   -0.00000312   IBS correction
 atom     6   C  :    -0.00252771    0.00008876    0.00008876   HF force
                 :     0.00023472    0.00006407    0.00006407   core correction
                 :     0.00001271   -0.00000361   -0.00000361   IBS correction
 atom     7   C  :    -0.00065669   -0.00008945   -0.00008945   HF force
                 :    -0.00001481   -0.00003007   -0.00003007   core correction
                 :    -0.00000445    0.00000395    0.00000395   IBS correction
 atom     8   C  :     0.00254930   -0.00007401   -0.00007401   HF force
                 :    -0.00022056   -0.00004650   -0.00004650   core correction
                 :    -0.00004449    0.00000483    0.00000483   IBS correction
 
********************************************************************************
* Groundstate module stopped                                                   *
********************************************************************************
 
 Total time spent (seconds)                 :      1825.97
================================================================================
| EXCITING NITROGEN-13 stopped                                                 =
================================================================================
