   2 : nsymcrys
 
Crystal symmetry, Bravais symmetry :    1   1
 inverse operations		     :    1   1
 spatial rotation and inverse (lattice coordinates):
   1   0   0        1   0   0
   0   1   0        0   1   0
   0   0   1        0   0   1
 spatial rotation and inverse (Cartesian coordinates):
   1.000000000      0.5551115123E-16  0.5551115123E-16        1.000000000      0.5551115123E-16  0.5551115123E-16
  0.5551115123E-16   1.000000000      0.5551115123E-16       0.5551115123E-16   1.000000000      0.5551115123E-16
  0.5551115123E-16  0.5551115123E-16   1.000000000           0.5551115123E-16  0.5551115123E-16   1.000000000    
 spatial translation and inverse (lattice coordinates) :
   0.000000000       0.000000000       0.000000000            0.000000000       0.000000000       0.000000000    
 spatial translation and inverse (Cartesian coordinates) :
   0.000000000       0.000000000       0.000000000            0.000000000       0.000000000       0.000000000    
 global spin rotation and inverse (lattice coordinates) :
   1   0   0        1   0   0
   0   1   0        0   1   0
   0   0   1        0   0   1
 global spin rotation and inverse (Cartesian coordinates) :
   1.000000000      0.5551115123E-16  0.5551115123E-16        1.000000000      0.5551115123E-16  0.5551115123E-16
  0.5551115123E-16   1.000000000      0.5551115123E-16       0.5551115123E-16   1.000000000      0.5551115123E-16
  0.5551115123E-16  0.5551115123E-16   1.000000000           0.5551115123E-16  0.5551115123E-16   1.000000000    
 
Crystal symmetry, Bravais symmetry :    2   9
 inverse operations		     :    2   9
 spatial rotation and inverse (lattice coordinates):
   1   0   0        1   0   0
  -1  -1  -1       -1  -1  -1
   0   0   1        0   0   1
 spatial rotation and inverse (Cartesian coordinates):
   1.000000000      0.5551115123E-16  0.5551115123E-16        1.000000000      0.5551115123E-16  0.5551115123E-16
   0.000000000       0.000000000       1.000000000            0.000000000       0.000000000       1.000000000    
  0.1110223025E-15   1.000000000      0.5551115123E-16       0.1110223025E-15   1.000000000      0.5551115123E-16
 spatial translation and inverse (lattice coordinates) :
   0.000000000       0.000000000       0.000000000            0.000000000       0.000000000       0.000000000    
 spatial translation and inverse (Cartesian coordinates) :
   0.000000000       0.000000000       0.000000000            0.000000000       0.000000000       0.000000000    
 global spin rotation and inverse (lattice coordinates) :
   1   0   0        1   0   0
   0   1   0        0   1   0
   0   0   1        0   0   1
 global spin rotation and inverse (Cartesian coordinates) :
   1.000000000      0.5551115123E-16  0.5551115123E-16        1.000000000      0.5551115123E-16  0.5551115123E-16
  0.5551115123E-16   1.000000000      0.5551115123E-16       0.5551115123E-16   1.000000000      0.5551115123E-16
  0.5551115123E-16  0.5551115123E-16   1.000000000           0.5551115123E-16  0.5551115123E-16   1.000000000    
