    0.860558868352E-02
    0.350660337351E-02
    0.437898946417E-02
    0.477639175545E-04
    0.116205339629E-03
    0.534460162415E-03
    0.255000499049E-03
    0.135097712106E-04
    0.439613720523E-05
    0.241591226279E-06
 
