    0.659069516882E-02
    0.520791341949E-03
    0.387710116829E-02
    0.653366036496E-03
    0.178802839326E-04
    0.265894708260E-06
    0.388505844879E-05
    0.143721478521E-05
    0.210450202357E-05
    0.379889017240E-06
    0.137618751150E-07
 
