    0.101685107845E-01
    0.345482853995E-02
    0.489452386348E-02
    0.450309997337E-04
    0.415528013301E-03
    0.530817123669E-03
    0.351756444604E-03
    0.383721046612E-04
    0.277814165526E-05
    0.390227132695E-06
 
