================================================================================
| EXCITING NITROGEN-13 started                                                 =
| version hash id: de0c1dba9f665d6c60514aa9e8bf40326ac9f394                    =
|                                                                              =
|                                                                              =
| Date (DD-MM-YYYY) : 04-05-2022                                               =
| Time (hh:mm:ss)   : 05:20:55                                                 =
|                                                                              =
| All units are atomic (Hartree, Bohr, etc.)                                   =
================================================================================
 
********************************************************************************
* Ground-state run resuming from STATE.OUT                                     *
********************************************************************************
 
++++++++++++++++++++++++++++++++++++++++++++++++++++++++++++++++++++++++++++++++
+ Starting initialization                                                      +
++++++++++++++++++++++++++++++++++++++++++++++++++++++++++++++++++++++++++++++++
 
 Lattice vectors (cartesian) :
     -3.3759957000      0.0000000000      3.3759957000
     -3.3759957000      0.0000000000     -3.3759957000
      0.0000000000    -13.5039828000      0.0000000000
 
 Reciprocal lattice vectors (cartesian) :
     -0.9305677296      0.0000000000      0.9305677296
     -0.9305677296      0.0000000000     -0.9305677296
      0.0000000000     -0.4652838648      0.0000000000
 
 Unit cell volume                           :     307.8191548003
 Brillouin zone volume                      :       0.8058309874
 
 Species :    1 (C)
     parameters loaded from                 :    C.xml
     name                                   :    carbon
     nuclear charge                         :      -6.00000000
     electronic charge                      :       6.00000000
     atomic mass                            :   21894.16673000
     muffin-tin radius                      :       1.25000000
     # of radial points in muffin-tin       :     250
 
     atomic positions (lattice) :
       1 :   0.00000000  0.00000000  0.00000000
       2 :   0.49881516  0.49881516  0.75000000
       3 :   0.00000000  0.00000000  0.50000000
       4 :   0.50118484  0.50118484  0.25000000
       5 :   0.00000000  0.50000000  0.87500000
       6 :   0.50000000  0.00000000  0.62500000
       7 :   0.00000000  0.50000000  0.37500000
       8 :   0.50000000  0.00000000  0.12500000
 
 Total number of atoms per unit cell        :       8
 
 Spin treatment                             :    spin-unpolarised
 
 Number of Bravais lattice symmetries       :      16
 Number of crystal symmetries               :       4
 
 Sphere radius used for k-point grid density:      33.42065234
 
 k-point grid                               :       8    8    3
 Total number of k-points                   :      55
 k-point set is reduced with crystal symmetries
 
 R^MT_min * |G+k|_max (rgkmax)              :       8.00000000
 Species with R^MT_min                      :       1 (C)
 Maximum |G+k| for APW functions            :       6.40000000
 Maximum |G| for potential and density      :      16.00000000
 
 G-vector grid sizes                        :      25    25    72
 Total number of G-vectors                  :   21197
 
 Maximum angular momentum used for
     APW functions                          :       8
     computing H and O matrix elements      :       8
     potential and density                  :       8
     inner part of muffin-tin               :       2
 
 Total nuclear charge                       :     -48.00000000
 Total electronic charge                    :      48.00000000
 Total core charge                          :      16.00000000
 Total valence charge                       :      32.00000000
 
 Number of empty states                     :      20
 Total number of valence states             :      37
 
 Maximum Hamiltonian size                   :    1436
 Maximum number of plane-waves              :    1404
 Total number of local-orbitals             :      32
 
 Exchange-correlation type                  :      20
     Perdew-Burke-Ernzerhof, Phys. Rev. Lett. 77, 3865 (1996)
     Generalised gradient approximation (GGA)
 
 Smearing scheme                            :    Gaussian
 Smearing width                             :       0.00010000
 
 Using multisecant Broyden potential mixing
 
++++++++++++++++++++++++++++++++++++++++++++++++++++++++++++++++++++++++++++++++
+ Ending initialization                                                        +
++++++++++++++++++++++++++++++++++++++++++++++++++++++++++++++++++++++++++++++++
 
********************************************************************************
* Groundstate module started                                                   *
********************************************************************************
 Output level for this task is set to normal
 
++++++++++++++++++++++++++++++++++++++++++++++++++++++++++++++++++++++++++++++++
+ Self-consistent loop started                                                 +
++++++++++++++++++++++++++++++++++++++++++++++++++++++++++++++++++++++++++++++++
 Potential read in from STATE.OUT
 
 
++++++++++++++++++++++++++++++++++++++++++++++++++++++++++++++++++++++++++++++++
+ SCF iteration number :    1                                                  +
++++++++++++++++++++++++++++++++++++++++++++++++++++++++++++++++++++++++++++++++
 Total energy                               :      -304.79355676
 _______________________________________________________________
 Fermi energy                               :         0.51690921
 Kinetic energy                             :       303.61986777
 Coulomb energy                             :      -564.99826552
 Exchange energy                            :       -41.63640399
 Correlation energy                         :        -1.77875502
 
 DOS at Fermi energy (states/Ha/cell)       :         0.00000000
 
 Electron charges :
     core                                   :        16.00000000
     core leakage                           :         0.00340894
     valence                                :        32.00000000
     interstitial                           :        17.96355622
     charge in muffin-tin spheres :
                  atom     1     C          :         3.75456542
                  atom     2     C          :         3.75453396
                  atom     3     C          :         3.75456542
                  atom     4     C          :         3.75453396
                  atom     5     C          :         3.75456126
                  atom     6     C          :         3.75456126
                  atom     7     C          :         3.75456126
                  atom     8     C          :         3.75456126
     total charge in muffin-tins            :        30.03644378
     total charge                           :        48.00000000
 
 Estimated fundamental gap                  :         0.15180416
        valence-band maximum at    1      0.0000  0.0000  0.0000
     conduction-band minimum at   20      0.6250  0.3750  0.0000
 
 Wall time (seconds)                        :        33.53
 
++++++++++++++++++++++++++++++++++++++++++++++++++++++++++++++++++++++++++++++++
+ SCF iteration number :    2                                                  +
++++++++++++++++++++++++++++++++++++++++++++++++++++++++++++++++++++++++++++++++
 Total energy                               :      -304.79348591
 _______________________________________________________________
 Fermi energy                               :         0.51690855
 Kinetic energy                             :       303.61990976
 Coulomb energy                             :      -564.99823998
 Exchange energy                            :       -41.63640045
 Correlation energy                         :        -1.77875524
 
 DOS at Fermi energy (states/Ha/cell)       :         0.00000000
 
 Electron charges :
     core                                   :        16.00000000
     core leakage                           :         0.00340894
     valence                                :        32.00000000
     interstitial                           :        17.96356899
     charge in muffin-tin spheres :
                  atom     1     C          :         3.75456661
                  atom     2     C          :         3.75452958
                  atom     3     C          :         3.75456661
                  atom     4     C          :         3.75452958
                  atom     5     C          :         3.75455966
                  atom     6     C          :         3.75455966
                  atom     7     C          :         3.75455966
                  atom     8     C          :         3.75455966
     total charge in muffin-tins            :        30.03643101
     total charge                           :        48.00000000
 
 Estimated fundamental gap                  :         0.15180444
        valence-band maximum at    1      0.0000  0.0000  0.0000
     conduction-band minimum at   20      0.6250  0.3750  0.0000
 
 Wall time (seconds)                        :        66.86
 
 RMS change in effective potential (target) :  0.105316E-02  ( 0.100000E-05)
 Absolute change in total energy   (target) :  0.708436E-04  ( 0.100000E-05)
 Charge distance                   (target) :  0.216665E-03  ( 0.100000E-04)
 Abs. change in max-nonIBS-force   (target) :  0.101777E-01  ( 0.500000E-04)
 
++++++++++++++++++++++++++++++++++++++++++++++++++++++++++++++++++++++++++++++++
+ SCF iteration number :    3                                                  +
++++++++++++++++++++++++++++++++++++++++++++++++++++++++++++++++++++++++++++++++
 Total energy                               :      -304.79350315
 _______________________________________________________________
 Fermi energy                               :         0.51690888
 Kinetic energy                             :       303.61990431
 Coulomb energy                             :      -564.99825099
 Exchange energy                            :       -41.63640122
 Correlation energy                         :        -1.77875524
 
 DOS at Fermi energy (states/Ha/cell)       :         0.00000000
 
 Electron charges :
     core                                   :        16.00000000
     core leakage                           :         0.00340894
     valence                                :        32.00000000
     interstitial                           :        17.96356463
     charge in muffin-tin spheres :
                  atom     1     C          :         3.75456694
                  atom     2     C          :         3.75452935
                  atom     3     C          :         3.75456694
                  atom     4     C          :         3.75452935
                  atom     5     C          :         3.75456070
                  atom     6     C          :         3.75456070
                  atom     7     C          :         3.75456070
                  atom     8     C          :         3.75456070
     total charge in muffin-tins            :        30.03643537
     total charge                           :        48.00000000
 
 Estimated fundamental gap                  :         0.15180398
        valence-band maximum at    1      0.0000  0.0000  0.0000
     conduction-band minimum at   20      0.6250  0.3750  0.0000
 
 Wall time (seconds)                        :        99.35
 
 RMS change in effective potential (target) :  0.745803E-03  ( 0.100000E-05)
 Absolute change in total energy   (target) :  0.172369E-04  ( 0.100000E-05)
 Charge distance                   (target) :  0.783247E-04  ( 0.100000E-04)
 Abs. change in max-nonIBS-force   (target) :  0.346216E-02  ( 0.500000E-04)
 
++++++++++++++++++++++++++++++++++++++++++++++++++++++++++++++++++++++++++++++++
+ SCF iteration number :    4                                                  +
++++++++++++++++++++++++++++++++++++++++++++++++++++++++++++++++++++++++++++++++
 Total energy                               :      -304.79353548
 _______________________________________________________________
 Fermi energy                               :         0.51690907
 Kinetic energy                             :       303.61988198
 Coulomb energy                             :      -564.99826036
 Exchange energy                            :       -41.63640183
 Correlation energy                         :        -1.77875527
 
 DOS at Fermi energy (states/Ha/cell)       :         0.00000000
 
 Electron charges :
     core                                   :        16.00000000
     core leakage                           :         0.00340894
     valence                                :        32.00000000
     interstitial                           :        17.96355874
     charge in muffin-tin spheres :
                  atom     1     C          :         3.75456340
                  atom     2     C          :         3.75453343
                  atom     3     C          :         3.75456340
                  atom     4     C          :         3.75453343
                  atom     5     C          :         3.75456190
                  atom     6     C          :         3.75456190
                  atom     7     C          :         3.75456190
                  atom     8     C          :         3.75456190
     total charge in muffin-tins            :        30.03644126
     total charge                           :        48.00000000
 
 Estimated fundamental gap                  :         0.15180212
        valence-band maximum at    1      0.0000  0.0000  0.0000
     conduction-band minimum at   20      0.6250  0.3750  0.0000
 
 Wall time (seconds)                        :       133.06
 
 RMS change in effective potential (target) :  0.823762E-04  ( 0.100000E-05)
 Absolute change in total energy   (target) :  0.323279E-04  ( 0.100000E-05)
 Charge distance                   (target) :  0.138294E-03  ( 0.100000E-04)
 Abs. change in max-nonIBS-force   (target) :  0.489566E-02  ( 0.500000E-04)
 
++++++++++++++++++++++++++++++++++++++++++++++++++++++++++++++++++++++++++++++++
+ SCF iteration number :    5                                                  +
++++++++++++++++++++++++++++++++++++++++++++++++++++++++++++++++++++++++++++++++
 Total energy                               :      -304.79354285
 _______________________________________________________________
 Fermi energy                               :         0.51690918
 Kinetic energy                             :       303.61988007
 Coulomb energy                             :      -564.99826513
 Exchange energy                            :       -41.63640257
 Correlation energy                         :        -1.77875523
 
 DOS at Fermi energy (states/Ha/cell)       :         0.00000000
 
 Electron charges :
     core                                   :        16.00000000
     core leakage                           :         0.00340894
     valence                                :        32.00000000
     interstitial                           :        17.96355734
     charge in muffin-tin spheres :
                  atom     1     C          :         3.75457016
                  atom     2     C          :         3.75452641
                  atom     3     C          :         3.75457016
                  atom     4     C          :         3.75452641
                  atom     5     C          :         3.75456238
                  atom     6     C          :         3.75456238
                  atom     7     C          :         3.75456238
                  atom     8     C          :         3.75456238
     total charge in muffin-tins            :        30.03644266
     total charge                           :        48.00000000
 
 Estimated fundamental gap                  :         0.15180241
        valence-band maximum at    1      0.0000  0.0000  0.0000
     conduction-band minimum at   20      0.6250  0.3750  0.0000
 
 Wall time (seconds)                        :       165.54
 
 RMS change in effective potential (target) :  0.581261E-04  ( 0.100000E-05)
 Absolute change in total energy   (target) :  0.736971E-05  ( 0.100000E-05)
 Charge distance                   (target) :  0.232648E-04  ( 0.100000E-04)
 Abs. change in max-nonIBS-force   (target) :  0.433731E-04  ( 0.500000E-04)
 
++++++++++++++++++++++++++++++++++++++++++++++++++++++++++++++++++++++++++++++++
+ SCF iteration number :    6                                                  +
++++++++++++++++++++++++++++++++++++++++++++++++++++++++++++++++++++++++++++++++
 Total energy                               :      -304.79353533
 _______________________________________________________________
 Fermi energy                               :         0.51690923
 Kinetic energy                             :       303.61988580
 Coulomb energy                             :      -564.99826357
 Exchange energy                            :       -41.63640232
 Correlation energy                         :        -1.77875524
 
 DOS at Fermi energy (states/Ha/cell)       :         0.00000000
 
 Electron charges :
     core                                   :        16.00000000
     core leakage                           :         0.00340894
     valence                                :        32.00000000
     interstitial                           :        17.96355785
     charge in muffin-tin spheres :
                  atom     1     C          :         3.75456239
                  atom     2     C          :         3.75453449
                  atom     3     C          :         3.75456239
                  atom     4     C          :         3.75453449
                  atom     5     C          :         3.75456210
                  atom     6     C          :         3.75456210
                  atom     7     C          :         3.75456210
                  atom     8     C          :         3.75456210
     total charge in muffin-tins            :        30.03644215
     total charge                           :        48.00000000
 
 Estimated fundamental gap                  :         0.15180238
        valence-band maximum at    1      0.0000  0.0000  0.0000
     conduction-band minimum at   20      0.6250  0.3750  0.0000
 
 Wall time (seconds)                        :       199.52
 
 RMS change in effective potential (target) :  0.433432E-04  ( 0.100000E-05)
 Absolute change in total energy   (target) :  0.752023E-05  ( 0.100000E-05)
 Charge distance                   (target) :  0.862332E-05  ( 0.100000E-04)
 Abs. change in max-nonIBS-force   (target) :  0.418814E-03  ( 0.500000E-04)
 
++++++++++++++++++++++++++++++++++++++++++++++++++++++++++++++++++++++++++++++++
+ SCF iteration number :    7                                                  +
++++++++++++++++++++++++++++++++++++++++++++++++++++++++++++++++++++++++++++++++
 Total energy                               :      -304.79353136
 _______________________________________________________________
 Fermi energy                               :         0.51690925
 Kinetic energy                             :       303.61988917
 Coulomb energy                             :      -564.99826305
 Exchange energy                            :       -41.63640224
 Correlation energy                         :        -1.77875524
 
 DOS at Fermi energy (states/Ha/cell)       :         0.00000000
 
 Electron charges :
     core                                   :        16.00000000
     core leakage                           :         0.00340894
     valence                                :        32.00000000
     interstitial                           :        17.96355806
     charge in muffin-tin spheres :
                  atom     1     C          :         3.75457695
                  atom     2     C          :         3.75451947
                  atom     3     C          :         3.75457695
                  atom     4     C          :         3.75451947
                  atom     5     C          :         3.75456228
                  atom     6     C          :         3.75456228
                  atom     7     C          :         3.75456228
                  atom     8     C          :         3.75456228
     total charge in muffin-tins            :        30.03644194
     total charge                           :        48.00000000
 
 Estimated fundamental gap                  :         0.15180240
        valence-band maximum at    1      0.0000  0.0000  0.0000
     conduction-band minimum at   20      0.6250  0.3750  0.0000
 
 Wall time (seconds)                        :       232.46
 
 RMS change in effective potential (target) :  0.309534E-04  ( 0.100000E-05)
 Absolute change in total energy   (target) :  0.396529E-05  ( 0.100000E-05)
 Charge distance                   (target) :  0.558976E-05  ( 0.100000E-04)
 Abs. change in max-nonIBS-force   (target) :  0.532536E-03  ( 0.500000E-04)
 
++++++++++++++++++++++++++++++++++++++++++++++++++++++++++++++++++++++++++++++++
+ SCF iteration number :    8                                                  +
++++++++++++++++++++++++++++++++++++++++++++++++++++++++++++++++++++++++++++++++
 Total energy                               :      -304.79352377
 _______________________________________________________________
 Fermi energy                               :         0.51690931
 Kinetic energy                             :       303.61989562
 Coulomb energy                             :      -564.99826206
 Exchange energy                            :       -41.63640208
 Correlation energy                         :        -1.77875525
 
 DOS at Fermi energy (states/Ha/cell)       :         0.00000000
 
 Electron charges :
     core                                   :        16.00000000
     core leakage                           :         0.00340894
     valence                                :        32.00000000
     interstitial                           :        17.96355846
     charge in muffin-tin spheres :
                  atom     1     C          :         3.75456554
                  atom     2     C          :         3.75453123
                  atom     3     C          :         3.75456554
                  atom     4     C          :         3.75453123
                  atom     5     C          :         3.75456200
                  atom     6     C          :         3.75456200
                  atom     7     C          :         3.75456200
                  atom     8     C          :         3.75456200
     total charge in muffin-tins            :        30.03644154
     total charge                           :        48.00000000
 
 Estimated fundamental gap                  :         0.15180244
        valence-band maximum at    1      0.0000  0.0000  0.0000
     conduction-band minimum at   20      0.6250  0.3750  0.0000
 
 Wall time (seconds)                        :       266.48
 
 RMS change in effective potential (target) :  0.353613E-05  ( 0.100000E-05)
 Absolute change in total energy   (target) :  0.759265E-05  ( 0.100000E-05)
 Charge distance                   (target) :  0.892200E-05  ( 0.100000E-04)
 Abs. change in max-nonIBS-force   (target) :  0.351012E-03  ( 0.500000E-04)
 
++++++++++++++++++++++++++++++++++++++++++++++++++++++++++++++++++++++++++++++++
+ SCF iteration number :    9                                                  +
++++++++++++++++++++++++++++++++++++++++++++++++++++++++++++++++++++++++++++++++
 Total energy                               :      -304.79352231
 _______________________________________________________________
 Fermi energy                               :         0.51690932
 Kinetic energy                             :       303.61989678
 Coulomb energy                             :      -564.99826180
 Exchange energy                            :       -41.63640205
 Correlation energy                         :        -1.77875525
 
 DOS at Fermi energy (states/Ha/cell)       :         0.00000000
 
 Electron charges :
     core                                   :        16.00000000
     core leakage                           :         0.00340894
     valence                                :        32.00000000
     interstitial                           :        17.96355853
     charge in muffin-tin spheres :
                  atom     1     C          :         3.75456668
                  atom     2     C          :         3.75453026
                  atom     3     C          :         3.75456668
                  atom     4     C          :         3.75453026
                  atom     5     C          :         3.75456190
                  atom     6     C          :         3.75456190
                  atom     7     C          :         3.75456190
                  atom     8     C          :         3.75456190
     total charge in muffin-tins            :        30.03644147
     total charge                           :        48.00000000
 
 Estimated fundamental gap                  :         0.15180244
        valence-band maximum at    1      0.0000  0.0000  0.0000
     conduction-band minimum at   20      0.6250  0.3750  0.0000
 
 Wall time (seconds)                        :       300.71
 
 RMS change in effective potential (target) :  0.366642E-06  ( 0.100000E-05)
 Absolute change in total energy   (target) :  0.145664E-05  ( 0.100000E-05)
 Charge distance                   (target) :  0.121940E-05  ( 0.100000E-04)
 Abs. change in max-nonIBS-force   (target) :  0.384193E-04  ( 0.500000E-04)
 
++++++++++++++++++++++++++++++++++++++++++++++++++++++++++++++++++++++++++++++++
+ SCF iteration number :   10                                                  +
++++++++++++++++++++++++++++++++++++++++++++++++++++++++++++++++++++++++++++++++
 Total energy                               :      -304.79352232
 _______________________________________________________________
 Fermi energy                               :         0.51690932
 Kinetic energy                             :       303.61989680
 Coulomb energy                             :      -564.99826182
 Exchange energy                            :       -41.63640205
 Correlation energy                         :        -1.77875525
 
 DOS at Fermi energy (states/Ha/cell)       :         0.00000000
 
 Electron charges :
     core                                   :        16.00000000
     core leakage                           :         0.00340894
     valence                                :        32.00000000
     interstitial                           :        17.96355853
     charge in muffin-tin spheres :
                  atom     1     C          :         3.75456655
                  atom     2     C          :         3.75453015
                  atom     3     C          :         3.75456655
                  atom     4     C          :         3.75453015
                  atom     5     C          :         3.75456202
                  atom     6     C          :         3.75456202
                  atom     7     C          :         3.75456202
                  atom     8     C          :         3.75456202
     total charge in muffin-tins            :        30.03644147
     total charge                           :        48.00000000
 
 Estimated fundamental gap                  :         0.15180244
        valence-band maximum at    1      0.0000  0.0000  0.0000
     conduction-band minimum at   20      0.6250  0.3750  0.0000
 
 Wall time (seconds)                        :       334.43
 
 RMS change in effective potential (target) :  0.884909E-07  ( 0.100000E-05)
 Absolute change in total energy   (target) :  0.309177E-08  ( 0.100000E-05)
 Charge distance                   (target) :  0.203743E-06  ( 0.100000E-04)
 Abs. change in max-nonIBS-force   (target) :  0.285521E-05  ( 0.500000E-04)
 
++++++++++++++++++++++++++++++++++++++++++++++++++++++++++++++++++++++++++++++++
+ SCF iteration number :   11                                                  +
++++++++++++++++++++++++++++++++++++++++++++++++++++++++++++++++++++++++++++++++
 Total energy                               :      -304.79352232
 _______________________________________________________________
 Fermi energy                               :         0.51690932
 Kinetic energy                             :       303.61989680
 Coulomb energy                             :      -564.99826182
 Exchange energy                            :       -41.63640205
 Correlation energy                         :        -1.77875525
 
 DOS at Fermi energy (states/Ha/cell)       :         0.00000000
 
 Electron charges :
     core                                   :        16.00000000
     core leakage                           :         0.00340894
     valence                                :        32.00000000
     interstitial                           :        17.96355853
     charge in muffin-tin spheres :
                  atom     1     C          :         3.75456661
                  atom     2     C          :         3.75453030
                  atom     3     C          :         3.75456661
                  atom     4     C          :         3.75453030
                  atom     5     C          :         3.75456191
                  atom     6     C          :         3.75456191
                  atom     7     C          :         3.75456191
                  atom     8     C          :         3.75456191
     total charge in muffin-tins            :        30.03644147
     total charge                           :        48.00000000
 
 Estimated fundamental gap                  :         0.15180244
        valence-band maximum at    1      0.0000  0.0000  0.0000
     conduction-band minimum at   20      0.6250  0.3750  0.0000
 
 Wall time (seconds)                        :       368.19
 
 RMS change in effective potential (target) :  0.539117E-07  ( 0.100000E-05)
 Absolute change in total energy   (target) :  0.212026E-10  ( 0.100000E-05)
 Charge distance                   (target) :  0.342068E-07  ( 0.100000E-04)
 Abs. change in max-nonIBS-force   (target) :  0.353107E-06  ( 0.500000E-04)
                                                                                
++++++++++++++++++++++++++++++++++++++++++++++++++++++++++++++++++++++++++++++++
| Convergency criteria checked for the last 2 iterations                       +
| Convergence targets achieved. Performing final SCF iteration                 +
++++++++++++++++++++++++++++++++++++++++++++++++++++++++++++++++++++++++++++++++
 Total energy                               :      -304.79352232
 _______________________________________________________________
 Fermi energy                               :         0.51690932
 Kinetic energy                             :       303.61989680
 Coulomb energy                             :      -564.99826182
 Exchange energy                            :       -41.63640205
 Correlation energy                         :        -1.77875525
 
 DOS at Fermi energy (states/Ha/cell)       :         0.00000000
 
 Electron charges :
     core                                   :        16.00000000
     core leakage                           :         0.00340894
     valence                                :        32.00000000
     interstitial                           :        17.96355853
     charge in muffin-tin spheres :
                  atom     1     C          :         3.75456656
                  atom     2     C          :         3.75453026
                  atom     3     C          :         3.75456656
                  atom     4     C          :         3.75453026
                  atom     5     C          :         3.75456196
                  atom     6     C          :         3.75456196
                  atom     7     C          :         3.75456196
                  atom     8     C          :         3.75456196
     total charge in muffin-tins            :        30.03644147
     total charge                           :        48.00000000
 
 Estimated fundamental gap                  :         0.15180244
        valence-band maximum at    1      0.0000  0.0000  0.0000
     conduction-band minimum at   20      0.6250  0.3750  0.0000
 
++++++++++++++++++++++++++++++++++++++++++++++++++++++++++++++++++++++++++++++++
+ Self-consistent loop stopped                                                 +
++++++++++++++++++++++++++++++++++++++++++++++++++++++++++++++++++++++++++++++++
 STATE.OUT is written
 
--------------------------------------------------------------------------------
- Writing atomic positions and forces                                          -
--------------------------------------------------------------------------------
 
 Atomic positions (lattice) :
 atom     1   C  :     0.00000000    0.00000000    0.00000000
 atom     2   C  :     0.49881516    0.49881516    0.75000000
 atom     3   C  :     0.00000000    0.00000000    0.50000000
 atom     4   C  :     0.50118484    0.50118484    0.25000000
 atom     5   C  :     0.00000000    0.50000000    0.87500000
 atom     6   C  :     0.50000000    0.00000000    0.62500000
 atom     7   C  :     0.00000000    0.50000000    0.37500000
 atom     8   C  :     0.50000000    0.00000000    0.12500000
 
 Total atomic forces including IBS (cartesian) :
 atom     1   C  :     0.00000000    0.00000000   -0.00000046
 atom     2   C  :    -0.00308700    0.00000000    0.00000000
 atom     3   C  :     0.00000000    0.00000000    0.00000046
 atom     4   C  :     0.00308700    0.00000000    0.00000000
 atom     5   C  :     0.00143390   -0.00002562   -0.00031750
 atom     6   C  :     0.00143390    0.00002562    0.00031750
 atom     7   C  :    -0.00143390   -0.00002562    0.00031750
 atom     8   C  :    -0.00143390    0.00002562   -0.00031750
 
 Atomic force components including IBS (cartesian) :
 atom     1   C  :    -0.00000000    0.00000000   -0.00036121   HF force
                 :     0.00000000    0.00000000    0.00035338   core correction
                 :     0.00000000    0.00000000    0.00000737   IBS correction
 atom     2   C  :    -0.00294156   -0.00000000    0.00000000   HF force
                 :    -0.00017891    0.00000000    0.00000000   core correction
                 :     0.00003347    0.00000000   -0.00000000   IBS correction
 atom     3   C  :    -0.00000000    0.00000000    0.00036121   HF force
                 :     0.00000000    0.00000000   -0.00035338   core correction
                 :     0.00000000    0.00000000   -0.00000737   IBS correction
 atom     4   C  :     0.00294156    0.00000000    0.00000000   HF force
                 :     0.00017891    0.00000000    0.00000000   core correction
                 :    -0.00003347    0.00000000    0.00000000   IBS correction
 atom     5   C  :     0.00151790   -0.00002676   -0.00037684   HF force
                 :    -0.00006645    0.00000091    0.00005197   core correction
                 :    -0.00001755    0.00000022    0.00000736   IBS correction
 atom     6   C  :     0.00151790    0.00002676    0.00037684   HF force
                 :    -0.00006645   -0.00000091   -0.00005197   core correction
                 :    -0.00001755   -0.00000022   -0.00000736   IBS correction
 atom     7   C  :    -0.00151790   -0.00002676    0.00037684   HF force
                 :     0.00006645    0.00000091   -0.00005197   core correction
                 :     0.00001755    0.00000022   -0.00000736   IBS correction
 atom     8   C  :    -0.00151790    0.00002676   -0.00037684   HF force
                 :     0.00006645   -0.00000091    0.00005197   core correction
                 :     0.00001755   -0.00000022    0.00000736   IBS correction
 
********************************************************************************
* Groundstate module stopped                                                   *
********************************************************************************
 
 Total time spent (seconds)                 :       449.71
================================================================================
| EXCITING NITROGEN-13 stopped                                                 =
================================================================================
