  16 : nsymlat
 
   1
   1   0   0
   0   1   0
   0   0   1
 
   2
  -1   0   0
   0  -1   0
   0   0   1
 
   3
  -1   0   0
   0   1   0
   0   0  -1
 
   4
  -1   0   0
   0   1   0
   0   0   1
 
   5
   0  -1   0
  -1   0   0
   0   0  -1
 
   6
   0  -1   0
  -1   0   0
   0   0   1
 
   7
   0  -1   0
   1   0   0
   0   0  -1
 
   8
   0  -1   0
   1   0   0
   0   0   1
 
   9
   0   1   0
  -1   0   0
   0   0  -1
 
  10
   0   1   0
  -1   0   0
   0   0   1
 
  11
   0   1   0
   1   0   0
   0   0  -1
 
  12
   0   1   0
   1   0   0
   0   0   1
 
  13
   1   0   0
   0  -1   0
   0   0  -1
 
  14
   1   0   0
   0  -1   0
   0   0   1
 
  15
   1   0   0
   0   1   0
   0   0  -1
 
  16
  -1   0   0
   0  -1   0
   0   0  -1
