    -304.793558160    
    -304.793486338    
    -304.793502830    
    -304.793534063    
    -304.793542638    
    -304.793535261    
    -304.793531345    
    -304.793523686    
    -304.793522316    
    -304.793522321    
    -304.793522320    
    -304.793522320    
 
