    0.109526286494E-01
    0.368937709838E-02
    0.349587247119E-02
    0.254498591630E-02
    0.243421656579E-03
    0.494738282715E-03
    0.709542114472E-03
    0.636942340964E-03
    0.132427731354E-03
    0.664179122996E-05
    0.785379804569E-06
 
