================================================================================
| EXCITING NITROGEN-13 started                                                 =
| version hash id: de0c1dba9f665d6c60514aa9e8bf40326ac9f394                    =
|                                                                              =
|                                                                              =
| Date (DD-MM-YYYY) : 04-05-2022                                               =
| Time (hh:mm:ss)   : 05:28:25                                                 =
|                                                                              =
| All units are atomic (Hartree, Bohr, etc.)                                   =
================================================================================
 
********************************************************************************
* Ground-state run resuming from STATE.OUT                                     *
********************************************************************************
 
++++++++++++++++++++++++++++++++++++++++++++++++++++++++++++++++++++++++++++++++
+ Starting initialization                                                      +
++++++++++++++++++++++++++++++++++++++++++++++++++++++++++++++++++++++++++++++++
 
 Lattice vectors (cartesian) :
     -3.3759957000      0.0000000000     -3.3759957000
     -3.3759957000     -6.7519914000      3.3759957000
     -6.7519914000      3.3759957000      3.3759957000
 
 Reciprocal lattice vectors (cartesian) :
     -0.6979257972     -0.2326419324     -1.1632096620
     -0.2326419324     -0.6979257972      0.2326419324
     -0.4652838648      0.4652838648      0.4652838648
 
 Unit cell volume                           :     307.8191548003
 Brillouin zone volume                      :       0.8058309874
 
 Species :    1 (C)
     parameters loaded from                 :    C.xml
     name                                   :    carbon
     nuclear charge                         :      -6.00000000
     electronic charge                      :       6.00000000
     atomic mass                            :   21894.16673000
     muffin-tin radius                      :       1.25000000
     # of radial points in muffin-tin       :     250
 
     atomic positions (lattice) :
       1 :   0.99955569  0.99985190  0.99970379
       2 :   0.25000000  0.75000000  0.50000000
       3 :   0.50044431  0.50014810  0.00029621
       4 :   0.75000000  0.25000000  0.50000000
       5 :   0.43750000  0.81250000  0.12500000
       6 :   0.68750000  0.56250000  0.62500000
       7 :   0.93750000  0.31250000  0.12500000
       8 :   0.18750000  0.06250000  0.62500000
 
 Total number of atoms per unit cell        :       8
 
 Spin treatment                             :    spin-unpolarised
 
 Number of Bravais lattice symmetries       :       4
 Number of crystal symmetries               :       1
 
 Sphere radius used for k-point grid density:      33.42065234
 
 k-point grid                               :       8    5    5
 Total number of k-points                   :     200
 k-point set is reduced with crystal symmetries
 
 R^MT_min * |G+k|_max (rgkmax)              :       8.00000000
 Species with R^MT_min                      :       1 (C)
 Maximum |G+k| for APW functions            :       6.40000000
 Maximum |G| for potential and density      :      16.00000000
 
 G-vector grid sizes                        :      25    45    45
 Total number of G-vectors                  :   21191
 
 Maximum angular momentum used for
     APW functions                          :       8
     computing H and O matrix elements      :       8
     potential and density                  :       8
     inner part of muffin-tin               :       2
 
 Total nuclear charge                       :     -48.00000000
 Total electronic charge                    :      48.00000000
 Total core charge                          :      16.00000000
 Total valence charge                       :      32.00000000
 
 Number of empty states                     :      20
 Total number of valence states             :      37
 
 Maximum Hamiltonian size                   :    1408
 Maximum number of plane-waves              :    1376
 Total number of local-orbitals             :      32
 
 Exchange-correlation type                  :      20
     Perdew-Burke-Ernzerhof, Phys. Rev. Lett. 77, 3865 (1996)
     Generalised gradient approximation (GGA)
 
 Smearing scheme                            :    Gaussian
 Smearing width                             :       0.00010000
 
 Using multisecant Broyden potential mixing
 
++++++++++++++++++++++++++++++++++++++++++++++++++++++++++++++++++++++++++++++++
+ Ending initialization                                                        +
++++++++++++++++++++++++++++++++++++++++++++++++++++++++++++++++++++++++++++++++
 
********************************************************************************
* Groundstate module started                                                   *
********************************************************************************
 Output level for this task is set to normal
 
++++++++++++++++++++++++++++++++++++++++++++++++++++++++++++++++++++++++++++++++
+ Self-consistent loop started                                                 +
++++++++++++++++++++++++++++++++++++++++++++++++++++++++++++++++++++++++++++++++
 Supercell potential constructed from STATE.OUT
 
 
++++++++++++++++++++++++++++++++++++++++++++++++++++++++++++++++++++++++++++++++
+ SCF iteration number :    1                                                  +
++++++++++++++++++++++++++++++++++++++++++++++++++++++++++++++++++++++++++++++++
 Total energy                               :      -304.82967854
 _______________________________________________________________
 Fermi energy                               :         0.51587488
 Kinetic energy                             :       303.52418519
 Coulomb energy                             :      -564.94372206
 Exchange energy                            :       -41.63095998
 Correlation energy                         :        -1.77918170
 
 DOS at Fermi energy (states/Ha/cell)       :         0.00000000
 
 Electron charges :
     core                                   :        16.00000000
     core leakage                           :         0.00340894
     valence                                :        32.00000000
     interstitial                           :        17.97925780
     charge in muffin-tin spheres :
                  atom     1     C          :         3.75279325
                  atom     2     C          :         3.75229745
                  atom     3     C          :         3.75296202
                  atom     4     C          :         3.75240553
                  atom     5     C          :         3.75289262
                  atom     6     C          :         3.75232914
                  atom     7     C          :         3.75214934
                  atom     8     C          :         3.75291284
     total charge in muffin-tins            :        30.02074220
     total charge                           :        48.00000000
 
 Estimated fundamental gap                  :         0.15145144
        valence-band maximum at    1      0.0000  0.0000  0.0000
     conduction-band minimum at  148      0.3750  0.6000  0.6000
 
 Wall time (seconds)                        :       118.96
 
++++++++++++++++++++++++++++++++++++++++++++++++++++++++++++++++++++++++++++++++
+ SCF iteration number :    2                                                  +
++++++++++++++++++++++++++++++++++++++++++++++++++++++++++++++++++++++++++++++++
 Total energy                               :      -304.83150131
 _______________________________________________________________
 Fermi energy                               :         0.51613061
 Kinetic energy                             :       303.54168913
 Coulomb energy                             :      -564.96136769
 Exchange energy                            :       -41.63278227
 Correlation energy                         :        -1.77904048
 
 DOS at Fermi energy (states/Ha/cell)       :         0.00000000
 
 Electron charges :
     core                                   :        16.00000000
     core leakage                           :         0.00340852
     valence                                :        32.00000000
     interstitial                           :        17.97462434
     charge in muffin-tin spheres :
                  atom     1     C          :         3.75325506
                  atom     2     C          :         3.75298444
                  atom     3     C          :         3.75346479
                  atom     4     C          :         3.75298113
                  atom     5     C          :         3.75360082
                  atom     6     C          :         3.75285413
                  atom     7     C          :         3.75258054
                  atom     8     C          :         3.75365476
     total charge in muffin-tins            :        30.02537566
     total charge                           :        48.00000000
 
 Estimated fundamental gap                  :         0.15186709
        valence-band maximum at    1      0.0000  0.0000  0.0000
     conduction-band minimum at  102      0.6250  0.4000  0.4000
 
 Wall time (seconds)                        :       237.11
 
 RMS change in effective potential (target) :  0.991744E-02  ( 0.100000E-05)
 Absolute change in total energy   (target) :  0.182277E-02  ( 0.100000E-05)
 Charge distance                   (target) :  0.384104E-03  ( 0.100000E-04)
 Abs. change in max-nonIBS-force   (target) :  0.960065E-02  ( 0.500000E-04)
 
++++++++++++++++++++++++++++++++++++++++++++++++++++++++++++++++++++++++++++++++
+ SCF iteration number :    3                                                  +
++++++++++++++++++++++++++++++++++++++++++++++++++++++++++++++++++++++++++++++++
 Total energy                               :      -304.82941463
 _______________________________________________________________
 Fermi energy                               :         0.51637901
 Kinetic energy                             :       303.55813930
 Coulomb energy                             :      -564.97449607
 Exchange energy                            :       -41.63412200
 Correlation energy                         :        -1.77893586
 
 DOS at Fermi energy (states/Ha/cell)       :         0.00000000
 
 Electron charges :
     core                                   :        16.00000000
     core leakage                           :         0.00340831
     valence                                :        32.00000000
     interstitial                           :        17.97106873
     charge in muffin-tin spheres :
                  atom     1     C          :         3.75366227
                  atom     2     C          :         3.75348753
                  atom     3     C          :         3.75379763
                  atom     4     C          :         3.75348069
                  atom     5     C          :         3.75405155
                  atom     6     C          :         3.75326752
                  atom     7     C          :         3.75305719
                  atom     8     C          :         3.75412688
     total charge in muffin-tins            :        30.02893127
     total charge                           :        48.00000000
 
 Estimated fundamental gap                  :         0.15217770
        valence-band maximum at    1      0.0000  0.0000  0.0000
     conduction-band minimum at  102      0.6250  0.4000  0.4000
 
 Wall time (seconds)                        :       354.80
 
 RMS change in effective potential (target) :  0.729980E-02  ( 0.100000E-05)
 Absolute change in total energy   (target) :  0.208668E-02  ( 0.100000E-05)
 Charge distance                   (target) :  0.294738E-03  ( 0.100000E-04)
 Abs. change in max-nonIBS-force   (target) :  0.153844E-02  ( 0.500000E-04)
 
++++++++++++++++++++++++++++++++++++++++++++++++++++++++++++++++++++++++++++++++
+ SCF iteration number :    4                                                  +
++++++++++++++++++++++++++++++++++++++++++++++++++++++++++++++++++++++++++++++++
 Total energy                               :      -304.78740786
 _______________________________________________________________
 Fermi energy                               :         0.51742137
 Kinetic energy                             :       303.62298165
 Coulomb energy                             :      -564.99553708
 Exchange energy                            :       -41.63607761
 Correlation energy                         :        -1.77877482
 
 DOS at Fermi energy (states/Ha/cell)       :         0.00000000
 
 Electron charges :
     core                                   :        16.00000000
     core leakage                           :         0.00340920
     valence                                :        32.00000000
     interstitial                           :        17.96414940
     charge in muffin-tin spheres :
                  atom     1     C          :         3.75413324
                  atom     2     C          :         3.75463465
                  atom     3     C          :         3.75504747
                  atom     4     C          :         3.75383662
                  atom     5     C          :         3.75546052
                  atom     6     C          :         3.75429583
                  atom     7     C          :         3.75320752
                  atom     8     C          :         3.75523475
     total charge in muffin-tins            :        30.03585060
     total charge                           :        48.00000000
 
 Estimated fundamental gap                  :         0.15268098
        valence-band maximum at    1      0.0000  0.0000  0.0000
     conduction-band minimum at  148      0.3750  0.6000  0.6000
 
 Wall time (seconds)                        :       473.46
 
 RMS change in effective potential (target) :  0.103083E-02  ( 0.100000E-05)
 Absolute change in total energy   (target) :  0.420068E-01  ( 0.100000E-05)
 Charge distance                   (target) :  0.642611E-03  ( 0.100000E-04)
 Abs. change in max-nonIBS-force   (target) :  0.521422E-02  ( 0.500000E-04)
 
++++++++++++++++++++++++++++++++++++++++++++++++++++++++++++++++++++++++++++++++
+ SCF iteration number :    5                                                  +
++++++++++++++++++++++++++++++++++++++++++++++++++++++++++++++++++++++++++++++++
 Total energy                               :      -304.79297225
 _______________________________________________________________
 Fermi energy                               :         0.51736611
 Kinetic energy                             :       303.62017672
 Coulomb energy                             :      -564.99803579
 Exchange energy                            :       -41.63635872
 Correlation energy                         :        -1.77875447
 
 DOS at Fermi energy (states/Ha/cell)       :         0.00000000
 
 Electron charges :
     core                                   :        16.00000000
     core leakage                           :         0.00340900
     valence                                :        32.00000000
     interstitial                           :        17.96369996
     charge in muffin-tin spheres :
                  atom     1     C          :         3.75509559
                  atom     2     C          :         3.75407863
                  atom     3     C          :         3.75346278
                  atom     4     C          :         3.75571705
                  atom     5     C          :         3.75379991
                  atom     6     C          :         3.75390094
                  atom     7     C          :         3.75600985
                  atom     8     C          :         3.75423530
     total charge in muffin-tins            :        30.03630004
     total charge                           :        48.00000000
 
 Estimated fundamental gap                  :         0.15273083
        valence-band maximum at    1      0.0000  0.0000  0.0000
     conduction-band minimum at  102      0.6250  0.4000  0.4000
 
 Wall time (seconds)                        :       591.56
 
 RMS change in effective potential (target) :  0.120495E-02  ( 0.100000E-05)
 Absolute change in total energy   (target) :  0.556439E-02  ( 0.100000E-05)
 Charge distance                   (target) :  0.401470E-03  ( 0.100000E-04)
 Abs. change in max-nonIBS-force   (target) :  0.351020E-02  ( 0.500000E-04)
 
++++++++++++++++++++++++++++++++++++++++++++++++++++++++++++++++++++++++++++++++
+ SCF iteration number :    6                                                  +
++++++++++++++++++++++++++++++++++++++++++++++++++++++++++++++++++++++++++++++++
 Total energy                               :      -304.79346468
 _______________________________________________________________
 Fermi energy                               :         0.51736093
 Kinetic energy                             :       303.61984770
 Coulomb energy                             :      -564.99818148
 Exchange energy                            :       -41.63637779
 Correlation energy                         :        -1.77875312
 
 DOS at Fermi energy (states/Ha/cell)       :         0.00000000
 
 Electron charges :
     core                                   :        16.00000000
     core leakage                           :         0.00340898
     valence                                :        32.00000000
     interstitial                           :        17.96365294
     charge in muffin-tin spheres :
                  atom     1     C          :         3.75456364
                  atom     2     C          :         3.75456465
                  atom     3     C          :         3.75458530
                  atom     4     C          :         3.75440298
                  atom     5     C          :         3.75494032
                  atom     6     C          :         3.75424622
                  atom     7     C          :         3.75411961
                  atom     8     C          :         3.75492433
     total charge in muffin-tins            :        30.03634706
     total charge                           :        48.00000000
 
 Estimated fundamental gap                  :         0.15273563
        valence-band maximum at    1      0.0000  0.0000  0.0000
     conduction-band minimum at  102      0.6250  0.4000  0.4000
 
 Wall time (seconds)                        :       709.68
 
 RMS change in effective potential (target) :  0.748289E-04  ( 0.100000E-05)
 Absolute change in total energy   (target) :  0.492430E-03  ( 0.100000E-05)
 Charge distance                   (target) :  0.283567E-03  ( 0.100000E-04)
 Abs. change in max-nonIBS-force   (target) :  0.465881E-02  ( 0.500000E-04)
 
++++++++++++++++++++++++++++++++++++++++++++++++++++++++++++++++++++++++++++++++
+ SCF iteration number :    7                                                  +
++++++++++++++++++++++++++++++++++++++++++++++++++++++++++++++++++++++++++++++++
 Total energy                               :      -304.79359979
 _______________________________________________________________
 Fermi energy                               :         0.51736028
 Kinetic energy                             :       303.61978219
 Coulomb energy                             :      -564.99824449
 Exchange energy                            :       -41.63638490
 Correlation energy                         :        -1.77875260
 
 DOS at Fermi energy (states/Ha/cell)       :         0.00000000
 
 Electron charges :
     core                                   :        16.00000000
     core leakage                           :         0.00340897
     valence                                :        32.00000000
     interstitial                           :        17.96364008
     charge in muffin-tin spheres :
                  atom     1     C          :         3.75445161
                  atom     2     C          :         3.75447462
                  atom     3     C          :         3.75452729
                  atom     4     C          :         3.75457496
                  atom     5     C          :         3.75498262
                  atom     6     C          :         3.75416368
                  atom     7     C          :         3.75418578
                  atom     8     C          :         3.75499937
     total charge in muffin-tins            :        30.03635992
     total charge                           :        48.00000000
 
 Estimated fundamental gap                  :         0.15273637
        valence-band maximum at    1      0.0000  0.0000  0.0000
     conduction-band minimum at  148      0.3750  0.6000  0.6000
 
 Wall time (seconds)                        :       826.34
 
 RMS change in effective potential (target) :  0.612968E-04  ( 0.100000E-05)
 Absolute change in total energy   (target) :  0.135109E-03  ( 0.100000E-05)
 Charge distance                   (target) :  0.235332E-04  ( 0.100000E-04)
 Abs. change in max-nonIBS-force   (target) :  0.221681E-04  ( 0.500000E-04)
 
++++++++++++++++++++++++++++++++++++++++++++++++++++++++++++++++++++++++++++++++
+ SCF iteration number :    8                                                  +
++++++++++++++++++++++++++++++++++++++++++++++++++++++++++++++++++++++++++++++++
 Total energy                               :      -304.79360002
 _______________________________________________________________
 Fermi energy                               :         0.51736032
 Kinetic energy                             :       303.61978274
 Coulomb energy                             :      -564.99824521
 Exchange energy                            :       -41.63638495
 Correlation energy                         :        -1.77875260
 
 DOS at Fermi energy (states/Ha/cell)       :         0.00000000
 
 Electron charges :
     core                                   :        16.00000000
     core leakage                           :         0.00340897
     valence                                :        32.00000000
     interstitial                           :        17.96363985
     charge in muffin-tin spheres :
                  atom     1     C          :         3.75453647
                  atom     2     C          :         3.75451411
                  atom     3     C          :         3.75453295
                  atom     4     C          :         3.75450700
                  atom     5     C          :         3.75492321
                  atom     6     C          :         3.75420719
                  atom     7     C          :         3.75419511
                  atom     8     C          :         3.75494410
     total charge in muffin-tins            :        30.03636015
     total charge                           :        48.00000000
 
 Estimated fundamental gap                  :         0.15273635
        valence-band maximum at    1      0.0000  0.0000  0.0000
     conduction-band minimum at  102      0.6250  0.4000  0.4000
 
 Wall time (seconds)                        :       943.61
 
 RMS change in effective potential (target) :  0.651592E-05  ( 0.100000E-05)
 Absolute change in total energy   (target) :  0.223866E-06  ( 0.100000E-05)
 Charge distance                   (target) :  0.124691E-04  ( 0.100000E-04)
 Abs. change in max-nonIBS-force   (target) :  0.339927E-04  ( 0.500000E-04)
 
++++++++++++++++++++++++++++++++++++++++++++++++++++++++++++++++++++++++++++++++
+ SCF iteration number :    9                                                  +
++++++++++++++++++++++++++++++++++++++++++++++++++++++++++++++++++++++++++++++++
 Total energy                               :      -304.79357339
 _______________________________________________________________
 Fermi energy                               :         0.51736050
 Kinetic energy                             :       303.61979593
 Coulomb energy                             :      -564.99823305
 Exchange energy                            :       -41.63638357
 Correlation energy                         :        -1.77875270
 
 DOS at Fermi energy (states/Ha/cell)       :         0.00000000
 
 Electron charges :
     core                                   :        16.00000000
     core leakage                           :         0.00340897
     valence                                :        32.00000000
     interstitial                           :        17.96364218
     charge in muffin-tin spheres :
                  atom     1     C          :         3.75452924
                  atom     2     C          :         3.75451718
                  atom     3     C          :         3.75452892
                  atom     4     C          :         3.75451368
                  atom     5     C          :         3.75493076
                  atom     6     C          :         3.75419995
                  atom     7     C          :         3.75420206
                  atom     8     C          :         3.75493601
     total charge in muffin-tins            :        30.03635782
     total charge                           :        48.00000000
 
 Estimated fundamental gap                  :         0.15273622
        valence-band maximum at    1      0.0000  0.0000  0.0000
     conduction-band minimum at  102      0.6250  0.4000  0.4000
 
 Wall time (seconds)                        :      1060.70
 
 RMS change in effective potential (target) :  0.416569E-05  ( 0.100000E-05)
 Absolute change in total energy   (target) :  0.266286E-04  ( 0.100000E-05)
 Charge distance                   (target) :  0.223989E-05  ( 0.100000E-04)
 Abs. change in max-nonIBS-force   (target) :  0.241878E-04  ( 0.500000E-04)
 
++++++++++++++++++++++++++++++++++++++++++++++++++++++++++++++++++++++++++++++++
+ SCF iteration number :   10                                                  +
++++++++++++++++++++++++++++++++++++++++++++++++++++++++++++++++++++++++++++++++
 Total energy                               :      -304.79356362
 _______________________________________________________________
 Fermi energy                               :         0.51736056
 Kinetic energy                             :       303.61980081
 Coulomb energy                             :      -564.99822862
 Exchange energy                            :       -41.63638307
 Correlation energy                         :        -1.77875273
 
 DOS at Fermi energy (states/Ha/cell)       :         0.00000000
 
 Electron charges :
     core                                   :        16.00000000
     core leakage                           :         0.00340897
     valence                                :        32.00000000
     interstitial                           :        17.96364303
     charge in muffin-tin spheres :
                  atom     1     C          :         3.75453233
                  atom     2     C          :         3.75451181
                  atom     3     C          :         3.75453142
                  atom     4     C          :         3.75451188
                  atom     5     C          :         3.75492564
                  atom     6     C          :         3.75420363
                  atom     7     C          :         3.75419864
                  atom     8     C          :         3.75494161
     total charge in muffin-tins            :        30.03635697
     total charge                           :        48.00000000
 
 Estimated fundamental gap                  :         0.15273618
        valence-band maximum at    1      0.0000  0.0000  0.0000
     conduction-band minimum at  148      0.3750  0.6000  0.6000
 
 Wall time (seconds)                        :      1177.77
 
 RMS change in effective potential (target) :  0.151509E-05  ( 0.100000E-05)
 Absolute change in total energy   (target) :  0.977038E-05  ( 0.100000E-05)
 Charge distance                   (target) :  0.119783E-05  ( 0.100000E-04)
 Abs. change in max-nonIBS-force   (target) :  0.980010E-05  ( 0.500000E-04)
 
++++++++++++++++++++++++++++++++++++++++++++++++++++++++++++++++++++++++++++++++
+ SCF iteration number :   11                                                  +
++++++++++++++++++++++++++++++++++++++++++++++++++++++++++++++++++++++++++++++++
 Total energy                               :      -304.79356149
 _______________________________________________________________
 Fermi energy                               :         0.51736058
 Kinetic energy                             :       303.61980186
 Coulomb energy                             :      -564.99822764
 Exchange energy                            :       -41.63638296
 Correlation energy                         :        -1.77875274
 
 DOS at Fermi energy (states/Ha/cell)       :         0.00000000
 
 Electron charges :
     core                                   :        16.00000000
     core leakage                           :         0.00340897
     valence                                :        32.00000000
     interstitial                           :        17.96364322
     charge in muffin-tin spheres :
                  atom     1     C          :         3.75453157
                  atom     2     C          :         3.75451424
                  atom     3     C          :         3.75453113
                  atom     4     C          :         3.75451080
                  atom     5     C          :         3.75492706
                  atom     6     C          :         3.75420340
                  atom     7     C          :         3.75419774
                  atom     8     C          :         3.75494085
     total charge in muffin-tins            :        30.03635678
     total charge                           :        48.00000000
 
 Estimated fundamental gap                  :         0.15273617
        valence-band maximum at    1      0.0000  0.0000  0.0000
     conduction-band minimum at  148      0.3750  0.6000  0.6000
 
 Wall time (seconds)                        :      1297.36
 
 RMS change in effective potential (target) :  0.293994E-06  ( 0.100000E-05)
 Absolute change in total energy   (target) :  0.213216E-05  ( 0.100000E-05)
 Charge distance                   (target) :  0.388566E-06  ( 0.100000E-04)
 Abs. change in max-nonIBS-force   (target) :  0.292039E-05  ( 0.500000E-04)
 
++++++++++++++++++++++++++++++++++++++++++++++++++++++++++++++++++++++++++++++++
+ SCF iteration number :   12                                                  +
++++++++++++++++++++++++++++++++++++++++++++++++++++++++++++++++++++++++++++++++
 Total energy                               :      -304.79356160
 _______________________________________________________________
 Fermi energy                               :         0.51736058
 Kinetic energy                             :       303.61980181
 Coulomb energy                             :      -564.99822770
 Exchange energy                            :       -41.63638296
 Correlation energy                         :        -1.77875274
 
 DOS at Fermi energy (states/Ha/cell)       :         0.00000000
 
 Electron charges :
     core                                   :        16.00000000
     core leakage                           :         0.00340897
     valence                                :        32.00000000
     interstitial                           :        17.96364321
     charge in muffin-tin spheres :
                  atom     1     C          :         3.75453181
                  atom     2     C          :         3.75451397
                  atom     3     C          :         3.75453146
                  atom     4     C          :         3.75451058
                  atom     5     C          :         3.75492715
                  atom     6     C          :         3.75420332
                  atom     7     C          :         3.75419781
                  atom     8     C          :         3.75494068
     total charge in muffin-tins            :        30.03635679
     total charge                           :        48.00000000
 
 Estimated fundamental gap                  :         0.15273617
        valence-band maximum at    1      0.0000  0.0000  0.0000
     conduction-band minimum at  148      0.3750  0.6000  0.6000
 
 Wall time (seconds)                        :      1413.56
 
 RMS change in effective potential (target) :  0.821412E-07  ( 0.100000E-05)
 Absolute change in total energy   (target) :  0.110755E-06  ( 0.100000E-05)
 Charge distance                   (target) :  0.628799E-07  ( 0.100000E-04)
 Abs. change in max-nonIBS-force   (target) :  0.871875E-06  ( 0.500000E-04)
 
++++++++++++++++++++++++++++++++++++++++++++++++++++++++++++++++++++++++++++++++
+ SCF iteration number :   13                                                  +
++++++++++++++++++++++++++++++++++++++++++++++++++++++++++++++++++++++++++++++++
 Total energy                               :      -304.79356163
 _______________________________________________________________
 Fermi energy                               :         0.51736058
 Kinetic energy                             :       303.61980179
 Coulomb energy                             :      -564.99822772
 Exchange energy                            :       -41.63638296
 Correlation energy                         :        -1.77875274
 
 DOS at Fermi energy (states/Ha/cell)       :         0.00000000
 
 Electron charges :
     core                                   :        16.00000000
     core leakage                           :         0.00340897
     valence                                :        32.00000000
     interstitial                           :        17.96364321
     charge in muffin-tin spheres :
                  atom     1     C          :         3.75453177
                  atom     2     C          :         3.75451407
                  atom     3     C          :         3.75453139
                  atom     4     C          :         3.75451062
                  atom     5     C          :         3.75492708
                  atom     6     C          :         3.75420340
                  atom     7     C          :         3.75419780
                  atom     8     C          :         3.75494067
     total charge in muffin-tins            :        30.03635679
     total charge                           :        48.00000000
 
 Estimated fundamental gap                  :         0.15273617
        valence-band maximum at    1      0.0000  0.0000  0.0000
     conduction-band minimum at  102      0.6250  0.4000  0.4000
 
 Wall time (seconds)                        :      1529.99
 
 RMS change in effective potential (target) :  0.219058E-07  ( 0.100000E-05)
 Absolute change in total energy   (target) :  0.379376E-07  ( 0.100000E-05)
 Charge distance                   (target) :  0.203049E-07  ( 0.100000E-04)
 Abs. change in max-nonIBS-force   (target) :  0.126566E-06  ( 0.500000E-04)
                                                                                
++++++++++++++++++++++++++++++++++++++++++++++++++++++++++++++++++++++++++++++++
| Convergency criteria checked for the last 2 iterations                       +
| Convergence targets achieved. Performing final SCF iteration                 +
++++++++++++++++++++++++++++++++++++++++++++++++++++++++++++++++++++++++++++++++
 Total energy                               :      -304.79356163
 _______________________________________________________________
 Fermi energy                               :         0.51736058
 Kinetic energy                             :       303.61980179
 Coulomb energy                             :      -564.99822772
 Exchange energy                            :       -41.63638296
 Correlation energy                         :        -1.77875274
 
 DOS at Fermi energy (states/Ha/cell)       :         0.00000000
 
 Electron charges :
     core                                   :        16.00000000
     core leakage                           :         0.00340897
     valence                                :        32.00000000
     interstitial                           :        17.96364321
     charge in muffin-tin spheres :
                  atom     1     C          :         3.75453178
                  atom     2     C          :         3.75451403
                  atom     3     C          :         3.75453141
                  atom     4     C          :         3.75451062
                  atom     5     C          :         3.75492708
                  atom     6     C          :         3.75420340
                  atom     7     C          :         3.75419779
                  atom     8     C          :         3.75494068
     total charge in muffin-tins            :        30.03635679
     total charge                           :        48.00000000
 
 Estimated fundamental gap                  :         0.15273617
        valence-band maximum at    1      0.0000  0.0000  0.0000
     conduction-band minimum at  102      0.6250  0.4000  0.4000
 
++++++++++++++++++++++++++++++++++++++++++++++++++++++++++++++++++++++++++++++++
+ Self-consistent loop stopped                                                 +
++++++++++++++++++++++++++++++++++++++++++++++++++++++++++++++++++++++++++++++++
 STATE.OUT is written
 
--------------------------------------------------------------------------------
- Writing atomic positions and forces                                          -
--------------------------------------------------------------------------------
 
 Atomic positions (lattice) :
 atom     1   C  :     0.99955569    0.99985190    0.99970379
 atom     2   C  :     0.25000000    0.75000000    0.50000000
 atom     3   C  :     0.50044431    0.50014810    0.00029621
 atom     4   C  :     0.75000000    0.25000000    0.50000000
 atom     5   C  :     0.43750000    0.81250000    0.12500000
 atom     6   C  :     0.68750000    0.56250000    0.62500000
 atom     7   C  :     0.93750000    0.31250000    0.12500000
 atom     8   C  :     0.18750000    0.06250000    0.62500000
 
 Total atomic forces including IBS (cartesian) :
 atom     1   C  :    -0.00168561   -0.00014313    0.00013118
 atom     2   C  :     0.00000384   -0.00013230   -0.00000154
 atom     3   C  :     0.00170542    0.00010297   -0.00013912
 atom     4   C  :     0.00000006    0.00010121    0.00000191
 atom     5   C  :     0.00037256   -0.00009324    0.00028925
 atom     6   C  :    -0.00037080    0.00006435    0.00006462
 atom     7   C  :    -0.00037433    0.00011893   -0.00029803
 atom     8   C  :     0.00034885   -0.00001878   -0.00004827
 
 Atomic force components including IBS (cartesian) :
 atom     1   C  :    -0.00157039   -0.00020524    0.00010970   HF force
                 :    -0.00014756    0.00006643    0.00001637   core correction
                 :     0.00003235   -0.00000432    0.00000511   IBS correction
 atom     2   C  :    -0.00003308   -0.00014312    0.00007055   HF force
                 :     0.00002004    0.00002001   -0.00007933   core correction
                 :     0.00001688   -0.00000919    0.00000724   IBS correction
 atom     3   C  :     0.00154063    0.00010876   -0.00015747   HF force
                 :     0.00016661    0.00000540    0.00000815   core correction
                 :    -0.00000183   -0.00001120    0.00001020   IBS correction
 atom     4   C  :    -0.00002067    0.00005917   -0.00010566   HF force
                 :     0.00000458    0.00004990    0.00010076   core correction
                 :     0.00001616   -0.00000786    0.00000681   IBS correction
 atom     5   C  :     0.00041275   -0.00003673    0.00035103   HF force
                 :    -0.00001854   -0.00006688   -0.00004918   core correction
                 :    -0.00002165    0.00001037   -0.00001260   IBS correction
 atom     6   C  :    -0.00040386    0.00012087    0.00011444   HF force
                 :     0.00003915   -0.00006444   -0.00004098   core correction
                 :    -0.00000608    0.00000791   -0.00000884   IBS correction
 atom     7   C  :    -0.00035699    0.00011025   -0.00033290   HF force
                 :    -0.00000584    0.00000053    0.00003357   core correction
                 :    -0.00001150    0.00000815    0.00000130   IBS correction
 atom     8   C  :     0.00043163   -0.00001396   -0.00004968   HF force
                 :    -0.00005844   -0.00001096    0.00001065   core correction
                 :    -0.00002433    0.00000614   -0.00000923   IBS correction
 
********************************************************************************
* Groundstate module stopped                                                   *
********************************************************************************
 
 Total time spent (seconds)                 :      1842.38
================================================================================
| EXCITING NITROGEN-13 stopped                                                 =
================================================================================
