  0.1118951560E-02
  0.7822161048E-03
  0.4826736379E-03
  0.1555970038E-03
  0.9584996377E-04
  0.7596399464E-04
  0.5544777005E-04
  0.1558751443E-04
  0.4370289280E-05
  0.5339876037E-06
  0.1863705552E-06
 
