    -304.793565592    
    -304.793497531    
    -304.793519875    
    -304.793534020    
    -304.793568725    
    -304.793568873    
    -304.793561397    
    -304.793556607    
    -304.793544661    
    -304.793541550    
    -304.793541381    
    -304.793541325    
    -304.793541328    
 
