 -0.1537778944E-01  0.2688992181E-01 : is =    1, ia =    1, ip =    1
 -0.1731002698E-01 -0.1650868628E-04 : is =    1, ia =    1, ip =    2
  0.4077577618     -0.1895598597E-04 : is =    1, ia =    1, ip =    3
 -0.1119302092E-01 -0.9637311769E-02 : is =    1, ia =    2, ip =    1
 -0.9052701482E-01  0.1946353421E-01 : is =    1, ia =    2, ip =    2
 -0.4625781217E-01 -0.7569924138E-01 : is =    1, ia =    2, ip =    3
