   0.000000000       0.000000000     : is =    1, ia =    1, ip =    1
   0.000000000       0.000000000     : is =    1, ia =    1, ip =    2
  0.3915798238       0.000000000     : is =    1, ia =    1, ip =    3
   0.000000000       0.000000000     : is =    1, ia =    2, ip =    1
 -0.1150161440       0.000000000     : is =    1, ia =    2, ip =    2
   0.000000000       0.000000000     : is =    1, ia =    2, ip =    3
