  0.5308034367     -0.7868436159E-04 : is =    1, ia =    1, ip =    1
 -0.3385852893E-03  0.3466654011E-01 : is =    1, ia =    1, ip =    2
  0.3385852893E-03 -0.3466654011E-01 : is =    1, ia =    1, ip =    3
 -0.1109068471      0.4187555244E-03 : is =    1, ia =    2, ip =    1
 -0.2593012860E-03  0.3306853662E-01 : is =    1, ia =    2, ip =    2
  0.2593012860E-03 -0.3306853662E-01 : is =    1, ia =    2, ip =    3
