 -0.3099196650E-01 -0.1802085808E-01 : is =    1, ia =    1, ip =    1
 -0.3099196650E-01 -0.1802085808E-01 : is =    1, ia =    1, ip =    2
 -0.2441787448      0.7031998388E-01 : is =    1, ia =    1, ip =    3
 -0.5223478499E-01  0.8703736102E-04 : is =    1, ia =    2, ip =    1
 -0.5223478499E-01  0.8703736102E-04 : is =    1, ia =    2, ip =    2
  0.4399571812     -0.2480630556E-03 : is =    1, ia =    2, ip =    3
