   0.000000000       0.000000000     : is =    1, ia =    1, ip =    1
 -0.1428597655E-01 -0.2474403722E-01 : is =    1, ia =    1, ip =    2
 -0.2749173357      0.1587235978     : is =    1, ia =    1, ip =    3
   0.000000000       0.000000000     : is =    1, ia =    2, ip =    1
   0.000000000     -0.1263510114E-04 : is =    1, ia =    2, ip =    2
  0.3819379477       0.000000000     : is =    1, ia =    2, ip =    3
