  0.5441045704      0.3164800884E-04 : is =    1, ia =    1, ip =    1
  0.3042873867E-01  0.2985405380E-01 : is =    1, ia =    1, ip =    2
 -0.3042873867E-01 -0.2985405380E-01 : is =    1, ia =    1, ip =    3
 -0.1081936935     -0.8705305909E-01 : is =    1, ia =    2, ip =    1
  0.2408849026E-01  0.1327283507E-01 : is =    1, ia =    2, ip =    2
 -0.2408849026E-01 -0.1327283507E-01 : is =    1, ia =    2, ip =    3
