  0.4602459734       0.000000000     : is =    1, ia =    1, ip =    1
   0.000000000      0.2791449063E-01 : is =    1, ia =    1, ip =    2
   0.000000000     -0.2791449063E-01 : is =    1, ia =    1, ip =    3
 -0.1949716463       0.000000000     : is =    1, ia =    2, ip =    1
   0.000000000      0.4131688198E-01 : is =    1, ia =    2, ip =    2
   0.000000000     -0.4131688198E-01 : is =    1, ia =    2, ip =    3
