   0.000000000       0.000000000     : is =    1, ia =    1, ip =    1
   0.000000000     -0.7864985089E-04 : is =    1, ia =    1, ip =    2
  0.3814450495       0.000000000     : is =    1, ia =    1, ip =    3
   0.000000000       0.000000000     : is =    1, ia =    2, ip =    1
 -0.1433172489E-01  0.2482327567E-01 : is =    1, ia =    2, ip =    2
 -0.2749998480     -0.1587712363     : is =    1, ia =    2, ip =    3
