 -0.5724621280E-01  0.7590993921E-01 : is =    1, ia =    1, ip =    1
  0.1113276240E-01 -0.9673015836E-02 : is =    1, ia =    1, ip =    2
 -0.1113276240E-01  0.9673015836E-02 : is =    1, ia =    1, ip =    3
  0.5911554621      0.9424222245E-04 : is =    1, ia =    2, ip =    1
  0.1484565129E-01 -0.2686264631E-01 : is =    1, ia =    2, ip =    2
 -0.1484565129E-01  0.2686264631E-01 : is =    1, ia =    2, ip =    3
