  0.2634641700E-01 -0.3515553420E-01 : is =    1, ia =    1, ip =    1
 -0.1869181505      0.7749004504E-02 : is =    1, ia =    1, ip =    2
 -0.3642665724E-01  0.1026829774E-01 : is =    1, ia =    1, ip =    3
  0.3300777652E-01  0.2497596494E-01 : is =    1, ia =    2, ip =    1
  0.4503164194      0.1057701738E-03 : is =    1, ia =    2, ip =    2
 -0.6397711712E-01  0.8306226194E-05 : is =    1, ia =    2, ip =    3
