   0.000000000       0.000000000     : is =    1, ia =    1, ip =    1
 -0.7244755469E-01  0.4182761520E-01 : is =    1, ia =    1, ip =    2
   0.000000000       0.000000000     : is =    1, ia =    1, ip =    3
   0.000000000     -0.5481834463E-01 : is =    1, ia =    2, ip =    1
   0.000000000       0.000000000     : is =    1, ia =    2, ip =    2
  0.4473828115       0.000000000     : is =    1, ia =    2, ip =    3
