   0.000000000       0.000000000     : is =    1, ia =    1, ip =    1
 -0.3910218021E-01  0.3910218021E-01 : is =    1, ia =    1, ip =    2
   0.000000000       0.000000000     : is =    1, ia =    1, ip =    3
   0.000000000     -0.6208906547E-01 : is =    1, ia =    2, ip =    1
   0.000000000       0.000000000     : is =    1, ia =    2, ip =    2
  0.5054557059       0.000000000     : is =    1, ia =    2, ip =    3
