  0.4604130352     -0.9415052394E-04 : is =    1, ia =    1, ip =    1
  0.3310469740E-01  0.2484600589E-01 : is =    1, ia =    1, ip =    2
 -0.3310469740E-01 -0.2484600589E-01 : is =    1, ia =    1, ip =    3
 -0.1971042013     -0.4535023211E-02 : is =    1, ia =    2, ip =    1
  0.2635377279E-01  0.3465813391E-01 : is =    1, ia =    2, ip =    2
 -0.2635377279E-01 -0.3465813391E-01 : is =    1, ia =    2, ip =    3
