 -0.9134804348E-01  0.1591225145     : is =    1, ia =    1, ip =    1
   0.000000000       0.000000000     : is =    1, ia =    1, ip =    2
   0.000000000       0.000000000     : is =    1, ia =    1, ip =    3
  0.5817341704      0.4123816572E-03 : is =    1, ia =    2, ip =    1
   0.000000000       0.000000000     : is =    1, ia =    2, ip =    2
   0.000000000       0.000000000     : is =    1, ia =    2, ip =    3
