   0.000000000     -0.1445415119E-01 : is =    1, ia =    1, ip =    1
  0.4300072034       0.000000000     : is =    1, ia =    1, ip =    2
 -0.4799521116E-01   0.000000000     : is =    1, ia =    1, ip =    3
   0.000000000      0.2977107700E-01 : is =    1, ia =    2, ip =    1
 -0.2753336990       0.000000000     : is =    1, ia =    2, ip =    2
 -0.1109868754E-01   0.000000000     : is =    1, ia =    2, ip =    3
