  0.3571321948E-01 -0.2561356125E-04 : is =    1, ia =    1, ip =    1
  0.4196776714      0.1285738916E-03 : is =    1, ia =    1, ip =    2
 -0.3571321948E-01  0.2561356125E-04 : is =    1, ia =    1, ip =    3
  0.1680745952E-01 -0.1700048095E-01 : is =    1, ia =    2, ip =    1
 -0.2847073824     -0.8436056087E-01 : is =    1, ia =    2, ip =    2
 -0.1680745952E-01  0.1700048095E-01 : is =    1, ia =    2, ip =    3
