  0.3138899720E-01 -0.8663300603E-02 : is =    1, ia =    1, ip =    1
  0.4147271087       0.000000000     : is =    1, ia =    1, ip =    2
 -0.3138899720E-01 -0.8663300603E-02 : is =    1, ia =    1, ip =    3
 -0.4363730940E-02  0.5187065247E-01 : is =    1, ia =    2, ip =    1
 -0.4500739951E-01 -0.7795510267E-01 : is =    1, ia =    2, ip =    2
 -0.4710316822E-01 -0.2215622439E-01 : is =    1, ia =    2, ip =    3
