  0.5913583003     -0.3748338342E-04 : is =    1, ia =    1, ip =    1
  0.1470038708E-01  0.2686959715E-01 : is =    1, ia =    1, ip =    2
 -0.1470038708E-01 -0.2686959715E-01 : is =    1, ia =    1, ip =    3
 -0.5713907506E-01 -0.7617139920E-01 : is =    1, ia =    2, ip =    1
  0.1108093786E-01  0.9675815833E-02 : is =    1, ia =    2, ip =    2
 -0.1108093786E-01 -0.9675815833E-02 : is =    1, ia =    2, ip =    3
