   0.000000000      0.1579392513     : is =    1, ia =    1, ip =    1
   0.000000000     -0.2359601432E-01 : is =    1, ia =    1, ip =    2
 -0.2510955393E-01   0.000000000     : is =    1, ia =    1, ip =    3
  0.5231579897       0.000000000     : is =    1, ia =    2, ip =    1
  0.4568068342E-01   0.000000000     : is =    1, ia =    2, ip =    2
   0.000000000      0.4271202901E-01 : is =    1, ia =    2, ip =    3
