  0.1487490647E-01 -0.2691661424E-01 : is =    1, ia =    1, ip =    1
  0.4077804490      0.7271032299E-05 : is =    1, ia =    1, ip =    2
 -0.1753602629E-01 -0.2962616671E-04 : is =    1, ia =    1, ip =    3
  0.1072512980E-01  0.9691545078E-02 : is =    1, ia =    2, ip =    1
 -0.4654435729E-01 -0.7571918864E-01 : is =    1, ia =    2, ip =    2
 -0.9072651349E-01  0.1948616881E-01 : is =    1, ia =    2, ip =    3
