  0.4808349618E-01 -0.2585129207E-01 : is =    1, ia =    1, ip =    1
  0.4393256840      0.1582041053E-03 : is =    1, ia =    1, ip =    2
 -0.4992796036E-01 -0.1105367723E-03 : is =    1, ia =    1, ip =    3
  0.3698813107E-01  0.1199047934E-01 : is =    1, ia =    2, ip =    1
 -0.1462598943     -0.7988527196E-01 : is =    1, ia =    2, ip =    2
 -0.5813329550E-01  0.7013459359E-02 : is =    1, ia =    2, ip =    3
