   0.000000000       0.000000000     : is =    1, ia =    1, ip =    1
 -0.1409770725E-01 -0.2441794523E-01 : is =    1, ia =    1, ip =    2
   0.000000000       0.000000000     : is =    1, ia =    1, ip =    3
  0.5684053988       0.000000000     : is =    1, ia =    2, ip =    1
   0.000000000       0.000000000     : is =    1, ia =    2, ip =    2
   0.000000000      0.5476429346E-01 : is =    1, ia =    2, ip =    3
