  0.5785578991E-03  0.3288040811E-01 : is =    1, ia =    1, ip =    1
 -0.6538612538E-01 -0.2910393587E-03 : is =    1, ia =    1, ip =    2
 -0.9040735536E-01  0.2488316990E-03 : is =    1, ia =    1, ip =    3
  0.1560358010E-03 -0.3492128608E-01 : is =    1, ia =    2, ip =    1
 -0.4787489617E-01  0.1676858737E-03 : is =    1, ia =    2, ip =    2
  0.4367048953      0.5186195091E-04 : is =    1, ia =    2, ip =    3
