  0.2912930158E-06 -0.5800127520E-01 : is =    1, ia =    1, ip =    1
 -0.1710909801      0.3344593418E-07 : is =    1, ia =    1, ip =    2
  0.8955339515E-02  0.8989487669E-06 : is =    1, ia =    1, ip =    3
  0.2579069781E-07  0.1191719503E-01 : is =    2, ia =    1, ip =    1
  0.2431559303     -0.1985532941E-07 : is =    2, ia =    1, ip =    2
 -0.4916391458E-01 -0.2400192532E-06 : is =    2, ia =    1, ip =    3
