 -0.1914953437      0.2055614428E-04 : is =    1, ia =    1, ip =    1
 -0.1300341779E-10  0.1192480142E-10 : is =    1, ia =    1, ip =    2
 -0.9204789708E-11  0.6185820953E-11 : is =    1, ia =    1, ip =    3
  0.1914953437     -0.2055614428E-04 : is =    2, ia =    1, ip =    1
  0.1300341779E-10 -0.1192480142E-10 : is =    2, ia =    1, ip =    2
  0.9204789708E-11 -0.6185820953E-11 : is =    2, ia =    1, ip =    3
