  0.4032404949E-01 -0.4045257268E-04 : is =    1, ia =    1, ip =    1
  0.2331816305     -0.1161426858E-04 : is =    1, ia =    1, ip =    2
 -0.4032404952E-01  0.4045257268E-04 : is =    1, ia =    1, ip =    3
 -0.1370189343E-01 -0.2949323212E-01 : is =    2, ia =    1, ip =    1
 -0.1896035771     -0.5192925108E-01 : is =    2, ia =    1, ip =    2
  0.1370189340E-01  0.2949323212E-01 : is =    2, ia =    1, ip =    3
