  0.2826179547E-01  0.1688363862E-01 : is =    1, ia =    1, ip =    1
  0.2533932220      0.2902094420E-05 : is =    1, ia =    1, ip =    2
 -0.5206114020E-01  0.1934275519E-05 : is =    1, ia =    1, ip =    3
  0.2825863457E-01  0.3320502404E-01 : is =    2, ia =    1, ip =    1
 -0.1054502410      0.4426245288E-02 : is =    2, ia =    1, ip =    2
 -0.3351949178E-01 -0.1004525468E-01 : is =    2, ia =    1, ip =    3
