 -0.1301506108     -0.5017750880E-01 : is =    1, ia =    1, ip =    1
  0.2628804148E-01 -0.3135597191E-01 : is =    1, ia =    1, ip =    2
 -0.2628804145E-01  0.3135597191E-01 : is =    1, ia =    1, ip =    3
  0.2307153608     -0.1565307441E-04 : is =    2, ia =    1, ip =    1
  0.3403997561E-01 -0.2852900451E-03 : is =    2, ia =    1, ip =    2
 -0.3403997561E-01  0.2852900427E-03 : is =    2, ia =    1, ip =    3
