 -0.3344905781E-01 -0.1229790188E-01 : is =    1, ia =    1, ip =    1
 -0.1571937642E-01  0.5502937758E-04 : is =    1, ia =    1, ip =    2
  0.2136490299     -0.5520054145E-05 : is =    1, ia =    1, ip =    3
 -0.2393882897E-01  0.2021258561E-01 : is =    2, ia =    1, ip =    1
 -0.4691613388E-01  0.4197831194E-01 : is =    2, ia =    1, ip =    2
 -0.9310476802E-01 -0.8220718582E-01 : is =    2, ia =    1, ip =    3
