 -0.4007708603E-01  0.1391278678E-01 : is =    1, ia =    1, ip =    1
  0.2401813661     -0.1067690408E-03 : is =    1, ia =    1, ip =    2
 -0.3723601693E-01  0.5217160127E-04 : is =    1, ia =    1, ip =    3
 -0.4498088419E-01  0.4564671316E-02 : is =    2, ia =    1, ip =    1
 -0.7220981540E-01  0.3888047191E-01 : is =    2, ia =    1, ip =    2
 -0.6011614223E-01 -0.1478032385E-01 : is =    2, ia =    1, ip =    3
