  0.3101220491E-06 -0.4482846154E-01 : is =    1, ia =    1, ip =    1
 -0.5035644193E-01  0.4318384222E-06 : is =    1, ia =    1, ip =    2
 -0.6712397534E-01  0.2562707670E-06 : is =    1, ia =    1, ip =    3
 -0.1936722612E-06  0.1775630294E-01 : is =    2, ia =    1, ip =    1
  0.2416059151     -0.1321142733E-08 : is =    2, ia =    1, ip =    2
 -0.3248871608E-01 -0.3212696646E-06 : is =    2, ia =    1, ip =    3
