 -0.1398589127E-01  0.2899482574E-01 : is =    1, ia =    1, ip =    1
 -0.1902714571      0.5203855785E-01 : is =    1, ia =    1, ip =    2
  0.1398589130E-01 -0.2899482575E-01 : is =    1, ia =    1, ip =    3
  0.3239987076E-01  0.1239719191E-03 : is =    2, ia =    1, ip =    1
  0.2260741968      0.4437187315E-04 : is =    2, ia =    1, ip =    2
 -0.3239987078E-01 -0.1239719102E-03 : is =    2, ia =    1, ip =    3
