  0.8141751512E-02  0.1159828337E-01 : is =    1, ia =    1, ip =    1
 -0.8761265317E-01  0.2052266191E-01 : is =    1, ia =    1, ip =    2
 -0.2283805348E-01 -0.3910533933E-01 : is =    1, ia =    1, ip =    3
  0.7653909433E-02 -0.1346032462E-01 : is =    2, ia =    1, ip =    1
 -0.1324297557E-01  0.8065953365E-04 : is =    2, ia =    1, ip =    2
  0.2286553880      0.1274978936E-05 : is =    2, ia =    1, ip =    3
