  0.2553528401      0.1028048709E-03 : is =    1, ia =    1, ip =    1
  0.5531801914E-01  0.1598860286E-03 : is =    1, ia =    1, ip =    2
 -0.5531801914E-01 -0.1598860286E-03 : is =    1, ia =    1, ip =    3
 -0.1288157443      0.5003304930E-01 : is =    2, ia =    1, ip =    1
  0.2751287978E-01  0.3190332880E-01 : is =    2, ia =    1, ip =    2
 -0.2751287978E-01 -0.3190332880E-01 : is =    2, ia =    1, ip =    3
