  0.4992768652E-08 -0.2073784089E-01 : is =    1, ia =    1, ip =    1
  0.1412073909E-07  0.8174646123E-01 : is =    1, ia =    1, ip =    2
 -0.7458933850E-01 -0.9664405526E-08 : is =    1, ia =    1, ip =    3
  0.2929409243E-01  0.2481705874E-07 : is =    2, ia =    1, ip =    1
  0.2298014830      0.2343546903E-07 : is =    2, ia =    1, ip =    2
 -0.7193164411E-08  0.4169207208E-02 : is =    2, ia =    1, ip =    3
