  0.3060768543     -0.1536619091E-07 : is =    1, ia =    1, ip =    1
  0.8211026826E-08 -0.1477172299E-01 : is =    1, ia =    1, ip =    2
 -0.8211026835E-08  0.1477172299E-01 : is =    1, ia =    1, ip =    3
 -0.5197342589E-01 -0.4421834600E-08 : is =    2, ia =    1, ip =    1
  0.9292082690E-07  0.4624491159E-01 : is =    2, ia =    1, ip =    2
 -0.9292082690E-07 -0.4624491159E-01 : is =    2, ia =    1, ip =    3
