  0.4705442560E-01  0.2961207709E-06 : is =    1, ia =    1, ip =    1
 -0.1008165552      0.5062180241E-06 : is =    1, ia =    1, ip =    2
 -0.4705442561E-01 -0.2961202760E-06 : is =    1, ia =    1, ip =    3
  0.3560000431E-01  0.1374184363E-06 : is =    2, ia =    1, ip =    1
  0.2314032984     -0.1322515411E-07 : is =    2, ia =    1, ip =    2
 -0.3560000436E-01 -0.1374150883E-06 : is =    2, ia =    1, ip =    3
