 -0.1178607822E-01 -0.9107579454E-02 : is =    1, ia =    1, ip =    1
 -0.9473135328E-02  0.2170254222E-04 : is =    1, ia =    1, ip =    2
  0.2145660509     -0.1277255209E-05 : is =    1, ia =    1, ip =    3
 -0.1727047022E-01 -0.1638222742E-01 : is =    2, ia =    1, ip =    1
 -0.8935963979E-01  0.2094441054E-01 : is =    2, ia =    1, ip =    2
 -0.2273919945E-01 -0.3893021689E-01 : is =    2, ia =    1, ip =    3
