   0.000000000       0.000000000     : is =    1, ia =    1, ip =    1
 -0.7592607903E-01  0.4383623580E-01 : is =    1, ia =    1, ip =    2
   0.000000000       0.000000000     : is =    1, ia =    1, ip =    3
  0.1653894993E-06 -0.2669451983E-01 : is =    2, ia =    1, ip =    1
   0.000000000       0.000000000     : is =    2, ia =    1, ip =    2
  0.2469397942     -0.1123588590E-05 : is =    2, ia =    1, ip =    3
