  0.3649598136     -0.2663947516E-05 : is =    1, ia =    1, ip =    1
  0.1178316500E-01 -0.9094713776E-02 : is =    1, ia =    1, ip =    2
 -0.1178316500E-01  0.9094713776E-02 : is =    1, ia =    1, ip =    3
 -0.3200894235E-01 -0.5844477680E-01 : is =    2, ia =    1, ip =    1
  0.8436611857E-02  0.1205958874E-01 : is =    2, ia =    1, ip =    2
 -0.8436611857E-02 -0.1205958874E-01 : is =    2, ia =    1, ip =    3
