 -0.3412515503E-01  0.2228218500E-01 : is =    1, ia =    1, ip =    1
 -0.5853005495E-01 -0.1456209190E-01 : is =    1, ia =    1, ip =    2
 -0.7278125414E-01  0.3930190909E-01 : is =    1, ia =    1, ip =    3
 -0.2302470460E-01 -0.1460458810E-01 : is =    2, ia =    1, ip =    1
 -0.2960569125E-01 -0.1026133259E-03 : is =    2, ia =    1, ip =    2
  0.2341168728     -0.3982559223E-04 : is =    2, ia =    1, ip =    3
