  0.2934730108      0.2078127020E-03 : is =    1, ia =    1, ip =    1
  0.4027063274E-01 -0.1381868749E-01 : is =    1, ia =    1, ip =    2
 -0.4027063274E-01  0.1381868749E-01 : is =    1, ia =    1, ip =    3
 -0.8171917741E-01 -0.5815232149E-01 : is =    2, ia =    1, ip =    1
  0.3501544974E-01  0.2266092022E-01 : is =    2, ia =    1, ip =    2
 -0.3501544974E-01 -0.2266092022E-01 : is =    2, ia =    1, ip =    3
