  0.8551339582E-01 -0.4937135635E-01 : is =    1, ia =    1, ip =    1
   0.000000000       0.000000000     : is =    1, ia =    1, ip =    2
   0.000000000       0.000000000     : is =    1, ia =    1, ip =    3
   0.000000000       0.000000000     : is =    1, ia =    2, ip =    1
  0.4729539676     -0.8514391003E-07 : is =    1, ia =    2, ip =    2
  0.4773755337E-06 -0.5698024136E-01 : is =    1, ia =    2, ip =    3
