  0.5175093267E-01  0.3168515778E-07 : is =    1, ia =    1, ip =    1
  0.4629967356     -0.1049113232E-07 : is =    1, ia =    1, ip =    2
 -0.2317849186E-06  0.3656936820E-01 : is =    1, ia =    1, ip =    3
  0.7857843572E-01 -0.2065092175E-06 : is =    1, ia =    2, ip =    1
 -0.9587612358E-01  0.3405627357E-06 : is =    1, ia =    2, ip =    2
 -0.2163556430E-06 -0.4032202372E-01 : is =    1, ia =    2, ip =    3
