  0.4266699346      0.1927194362E-07 : is =    1, ia =    1, ip =    1
   0.000000000       0.000000000     : is =    1, ia =    1, ip =    2
   0.000000000       0.000000000     : is =    1, ia =    1, ip =    3
   0.000000000       0.000000000     : is =    1, ia =    2, ip =    1
  0.8525220952E-01  0.4922010698E-01 : is =    1, ia =    2, ip =    2
  0.1785315927E-01 -0.3092225880E-01 : is =    1, ia =    2, ip =    3
