  0.1865489490E-07 -0.3682342605E-01 : is =    1, ia =    1, ip =    1
  0.1865489595E-07 -0.3682342605E-01 : is =    1, ia =    1, ip =    2
  0.5583920379     -0.8168134419E-08 : is =    1, ia =    1, ip =    3
 -0.2212130231E-06 -0.4084866730E-01 : is =    1, ia =    2, ip =    1
 -0.2212130222E-06 -0.4084866730E-01 : is =    1, ia =    2, ip =    2
 -0.1156514736     -0.2183413794E-06 : is =    1, ia =    2, ip =    3
