 -0.2914423572      0.3550358298E-06 : is =    1, ia =    1, ip =    1
  0.1488190692E-01 -0.2222505294E-06 : is =    1, ia =    1, ip =    2
  0.2234219682E-06  0.3744361899E-01 : is =    1, ia =    1, ip =    3
  0.4540051140     -0.1869992833E-07 : is =    1, ia =    2, ip =    1
  0.5017494671E-01  0.3360060356E-07 : is =    1, ia =    2, ip =    2
  0.2262822760E-06 -0.1510727897E-01 : is =    1, ia =    2, ip =    3
