  0.1943621497E-06  0.2987780487E-01 : is =    1, ia =    1, ip =    1
 -0.2952663790E-01 -0.2700603026E-06 : is =    1, ia =    1, ip =    2
 -0.1590412330E-06  0.1680908138     : is =    1, ia =    1, ip =    3
 -0.4772650726E-01  0.4048372235E-08 : is =    1, ia =    2, ip =    1
 -0.1170789024E-07  0.4428265863E-01 : is =    1, ia =    2, ip =    2
  0.5510498288      0.2931160471E-07 : is =    1, ia =    2, ip =    3
