 -0.7967194247E-02 -0.1508824369E-01 : is =    1, ia =    1, ip =    1
 -0.7967194247E-02 -0.1508824369E-01 : is =    1, ia =    1, ip =    2
 -0.3465548231      0.8150181720E-01 : is =    1, ia =    1, ip =    3
 -0.1893295128E-01 -0.2552508403E-04 : is =    1, ia =    2, ip =    1
 -0.1893295128E-01 -0.2552508403E-04 : is =    1, ia =    2, ip =    2
  0.4204376371      0.3591727091E-04 : is =    1, ia =    2, ip =    3
