  0.5859644797E-07  0.3833643312E-01 : is =    1, ia =    1, ip =    1
  0.5859644741E-07  0.3833643312E-01 : is =    1, ia =    1, ip =    2
 -0.2947571837     -0.2169685213E-06 : is =    1, ia =    1, ip =    3
 -0.1184097283E-07  0.1583632082E-01 : is =    1, ia =    2, ip =    1
 -0.1184097307E-07  0.1583632082E-01 : is =    1, ia =    2, ip =    2
  0.4311492499      0.3157785079E-07 : is =    1, ia =    2, ip =    3
