 -0.5860395662E-01  0.1460178617E-09 : is =    1, ia =    1, ip =    1
 -0.5860395665E-01  0.1460178192E-09 : is =    1, ia =    1, ip =    2
 -0.2169177716      0.3462697800E-09 : is =    1, ia =    1, ip =    3
 -0.7118110735E-01  0.1460178514E-09 : is =    1, ia =    2, ip =    1
 -0.7118110734E-01  0.1460178616E-09 : is =    1, ia =    2, ip =    2
  0.4841158642      0.3462697895E-09 : is =    1, ia =    2, ip =    3
