 -0.3284965793E-01 -0.9064930747E-02 : is =    1, ia =    1, ip =    1
 -0.1567658257E-01 -0.5538363138E-01 : is =    1, ia =    1, ip =    2
  0.5204375944      0.1243912913E-04 : is =    1, ia =    1, ip =    3
  0.6057616617E-02 -0.6201286384E-01 : is =    1, ia =    2, ip =    1
 -0.1493586593E-01 -0.2583432520E-01 : is =    1, ia =    2, ip =    2
 -0.5550706964E-01 -0.8738846777E-01 : is =    1, ia =    2, ip =    3
