 -0.4410271243E-01  0.1524601196E-01 : is =    1, ia =    1, ip =    1
 -0.4410271243E-01  0.1524601196E-01 : is =    1, ia =    1, ip =    2
 -0.1644083687      0.8102879699E-01 : is =    1, ia =    1, ip =    3
 -0.4997537230E-01  0.2700426629E-01 : is =    1, ia =    2, ip =    1
 -0.4997537230E-01  0.2700426629E-01 : is =    1, ia =    2, ip =    2
  0.5268817640     -0.6564800585E-04 : is =    1, ia =    2, ip =    3
