  0.1797707869E-01  0.3113622652E-01 : is =    1, ia =    1, ip =    1
   0.000000000       0.000000000     : is =    1, ia =    1, ip =    2
   0.000000000       0.000000000     : is =    1, ia =    1, ip =    3
   0.000000000       0.000000000     : is =    1, ia =    2, ip =    1
  0.2269192584E-07  0.5694746862E-01 : is =    1, ia =    2, ip =    2
  0.5982225431      0.3489109660E-07 : is =    1, ia =    2, ip =    3
