 -0.2169177716      0.3462697891E-09 : is =    1, ia =    1, ip =    1
  0.5860395665E-01 -0.1460178289E-09 : is =    1, ia =    1, ip =    2
 -0.5860395662E-01  0.1460178662E-09 : is =    1, ia =    1, ip =    3
  0.4841158642      0.3462698000E-09 : is =    1, ia =    2, ip =    1
  0.7118110733E-01 -0.1460178834E-09 : is =    1, ia =    2, ip =    2
 -0.7118110735E-01  0.1460178329E-09 : is =    1, ia =    2, ip =    3
