  0.5860395665E-01 -0.1460178834E-09 : is =    1, ia =    1, ip =    1
 -0.2169177716      0.3462698280E-09 : is =    1, ia =    1, ip =    2
 -0.5860395665E-01  0.1460178472E-09 : is =    1, ia =    1, ip =    3
  0.7118110733E-01 -0.1460178366E-09 : is =    1, ia =    2, ip =    1
  0.4841158642      0.3462696984E-09 : is =    1, ia =    2, ip =    2
 -0.7118110734E-01  0.1460178673E-09 : is =    1, ia =    2, ip =    3
