 -0.2903358679      0.1676259275     : is =    1, ia =    1, ip =    1
  0.1854675565E-01  0.3212326031E-01 : is =    1, ia =    1, ip =    2
   0.000000000       0.000000000     : is =    1, ia =    1, ip =    3
  0.4030423440     -0.2180107204E-07 : is =    1, ia =    2, ip =    1
  0.3654062107E-06 -0.3384303349E-04 : is =    1, ia =    2, ip =    2
   0.000000000       0.000000000     : is =    1, ia =    2, ip =    3
