  0.4871425635E-06 -0.8575931068E-02 : is =    1, ia =    1, ip =    1
  0.4630337614     -0.6735805941E-07 : is =    1, ia =    1, ip =    2
 -0.4782439346E-06  0.4431994134E-01 : is =    1, ia =    1, ip =    3
  0.7872882937E-01  0.5829020675E-07 : is =    1, ia =    2, ip =    1
  0.1213577763E-06 -0.1700781640     : is =    1, ia =    2, ip =    2
 -0.2958860985E-01 -0.3916867880E-06 : is =    1, ia =    2, ip =    3
