  0.6693655377E-01  0.1725694352E-04 : is =    1, ia =    1, ip =    1
  0.4750625692      0.4533352372E-05 : is =    1, ia =    1, ip =    2
 -0.3442794891E-01  0.2585205956E-01 : is =    1, ia =    1, ip =    3
  0.4402026398E-01  0.1098146805E-01 : is =    1, ia =    2, ip =    1
 -0.1975600508     -0.7702682973E-02 : is =    1, ia =    2, ip =    2
 -0.3070319993E-01 -0.4216112189E-01 : is =    1, ia =    2, ip =    3
