 -0.4997535747E-01 -0.2700427386E-01 : is =    1, ia =    1, ip =    1
 -0.4997535747E-01 -0.2700427386E-01 : is =    1, ia =    1, ip =    2
  0.5268816286      0.6558757542E-04 : is =    1, ia =    1, ip =    3
 -0.4410302520E-01 -0.1524581501E-01 : is =    1, ia =    2, ip =    1
 -0.4410302520E-01 -0.1524581501E-01 : is =    1, ia =    2, ip =    2
 -0.1644084669     -0.8102915887E-01 : is =    1, ia =    2, ip =    3
