    0.102324169597E-01
    0.296758474313E-02
    0.191177881341E-03
    0.464360681572E-02
    0.318318404577E-04
    0.280426287382E-03
    0.165399085810E-03
    0.260455015941E-03
    0.178960691752E-03
    0.662518019271E-04
    0.232827852634E-05
    0.702992375836E-06
 
