 
Species :    1 (C), atom :    1
 n =  1, l =  0, k =  1 :   -9.327412476    
 
Species :    1 (C), atom :    2
 n =  1, l =  0, k =  1 :   -9.327210881    
 
Species :    1 (C), atom :    3
 n =  1, l =  0, k =  1 :   -9.327453446    
 
Species :    1 (C), atom :    4
 n =  1, l =  0, k =  1 :   -9.327675586    
 
Species :    1 (C), atom :    5
 n =  1, l =  0, k =  1 :   -9.327350410    
 
Species :    1 (C), atom :    6
 n =  1, l =  0, k =  1 :   -9.327278200    
 
Species :    1 (C), atom :    7
 n =  1, l =  0, k =  1 :   -9.327482206    
 
Species :    1 (C), atom :    8
 n =  1, l =  0, k =  1 :   -9.327546497    
