 
Species :    1 (C), atom :    1
 n =  1, l =  0, k =  1 :   -9.327534116    
 
Species :    1 (C), atom :    2
 n =  1, l =  0, k =  1 :   -9.327439311    
 
Species :    1 (C), atom :    3
 n =  1, l =  0, k =  1 :   -9.327330401    
 
Species :    1 (C), atom :    4
 n =  1, l =  0, k =  1 :   -9.327447224    
 
Species :    1 (C), atom :    5
 n =  1, l =  0, k =  1 :   -9.327477721    
 
Species :    1 (C), atom :    6
 n =  1, l =  0, k =  1 :   -9.327381070    
 
Species :    1 (C), atom :    7
 n =  1, l =  0, k =  1 :   -9.327354640    
 
Species :    1 (C), atom :    8
 n =  1, l =  0, k =  1 :   -9.327443332    
