   108 : nkpt; k-point, vkl, wkpt, nmat below
     1   0.000000000       0.000000000       0.000000000      0.5208333333E-02    1395
     2  0.1250000000       0.000000000       0.000000000      0.1041666667E-01    1382
     3  0.2500000000       0.000000000       0.000000000      0.1041666667E-01    1389
     4  0.3750000000       0.000000000       0.000000000      0.1041666667E-01    1386
     5  0.5000000000       0.000000000       0.000000000      0.1041666667E-01    1400
     6  0.6250000000       0.000000000       0.000000000      0.1041666667E-01    1386
     7  0.7500000000       0.000000000       0.000000000      0.1041666667E-01    1389
     8  0.8750000000       0.000000000       0.000000000      0.1041666667E-01    1382
     9  0.1250000000      0.1250000000       0.000000000      0.5208333333E-02    1375
    10  0.2500000000      0.1250000000       0.000000000      0.1041666667E-01    1385
    11  0.3750000000      0.1250000000       0.000000000      0.1041666667E-01    1389
    12  0.5000000000      0.1250000000       0.000000000      0.1041666667E-01    1401
    13  0.6250000000      0.1250000000       0.000000000      0.1041666667E-01    1404
    14  0.7500000000      0.1250000000       0.000000000      0.1041666667E-01    1388
    15  0.8750000000      0.1250000000       0.000000000      0.1041666667E-01    1387
    16  0.2500000000      0.2500000000       0.000000000      0.5208333333E-02    1386
    17  0.3750000000      0.2500000000       0.000000000      0.1041666667E-01    1391
    18  0.5000000000      0.2500000000       0.000000000      0.1041666667E-01    1401
    19  0.6250000000      0.2500000000       0.000000000      0.1041666667E-01    1409
    20  0.7500000000      0.2500000000       0.000000000      0.1041666667E-01    1423
    21  0.8750000000      0.2500000000       0.000000000      0.1041666667E-01    1388
    22  0.3750000000      0.3750000000       0.000000000      0.5208333333E-02    1399
    23  0.5000000000      0.3750000000       0.000000000      0.1041666667E-01    1395
    24  0.6250000000      0.3750000000       0.000000000      0.1041666667E-01    1413
    25  0.7500000000      0.3750000000       0.000000000      0.1041666667E-01    1409
    26  0.8750000000      0.3750000000       0.000000000      0.1041666667E-01    1404
    27  0.5000000000      0.5000000000       0.000000000      0.5208333333E-02    1410
    28  0.6250000000      0.5000000000       0.000000000      0.1041666667E-01    1395
    29  0.7500000000      0.5000000000       0.000000000      0.1041666667E-01    1401
    30  0.8750000000      0.5000000000       0.000000000      0.1041666667E-01    1401
    31  0.6250000000      0.6250000000       0.000000000      0.5208333333E-02    1399
    32  0.7500000000      0.6250000000       0.000000000      0.1041666667E-01    1391
    33  0.8750000000      0.6250000000       0.000000000      0.1041666667E-01    1389
    34  0.7500000000      0.7500000000       0.000000000      0.5208333333E-02    1386
    35  0.8750000000      0.7500000000       0.000000000      0.1041666667E-01    1385
    36  0.8750000000      0.8750000000       0.000000000      0.5208333333E-02    1375
    37   0.000000000       0.000000000      0.3333333333      0.5208333333E-02    1384
    38  0.1250000000       0.000000000      0.3333333333      0.1041666667E-01    1378
    39  0.2500000000       0.000000000      0.3333333333      0.1041666667E-01    1387
    40  0.3750000000       0.000000000      0.3333333333      0.1041666667E-01    1395
    41  0.5000000000       0.000000000      0.3333333333      0.1041666667E-01    1404
    42  0.6250000000       0.000000000      0.3333333333      0.1041666667E-01    1393
    43  0.7500000000       0.000000000      0.3333333333      0.1041666667E-01    1400
    44  0.8750000000       0.000000000      0.3333333333      0.1041666667E-01    1387
    45  0.1250000000      0.1250000000      0.3333333333      0.5208333333E-02    1391
    46  0.2500000000      0.1250000000      0.3333333333      0.1041666667E-01    1387
    47  0.3750000000      0.1250000000      0.3333333333      0.1041666667E-01    1389
    48  0.5000000000      0.1250000000      0.3333333333      0.1041666667E-01    1398
    49  0.6250000000      0.1250000000      0.3333333333      0.1041666667E-01    1403
    50  0.7500000000      0.1250000000      0.3333333333      0.1041666667E-01    1392
    51  0.8750000000      0.1250000000      0.3333333333      0.1041666667E-01    1382
    52  0.2500000000      0.2500000000      0.3333333333      0.5208333333E-02    1395
    53  0.3750000000      0.2500000000      0.3333333333      0.1041666667E-01    1387
    54  0.5000000000      0.2500000000      0.3333333333      0.1041666667E-01    1402
    55  0.6250000000      0.2500000000      0.3333333333      0.1041666667E-01    1409
    56  0.7500000000      0.2500000000      0.3333333333      0.1041666667E-01    1405
    57  0.8750000000      0.2500000000      0.3333333333      0.1041666667E-01    1391
    58  0.3750000000      0.3750000000      0.3333333333      0.5208333333E-02    1386
    59  0.5000000000      0.3750000000      0.3333333333      0.1041666667E-01    1402
    60  0.6250000000      0.3750000000      0.3333333333      0.1041666667E-01    1412
    61  0.7500000000      0.3750000000      0.3333333333      0.1041666667E-01    1413
    62  0.8750000000      0.3750000000      0.3333333333      0.1041666667E-01    1395
    63  0.5000000000      0.5000000000      0.3333333333      0.5208333333E-02    1387
    64  0.6250000000      0.5000000000      0.3333333333      0.1041666667E-01    1400
    65  0.7500000000      0.5000000000      0.3333333333      0.1041666667E-01    1399
    66  0.8750000000      0.5000000000      0.3333333333      0.1041666667E-01    1402
    67  0.6250000000      0.6250000000      0.3333333333      0.5208333333E-02    1392
    68  0.7500000000      0.6250000000      0.3333333333      0.1041666667E-01    1391
    69  0.8750000000      0.6250000000      0.3333333333      0.1041666667E-01    1392
    70  0.7500000000      0.7500000000      0.3333333333      0.5208333333E-02    1399
    71  0.8750000000      0.7500000000      0.3333333333      0.1041666667E-01    1382
    72  0.8750000000      0.8750000000      0.3333333333      0.5208333333E-02    1381
    73   0.000000000       0.000000000      0.6666666667      0.5208333333E-02    1384
    74  0.1250000000       0.000000000      0.6666666667      0.1041666667E-01    1387
    75  0.2500000000       0.000000000      0.6666666667      0.1041666667E-01    1400
    76  0.3750000000       0.000000000      0.6666666667      0.1041666667E-01    1393
    77  0.5000000000       0.000000000      0.6666666667      0.1041666667E-01    1404
    78  0.6250000000       0.000000000      0.6666666667      0.1041666667E-01    1395
    79  0.7500000000       0.000000000      0.6666666667      0.1041666667E-01    1387
    80  0.8750000000       0.000000000      0.6666666667      0.1041666667E-01    1378
    81  0.1250000000      0.1250000000      0.6666666667      0.5208333333E-02    1381
    82  0.2500000000      0.1250000000      0.6666666667      0.1041666667E-01    1382
    83  0.3750000000      0.1250000000      0.6666666667      0.1041666667E-01    1392
    84  0.5000000000      0.1250000000      0.6666666667      0.1041666667E-01    1402
    85  0.6250000000      0.1250000000      0.6666666667      0.1041666667E-01    1395
    86  0.7500000000      0.1250000000      0.6666666667      0.1041666667E-01    1391
    87  0.8750000000      0.1250000000      0.6666666667      0.1041666667E-01    1382
    88  0.2500000000      0.2500000000      0.6666666667      0.5208333333E-02    1399
    89  0.3750000000      0.2500000000      0.6666666667      0.1041666667E-01    1391
    90  0.5000000000      0.2500000000      0.6666666667      0.1041666667E-01    1399
    91  0.6250000000      0.2500000000      0.6666666667      0.1041666667E-01    1413
    92  0.7500000000      0.2500000000      0.6666666667      0.1041666667E-01    1405
    93  0.8750000000      0.2500000000      0.6666666667      0.1041666667E-01    1392
    94  0.3750000000      0.3750000000      0.6666666667      0.5208333333E-02    1392
    95  0.5000000000      0.3750000000      0.6666666667      0.1041666667E-01    1400
    96  0.6250000000      0.3750000000      0.6666666667      0.1041666667E-01    1412
    97  0.7500000000      0.3750000000      0.6666666667      0.1041666667E-01    1409
    98  0.8750000000      0.3750000000      0.6666666667      0.1041666667E-01    1403
    99  0.5000000000      0.5000000000      0.6666666667      0.5208333333E-02    1387
   100  0.6250000000      0.5000000000      0.6666666667      0.1041666667E-01    1402
   101  0.7500000000      0.5000000000      0.6666666667      0.1041666667E-01    1402
   102  0.8750000000      0.5000000000      0.6666666667      0.1041666667E-01    1398
   103  0.6250000000      0.6250000000      0.6666666667      0.5208333333E-02    1386
   104  0.7500000000      0.6250000000      0.6666666667      0.1041666667E-01    1387
   105  0.8750000000      0.6250000000      0.6666666667      0.1041666667E-01    1389
   106  0.7500000000      0.7500000000      0.6666666667      0.5208333333E-02    1395
   107  0.8750000000      0.7500000000      0.6666666667      0.1041666667E-01    1387
   108  0.8750000000      0.8750000000      0.6666666667      0.5208333333E-02    1391
