  0.9913739082E-02
  0.7293880533E-02
  0.1439452678E-02
  0.1917319448E-02
  0.1117914586E-03
  0.6983750882E-04
  0.8443542252E-05
  0.5111435739E-05
  0.1507691710E-05
  0.3437023390E-06
  0.1041497507E-06
  0.3193130129E-07
 
