    -304.793805452    
    -304.793580760    
    -304.793584421    
    -304.793568735    
    -304.793619558    
    -304.793642262    
    -304.793622609    
    -304.793597980    
    -304.793570291    
    -304.793563215    
    -304.793561697    
    -304.793561191    
    -304.793561305    
    -304.793561311    
 
