    0.102401485730E-01
    0.296823147652E-02
    0.865019388175E-03
    0.565141046416E-02
    0.214646648410E-04
    0.293075136090E-03
    0.167024145208E-03
    0.258526399227E-03
    0.180496114872E-03
    0.610026507544E-04
    0.245365737922E-05
    0.130297437350E-05
 
