    0.102339106855E-01
    0.296188625557E-02
    0.877374509086E-03
    0.566274024641E-02
    0.424074583746E-04
    0.312224228127E-03
    0.157860192717E-03
    0.263715919114E-03
    0.179296949146E-03
    0.663402472561E-04
    0.247629152279E-05
    0.734409789802E-06
 
