 
Species :    1 (C), atom :    1
 n =  1, l =  0, k =  1 :   -9.327650543    
 
Species :    1 (C), atom :    2
 n =  1, l =  0, k =  1 :   -9.327437387    
 
Species :    1 (C), atom :    3
 n =  1, l =  0, k =  1 :   -9.327214834    
 
Species :    1 (C), atom :    4
 n =  1, l =  0, k =  1 :   -9.327451346    
 
Species :    1 (C), atom :    5
 n =  1, l =  0, k =  1 :   -9.327543244    
 
Species :    1 (C), atom :    6
 n =  1, l =  0, k =  1 :   -9.327349407    
 
Species :    1 (C), atom :    7
 n =  1, l =  0, k =  1 :   -9.327288103    
 
Species :    1 (C), atom :    8
 n =  1, l =  0, k =  1 :   -9.327473684    
