   192 : nkpt; k-point, vkl, wkpt, nmat below
     1   0.000000000       0.000000000       0.000000000      0.5208333333E-02    1395
     2  0.1250000000       0.000000000       0.000000000      0.5208333333E-02    1375
     3  0.2500000000       0.000000000       0.000000000      0.5208333333E-02    1386
     4  0.3750000000       0.000000000       0.000000000      0.5208333333E-02    1399
     5  0.5000000000       0.000000000       0.000000000      0.5208333333E-02    1410
     6  0.6250000000       0.000000000       0.000000000      0.5208333333E-02    1399
     7  0.7500000000       0.000000000       0.000000000      0.5208333333E-02    1386
     8  0.8750000000       0.000000000       0.000000000      0.5208333333E-02    1375
     9   0.000000000      0.1250000000       0.000000000      0.5208333333E-02    1382
    10  0.1250000000      0.1250000000       0.000000000      0.5208333333E-02    1382
    11  0.2500000000      0.1250000000       0.000000000      0.5208333333E-02    1385
    12  0.3750000000      0.1250000000       0.000000000      0.5208333333E-02    1391
    13  0.5000000000      0.1250000000       0.000000000      0.5208333333E-02    1395
    14  0.6250000000      0.1250000000       0.000000000      0.5208333333E-02    1395
    15  0.7500000000      0.1250000000       0.000000000      0.5208333333E-02    1391
    16  0.8750000000      0.1250000000       0.000000000      0.5208333333E-02    1385
    17   0.000000000      0.2500000000       0.000000000      0.5208333333E-02    1389
    18  0.1250000000      0.2500000000       0.000000000      0.5208333333E-02    1387
    19  0.2500000000      0.2500000000       0.000000000      0.5208333333E-02    1389
    20  0.3750000000      0.2500000000       0.000000000      0.5208333333E-02    1389
    21  0.5000000000      0.2500000000       0.000000000      0.5208333333E-02    1401
    22  0.6250000000      0.2500000000       0.000000000      0.5208333333E-02    1413
    23  0.7500000000      0.2500000000       0.000000000      0.5208333333E-02    1401
    24  0.8750000000      0.2500000000       0.000000000      0.5208333333E-02    1389
    25   0.000000000      0.3750000000       0.000000000      0.5208333333E-02    1386
    26  0.1250000000      0.3750000000       0.000000000      0.5208333333E-02    1388
    27  0.2500000000      0.3750000000       0.000000000      0.5208333333E-02    1388
    28  0.3750000000      0.3750000000       0.000000000      0.5208333333E-02    1386
    29  0.5000000000      0.3750000000       0.000000000      0.5208333333E-02    1401
    30  0.6250000000      0.3750000000       0.000000000      0.5208333333E-02    1409
    31  0.7500000000      0.3750000000       0.000000000      0.5208333333E-02    1409
    32  0.8750000000      0.3750000000       0.000000000      0.5208333333E-02    1401
    33   0.000000000      0.5000000000       0.000000000      0.5208333333E-02    1400
    34  0.1250000000      0.5000000000       0.000000000      0.5208333333E-02    1404
    35  0.2500000000      0.5000000000       0.000000000      0.5208333333E-02    1423
    36  0.3750000000      0.5000000000       0.000000000      0.5208333333E-02    1404
    37  0.5000000000      0.5000000000       0.000000000      0.5208333333E-02    1400
    38  0.6250000000      0.5000000000       0.000000000      0.5208333333E-02    1404
    39  0.7500000000      0.5000000000       0.000000000      0.5208333333E-02    1423
    40  0.8750000000      0.5000000000       0.000000000      0.5208333333E-02    1404
    41   0.000000000      0.6250000000       0.000000000      0.5208333333E-02    1386
    42  0.1250000000      0.6250000000       0.000000000      0.5208333333E-02    1401
    43  0.2500000000      0.6250000000       0.000000000      0.5208333333E-02    1409
    44  0.3750000000      0.6250000000       0.000000000      0.5208333333E-02    1409
    45  0.5000000000      0.6250000000       0.000000000      0.5208333333E-02    1401
    46  0.6250000000      0.6250000000       0.000000000      0.5208333333E-02    1386
    47  0.7500000000      0.6250000000       0.000000000      0.5208333333E-02    1388
    48  0.8750000000      0.6250000000       0.000000000      0.5208333333E-02    1388
    49   0.000000000      0.7500000000       0.000000000      0.5208333333E-02    1389
    50  0.1250000000      0.7500000000       0.000000000      0.5208333333E-02    1389
    51  0.2500000000      0.7500000000       0.000000000      0.5208333333E-02    1401
    52  0.3750000000      0.7500000000       0.000000000      0.5208333333E-02    1413
    53  0.5000000000      0.7500000000       0.000000000      0.5208333333E-02    1401
    54  0.6250000000      0.7500000000       0.000000000      0.5208333333E-02    1389
    55  0.7500000000      0.7500000000       0.000000000      0.5208333333E-02    1389
    56  0.8750000000      0.7500000000       0.000000000      0.5208333333E-02    1387
    57   0.000000000      0.8750000000       0.000000000      0.5208333333E-02    1382
    58  0.1250000000      0.8750000000       0.000000000      0.5208333333E-02    1385
    59  0.2500000000      0.8750000000       0.000000000      0.5208333333E-02    1391
    60  0.3750000000      0.8750000000       0.000000000      0.5208333333E-02    1395
    61  0.5000000000      0.8750000000       0.000000000      0.5208333333E-02    1395
    62  0.6250000000      0.8750000000       0.000000000      0.5208333333E-02    1391
    63  0.7500000000      0.8750000000       0.000000000      0.5208333333E-02    1385
    64  0.8750000000      0.8750000000       0.000000000      0.5208333333E-02    1382
    65   0.000000000       0.000000000      0.3333333333      0.5208333333E-02    1384
    66  0.1250000000       0.000000000      0.3333333333      0.5208333333E-02    1391
    67  0.2500000000       0.000000000      0.3333333333      0.5208333333E-02    1395
    68  0.3750000000       0.000000000      0.3333333333      0.5208333333E-02    1386
    69  0.5000000000       0.000000000      0.3333333333      0.5208333333E-02    1387
    70  0.6250000000       0.000000000      0.3333333333      0.5208333333E-02    1392
    71  0.7500000000       0.000000000      0.3333333333      0.5208333333E-02    1399
    72  0.8750000000       0.000000000      0.3333333333      0.5208333333E-02    1381
    73   0.000000000      0.1250000000      0.3333333333      0.5208333333E-02    1387
    74  0.1250000000      0.1250000000      0.3333333333      0.5208333333E-02    1378
    75  0.2500000000      0.1250000000      0.3333333333      0.5208333333E-02    1387
    76  0.3750000000      0.1250000000      0.3333333333      0.5208333333E-02    1387
    77  0.5000000000      0.1250000000      0.3333333333      0.5208333333E-02    1402
    78  0.6250000000      0.1250000000      0.3333333333      0.5208333333E-02    1400
    79  0.7500000000      0.1250000000      0.3333333333      0.5208333333E-02    1391
    80  0.8750000000      0.1250000000      0.3333333333      0.5208333333E-02    1382
    81   0.000000000      0.2500000000      0.3333333333      0.5208333333E-02    1400
    82  0.1250000000      0.2500000000      0.3333333333      0.5208333333E-02    1382
    83  0.2500000000      0.2500000000      0.3333333333      0.5208333333E-02    1387
    84  0.3750000000      0.2500000000      0.3333333333      0.5208333333E-02    1389
    85  0.5000000000      0.2500000000      0.3333333333      0.5208333333E-02    1402
    86  0.6250000000      0.2500000000      0.3333333333      0.5208333333E-02    1412
    87  0.7500000000      0.2500000000      0.3333333333      0.5208333333E-02    1399
    88  0.8750000000      0.2500000000      0.3333333333      0.5208333333E-02    1392
    89   0.000000000      0.3750000000      0.3333333333      0.5208333333E-02    1393
    90  0.1250000000      0.3750000000      0.3333333333      0.5208333333E-02    1392
    91  0.2500000000      0.3750000000      0.3333333333      0.5208333333E-02    1391
    92  0.3750000000      0.3750000000      0.3333333333      0.5208333333E-02    1395
    93  0.5000000000      0.3750000000      0.3333333333      0.5208333333E-02    1398
    94  0.6250000000      0.3750000000      0.3333333333      0.5208333333E-02    1409
    95  0.7500000000      0.3750000000      0.3333333333      0.5208333333E-02    1413
    96  0.8750000000      0.3750000000      0.3333333333      0.5208333333E-02    1402
    97   0.000000000      0.5000000000      0.3333333333      0.5208333333E-02    1404
    98  0.1250000000      0.5000000000      0.3333333333      0.5208333333E-02    1403
    99  0.2500000000      0.5000000000      0.3333333333      0.5208333333E-02    1405
   100  0.3750000000      0.5000000000      0.3333333333      0.5208333333E-02    1395
   101  0.5000000000      0.5000000000      0.3333333333      0.5208333333E-02    1404
   102  0.6250000000      0.5000000000      0.3333333333      0.5208333333E-02    1403
   103  0.7500000000      0.5000000000      0.3333333333      0.5208333333E-02    1405
   104  0.8750000000      0.5000000000      0.3333333333      0.5208333333E-02    1395
   105   0.000000000      0.6250000000      0.3333333333      0.5208333333E-02    1395
   106  0.1250000000      0.6250000000      0.3333333333      0.5208333333E-02    1398
   107  0.2500000000      0.6250000000      0.3333333333      0.5208333333E-02    1409
   108  0.3750000000      0.6250000000      0.3333333333      0.5208333333E-02    1413
   109  0.5000000000      0.6250000000      0.3333333333      0.5208333333E-02    1402
   110  0.6250000000      0.6250000000      0.3333333333      0.5208333333E-02    1393
   111  0.7500000000      0.6250000000      0.3333333333      0.5208333333E-02    1392
   112  0.8750000000      0.6250000000      0.3333333333      0.5208333333E-02    1391
   113   0.000000000      0.7500000000      0.3333333333      0.5208333333E-02    1387
   114  0.1250000000      0.7500000000      0.3333333333      0.5208333333E-02    1389
   115  0.2500000000      0.7500000000      0.3333333333      0.5208333333E-02    1402
   116  0.3750000000      0.7500000000      0.3333333333      0.5208333333E-02    1412
   117  0.5000000000      0.7500000000      0.3333333333      0.5208333333E-02    1399
   118  0.6250000000      0.7500000000      0.3333333333      0.5208333333E-02    1392
   119  0.7500000000      0.7500000000      0.3333333333      0.5208333333E-02    1400
   120  0.8750000000      0.7500000000      0.3333333333      0.5208333333E-02    1382
   121   0.000000000      0.8750000000      0.3333333333      0.5208333333E-02    1378
   122  0.1250000000      0.8750000000      0.3333333333      0.5208333333E-02    1387
   123  0.2500000000      0.8750000000      0.3333333333      0.5208333333E-02    1387
   124  0.3750000000      0.8750000000      0.3333333333      0.5208333333E-02    1402
   125  0.5000000000      0.8750000000      0.3333333333      0.5208333333E-02    1400
   126  0.6250000000      0.8750000000      0.3333333333      0.5208333333E-02    1391
   127  0.7500000000      0.8750000000      0.3333333333      0.5208333333E-02    1382
   128  0.8750000000      0.8750000000      0.3333333333      0.5208333333E-02    1387
   129   0.000000000       0.000000000      0.6666666667      0.5208333333E-02    1384
   130  0.1250000000       0.000000000      0.6666666667      0.5208333333E-02    1381
   131  0.2500000000       0.000000000      0.6666666667      0.5208333333E-02    1399
   132  0.3750000000       0.000000000      0.6666666667      0.5208333333E-02    1392
   133  0.5000000000       0.000000000      0.6666666667      0.5208333333E-02    1387
   134  0.6250000000       0.000000000      0.6666666667      0.5208333333E-02    1386
   135  0.7500000000       0.000000000      0.6666666667      0.5208333333E-02    1395
   136  0.8750000000       0.000000000      0.6666666667      0.5208333333E-02    1391
   137   0.000000000      0.1250000000      0.6666666667      0.5208333333E-02    1378
   138  0.1250000000      0.1250000000      0.6666666667      0.5208333333E-02    1387
   139  0.2500000000      0.1250000000      0.6666666667      0.5208333333E-02    1382
   140  0.3750000000      0.1250000000      0.6666666667      0.5208333333E-02    1391
   141  0.5000000000      0.1250000000      0.6666666667      0.5208333333E-02    1400
   142  0.6250000000      0.1250000000      0.6666666667      0.5208333333E-02    1402
   143  0.7500000000      0.1250000000      0.6666666667      0.5208333333E-02    1387
   144  0.8750000000      0.1250000000      0.6666666667      0.5208333333E-02    1387
   145   0.000000000      0.2500000000      0.6666666667      0.5208333333E-02    1387
   146  0.1250000000      0.2500000000      0.6666666667      0.5208333333E-02    1382
   147  0.2500000000      0.2500000000      0.6666666667      0.5208333333E-02    1400
   148  0.3750000000      0.2500000000      0.6666666667      0.5208333333E-02    1392
   149  0.5000000000      0.2500000000      0.6666666667      0.5208333333E-02    1399
   150  0.6250000000      0.2500000000      0.6666666667      0.5208333333E-02    1412
   151  0.7500000000      0.2500000000      0.6666666667      0.5208333333E-02    1402
   152  0.8750000000      0.2500000000      0.6666666667      0.5208333333E-02    1389
   153   0.000000000      0.3750000000      0.6666666667      0.5208333333E-02    1395
   154  0.1250000000      0.3750000000      0.6666666667      0.5208333333E-02    1391
   155  0.2500000000      0.3750000000      0.6666666667      0.5208333333E-02    1392
   156  0.3750000000      0.3750000000      0.6666666667      0.5208333333E-02    1393
   157  0.5000000000      0.3750000000      0.6666666667      0.5208333333E-02    1402
   158  0.6250000000      0.3750000000      0.6666666667      0.5208333333E-02    1413
   159  0.7500000000      0.3750000000      0.6666666667      0.5208333333E-02    1409
   160  0.8750000000      0.3750000000      0.6666666667      0.5208333333E-02    1398
   161   0.000000000      0.5000000000      0.6666666667      0.5208333333E-02    1404
   162  0.1250000000      0.5000000000      0.6666666667      0.5208333333E-02    1395
   163  0.2500000000      0.5000000000      0.6666666667      0.5208333333E-02    1405
   164  0.3750000000      0.5000000000      0.6666666667      0.5208333333E-02    1403
   165  0.5000000000      0.5000000000      0.6666666667      0.5208333333E-02    1404
   166  0.6250000000      0.5000000000      0.6666666667      0.5208333333E-02    1395
   167  0.7500000000      0.5000000000      0.6666666667      0.5208333333E-02    1405
   168  0.8750000000      0.5000000000      0.6666666667      0.5208333333E-02    1403
   169   0.000000000      0.6250000000      0.6666666667      0.5208333333E-02    1393
   170  0.1250000000      0.6250000000      0.6666666667      0.5208333333E-02    1402
   171  0.2500000000      0.6250000000      0.6666666667      0.5208333333E-02    1413
   172  0.3750000000      0.6250000000      0.6666666667      0.5208333333E-02    1409
   173  0.5000000000      0.6250000000      0.6666666667      0.5208333333E-02    1398
   174  0.6250000000      0.6250000000      0.6666666667      0.5208333333E-02    1395
   175  0.7500000000      0.6250000000      0.6666666667      0.5208333333E-02    1391
   176  0.8750000000      0.6250000000      0.6666666667      0.5208333333E-02    1392
   177   0.000000000      0.7500000000      0.6666666667      0.5208333333E-02    1400
   178  0.1250000000      0.7500000000      0.6666666667      0.5208333333E-02    1392
   179  0.2500000000      0.7500000000      0.6666666667      0.5208333333E-02    1399
   180  0.3750000000      0.7500000000      0.6666666667      0.5208333333E-02    1412
   181  0.5000000000      0.7500000000      0.6666666667      0.5208333333E-02    1402
   182  0.6250000000      0.7500000000      0.6666666667      0.5208333333E-02    1389
   183  0.7500000000      0.7500000000      0.6666666667      0.5208333333E-02    1387
   184  0.8750000000      0.7500000000      0.6666666667      0.5208333333E-02    1382
   185   0.000000000      0.8750000000      0.6666666667      0.5208333333E-02    1387
   186  0.1250000000      0.8750000000      0.6666666667      0.5208333333E-02    1382
   187  0.2500000000      0.8750000000      0.6666666667      0.5208333333E-02    1391
   188  0.3750000000      0.8750000000      0.6666666667      0.5208333333E-02    1400
   189  0.5000000000      0.8750000000      0.6666666667      0.5208333333E-02    1402
   190  0.6250000000      0.8750000000      0.6666666667      0.5208333333E-02    1387
   191  0.7500000000      0.8750000000      0.6666666667      0.5208333333E-02    1387
   192  0.8750000000      0.8750000000      0.6666666667      0.5208333333E-02    1378
