  0.1032367212E-01
  0.7554701845E-02
  0.2329102855E-02
  0.3503728699E-02
  0.1033435899E-03
  0.1051419021E-03
  0.1853054857E-04
  0.1215830525E-04
  0.7569724780E-05
  0.1510191129E-05
  0.2691211098E-06
  0.1356678417E-06
 
