    -304.833613720    
    -304.833780818    
    -304.830370098    
    -304.786080715    
    -304.792039154    
    -304.793372466    
    -304.793557759    
    -304.793556526    
    -304.793534807    
    -304.793520785    
    -304.793520544    
    -304.793520400    
    -304.793520278    
    -304.793520209    
 
