 -0.4694752390E-01  0.4546096795E-01 : is =    1, ia =    1, ip =    1
 -0.2043894472E-01  0.2034814502E-01 : is =    1, ia =    1, ip =    2
 -0.7298603690E-01 -0.2120798679E-01 : is =    1, ia =    1, ip =    3
  0.2335418740     -0.5769441335E-04 : is =    2, ia =    1, ip =    1
 -0.1444224060E-01 -0.1574843183E-01 : is =    2, ia =    1, ip =    2
 -0.2201742452E-01 -0.2789614054E-04 : is =    2, ia =    1, ip =    3
