  0.4800662600E-01 -0.9992208778E-04 : is =    1, ia =    1, ip =    1
  0.2439229306     -0.1315462493E-03 : is =    1, ia =    1, ip =    2
 -0.4800662599E-01  0.9992208777E-04 : is =    1, ia =    1, ip =    3
  0.6424472964E-02 -0.3572578798E-01 : is =    2, ia =    1, ip =    1
 -0.1586269080     -0.5854945965E-01 : is =    2, ia =    1, ip =    2
 -0.6424472964E-02  0.3572578798E-01 : is =    2, ia =    1, ip =    3
