  0.2503365697      0.2008968721E-07 : is =    1, ia =    1, ip =    1
  0.4894898456E-01  0.3653446608E-07 : is =    1, ia =    1, ip =    2
  0.2494210735E-07 -0.1879647608E-01 : is =    1, ia =    1, ip =    3
 -0.5563428202E-07  0.1068623285     : is =    2, ia =    1, ip =    1
 -0.1182365810E-06 -0.2984932742E-01 : is =    2, ia =    1, ip =    2
 -0.4207936893E-01 -0.9626127669E-07 : is =    2, ia =    1, ip =    3
