 -0.2465103482E-01 -0.1255105310E-01 : is =    1, ia =    1, ip =    1
  0.3249446198     -0.6152256096E-04 : is =    1, ia =    1, ip =    2
 -0.2465103482E-01 -0.1255105310E-01 : is =    1, ia =    1, ip =    3
 -0.2091100066E-01 -0.2111105760E-01 : is =    2, ia =    1, ip =    1
 -0.6616507597E-01 -0.5888169066E-01 : is =    2, ia =    1, ip =    2
 -0.2091100066E-01 -0.2111105760E-01 : is =    2, ia =    1, ip =    3
