  0.4800663803E-01  0.9986294959E-04 : is =    1, ia =    1, ip =    1
  0.2439229828      0.1315473440E-03 : is =    1, ia =    1, ip =    2
 -0.4800663808E-01 -0.9986294959E-04 : is =    1, ia =    1, ip =    3
  0.6424600687E-02  0.3572584098E-01 : is =    2, ia =    1, ip =    1
 -0.1586268997      0.5854942621E-01 : is =    2, ia =    1, ip =    2
 -0.6424600683E-02 -0.3572584097E-01 : is =    2, ia =    1, ip =    3
