  0.1964555371      0.7924192143E-09 : is =    1, ia =    1, ip =    1
  0.3535533810E-09 -0.5131207081E-04 : is =    1, ia =    1, ip =    2
   0.000000000       0.000000000     : is =    1, ia =    1, ip =    3
 -0.9096621235E-01  0.9096621064E-01 : is =    2, ia =    1, ip =    1
 -0.4692624858E-01 -0.4692625571E-01 : is =    2, ia =    1, ip =    2
   0.000000000       0.000000000     : is =    2, ia =    1, ip =    3
