  0.7289965679E-06 -0.4119135161E-01 : is =    1, ia =    1, ip =    1
 -0.7289965680E-06  0.4119135161E-01 : is =    1, ia =    1, ip =    2
 -0.9721713276E-01  0.5471920290E-06 : is =    1, ia =    1, ip =    3
 -0.1406022210E-07 -0.1731879729E-01 : is =    2, ia =    1, ip =    1
  0.1406022224E-07  0.1731879729E-01 : is =    2, ia =    1, ip =    2
  0.2475279280      0.8111160801E-08 : is =    2, ia =    1, ip =    3
