 -0.2459255505E-01  0.1253912066E-01 : is =    1, ia =    1, ip =    1
  0.2119479470E-01 -0.5306511432E-04 : is =    1, ia =    1, ip =    2
  0.2247361249     -0.7317339689E-04 : is =    1, ia =    1, ip =    3
 -0.1407762382E-01 -0.3295691100E-01 : is =    2, ia =    1, ip =    1
 -0.2160932397E-01  0.7454175211E-01 : is =    2, ia =    1, ip =    2
 -0.4512116138E-01 -0.4666436661E-01 : is =    2, ia =    1, ip =    3
