 -0.2119476463E-01  0.5307990600E-04 : is =    1, ia =    1, ip =    1
  0.2247361453     -0.7319326418E-04 : is =    1, ia =    1, ip =    2
  0.2459253839E-01 -0.1253909515E-01 : is =    1, ia =    1, ip =    3
 -0.7454187042E-01 -0.2160941173E-01 : is =    2, ia =    1, ip =    1
 -0.4666441860E-01  0.4512117832E-01 : is =    2, ia =    1, ip =    2
  0.3295679780E-01 -0.1407759524E-01 : is =    2, ia =    1, ip =    3
