  0.2119478979E-01  0.5308548036E-04 : is =    1, ia =    1, ip =    1
  0.2247361812      0.7320354292E-04 : is =    1, ia =    1, ip =    2
 -0.2459255254E-01 -0.1253909235E-01 : is =    1, ia =    1, ip =    3
 -0.2160941751E-01 -0.7454188200E-01 : is =    2, ia =    1, ip =    1
 -0.4512118838E-01  0.4666441528E-01 : is =    2, ia =    1, ip =    2
 -0.1407759218E-01  0.3295679035E-01 : is =    2, ia =    1, ip =    3
