 -0.8485281228E-09  0.5137902984E-04 : is =    1, ia =    1, ip =    1
  0.1964555006      0.6264400396E-09 : is =    1, ia =    1, ip =    2
   0.000000000       0.000000000     : is =    1, ia =    1, ip =    3
 -0.4692603361E-01  0.4692603451E-01 : is =    2, ia =    1, ip =    1
 -0.9096626586E-01 -0.9096626724E-01 : is =    2, ia =    1, ip =    2
   0.000000000       0.000000000     : is =    2, ia =    1, ip =    3
