 -0.2927934929E-01  0.5256574493E-06 : is =    1, ia =    1, ip =    1
 -0.1073848896      0.2184995456E-06 : is =    1, ia =    1, ip =    2
  0.3639162040E-06 -0.6340202545E-01 : is =    1, ia =    1, ip =    3
 -0.4387749598E-01 -0.2462420800E-06 : is =    2, ia =    1, ip =    1
  0.2444261217      0.5466945723E-07 : is =    2, ia =    1, ip =    2
 -0.1139855992E-06  0.1654434908E-01 : is =    2, ia =    1, ip =    3
