  0.2247361199      0.7320214833E-04 : is =    1, ia =    1, ip =    1
  0.2459258060E-01  0.1253911624E-01 : is =    1, ia =    1, ip =    2
 -0.2119478909E-01 -0.5305174560E-04 : is =    1, ia =    1, ip =    3
 -0.4666440710E-01 -0.4512125537E-01 : is =    2, ia =    1, ip =    1
  0.3295683912E-01  0.1407751054E-01 : is =    2, ia =    1, ip =    2
 -0.7454174146E-01  0.2160930001E-01 : is =    2, ia =    1, ip =    3
