   0.000000000       0.000000000     : is =    1, ia =    1, ip =    1
 -0.4074570961E-01  0.4074586389E-01 : is =    1, ia =    1, ip =    2
 -0.4074586389E-01 -0.4074570961E-01 : is =    1, ia =    1, ip =    3
  0.2377599892      0.4128155447E-06 : is =    2, ia =    1, ip =    1
   0.000000000       0.000000000     : is =    2, ia =    1, ip =    2
   0.000000000       0.000000000     : is =    2, ia =    1, ip =    3
