 -0.2119477818E-01 -0.5304682418E-04 : is =    1, ia =    1, ip =    1
  0.2459257973E-01  0.1253910398E-01 : is =    1, ia =    1, ip =    2
  0.2247361095      0.7319502531E-04 : is =    1, ia =    1, ip =    3
 -0.7454173971E-01  0.2160930067E-01 : is =    2, ia =    1, ip =    1
  0.3295683156E-01  0.1407750861E-01 : is =    2, ia =    1, ip =    2
 -0.4666440888E-01 -0.4512125372E-01 : is =    2, ia =    1, ip =    3
