   0.000000000       0.000000000     : is =    1, ia =    1, ip =    1
  0.1964555010      0.6667734104E-09 : is =    1, ia =    1, ip =    2
 -0.6363961164E-09  0.5137881766E-04 : is =    1, ia =    1, ip =    3
   0.000000000       0.000000000     : is =    2, ia =    1, ip =    1
 -0.9096626678E-01 -0.9096626801E-01 : is =    2, ia =    1, ip =    2
 -0.4692603460E-01  0.4692603402E-01 : is =    2, ia =    1, ip =    3
