 -0.1009078153      0.5801118835E-06 : is =    1, ia =    1, ip =    1
  0.4784683790E-01  0.3382032092E-06 : is =    1, ia =    1, ip =    2
 -0.4784683788E-01 -0.3381958819E-06 : is =    1, ia =    1, ip =    3
  0.2323158055      0.4045568014E-07 : is =    2, ia =    1, ip =    1
  0.3495356952E-01  0.1875679000E-06 : is =    2, ia =    1, ip =    2
 -0.3495356955E-01 -0.1875769268E-06 : is =    2, ia =    1, ip =    3
