 -0.4119101728E-01  0.9895557227E-06 : is =    1, ia =    1, ip =    1
  0.6746606739E-06 -0.9721731675E-01 : is =    1, ia =    1, ip =    2
 -0.4119101728E-01  0.9895557227E-06 : is =    1, ia =    1, ip =    3
 -0.3137399282E-07  0.1731948659E-01 : is =    2, ia =    1, ip =    1
  0.2475284007      0.1357340114E-06 : is =    2, ia =    1, ip =    2
 -0.3137399285E-07  0.1731948659E-01 : is =    2, ia =    1, ip =    3
