 -0.1595723367      0.5861041080E-01 : is =    1, ia =    1, ip =    1
  0.5776376022E-02  0.3498278117E-01 : is =    1, ia =    1, ip =    2
 -0.5776376003E-02 -0.3498278117E-01 : is =    1, ia =    1, ip =    3
  0.2287067062      0.1465042084E-03 : is =    2, ia =    1, ip =    1
  0.3280569709E-01  0.2648848175E-03 : is =    2, ia =    1, ip =    2
 -0.3280569710E-01 -0.2648848187E-03 : is =    2, ia =    1, ip =    3
