  0.2080792419      0.1709879279E-07 : is =    1, ia =    1, ip =    1
   0.000000000       0.000000000     : is =    1, ia =    1, ip =    2
   0.000000000       0.000000000     : is =    1, ia =    1, ip =    3
   0.000000000       0.000000000     : is =    2, ia =    1, ip =    1
 -0.5030557028E-01 -0.5030558757E-01 : is =    2, ia =    1, ip =    2
 -0.5030558757E-01  0.5030557028E-01 : is =    2, ia =    1, ip =    3
