  0.2119480477E-01 -0.5307230748E-04 : is =    1, ia =    1, ip =    1
  0.2247361345     -0.7318347995E-04 : is =    1, ia =    1, ip =    2
 -0.2459255967E-01  0.1253911777E-01 : is =    1, ia =    1, ip =    3
 -0.2160932424E-01  0.7454175277E-01 : is =    2, ia =    1, ip =    1
 -0.4512116063E-01 -0.4666436543E-01 : is =    2, ia =    1, ip =    2
 -0.1407762238E-01 -0.3295691133E-01 : is =    2, ia =    1, ip =    3
