   0.000000000       0.000000000     : is =    1, ia =    1, ip =    1
 -0.9137683367E-01  0.9137681673E-01 : is =    1, ia =    1, ip =    2
 -0.4589017029E-01 -0.4589018395E-01 : is =    1, ia =    1, ip =    3
   0.000000000       0.000000000     : is =    2, ia =    1, ip =    1
  0.2101570351      0.1463159494E-07 : is =    2, ia =    1, ip =    2
  0.7566042556E-08 -0.1456472570E-03 : is =    2, ia =    1, ip =    3
