 -0.2465103347E-01  0.1255109191E-01 : is =    1, ia =    1, ip =    1
 -0.2465103347E-01  0.1255109191E-01 : is =    1, ia =    1, ip =    2
  0.3249445929      0.6149566577E-04 : is =    1, ia =    1, ip =    3
 -0.2091097346E-01  0.2111093999E-01 : is =    2, ia =    1, ip =    1
 -0.2091097346E-01  0.2111093999E-01 : is =    2, ia =    1, ip =    2
 -0.6616511244E-01  0.5888174071E-01 : is =    2, ia =    1, ip =    3
