 -0.3498278306E-01 -0.5776379029E-02 : is =    1, ia =    1, ip =    1
 -0.5861042352E-01  0.1595723422     : is =    1, ia =    1, ip =    2
 -0.3498278306E-01 -0.5776379033E-02 : is =    1, ia =    1, ip =    3
  0.3280571716E-01 -0.2648728655E-03 : is =    2, ia =    1, ip =    1
  0.2287067527     -0.1464876104E-03 : is =    2, ia =    1, ip =    2
  0.3280571719E-01 -0.2648728687E-03 : is =    2, ia =    1, ip =    3
