 -0.2119479606E-01  0.5308646964E-04 : is =    1, ia =    1, ip =    1
 -0.2459255485E-01  0.1253908361E-01 : is =    1, ia =    1, ip =    2
  0.2247361693     -0.7319636275E-04 : is =    1, ia =    1, ip =    3
 -0.7454187832E-01 -0.2160941964E-01 : is =    2, ia =    1, ip =    1
 -0.3295680603E-01  0.1407759907E-01 : is =    2, ia =    1, ip =    2
 -0.4666442114E-01  0.4512117494E-01 : is =    2, ia =    1, ip =    3
