 -0.2119479192E-01  0.5308453692E-04 : is =    1, ia =    1, ip =    1
  0.2247361758     -0.7320032067E-04 : is =    1, ia =    1, ip =    2
 -0.2459256336E-01  0.1253909290E-01 : is =    1, ia =    1, ip =    3
 -0.7454187411E-01 -0.2160941106E-01 : is =    2, ia =    1, ip =    1
 -0.4666441659E-01  0.4512118171E-01 : is =    2, ia =    1, ip =    2
 -0.3295680616E-01  0.1407759710E-01 : is =    2, ia =    1, ip =    3
