  0.3497814241      0.6180565241E-07 : is =    1, ia =    1, ip =    1
   0.000000000       0.000000000     : is =    1, ia =    1, ip =    2
   0.000000000       0.000000000     : is =    1, ia =    1, ip =    3
 -0.1425207955      0.1425207540     : is =    2, ia =    1, ip =    1
   0.000000000       0.000000000     : is =    2, ia =    1, ip =    2
   0.000000000       0.000000000     : is =    2, ia =    1, ip =    3
