  0.2516457254     -0.5684216703E-08 : is =    1, ia =    1, ip =    1
  0.2288162097E-07 -0.1831786897E-01 : is =    1, ia =    1, ip =    2
  0.2288162086E-07 -0.1831786897E-01 : is =    1, ia =    1, ip =    3
 -0.5084700948E-08 -0.9588566810E-01 : is =    2, ia =    1, ip =    1
 -0.6501947805E-01 -0.1417965276E-08 : is =    2, ia =    1, ip =    2
 -0.6501947805E-01 -0.1417965200E-08 : is =    2, ia =    1, ip =    3
