  0.5776375994E-02  0.3498278116E-01 : is =    1, ia =    1, ip =    1
 -0.1595723368      0.5861041079E-01 : is =    1, ia =    1, ip =    2
 -0.5776375999E-02 -0.3498278115E-01 : is =    1, ia =    1, ip =    3
  0.3280569707E-01  0.2648848260E-03 : is =    2, ia =    1, ip =    1
  0.2287067062      0.1465041987E-03 : is =    2, ia =    1, ip =    2
 -0.3280569710E-01 -0.2648848281E-03 : is =    2, ia =    1, ip =    3
