 -0.4784687512E-01  0.3426773512E-06 : is =    1, ia =    1, ip =    1
 -0.4784687513E-01  0.3426719811E-06 : is =    1, ia =    1, ip =    2
  0.1009078032      0.6280639856E-06 : is =    1, ia =    1, ip =    3
  0.3495364473E-01 -0.1419275386E-06 : is =    2, ia =    1, ip =    1
  0.3495364475E-01 -0.1419376888E-06 : is =    2, ia =    1, ip =    2
  0.2323159667      0.2678864708E-07 : is =    2, ia =    1, ip =    3
