 -0.4546008530E-01 -0.4694720761E-01 : is =    1, ia =    1, ip =    1
 -0.2034840611E-01 -0.2043860078E-01 : is =    1, ia =    1, ip =    2
 -0.2120853452E-01  0.7298659278E-01 : is =    1, ia =    1, ip =    3
  0.2335417910     -0.5770884982E-04 : is =    2, ia =    1, ip =    1
 -0.1444249418E-01 -0.1574831513E-01 : is =    2, ia =    1, ip =    2
  0.2201758568E-01  0.2729280857E-04 : is =    2, ia =    1, ip =    3
