  0.2465103807E-01 -0.1255108136E-01 : is =    1, ia =    1, ip =    1
 -0.2465103807E-01  0.1255108136E-01 : is =    1, ia =    1, ip =    2
  0.3249445708      0.6148898165E-04 : is =    1, ia =    1, ip =    3
  0.2111103431E-01  0.2091086998E-01 : is =    2, ia =    1, ip =    1
 -0.2111103431E-01 -0.2091086998E-01 : is =    2, ia =    1, ip =    2
 -0.5888174407E-01 -0.6616518541E-01 : is =    2, ia =    1, ip =    3
