   0.000000000       0.000000000     : is =    1, ia =    1, ip =    1
  0.4203628751     -0.5518223186E-08 : is =    1, ia =    1, ip =    2
   0.000000000       0.000000000     : is =    1, ia =    1, ip =    3
   0.000000000       0.000000000     : is =    2, ia =    1, ip =    1
   0.000000000       0.000000000     : is =    2, ia =    1, ip =    2
   0.000000000       0.000000000     : is =    2, ia =    1, ip =    3
