 -0.3498303468E-01  0.5777310735E-02 : is =    1, ia =    1, ip =    1
 -0.3498303468E-01  0.5777310745E-02 : is =    1, ia =    1, ip =    2
 -0.5860988627E-01 -0.1595715915     : is =    1, ia =    1, ip =    3
  0.3280602960E-01  0.2646763706E-03 : is =    2, ia =    1, ip =    1
  0.3280602962E-01  0.2646763680E-03 : is =    2, ia =    1, ip =    2
  0.2287061989      0.1465553726E-03 : is =    2, ia =    1, ip =    3
