 -0.2034939514E-01  0.2043956031E-01 : is =    1, ia =    1, ip =    1
 -0.2120753154E-01 -0.7298564673E-01 : is =    1, ia =    1, ip =    2
 -0.4546002498E-01  0.4694784509E-01 : is =    1, ia =    1, ip =    3
 -0.1444239553E-01  0.1574809139E-01 : is =    2, ia =    1, ip =    1
  0.2201723973E-01 -0.2751904063E-04 : is =    2, ia =    1, ip =    2
  0.2335414315      0.5775888432E-04 : is =    2, ia =    1, ip =    3
