 -0.4894897524E-01  0.6664612474E-07 : is =    1, ia =    1, ip =    1
  0.2503365684     -0.5427790909E-07 : is =    1, ia =    1, ip =    2
 -0.4073618886E-07 -0.1879648466E-01 : is =    1, ia =    1, ip =    3
 -0.2984928148E-01 -0.1351435696E-06 : is =    2, ia =    1, ip =    1
 -0.1068623723      0.1140240390E-06 : is =    2, ia =    1, ip =    2
 -0.6788439176E-07 -0.4207935937E-01 : is =    2, ia =    1, ip =    3
