 -0.2465104926E-01  0.1255107433E-01 : is =    1, ia =    1, ip =    1
  0.3249445945      0.6148534372E-04 : is =    1, ia =    1, ip =    2
  0.2465104926E-01 -0.1255107433E-01 : is =    1, ia =    1, ip =    3
 -0.2111103574E-01 -0.2091086955E-01 : is =    2, ia =    1, ip =    1
 -0.5888174451E-01 -0.6616519030E-01 : is =    2, ia =    1, ip =    2
  0.2111103574E-01  0.2091086955E-01 : is =    2, ia =    1, ip =    3
