  0.2503191258E-07 -0.1879647850E-01 : is =    1, ia =    1, ip =    1
  0.4894899572E-01  0.4516901366E-07 : is =    1, ia =    1, ip =    2
  0.2503365809      0.2869628309E-07 : is =    1, ia =    1, ip =    3
 -0.4207936788E-01 -0.9611242182E-07 : is =    2, ia =    1, ip =    1
 -0.1192758161E-06 -0.2984932568E-01 : is =    2, ia =    1, ip =    2
 -0.5670168627E-07  0.1068623301     : is =    2, ia =    1, ip =    3
