  0.2459254423E-01 -0.1253908748E-01 : is =    1, ia =    1, ip =    1
  0.2247361768     -0.7318883172E-04 : is =    1, ia =    1, ip =    2
 -0.2119479938E-01  0.5308301813E-04 : is =    1, ia =    1, ip =    3
  0.3295681147E-01 -0.1407760445E-01 : is =    2, ia =    1, ip =    1
 -0.4666442593E-01  0.4512117630E-01 : is =    2, ia =    1, ip =    2
 -0.7454187525E-01 -0.2160943197E-01 : is =    2, ia =    1, ip =    3
