 -0.6104326097E-01  0.1226249536E-07 : is =    1, ia =    1, ip =    1
  0.2648583553     -0.2136537419E-07 : is =    1, ia =    1, ip =    2
 -0.6104326094E-01  0.1226249537E-07 : is =    1, ia =    1, ip =    3
 -0.4923059075E-01  0.3354751807E-07 : is =    2, ia =    1, ip =    1
 -0.9990056284E-01 -0.8281181096E-07 : is =    2, ia =    1, ip =    2
 -0.4923059076E-01  0.3354751810E-07 : is =    2, ia =    1, ip =    3
