 -0.5936935703E-01  0.6624608719E-01 : is =    1, ia =    1, ip =    1
  0.3241724057E-01 -0.1355587021E-01 : is =    1, ia =    1, ip =    2
 -0.3241724057E-01  0.1355587021E-01 : is =    1, ia =    1, ip =    3
  0.2770319322     -0.3987086532E-04 : is =    2, ia =    1, ip =    1
  0.1439539350E-01 -0.1566982571E-01 : is =    2, ia =    1, ip =    2
 -0.1439539350E-01  0.1566982571E-01 : is =    2, ia =    1, ip =    3
