  0.2503365679      0.4709860301E-07 : is =    1, ia =    1, ip =    1
  0.4572777368E-07 -0.1879647811E-01 : is =    1, ia =    1, ip =    2
  0.4894898281E-01  0.6357123510E-07 : is =    1, ia =    1, ip =    3
 -0.6492714498E-07  0.1068623298     : is =    2, ia =    1, ip =    1
 -0.4207936888E-01 -0.9289573602E-07 : is =    2, ia =    1, ip =    2
 -0.1275001859E-06 -0.2984932600E-01 : is =    2, ia =    1, ip =    3
