 -0.6044774517E-06  0.2927940499E-01 : is =    1, ia =    1, ip =    1
  0.2603920791E-06 -0.1073848772     : is =    1, ia =    1, ip =    2
 -0.6340207396E-01  0.3547737808E-06 : is =    1, ia =    1, ip =    3
  0.4387762736E-01 -0.2393044593E-06 : is =    2, ia =    1, ip =    1
  0.2444263105      0.4912083181E-07 : is =    2, ia =    1, ip =    2
 -0.4424727697E-07 -0.1654430068E-01 : is =    2, ia =    1, ip =    3
