 -0.4075205167E-01 -0.4075403484E-01 : is =    1, ia =    1, ip =    1
 -0.4075403484E-01  0.4075205167E-01 : is =    1, ia =    1, ip =    2
   0.000000000       0.000000000     : is =    1, ia =    1, ip =    3
   0.000000000       0.000000000     : is =    2, ia =    1, ip =    1
   0.000000000       0.000000000     : is =    2, ia =    1, ip =    2
  0.2377542525     -0.2035731867E-05 : is =    2, ia =    1, ip =    3
