  0.2247361686      0.7319221463E-04 : is =    1, ia =    1, ip =    1
 -0.2459253904E-01 -0.1253910130E-01 : is =    1, ia =    1, ip =    2
  0.2119478782E-01  0.5308009419E-04 : is =    1, ia =    1, ip =    3
 -0.4512118105E-01  0.4666442202E-01 : is =    2, ia =    1, ip =    1
 -0.1407759449E-01  0.3295679320E-01 : is =    2, ia =    1, ip =    2
 -0.2160942551E-01 -0.7454188400E-01 : is =    2, ia =    1, ip =    3
