   0.000000000      0.1901017473E-01 : is =    1, ia =    1, ip =    1
  0.2478135293       0.000000000     : is =    1, ia =    1, ip =    2
 -0.4901446732E-01   0.000000000     : is =    1, ia =    1, ip =    3
   0.000000000      0.4100612984E-01 : is =    2, ia =    1, ip =    1
 -0.1075110239       0.000000000     : is =    2, ia =    1, ip =    2
 -0.2979580508E-01   0.000000000     : is =    2, ia =    1, ip =    3
