   0.000000000       0.000000000     : is =    1, ia =    1, ip =    1
 -0.1905687818       0.000000000     : is =    1, ia =    1, ip =    2
   0.000000000       0.000000000     : is =    1, ia =    1, ip =    3
   0.000000000       0.000000000     : is =    2, ia =    1, ip =    1
  0.1905687818       0.000000000     : is =    2, ia =    1, ip =    2
   0.000000000       0.000000000     : is =    2, ia =    1, ip =    3
