   0.000000000     -0.6613992278E-01 : is =    1, ia =    1, ip =    1
 -0.1056293167       0.000000000     : is =    1, ia =    1, ip =    2
 -0.2830711799E-01   0.000000000     : is =    1, ia =    1, ip =    3
   0.000000000      0.1736752216E-01 : is =    2, ia =    1, ip =    1
  0.2439026012       0.000000000     : is =    2, ia =    1, ip =    2
 -0.4291603020E-01   0.000000000     : is =    2, ia =    1, ip =    3
