  0.2364255647E-01  0.2226279782E-01 : is =    1, ia =    1, ip =    1
 -0.7349887933E-01  0.1907090588E-01 : is =    1, ia =    1, ip =    2
 -0.4603840829E-01 -0.4454137608E-01 : is =    1, ia =    1, ip =    3
  0.1351065174E-01 -0.1612611314E-01 : is =    2, ia =    1, ip =    1
 -0.2279986413E-01 -0.7127066238E-03 : is =    2, ia =    1, ip =    2
  0.2321037944      0.2684882907E-03 : is =    2, ia =    1, ip =    3
