   0.000000000       0.000000000     : is =    1, ia =    1, ip =    1
  0.1953359296       0.000000000     : is =    1, ia =    1, ip =    2
   0.000000000     -0.7466585444E-05 : is =    1, ia =    1, ip =    3
   0.000000000       0.000000000     : is =    2, ia =    1, ip =    1
 -0.9136114399E-01 -0.9136114399E-01 : is =    2, ia =    1, ip =    2
 -0.4651437603E-01  0.4651437603E-01 : is =    2, ia =    1, ip =    3
