  0.2801528099       0.000000000     : is =    1, ia =    1, ip =    1
   0.000000000       0.000000000     : is =    1, ia =    1, ip =    2
   0.000000000      0.1386284434E-01 : is =    1, ia =    1, ip =    3
   0.000000000       0.000000000     : is =    2, ia =    1, ip =    1
 -0.4104641523E-01  0.4104641523E-01 : is =    2, ia =    1, ip =    2
   0.000000000       0.000000000     : is =    2, ia =    1, ip =    3
