   0.000000000       0.000000000     : is =    1, ia =    1, ip =    1
 -0.4832741527E-01  0.4832741527E-01 : is =    1, ia =    1, ip =    2
   0.000000000       0.000000000     : is =    1, ia =    1, ip =    3
   0.000000000     -0.3119202917E-01 : is =    2, ia =    1, ip =    1
   0.000000000       0.000000000     : is =    2, ia =    1, ip =    2
  0.2649043622       0.000000000     : is =    2, ia =    1, ip =    3
