  0.4911921235E-01  0.1482674118E-03 : is =    1, ia =    1, ip =    1
  0.2410608759      0.3194844435E-05 : is =    1, ia =    1, ip =    2
 -0.4911921235E-01 -0.1482674118E-03 : is =    1, ia =    1, ip =    3
  0.6383412495E-02  0.3469744529E-01 : is =    2, ia =    1, ip =    1
 -0.1593438717      0.5815901148E-01 : is =    2, ia =    1, ip =    2
 -0.6383412495E-02 -0.3469744529E-01 : is =    2, ia =    1, ip =    3
