 -0.1002015058       0.000000000     : is =    1, ia =    1, ip =    1
   0.000000000     -0.4029592904E-01 : is =    1, ia =    1, ip =    2
   0.000000000      0.4029592904E-01 : is =    1, ia =    1, ip =    3
  0.2460041706       0.000000000     : is =    2, ia =    1, ip =    1
   0.000000000     -0.1752312858E-01 : is =    2, ia =    1, ip =    2
   0.000000000      0.1752312858E-01 : is =    2, ia =    1, ip =    3
