 
Species :    1 (C)
 atom    1 is equivalent to atom(s)
   1   3
 atom    2 is equivalent to atom(s)
   2
 atom    3 is equivalent to atom(s)
   1   3
 atom    4 is equivalent to atom(s)
   4
 atom    5 is equivalent to atom(s)
   5
 atom    6 is equivalent to atom(s)
   6   8
 atom    7 is equivalent to atom(s)
   7
 atom    8 is equivalent to atom(s)
   6   8
