================================================================================
| EXCITING NITROGEN-13 started                                                 =
| version hash id: de0c1dba9f665d6c60514aa9e8bf40326ac9f394                    =
|                                                                              =
|                                                                              =
| Date (DD-MM-YYYY) : 04-05-2022                                               =
| Time (hh:mm:ss)   : 16:10:05                                                 =
|                                                                              =
| All units are atomic (Hartree, Bohr, etc.)                                   =
================================================================================
 
********************************************************************************
* Ground-state run resuming from STATE.OUT                                     *
********************************************************************************
 
++++++++++++++++++++++++++++++++++++++++++++++++++++++++++++++++++++++++++++++++
+ Starting initialization                                                      +
++++++++++++++++++++++++++++++++++++++++++++++++++++++++++++++++++++++++++++++++
 
 Lattice vectors (cartesian) :
     -3.3759957000      0.0000000000      3.3759957000
      0.0000000000     -6.7519914000      0.0000000000
     -6.7519914000      0.0000000000     -6.7519914000
 
 Reciprocal lattice vectors (cartesian) :
     -0.9305677296      0.0000000000      0.9305677296
      0.0000000000     -0.9305677296      0.0000000000
     -0.4652838648      0.0000000000     -0.4652838648
 
 Unit cell volume                           :     307.8191548003
 Brillouin zone volume                      :       0.8058309874
 
 Species :    1 (C)
     parameters loaded from                 :    C.xml
     name                                   :    carbon
     nuclear charge                         :      -6.00000000
     electronic charge                      :       6.00000000
     atomic mass                            :   21894.16673000
     muffin-tin radius                      :       1.25000000
     # of radial points in muffin-tin       :     250
 
     atomic positions (lattice) :
       1 :   0.99940758  0.00000000  0.99970379
       2 :   0.50000000  0.50000000  0.75000000
       3 :   0.00059242  0.00000000  0.50029621
       4 :   0.50000000  0.50000000  0.25000000
       5 :   0.00000000  0.75000000  0.75000000
       6 :   0.50000000  0.25000000  0.50000000
       7 :   0.00000000  0.75000000  0.25000000
       8 :   0.50000000  0.25000000  0.00000000
 
 Total number of atoms per unit cell        :       8
 
 Spin treatment                             :    spin-unpolarised
 
 Number of Bravais lattice symmetries       :       8
 Number of crystal symmetries               :       2
 
 Sphere radius used for k-point grid density:      33.42065234
 
 k-point grid                               :       8    5    4
 Total number of k-points                   :      90
 k-point set is reduced with crystal symmetries
 
 R^MT_min * |G+k|_max (rgkmax)              :       8.00000000
 Species with R^MT_min                      :       1 (C)
 Maximum |G+k| for APW functions            :       6.40000000
 Maximum |G| for potential and density      :      16.00000000
 
 G-vector grid sizes                        :      25    36    50
 Total number of G-vectors                  :   21203
 
 Maximum angular momentum used for
     APW functions                          :       8
     computing H and O matrix elements      :       8
     potential and density                  :       8
     inner part of muffin-tin               :       2
 
 Total nuclear charge                       :     -48.00000000
 Total electronic charge                    :      48.00000000
 Total core charge                          :      16.00000000
 Total valence charge                       :      32.00000000
 
 Number of empty states                     :      20
 Total number of valence states             :      37
 
 Maximum Hamiltonian size                   :    1438
 Maximum number of plane-waves              :    1406
 Total number of local-orbitals             :      32
 
 Exchange-correlation type                  :      20
     Perdew-Burke-Ernzerhof, Phys. Rev. Lett. 77, 3865 (1996)
     Generalised gradient approximation (GGA)
 
 Smearing scheme                            :    Gaussian
 Smearing width                             :       0.00010000
 
 Using multisecant Broyden potential mixing
 
++++++++++++++++++++++++++++++++++++++++++++++++++++++++++++++++++++++++++++++++
+ Ending initialization                                                        +
++++++++++++++++++++++++++++++++++++++++++++++++++++++++++++++++++++++++++++++++
 
********************************************************************************
* Groundstate module started                                                   *
********************************************************************************
 Output level for this task is set to normal
 
++++++++++++++++++++++++++++++++++++++++++++++++++++++++++++++++++++++++++++++++
+ Self-consistent loop started                                                 +
++++++++++++++++++++++++++++++++++++++++++++++++++++++++++++++++++++++++++++++++
 Supercell potential constructed from STATE.OUT
 
 
++++++++++++++++++++++++++++++++++++++++++++++++++++++++++++++++++++++++++++++++
+ SCF iteration number :    1                                                  +
++++++++++++++++++++++++++++++++++++++++++++++++++++++++++++++++++++++++++++++++
 Total energy                               :      -304.83227782
 _______________________________________________________________
 Fermi energy                               :         0.51540337
 Kinetic energy                             :       303.52147393
 Coulomb energy                             :      -564.94356951
 Exchange energy                            :       -41.63100191
 Correlation energy                         :        -1.77918033
 
 DOS at Fermi energy (states/Ha/cell)       :         0.00000000
 
 Electron charges :
     core                                   :        16.00000000
     core leakage                           :         0.00340894
     valence                                :        32.00000000
     interstitial                           :        17.97918985
     charge in muffin-tin spheres :
                  atom     1     C          :         3.75273400
                  atom     2     C          :         3.75273182
                  atom     3     C          :         3.75273400
                  atom     4     C          :         3.75243829
                  atom     5     C          :         3.75326270
                  atom     6     C          :         3.75251181
                  atom     7     C          :         3.75188571
                  atom     8     C          :         3.75251181
     total charge in muffin-tins            :        30.02081015
     total charge                           :        48.00000000
 
 Estimated fundamental gap                  :         0.15054533
        valence-band maximum at    1      0.0000  0.0000  0.0000
     conduction-band minimum at   29      0.3750  0.0000  0.2500
 
 Wall time (seconds)                        :        71.48
 
++++++++++++++++++++++++++++++++++++++++++++++++++++++++++++++++++++++++++++++++
+ SCF iteration number :    2                                                  +
++++++++++++++++++++++++++++++++++++++++++++++++++++++++++++++++++++++++++++++++
