   2 : nsymcrys
 
Crystal symmetry, Bravais symmetry :    1   1
 inverse operations		     :    1   1
 spatial rotation and inverse (lattice coordinates):
   1   0   0        1   0   0
   0   1   0        0   1   0
   0   0   1        0   0   1
 spatial rotation and inverse (Cartesian coordinates):
   1.000000000       0.000000000       0.000000000            1.000000000       0.000000000       0.000000000    
   0.000000000       1.000000000       0.000000000            0.000000000       1.000000000       0.000000000    
   0.000000000       0.000000000       1.000000000            0.000000000       0.000000000       1.000000000    
 spatial translation and inverse (lattice coordinates) :
   0.000000000       0.000000000       0.000000000            0.000000000       0.000000000       0.000000000    
 spatial translation and inverse (Cartesian coordinates) :
   0.000000000       0.000000000       0.000000000            0.000000000       0.000000000       0.000000000    
 global spin rotation and inverse (lattice coordinates) :
   1   0   0        1   0   0
   0   1   0        0   1   0
   0   0   1        0   0   1
 global spin rotation and inverse (Cartesian coordinates) :
   1.000000000       0.000000000       0.000000000            1.000000000       0.000000000       0.000000000    
   0.000000000       1.000000000       0.000000000            0.000000000       1.000000000       0.000000000    
   0.000000000       0.000000000       1.000000000            0.000000000       0.000000000       1.000000000    
 
Crystal symmetry, Bravais symmetry :    2   3
 inverse operations		     :    2   3
 spatial rotation and inverse (lattice coordinates):
  -1   0   0       -1   0   0
   0   1   0        0   1   0
   0   0  -1        0   0  -1
 spatial rotation and inverse (Cartesian coordinates):
  -1.000000000       0.000000000       0.000000000           -1.000000000       0.000000000       0.000000000    
   0.000000000       1.000000000       0.000000000            0.000000000       1.000000000       0.000000000    
   0.000000000       0.000000000      -1.000000000            0.000000000       0.000000000      -1.000000000    
 spatial translation and inverse (lattice coordinates) :
   0.000000000       0.000000000      0.5000000000            0.000000000       0.000000000      0.5000000000    
 spatial translation and inverse (Cartesian coordinates) :
  -3.375995700       0.000000000      -3.375995700           -3.375995700       0.000000000      -3.375995700    
 global spin rotation and inverse (lattice coordinates) :
   1   0   0        1   0   0
   0   1   0        0   1   0
   0   0   1        0   0   1
 global spin rotation and inverse (Cartesian coordinates) :
   1.000000000       0.000000000       0.000000000            1.000000000       0.000000000       0.000000000    
   0.000000000       1.000000000       0.000000000            0.000000000       1.000000000       0.000000000    
   0.000000000       0.000000000       1.000000000            0.000000000       0.000000000       1.000000000    
